Join_Count,TARGET_FID,FID_,Catchmt,RepReg,AUSGMCAS,Longitude,Latitude,Id,pplong,pplat,Lat,Long,Climate
1,0,0,SC #4,Daintree,Daintree,1428589.07189000000,-1766026.98685000000,40277,145.30000000000,-15.90000000000,1590,14530,1590_14530
1,1,1,SC #35,Daintree,Daintree,1417337.67148000000,-1769667.43751000000,40615,145.20000000000,-15.95000000000,1595,14520,1595_14520
1,2,2,SC #1,Daintree,Daintree,1435145.04275000000,-1768680.72630000000,40618,145.35000000000,-15.95000000000,1595,14535,1595_14535
1,3,3,SC #5,Daintree,Daintree,1428655.70923000000,-1771844.25523000000,40617,145.30000000000,-15.95000000000,1595,14530,1595_14530
1,4,4,SC #34,Daintree,Daintree,1407448.87819000000,-1772047.23683000000,40953,145.10000000000,-16.00000000000,1600,14510,1600_14510
1,5,5,SC #90488,Daintree,Daintree,1442601.38008000000,-1781507.46706000000,41300,145.45000000000,-16.05000000000,1605,14545,1605_14545
1,6,6,SC #2,Daintree,Daintree,1437197.82450000000,-1774874.45798000000,40959,145.40000000000,-16.00000000000,1600,14540,1600_14540
1,7,7,SC #3,Daintree,Daintree,1432887.09520000000,-1770520.79142000000,40618,145.35000000000,-15.95000000000,1595,14535,1595_14535
1,8,8,SC #9,Daintree,Daintree,1420638.76373000000,-1776426.99272000000,40955,145.20000000000,-16.00000000000,1600,14520,1600_14520
1,9,9,SC #33,Daintree,Daintree,1410557.29162000000,-1777889.14957000000,41294,145.15000000000,-16.05000000000,1605,14515,1605_14515
1,10,10,SC #7,Daintree,Daintree,1427200.36023000000,-1775583.03874000000,40957,145.30000000000,-16.00000000000,1600,14530,1600_14530
1,11,11,SC #6,Daintree,Daintree,1435128.05644000000,-1782961.45580000000,41298,145.35000000000,-16.05000000000,1605,14535,1605_14535
1,12,12,SC #8,Daintree,Daintree,1428660.58740000000,-1782202.30255000000,41297,145.30000000000,-16.05000000000,1605,14530,1605_14530
1,13,13,SC #20,Daintree,Daintree,1421757.57729000000,-1782822.22386000000,41296,145.25000000000,-16.05000000000,1605,14525,1605_14525
1,14,14,SC #23,Daintree,Daintree,1415608.39799000000,-1782800.27241000000,41295,145.20000000000,-16.05000000000,1605,14520,1605_14520
1,15,15,SC #24,Daintree,Daintree,1409855.96084000000,-1785662.04329000000,41634,145.15000000000,-16.10000000000,1610,14515,1610_14515
1,16,16,SC #19,Daintree,Daintree,1423176.20046000000,-1788477.42249000000,41636,145.25000000000,-16.10000000000,1610,14525,1610_14525
1,17,17,SC #21,Daintree,Daintree,1417728.59454000000,-1784066.65606000000,41635,145.20000000000,-16.10000000000,1610,14520,1610_14520
1,18,18,SC #22,Daintree,Daintree,1416287.76155000000,-1789943.30908000000,41975,145.20000000000,-16.15000000000,1615,14520,1615_14520
1,19,19,SC #30,Daintree,Daintree,1406077.65629000000,-1789952.64437000000,41973,145.10000000000,-16.15000000000,1615,14510,1615_14510
1,20,20,SC #36,Daintree,Daintree,1431135.06148000000,-1794011.35901000000,41978,145.35000000000,-16.15000000000,1615,14535,1615_14535
1,21,21,SC #32,Daintree,Daintree,1397459.69476000000,-1791681.37931000000,41971,145.00000000000,-16.15000000000,1615,14500,1615_14500
1,22,22,SC #10,Daintree,Daintree,1439055.24864000000,-1791823.36527000000,41979,145.40000000000,-16.15000000000,1615,14540,1615_14540
1,23,23,SC #25,Daintree,Daintree,1410563.06967000000,-1793223.78627000000,41974,145.15000000000,-16.15000000000,1615,14515,1615_14515
1,24,24,SC #423,Daintree,Daintree,1421473.55505000000,-1795022.26097000000,42316,145.25000000000,-16.20000000000,1620,14525,1620_14525
1,25,25,SC #31,Daintree,Daintree,1401811.78147000000,-1794284.77802000000,42312,145.05000000000,-16.20000000000,1620,14505,1620_14505
1,26,26,SC #11,Daintree,Daintree,1438386.84940000000,-1796899.47887000000,42319,145.40000000000,-16.20000000000,1620,14540,1620_14540
1,27,27,SC #26,Daintree,Daintree,1414891.13735000000,-1796622.17826000000,42315,145.20000000000,-16.20000000000,1620,14520,1620_14520
1,28,28,SC #18,Daintree,Daintree,1424328.77454000000,-1800432.16295000000,42657,145.30000000000,-16.25000000000,1625,14530,1625_14530
1,29,29,SC #29,Daintree,Daintree,1405484.46496000000,-1799239.97936000000,42653,145.10000000000,-16.25000000000,1625,14510,1625_14510
1,30,30,SC #27,Daintree,Daintree,1416101.75607000000,-1802693.46788000000,42655,145.20000000000,-16.25000000000,1625,14520,1625_14520
1,31,31,SC #28,Daintree,Daintree,1411959.91991000000,-1808614.53001000000,42994,145.15000000000,-16.30000000000,1630,14515,1630_14515
1,32,32,SC #90489,Daintree,Daintree,1441495.42636000000,-1803736.67742000000,42660,145.45000000000,-16.25000000000,1625,14545,1625_14545
1,33,33,SC #12,Daintree,Daintree,1435720.94166000000,-1806494.62149000000,42659,145.40000000000,-16.25000000000,1625,14540,1625_14540
1,34,34,SC #14,Daintree,Daintree,1428871.52875000000,-1802821.64708000000,42658,145.35000000000,-16.25000000000,1625,14535,1625_14535
1,35,35,SC #13,Daintree,Daintree,1430224.15184000000,-1809170.71536000000,42998,145.35000000000,-16.30000000000,1630,14535,1630_14535
1,36,36,SC #15,Daintree,Daintree,1427019.56972000000,-1805132.72464000000,42657,145.30000000000,-16.25000000000,1625,14530,1625_14530
1,37,37,SC #17,Daintree,Daintree,1419662.78278000000,-1808148.09670000000,42996,145.25000000000,-16.30000000000,1630,14525,1630_14525
1,38,38,SC #16,Daintree,Daintree,1422063.24763000000,-1813955.91931000000,43336,145.25000000000,-16.35000000000,1635,14525,1635_14525
1,39,39,SC #90490,Daintree,Daintree,1437597.47862000000,-1814382.89625000000,43339,145.40000000000,-16.35000000000,1635,14540,1635_14540
1,40,40,SC #38,Daintree,Daintree,1429797.14374000000,-1816622.08444000000,43338,145.35000000000,-16.35000000000,1635,14535,1635_14535
1,41,41,SC #37,Daintree,Daintree,1435119.13155000000,-1819803.43938000000,43679,145.40000000000,-16.40000000000,1640,14540,1640_14540
1,42,42,SC #39,Daintree,Daintree,1427550.95919000000,-1822260.74295000000,43678,145.35000000000,-16.40000000000,1640,14535,1640_14535
1,43,43,SC #42,Mossman,Mossman,1423109.17730000000,-1826046.15529000000,44017,145.30000000000,-16.45000000000,1645,14530,1645_14530
1,44,44,SC #90491,Daintree,Daintree,1433293.84694000000,-1822215.32775000000,43679,145.40000000000,-16.40000000000,1640,14540,1640_14540
1,45,45,SC #40,Mossman,Mossman,1432233.30921000000,-1824839.30213000000,44019,145.40000000000,-16.45000000000,1645,14540,1645_14540
1,46,46,SC #90492,Mossman,Mossman,1438050.23733000000,-1832589.17660000000,44360,145.45000000000,-16.50000000000,1650,14545,1650_14545
1,47,47,SC #424,Mossman,Mossman,1431926.96384000000,-1826246.39493000000,44019,145.40000000000,-16.45000000000,1645,14540,1645_14540
1,48,48,SC #41,Mossman,Mossman,1433701.85813000000,-1832278.15888000000,44359,145.40000000000,-16.50000000000,1650,14540,1650_14540
1,49,49,SC #425,Mossman,Mossman,1431090.14714000000,-1832939.06768000000,44359,145.40000000000,-16.50000000000,1650,14540,1650_14540
1,50,50,SC #486,Mossman,Mossman,1425508.62018000000,-1833354.70627000000,44357,145.30000000000,-16.50000000000,1650,14530,1650_14530
1,51,51,SC #45,Mossman,Mossman,1436484.92845000000,-1841851.90195000000,45040,145.45000000000,-16.60000000000,1660,14545,1660_14545
1,52,52,SC #43,Mossman,Mossman,1441855.13614000000,-1838679.29997000000,44701,145.50000000000,-16.55000000000,1655,14550,1655_14550
1,53,53,SC #90509,Mossman,Mossman,1445683.25017000000,-1846972.70388000000,45381,145.50000000000,-16.65000000000,1665,14550,1665_14550
1,54,54,SC #44,Mossman,Mossman,1441785.87920000000,-1844710.76129000000,45041,145.50000000000,-16.60000000000,1660,14550,1660_14550
1,55,55,SC #90493,Mossman,Mossman,1455399.58810000000,-1860236.09214000000,46064,145.65000000000,-16.75000000000,1675,14565,1675_14565
1,56,56,SC #90,Barron,Barron,1442785.58083000000,-1855355.54895000000,45721,145.50000000000,-16.70000000000,1670,14550,1670_14550
1,57,57,SC #91,Barron,Barron,1449005.05471000000,-1859244.61204000000,46062,145.55000000000,-16.75000000000,1675,14555,1675_14555
1,58,58,SC #61,Barron,Barron,1434107.32722000000,-1860275.44675000000,46060,145.45000000000,-16.75000000000,1675,14545,1675_14545
1,59,59,SC #435,Barron,Barron,1443777.83928000000,-1861293.74471000000,46061,145.50000000000,-16.75000000000,1675,14550,1675_14550
1,60,60,SC #401,Barron,Barron,1454335.80040000000,-1862199.17571000000,46063,145.60000000000,-16.75000000000,1675,14560,1675_14560
1,61,61,SC #62,Barron,Barron,1438321.66558000000,-1862462.65023000000,46060,145.45000000000,-16.75000000000,1675,14545,1675_14545
1,62,62,SC #89,Barron,Barron,1442635.61115000000,-1865132.09821000000,46401,145.50000000000,-16.80000000000,1680,14550,1680_14550
1,63,63,SC #415,Barron,Barron,1449532.77816000000,-1867933.11461000000,46403,145.60000000000,-16.80000000000,1680,14560,1680_14560
1,64,64,SC #413,Barron,Barron,1454414.73939000000,-1868259.88720000000,46404,145.65000000000,-16.80000000000,1680,14565,1680_14565
1,65,65,SC #396,Barron,Barron,1434639.28623000000,-1866482.12974000000,46400,145.45000000000,-16.80000000000,1680,14545,1680_14545
1,66,66,SC #57,Barron,Barron,1440185.20954000000,-1869629.54846000000,46741,145.50000000000,-16.85000000000,1685,14550,1685_14550
1,67,67,SC #428,Barron,Barron,1432900.35423000000,-1873421.25050000000,47080,145.45000000000,-16.90000000000,1690,14545,1690_14545
1,68,68,SC #49,Barron,Barron,1444239.46764000000,-1867859.96404000000,46402,145.55000000000,-16.80000000000,1680,14555,1680_14555
1,69,69,SC #60,Barron,Barron,1436629.94453000000,-1868541.29785000000,46740,145.45000000000,-16.85000000000,1685,14545,1685_14545
1,70,70,SC #90514,Barron,Barron,1461542.14917000000,-1870956.79868000000,46745,145.70000000000,-16.85000000000,1685,14570,1685_14570
1,71,71,SC #397,Barron,Barron,1445734.19965000000,-1869821.53427000000,46742,145.55000000000,-16.85000000000,1685,14555,1685_14555
1,72,72,SC #50,Barron,Barron,1441902.78305000000,-1868680.21477000000,46741,145.50000000000,-16.85000000000,1685,14550,1685_14550
1,73,73,SC #63,Barron,Barron,1434669.78919000000,-1871216.96547000000,46740,145.45000000000,-16.85000000000,1685,14545,1685_14545
1,74,74,SC #399,Barron,Barron,1456429.70292000000,-1874760.86520000000,46744,145.65000000000,-16.85000000000,1685,14565,1685_14565
1,75,75,SC #59,Barron,Barron,1436258.25387000000,-1871389.72850000000,46740,145.45000000000,-16.85000000000,1685,14545,1685_14545
1,76,76,SC #414,Barron,Barron,1444812.05631000000,-1871069.74886000000,46742,145.55000000000,-16.85000000000,1685,14555,1685_14555
1,77,77,SC #58,Barron,Barron,1439291.54151000000,-1876197.93088000000,47081,145.50000000000,-16.90000000000,1690,14550,1690_14550
1,78,78,SC #46,Barron,Barron,1465081.64236000000,-1875273.63784000000,46746,145.75000000000,-16.85000000000,1685,14575,1685_14575
1,79,79,SC #51,Barron,Barron,1448401.68817000000,-1874482.24115000000,46743,145.60000000000,-16.85000000000,1685,14560,1685_14560
1,80,80,SC #52,Barron,Barron,1443917.11739000000,-1874732.10752000000,47082,145.55000000000,-16.90000000000,1690,14555,1690_14555
1,81,81,SC #48,Barron,Barron,1459739.07077000000,-1875166.50249000000,46745,145.70000000000,-16.85000000000,1685,14570,1685_14570
1,82,82,SC #54,Barron,Barron,1453490.41112000000,-1879183.79266000000,47084,145.65000000000,-16.90000000000,1690,14565,1690_14565
1,83,83,SC #47,Barron,Barron,1461797.26999000000,-1876079.08792000000,46745,145.70000000000,-16.85000000000,1685,14570,1685_14570
1,84,84,SC #400,Barron,Barron,1460181.73350000000,-1880331.94567000000,47085,145.70000000000,-16.90000000000,1690,14570,1690_14570
1,85,85,SC #53,Barron,Barron,1446406.01767000000,-1878835.46640000000,47082,145.55000000000,-16.90000000000,1690,14555,1690_14555
1,86,86,SC #56,Barron,Barron,1443616.56712000000,-1877753.80018000000,47082,145.55000000000,-16.90000000000,1690,14555,1690_14555
1,87,87,SC #90510,Mulgrave-Russell,Mulgrave-Russell,1482399.30226000000,-1882179.47260000000,47089,145.90000000000,-16.90000000000,1690,14590,1690_14590
1,88,88,SC #427,Barron,Barron,1448123.18461000000,-1880288.77993000000,47083,145.60000000000,-16.90000000000,1690,14560,1690_14560
1,89,89,SC #90511,Mulgrave-Russell,Mulgrave-Russell,1473887.53393000000,-1885856.22273000000,47428,145.85000000000,-16.95000000000,1695,14585,1695_14585
1,90,90,SC #402,Barron,Barron,1445354.03908000000,-1885414.54539000000,47422,145.55000000000,-16.95000000000,1695,14555,1695_14555
1,91,91,SC #92,Mulgrave-Russell,Mulgrave-Russell,1465256.43882000000,-1882887.45778000000,47426,145.75000000000,-16.95000000000,1695,14575,1695_14575
1,92,92,SC #64,Barron,Barron,1436904.61884000000,-1882437.08451000000,47421,145.50000000000,-16.95000000000,1695,14550,1695_14550
1,93,93,SC #65,Barron,Barron,1430724.03319000000,-1880430.28976000000,47419,145.40000000000,-16.95000000000,1695,14540,1695_14540
1,94,94,SC #55,Barron,Barron,1452272.18708000000,-1883667.09837000000,47423,145.60000000000,-16.95000000000,1695,14560,1695_14560
1,95,95,SC #66,Barron,Barron,1439209.90536000000,-1888890.58493000000,47761,145.50000000000,-17.00000000000,1700,14550,1700_14550
1,96,96,SC #67,Barron,Barron,1431718.33639000000,-1881028.99842000000,47420,145.45000000000,-16.95000000000,1695,14545,1695_14545
1,97,97,SC #410,Barron,Barron,1430766.99391000000,-1883373.16661000000,47419,145.40000000000,-16.95000000000,1695,14540,1695_14540
1,98,98,SC #462,Barron,Barron,1457894.86516000000,-1885473.53450000000,47425,145.70000000000,-16.95000000000,1695,14570,1695_14570
1,99,99,SC #426,Barron,Barron,1459651.59550000000,-1884163.63093000000,47425,145.70000000000,-16.95000000000,1695,14570,1695_14570
1,100,100,SC #94,Mulgrave-Russell,Mulgrave-Russell,1481068.93615000000,-1886732.81824000000,47429,145.90000000000,-16.95000000000,1695,14590,1695_14590
1,101,101,SC #86,Barron,Barron,1429795.97809000000,-1887724.25332000000,47759,145.40000000000,-17.00000000000,1700,14540,1700_14540
1,102,102,SC #68,Barron,Barron,1434480.67149000000,-1887386.95917000000,47760,145.45000000000,-17.00000000000,1700,14545,1700_14545
1,103,103,SC #398,Barron,Barron,1431643.69509000000,-1886305.21070000000,47760,145.45000000000,-17.00000000000,1700,14545,1700_14545
1,104,104,SC #411,Barron,Barron,1429284.20605000000,-1885903.31073000000,47759,145.40000000000,-17.00000000000,1700,14540,1700_14540
1,105,105,SC #87,Barron,Barron,1423550.80058000000,-1889013.17004000000,48098,145.35000000000,-17.05000000000,1705,14535,1705_14535
1,106,106,SC #88,Barron,Barron,1428075.13300000000,-1894018.22983000000,48099,145.40000000000,-17.05000000000,1705,14540,1705_14540
1,107,107,SC #403,Barron,Barron,1448984.09259000000,-1890864.09178000000,47763,145.60000000000,-17.00000000000,1700,14560,1700_14560
1,108,108,SC #90495,Mulgrave-Russell,Mulgrave-Russell,1465551.76171000000,-1888092.49929000000,47766,145.75000000000,-17.00000000000,1700,14575,1700_14575
1,109,109,SC #461,Barron,Barron,1456986.08713000000,-1890195.47902000000,47764,145.65000000000,-17.00000000000,1700,14565,1700_14565
1,110,110,SC #460,Barron,Barron,1457467.53325000000,-1887237.71340000000,47764,145.65000000000,-17.00000000000,1700,14565,1700_14565
1,111,111,SC #429,Barron,Barron,1431304.28449000000,-1889228.17070000000,47760,145.45000000000,-17.00000000000,1700,14545,1700_14545
1,112,112,SC #456,Barron,Barron,1457811.44810000000,-1887669.14979000000,47765,145.70000000000,-17.00000000000,1700,14570,1700_14570
1,113,113,SC #69,Barron,Barron,1438547.60617000000,-1897619.98641000000,48441,145.50000000000,-17.10000000000,1710,14550,1710_14550
1,114,114,SC #93,Mulgrave-Russell,Mulgrave-Russell,1462625.72444000000,-1894797.39265000000,48106,145.75000000000,-17.05000000000,1705,14575,1705_14575
1,115,115,SC #70,Barron,Barron,1432102.64718000000,-1893018.87761000000,48100,145.45000000000,-17.05000000000,1705,14545,1705_14545
1,116,116,SC #90515,Mulgrave-Russell,Mulgrave-Russell,1478688.04395000000,-1891351.05557000000,47769,145.90000000000,-17.00000000000,1700,14590,1700_14590
1,117,117,SC #96,Mulgrave-Russell,Mulgrave-Russell,1467916.97071000000,-1896676.67277000000,48107,145.80000000000,-17.05000000000,1705,14580,1705_14580
1,118,118,SC #95,Mulgrave-Russell,Mulgrave-Russell,1473040.54142000000,-1895355.78048000000,48108,145.85000000000,-17.05000000000,1705,14585,1705_14585
1,119,119,SC #404,Barron,Barron,1425195.54183000000,-1900859.58378000000,48779,145.40000000000,-17.15000000000,1715,14540,1715_14540
1,120,120,SC #116,Mulgrave-Russell,Mulgrave-Russell,1455691.77946000000,-1900213.35732000000,48444,145.65000000000,-17.10000000000,1710,14565,1710_14565
1,121,121,SC #409,Barron,Barron,1446189.93761000000,-1896444.34193000000,48103,145.60000000000,-17.05000000000,1705,14560,1705_14560
1,122,122,SC #90494,Mulgrave-Russell,Mulgrave-Russell,1480025.41682000000,-1901292.69169000000,48449,145.90000000000,-17.10000000000,1710,14590,1710_14590
1,123,123,SC #412,Barron,Barron,1432650.57807000000,-1896884.40231000000,48440,145.45000000000,-17.10000000000,1710,14545,1710_14545
1,124,124,SC #71,Barron,Barron,1433237.07081000000,-1903581.31023000000,48780,145.45000000000,-17.15000000000,1715,14545,1715_14545
1,125,125,SC #85,Barron,Barron,1430049.35035000000,-1907265.57975000000,49120,145.45000000000,-17.20000000000,1720,14545,1720_14545
1,126,126,SC #108,Mulgrave-Russell,Mulgrave-Russell,1474093.26056000000,-1901684.13643000000,48448,145.85000000000,-17.10000000000,1710,14585,1710_14585
1,127,127,SC #73,Barron,Barron,1447680.06835000000,-1903888.13508000000,48783,145.60000000000,-17.15000000000,1715,14560,1715_14560
1,128,128,SC #439,Mulgrave-Russell,Mulgrave-Russell,1465366.34100000000,-1903679.52623000000,48446,145.75000000000,-17.10000000000,1710,14575,1710_14575
1,129,129,SC #117,Mulgrave-Russell,Mulgrave-Russell,1471008.38214000000,-1911794.28836000000,49128,145.85000000000,-17.20000000000,1720,14585,1720_14585
1,130,130,SC #75,Barron,Barron,1451484.42533000000,-1910598.29520000000,49124,145.65000000000,-17.20000000000,1720,14565,1720_14565
1,131,131,SC #72,Barron,Barron,1438561.85355000000,-1908403.97247000000,49121,145.50000000000,-17.20000000000,1720,14550,1720_14550
1,132,132,SC #84,Barron,Barron,1434382.23534000000,-1910028.80089000000,49121,145.50000000000,-17.20000000000,1720,14550,1720_14550
1,133,133,SC #416,Mulgrave-Russell,Mulgrave-Russell,1477385.58091000000,-1909955.95706000000,48789,145.90000000000,-17.15000000000,1715,14590,1715_14590
1,134,134,SC #455,Mulgrave-Russell,Mulgrave-Russell,1464912.85083000000,-1908120.67184000000,48786,145.75000000000,-17.15000000000,1715,14575,1715_14575
1,135,135,SC #463,Barron,Barron,1442439.14453000000,-1906199.91994000000,48782,145.55000000000,-17.15000000000,1715,14555,1715_14555
1,136,136,SC #430,Barron,Barron,1441153.00713000000,-1905823.70277000000,48782,145.55000000000,-17.15000000000,1715,14555,1715_14555
1,137,137,SC #431,Barron,Barron,1441853.63051000000,-1905596.58012000000,48782,145.55000000000,-17.15000000000,1715,14555,1715_14555
1,138,138,SC #464,Barron,Barron,1442041.55950000000,-1906475.83587000000,48782,145.55000000000,-17.15000000000,1715,14555,1715_14555
1,139,139,SC #109,Mulgrave-Russell,Mulgrave-Russell,1459672.58883000000,-1908954.92126000000,48785,145.70000000000,-17.15000000000,1715,14570,1715_14570
1,140,140,SC #74,Barron,Barron,1443944.86606000000,-1909776.91149000000,49122,145.55000000000,-17.20000000000,1720,14555,1720_14555
1,141,141,SC #90516,Mulgrave-Russell,Mulgrave-Russell,1483989.95269000000,-1912647.02718000000,49130,145.95000000000,-17.20000000000,1720,14595,1720_14595
1,142,142,SC #440,Mulgrave-Russell,Mulgrave-Russell,1462199.59152000000,-1912736.65500000000,49126,145.75000000000,-17.20000000000,1720,14575,1720_14575
1,143,143,SC #434,Barron,Barron,1439207.56527000000,-1913218.01157000000,49462,145.55000000000,-17.25000000000,1725,14555,1725_14555
1,144,144,SC #83,Barron,Barron,1442594.55404000000,-1913250.81018000000,49462,145.55000000000,-17.25000000000,1725,14555,1725_14555
1,145,145,SC #76,Barron,Barron,1446414.31566000000,-1914376.83258000000,49463,145.60000000000,-17.25000000000,1725,14560,1725_14560
1,146,146,SC #405,Barron,Barron,1431789.96511000000,-1915853.61686000000,49460,145.45000000000,-17.25000000000,1725,14545,1725_14545
1,147,147,SC #107,Mulgrave-Russell,Mulgrave-Russell,1480054.13042000000,-1916098.30338000000,49129,145.90000000000,-17.20000000000,1720,14590,1720_14590
1,148,148,SC #115,Mulgrave-Russell,Mulgrave-Russell,1456266.73654000000,-1918149.03148000000,49465,145.70000000000,-17.25000000000,1725,14570,1725_14570
1,149,149,SC #78,Barron,Barron,1439471.09311000000,-1915906.08970000000,49462,145.55000000000,-17.25000000000,1725,14555,1725_14555
1,150,150,SC #110,Mulgrave-Russell,Mulgrave-Russell,1463015.24967000000,-1915731.32650000000,49466,145.75000000000,-17.25000000000,1725,14575,1725_14575
1,151,151,SC #77,Barron,Barron,1446815.83589000000,-1918687.21234000000,49463,145.60000000000,-17.25000000000,1725,14560,1725_14560
1,152,152,SC #111,Mulgrave-Russell,Mulgrave-Russell,1466560.27458000000,-1919193.38555000000,49467,145.80000000000,-17.25000000000,1725,14580,1725_14580
1,153,153,SC #432,Barron,Barron,1437905.47659000000,-1918907.97092000000,49801,145.50000000000,-17.30000000000,1730,14550,1730_14550
1,154,154,SC #114,Mulgrave-Russell,Mulgrave-Russell,1458991.83150000000,-1924319.09398000000,49806,145.75000000000,-17.30000000000,1730,14575,1730_14575
1,155,155,SC #98,Mulgrave-Russell,Mulgrave-Russell,1479801.16366000000,-1919782.23187000000,49469,145.90000000000,-17.25000000000,1725,14590,1725_14590
1,156,156,SC #97,Mulgrave-Russell,Mulgrave-Russell,1484927.60228000000,-1918352.24438000000,49470,145.95000000000,-17.25000000000,1725,14595,1725_14595
1,157,157,SC #408,Barron,Barron,1430760.38413000000,-1922209.51120000000,49800,145.45000000000,-17.30000000000,1730,14545,1730_14545
1,158,158,SC #90496,Mulgrave-Russell,Mulgrave-Russell,1486527.51220000000,-1922123.60567000000,49471,146.00000000000,-17.25000000000,1725,14600,1725_14600
1,159,159,SC #433,Barron,Barron,1440881.36128000000,-1920942.47285000000,49802,145.55000000000,-17.30000000000,1730,14555,1730_14555
1,160,160,SC #80,Barron,Barron,1436794.48113000000,-1924305.88291000000,50141,145.50000000000,-17.35000000000,1735,14550,1735_14550
1,161,161,SC #112,Mulgrave-Russell,Mulgrave-Russell,1471401.34451000000,-1923348.02665000000,49808,145.85000000000,-17.30000000000,1730,14585,1730_14585
1,162,162,SC #79,Barron,Barron,1439653.80096000000,-1920497.79855000000,49802,145.55000000000,-17.30000000000,1730,14555,1730_14555
1,163,163,SC #417,Mulgrave-Russell,Mulgrave-Russell,1480329.63125000000,-1924946.13635000000,49810,145.95000000000,-17.30000000000,1730,14595,1730_14595
1,164,164,SC #149,Johnstone,Johnstone,1450338.06672000000,-1925295.02021000000,50144,145.65000000000,-17.35000000000,1735,14565,1735_14565
1,165,165,SC #406,Barron,Barron,1440777.04754000000,-1925643.10393000000,50142,145.55000000000,-17.35000000000,1735,14555,1735_14555
1,166,166,SC #330,Herbert,Herbert,1423410.14833000000,-1927854.63308000000,50479,145.40000000000,-17.40000000000,1740,14540,1740_14540
1,167,167,SC #391,Johnstone,Johnstone,1442949.69820000000,-1929247.73017000000,50143,145.60000000000,-17.35000000000,1735,14560,1735_14560
1,168,168,SC #113,Mulgrave-Russell,Mulgrave-Russell,1464095.28446000000,-1928731.87540000000,50147,145.80000000000,-17.35000000000,1735,14580,1735_14580
1,169,169,SC #118,Mulgrave-Russell,Mulgrave-Russell,1487155.15163000000,-1930037.88894000000,50151,146.00000000000,-17.35000000000,1735,14600,1735_14600
1,170,170,SC #438,Mulgrave-Russell,Mulgrave-Russell,1475689.50118000000,-1930665.70595000000,50149,145.90000000000,-17.35000000000,1735,14590,1735_14590
1,171,171,SC #82,Barron,Barron,1434751.19149000000,-1924706.56657000000,50141,145.50000000000,-17.35000000000,1735,14550,1735_14550
1,172,172,SC #81,Barron,Barron,1432468.82892000000,-1927293.91223000000,50141,145.50000000000,-17.35000000000,1735,14550,1735_14550
1,173,173,SC #454,Mulgrave-Russell,Mulgrave-Russell,1471107.93931000000,-1929772.13946000000,50148,145.85000000000,-17.35000000000,1735,14585,1735_14585
1,174,174,SC #441,Johnstone,Johnstone,1451743.10543000000,-1929607.38074000000,50144,145.65000000000,-17.35000000000,1735,14565,1735_14565
1,175,175,SC #407,Barron,Barron,1433114.14157000000,-1932589.82453000000,50481,145.50000000000,-17.40000000000,1740,14550,1740_14550
1,176,176,SC #327,Herbert,Herbert,1415853.47043000000,-1932507.33922000000,50478,145.35000000000,-17.40000000000,1740,14535,1740_14535
1,177,177,SC #331,Herbert,Herbert,1427483.75538000000,-1932641.95456000000,50480,145.45000000000,-17.40000000000,1740,14545,1740_14545
1,178,178,SC #106,Mulgrave-Russell,Mulgrave-Russell,1480918.12800000000,-1930532.28862000000,50150,145.95000000000,-17.35000000000,1735,14595,1735_14595
1,179,179,SC #99,Mulgrave-Russell,Mulgrave-Russell,1484360.38494000000,-1930661.98593000000,50150,145.95000000000,-17.35000000000,1735,14595,1735_14595
1,180,180,SC #148,Johnstone,Johnstone,1448260.09963000000,-1930706.30303000000,50484,145.65000000000,-17.40000000000,1740,14565,1740_14565
1,181,181,SC #147,Johnstone,Johnstone,1449972.84191000000,-1934174.32013000000,50484,145.65000000000,-17.40000000000,1740,14565,1740_14565
1,182,182,SC #392,Johnstone,Johnstone,1441206.36227000000,-1935046.37082000000,50482,145.55000000000,-17.40000000000,1740,14555,1740_14555
1,183,183,SC #336,Herbert,Herbert,1409534.75669000000,-1936254.72095000000,50817,145.30000000000,-17.45000000000,1745,14530,1745_14530
1,184,184,SC #437,Mulgrave-Russell,Mulgrave-Russell,1467483.52971000000,-1938697.78692000000,50827,145.80000000000,-17.45000000000,1745,14580,1745_14580
1,185,185,SC #329,Herbert,Herbert,1421064.02947000000,-1933078.97058000000,50819,145.40000000000,-17.45000000000,1745,14540,1745_14540
1,186,186,SC #105,Mulgrave-Russell,Mulgrave-Russell,1480018.06134000000,-1934685.53040000000,50490,145.95000000000,-17.40000000000,1740,14595,1740_14595
1,187,187,SC #145,Johnstone,Johnstone,1453767.40285000000,-1940921.98422000000,50825,145.70000000000,-17.45000000000,1745,14570,1745_14570
1,188,188,SC #90497,Mulgrave-Russell,Mulgrave-Russell,1491236.40755000000,-1939602.96924000000,50492,146.05000000000,-17.40000000000,1740,14605,1740_14605
1,189,189,SC #100,Mulgrave-Russell,Mulgrave-Russell,1484479.75122000000,-1933720.28624000000,50150,145.95000000000,-17.35000000000,1735,14595,1735_14595
1,190,190,SC #328,Herbert,Herbert,1419003.90518000000,-1938315.94554000000,50818,145.35000000000,-17.45000000000,1745,14535,1745_14535
1,191,191,SC #332,Herbert,Herbert,1425543.48806000000,-1938944.62028000000,50820,145.45000000000,-17.45000000000,1745,14545,1745_14545
1,192,192,SC #436,Mulgrave-Russell,Mulgrave-Russell,1484998.48910000000,-1935460.57234000000,50491,146.00000000000,-17.40000000000,1740,14600,1740_14600
1,193,193,SC #326,Herbert,Herbert,1417176.74754000000,-1940842.34532000000,51158,145.35000000000,-17.50000000000,1750,14535,1750_14535
1,194,194,SC #102,Mulgrave-Russell,Mulgrave-Russell,1485856.66103000000,-1939837.30158000000,50491,146.00000000000,-17.40000000000,1740,14600,1740_14600
1,195,195,SC #104,Mulgrave-Russell,Mulgrave-Russell,1480686.90957000000,-1937340.67395000000,50490,145.95000000000,-17.40000000000,1740,14595,1740_14595
1,196,196,SC #101,Mulgrave-Russell,Mulgrave-Russell,1484133.96949000000,-1936706.88547000000,50490,145.95000000000,-17.40000000000,1740,14595,1740_14595
1,197,197,SC #103,Mulgrave-Russell,Mulgrave-Russell,1479847.02106000000,-1942096.96409000000,50830,145.95000000000,-17.45000000000,1745,14595,1745_14595
1,198,198,SC #146,Johnstone,Johnstone,1440133.50176000000,-1940568.88871000000,50822,145.55000000000,-17.45000000000,1745,14555,1745_14555
1,199,199,SC #335,Herbert,Herbert,1406266.40703000000,-1942431.71490000000,51156,145.25000000000,-17.50000000000,1750,14525,1750_14525
1,200,200,SC #449,Herbert,Herbert,1431397.49921000000,-1947382.51932000000,51501,145.50000000000,-17.55000000000,1755,14550,1755_14550
1,201,201,SC #316,Herbert,Herbert,1397046.20220000000,-1944563.26777000000,51494,145.15000000000,-17.55000000000,1755,14515,1755_14515
1,202,202,SC #334,Herbert,Herbert,1410314.01580000000,-1944442.47066000000,51497,145.30000000000,-17.55000000000,1755,14530,1755_14530
1,203,203,SC #153,Johnstone,Johnstone,1483650.98827000000,-1945531.85654000000,51171,146.00000000000,-17.50000000000,1750,14600,1750_14600
1,204,204,SC #152,Johnstone,Johnstone,1464304.62960000000,-1946842.50442000000,51167,145.80000000000,-17.50000000000,1750,14580,1750_14580
1,205,205,SC #333,Herbert,Herbert,1422060.66631000000,-1946577.29316000000,51499,145.40000000000,-17.55000000000,1755,14540,1755_14540
1,206,206,SC #150,Johnstone,Johnstone,1450965.69960000000,-1945426.17680000000,51164,145.65000000000,-17.50000000000,1750,14565,1750_14565
1,207,207,SC #315,Herbert,Herbert,1390394.59548000000,-1958318.41951000000,52513,145.10000000000,-17.70000000000,1770,14510,1770_14510
1,208,208,SC #390,Johnstone,Johnstone,1488595.82199000000,-1947116.61729000000,51172,146.05000000000,-17.50000000000,1750,14605,1750_14605
1,209,209,SC #325,Herbert,Herbert,1413288.05768000000,-1944749.62959000000,51497,145.30000000000,-17.55000000000,1755,14530,1755_14530
1,210,210,SC #317,Herbert,Herbert,1399297.06439000000,-1948450.02927000000,51835,145.20000000000,-17.60000000000,1760,14520,1760_14520
1,211,211,SC #311,Herbert,Herbert,1384635.41170000000,-1951476.17380000000,51832,145.05000000000,-17.60000000000,1760,14505,1760_14505
1,212,212,SC #447,Herbert,Herbert,1414123.09759000000,-1950099.64906000000,51838,145.35000000000,-17.60000000000,1760,14535,1760_14535
1,213,213,SC #143,Johnstone,Johnstone,1441923.53051000000,-1947131.31440000000,51503,145.60000000000,-17.55000000000,1755,14560,1755_14560
1,214,214,SC #136,Johnstone,Johnstone,1474739.58072000000,-1949160.35398000000,51169,145.90000000000,-17.50000000000,1750,14590,1750_14590
1,215,215,SC #321,Herbert,Herbert,1403725.21248000000,-1953736.27912000000,52176,145.25000000000,-17.65000000000,1765,14525,1765_14525
1,216,216,SC #144,Johnstone,Johnstone,1456648.25256000000,-1948683.78286000000,51506,145.75000000000,-17.55000000000,1755,14575,1755_14575
1,217,217,SC #141,Johnstone,Johnstone,1449745.20519000000,-1952318.15420000000,51504,145.65000000000,-17.55000000000,1755,14565,1755_14565
1,218,218,SC #138,Johnstone,Johnstone,1470037.14142000000,-1948843.91751000000,51168,145.85000000000,-17.50000000000,1750,14585,1750_14585
1,219,219,SC #419,Johnstone,Johnstone,1480325.45360000000,-1950735.19596000000,51510,145.95000000000,-17.55000000000,1755,14595,1755_14595
1,220,220,SC #90517,Johnstone,Johnstone,1493015.51482000000,-1948150.75427000000,51172,146.05000000000,-17.50000000000,1750,14605,1750_14605
1,221,221,SC #134,Johnstone,Johnstone,1485291.37280000000,-1949094.47808000000,51171,146.00000000000,-17.50000000000,1750,14600,1750_14600
1,222,222,SC #142,Johnstone,Johnstone,1439930.66442000000,-1951782.01445000000,51842,145.55000000000,-17.60000000000,1760,14555,1760_14555
1,223,223,SC #119,Johnstone,Johnstone,1491185.00695000000,-1950174.46147000000,51172,146.05000000000,-17.50000000000,1750,14605,1750_14605
1,224,224,SC #310,Herbert,Herbert,1378024.27730000000,-1954184.88768000000,52171,145.00000000000,-17.65000000000,1765,14500,1765_14500
1,225,225,SC #340,Herbert,Herbert,1430199.03119000000,-1955518.33849000000,51841,145.50000000000,-17.60000000000,1760,14550,1760_14550
1,226,226,SC #393,Johnstone,Johnstone,1484358.11197000000,-1953579.68055000000,51511,146.00000000000,-17.55000000000,1755,14600,1755_14600
1,227,227,SC #137,Johnstone,Johnstone,1467617.81796000000,-1955559.25835000000,51848,145.85000000000,-17.60000000000,1760,14585,1760_14585
1,228,228,SC #139,Johnstone,Johnstone,1464697.72835000000,-1953513.88232000000,51507,145.80000000000,-17.55000000000,1755,14580,1755_14580
1,229,229,SC #140,Johnstone,Johnstone,1460825.84841000000,-1953428.79975000000,51506,145.75000000000,-17.55000000000,1755,14575,1755_14575
1,230,230,SC #133,Johnstone,Johnstone,1488943.92355000000,-1950863.16131000000,51172,146.05000000000,-17.50000000000,1750,14605,1750_14605
1,231,231,SC #90498,Johnstone,Johnstone,1494833.31759000000,-1960053.30860000000,51853,146.10000000000,-17.60000000000,1760,14610,1760_14610
1,232,232,SC #338,Herbert,Herbert,1420827.75213000000,-1954644.96603000000,51839,145.40000000000,-17.60000000000,1760,14540,1760_14540
1,233,233,SC #418,Johnstone,Johnstone,1477698.16998000000,-1951898.19927000000,51510,145.95000000000,-17.55000000000,1755,14595,1755_14595
1,234,234,SC #324,Herbert,Herbert,1407417.32244000000,-1955415.37952000000,52176,145.25000000000,-17.65000000000,1765,14525,1765_14525
1,235,235,SC #121,Johnstone,Johnstone,1490337.94449000000,-1951854.04301000000,51512,146.05000000000,-17.55000000000,1755,14605,1755_14605
1,236,236,SC #347,Herbert,Herbert,1397978.67579000000,-1957267.57708000000,52175,145.20000000000,-17.65000000000,1765,14520,1765_14520
1,237,237,SC #120,Johnstone,Johnstone,1492080.77902000000,-1952464.36010000000,51512,146.05000000000,-17.55000000000,1755,14605,1755_14605
1,238,238,SC #122,Johnstone,Johnstone,1488776.90920000000,-1951774.93622000000,51512,146.05000000000,-17.55000000000,1755,14605,1755_14605
1,239,239,SC #132,Johnstone,Johnstone,1487894.52545000000,-1952055.85811000000,51511,146.00000000000,-17.55000000000,1755,14600,1755_14600
1,240,240,SC #123,Johnstone,Johnstone,1484959.45511000000,-1957404.91054000000,51851,146.00000000000,-17.60000000000,1760,14600,1760_14600
1,241,241,SC #135,Johnstone,Johnstone,1472053.74969000000,-1955492.92493000000,51849,145.90000000000,-17.60000000000,1760,14590,1760_14590
1,242,242,SC #151,Johnstone,Johnstone,1456811.44837000000,-1955913.03635000000,51846,145.75000000000,-17.60000000000,1760,14575,1760_14575
1,243,243,SC #395,Johnstone,Johnstone,1491227.22819000000,-1956575.52736000000,51512,146.05000000000,-17.55000000000,1755,14605,1755_14605
1,244,244,SC #130,Johnstone,Johnstone,1445099.81330000000,-1957289.56455000000,51844,145.65000000000,-17.60000000000,1760,14565,1760_14565
1,245,245,SC #126,Johnstone,Johnstone,1477282.38811000000,-1957286.58114000000,51850,145.95000000000,-17.60000000000,1760,14595,1760_14595
1,246,246,SC #318,Herbert,Herbert,1395316.28541000000,-1961872.84294000000,52514,145.15000000000,-17.70000000000,1770,14515,1770_14515
1,247,247,SC #448,Herbert,Herbert,1416540.03801000000,-1958471.07770000000,52178,145.35000000000,-17.65000000000,1765,14535,1765_14535
1,248,248,SC #472,Herbert,Herbert,1413527.64521000000,-1959802.20222000000,52178,145.35000000000,-17.65000000000,1765,14535,1765_14535
1,249,249,SC #128,Johnstone,Johnstone,1453888.65122000000,-1962806.41427000000,52185,145.70000000000,-17.65000000000,1765,14570,1765_14570
1,250,250,SC #339,Herbert,Herbert,1419119.52220000000,-1959690.37875000000,52179,145.40000000000,-17.65000000000,1765,14540,1765_14540
1,251,251,SC #443,Tully,Tully,1442228.00526000000,-1962917.05638000000,52183,145.60000000000,-17.65000000000,1765,14560,1765_14560
1,252,252,SC #341,Herbert,Herbert,1430305.20594000000,-1960983.69470000000,52181,145.50000000000,-17.65000000000,1765,14550,1765_14550
1,253,253,SC #394,Johnstone,Johnstone,1465727.17618000000,-1961866.48819000000,52188,145.85000000000,-17.65000000000,1765,14585,1765_14585
1,254,254,SC #309,Herbert,Herbert,1379484.59304000000,-1964676.64576000000,52851,145.00000000000,-17.75000000000,1775,14500,1775_14500
1,255,255,SC #337,Herbert,Herbert,1408125.76420000000,-1959205.67222000000,52177,145.30000000000,-17.65000000000,1765,14530,1765_14530
1,256,256,SC #154,Johnstone,Johnstone,1489302.90106000000,-1964988.14052000000,52192,146.05000000000,-17.65000000000,1765,14605,1765_14605
1,257,257,SC #131,Johnstone,Johnstone,1476691.02348000000,-1961608.73119000000,52190,145.95000000000,-17.65000000000,1765,14595,1765_14595
1,258,258,SC #320,Herbert,Herbert,1401011.53079000000,-1962232.01442000000,52515,145.20000000000,-17.70000000000,1770,14520,1770_14520
1,259,259,SC #323,Herbert,Herbert,1408290.58136000000,-1962728.91721000000,52517,145.30000000000,-17.70000000000,1770,14530,1770_14530
1,260,260,SC #420,Johnstone,Johnstone,1481532.65263000000,-1960112.20940000000,51850,145.95000000000,-17.60000000000,1760,14595,1760_14595
1,261,261,SC #125,Johnstone,Johnstone,1482978.17105000000,-1959983.56360000000,51851,146.00000000000,-17.60000000000,1760,14600,1760_14600
1,262,262,SC #124,Johnstone,Johnstone,1481085.84257000000,-1965383.79032000000,52190,145.95000000000,-17.65000000000,1765,14595,1765_14595
1,263,263,SC #465,Tully,Tully,1436057.42943000000,-1965511.82982000000,52522,145.55000000000,-17.70000000000,1770,14555,1770_14555
1,264,264,SC #90499,Johnstone,Johnstone,1496645.86006000000,-1966635.40274000000,52193,146.10000000000,-17.65000000000,1765,14610,1765_14610
1,265,265,SC #127,Johnstone,Johnstone,1459960.48201000000,-1968147.98268000000,52527,145.80000000000,-17.70000000000,1770,14580,1770_14580
1,266,266,SC #344,Herbert,Herbert,1421956.06130000000,-1968462.20195000000,52859,145.40000000000,-17.75000000000,1775,14540,1775_14540
1,267,267,SC #308,Herbert,Herbert,1385927.87566000000,-1967236.33435000000,52853,145.10000000000,-17.75000000000,1775,14510,1775_14510
1,268,268,SC #389,Johnstone,Johnstone,1473650.24362000000,-1965539.12029000000,52189,145.90000000000,-17.65000000000,1765,14590,1765_14590
1,269,269,SC #450,Herbert,Herbert,1430028.57562000000,-1971573.05187000000,52861,145.50000000000,-17.75000000000,1775,14550,1775_14550
1,270,270,SC #343,Herbert,Herbert,1415968.26719000000,-1969543.35227000000,52858,145.35000000000,-17.75000000000,1775,14535,1775_14535
1,271,271,SC #319,Herbert,Herbert,1399502.02049000000,-1967583.27666000000,52855,145.20000000000,-17.75000000000,1775,14520,1775_14520
1,272,272,SC #129,Johnstone,Johnstone,1449621.64446000000,-1968133.70963000000,52525,145.70000000000,-17.70000000000,1770,14570,1770_14570
1,273,273,SC #312,Herbert,Herbert,1391280.63617000000,-1973718.93304000000,53194,145.15000000000,-17.80000000000,1780,14515,1780_14515
1,274,274,SC #305,Herbert,Herbert,1379166.88439000000,-1973554.26442000000,53532,145.05000000000,-17.85000000000,1785,14505,1785_14505
1,275,275,SC #342,Herbert,Herbert,1407261.54614000000,-1970213.76468000000,52857,145.30000000000,-17.75000000000,1775,14530,1775_14530
1,276,276,SC #473,Herbert,Herbert,1425377.23971000000,-1966386.51003000000,52520,145.45000000000,-17.70000000000,1770,14545,1770_14545
1,277,277,SC #322,Herbert,Herbert,1402241.27838000000,-1965187.78675000000,52856,145.25000000000,-17.75000000000,1775,14525,1775_14525
1,278,278,SC #487,Johnstone,Johnstone,1466602.41371000000,-1970858.99766000000,52528,145.85000000000,-17.70000000000,1770,14585,1770_14585
1,279,279,SC #155,Johnstone,Johnstone,1485593.49697000000,-1971511.28221000000,52531,146.00000000000,-17.70000000000,1770,14600,1770_14600
1,280,280,SC #179,Tully,Tully,1439902.07664000000,-1968545.39153000000,52863,145.60000000000,-17.75000000000,1775,14560,1775_14560
1,281,281,SC #157,Johnstone,Johnstone,1475151.54764000000,-1973200.33288000000,52870,145.95000000000,-17.75000000000,1775,14595,1775_14595
1,282,282,SC #442,Johnstone,Johnstone,1469656.42770000000,-1972553.95197000000,52868,145.85000000000,-17.75000000000,1775,14585,1775_14585
1,283,283,SC #295,Herbert,Herbert,1371046.03251000000,-1975468.86731000000,53530,144.95000000000,-17.85000000000,1785,14495,1785_14495
1,284,284,SC #170,Tully,Tully,1459907.03667000000,-1979314.19062000000,53207,145.80000000000,-17.80000000000,1780,14580,1780_14580
1,285,285,SC #176,Tully,Tully,1438102.49741000000,-1973683.66463000000,52863,145.60000000000,-17.75000000000,1775,14560,1775_14560
1,286,286,SC #477,Tully,Tully,1447091.50115000000,-1973471.38694000000,52864,145.65000000000,-17.75000000000,1775,14565,1775_14565
1,287,287,SC #174,Tully,Tully,1445321.69877000000,-1971700.32566000000,52864,145.65000000000,-17.75000000000,1775,14565,1775_14565
1,288,288,SC #314,Herbert,Herbert,1398096.27202000000,-1969918.48788000000,53195,145.20000000000,-17.80000000000,1780,14520,1780_14520
1,289,289,SC #471,Herbert,Herbert,1399510.90674000000,-1977594.61626000000,53535,145.20000000000,-17.85000000000,1785,14520,1785_14520
1,290,290,SC #458,Tully,Tully,1443069.86909000000,-1972931.58711000000,52864,145.65000000000,-17.75000000000,1775,14565,1775_14565
1,291,291,SC #307,Herbert,Herbert,1389590.06033000000,-1976341.01178000000,53534,145.15000000000,-17.85000000000,1785,14515,1785_14515
1,292,292,SC #346,Herbert,Herbert,1413200.27184000000,-1977854.04564000000,53538,145.35000000000,-17.85000000000,1785,14535,1785_14535
1,293,293,SC #173,Tully,Tully,1452627.21681000000,-1983824.53486000000,53546,145.75000000000,-17.85000000000,1785,14575,1785_14575
1,294,294,SC #294,Herbert,Herbert,1377426.87839000000,-1976907.61107000000,53531,145.00000000000,-17.85000000000,1785,14500,1785_14500
1,295,295,SC #90500,Johnstone,Johnstone,1492675.77972000000,-1976537.91943000000,52873,146.10000000000,-17.75000000000,1775,14610,1775_14610
1,296,296,SC #162,Johnstone,Johnstone,1485861.92413000000,-1976595.21394000000,52872,146.05000000000,-17.75000000000,1775,14605,1775_14605
1,297,297,SC #175,Tully,Tully,1443915.19747000000,-1975381.31322000000,53204,145.65000000000,-17.80000000000,1780,14565,1780_14565
1,298,298,SC #345,Herbert,Herbert,1423628.71323000000,-1978285.68362000000,53540,145.45000000000,-17.85000000000,1785,14545,1785_14545
1,299,299,SC #156,Johnstone,Johnstone,1472503.76307000000,-1979448.33246000000,53209,145.90000000000,-17.80000000000,1780,14590,1780_14590
1,300,300,SC #285,Herbert,Herbert,1388072.22657000000,-1980139.85056000000,53873,145.10000000000,-17.90000000000,1790,14510,1790_14510
1,301,301,SC #297,Herbert,Herbert,1369541.55890000000,-1981271.37867000000,53870,144.95000000000,-17.90000000000,1790,14495,1790_14495
1,302,302,SC #457,Tully,Tully,1439376.34615000000,-1979264.60644000000,53203,145.60000000000,-17.80000000000,1780,14560,1780_14560
1,303,303,SC #459,Tully,Tully,1441720.74288000000,-1988340.05075000000,53884,145.65000000000,-17.90000000000,1790,14565,1790_14565
1,304,304,SC #177,Tully,Tully,1437387.73857000000,-1978864.53460000000,53203,145.60000000000,-17.80000000000,1780,14560,1780_14560
1,305,305,SC #159,Johnstone,Johnstone,1487723.95134000000,-1980550.47138000000,53212,146.05000000000,-17.80000000000,1780,14605,1780_14605
1,306,306,SC #178,Tully,Tully,1434064.15715000000,-1979861.06494000000,53542,145.55000000000,-17.85000000000,1785,14555,1785_14555
1,307,307,SC #158,Johnstone,Johnstone,1491565.82491000000,-1979634.15826000000,53213,146.10000000000,-17.80000000000,1780,14610,1780_14610
1,308,308,SC #161,Johnstone,Johnstone,1481071.84868000000,-1982772.60332000000,53211,146.00000000000,-17.80000000000,1780,14600,1780_14600
1,309,309,SC #269,Herbert,Herbert,1407096.07592000000,-1986336.14753000000,53877,145.30000000000,-17.90000000000,1790,14530,1790_14530
1,310,310,SC #444,Tully,Tully,1434237.37688000000,-1986228.76636000000,53882,145.55000000000,-17.90000000000,1790,14555,1790_14555
1,311,311,SC #304,Herbert,Herbert,1364402.14490000000,-1983665.83040000000,54209,144.90000000000,-17.95000000000,1795,14490,1795_14490
1,312,312,SC #293,Herbert,Herbert,1380018.86735000000,-1983005.13915000000,53872,145.05000000000,-17.90000000000,1790,14505,1790_14505
1,313,313,SC #271,Herbert,Herbert,1417231.09706000000,-1984352.37027000000,53879,145.40000000000,-17.90000000000,1790,14540,1790_14540
1,314,314,SC #274,Herbert,Herbert,1426191.69382000000,-1986208.01801000000,53881,145.50000000000,-17.90000000000,1790,14550,1790_14550
1,315,315,SC #279,Herbert,Herbert,1401144.04565000000,-1989554.06917000000,54216,145.25000000000,-17.95000000000,1795,14525,1795_14525
1,316,316,SC #90512,Johnstone,Johnstone,1491255.85822000000,-1984848.69413000000,53213,146.10000000000,-17.80000000000,1780,14610,1780_14610
1,317,317,SC #284,Herbert,Herbert,1393473.66604000000,-1984333.47950000000,53874,145.15000000000,-17.90000000000,1790,14515,1790_14515
1,318,318,SC #160,Johnstone,Johnstone,1485648.28556000000,-1987984.43776000000,53552,146.05000000000,-17.85000000000,1785,14605,1785_14605
1,319,319,SC #483,Tully,Tully,1468082.19414000000,-1985555.64743000000,53548,145.85000000000,-17.85000000000,1785,14585,1785_14585
1,320,320,SC #286,Herbert,Herbert,1385489.48572000000,-1985120.33601000000,54213,145.10000000000,-17.95000000000,1795,14510,1795_14510
1,321,321,SC #475,Tully,Tully,1472063.23684000000,-1986944.81154000000,53549,145.90000000000,-17.85000000000,1785,14590,1785_14590
1,322,322,SC #306,Herbert,Herbert,1390885.93940000000,-1983203.36292000000,53874,145.15000000000,-17.90000000000,1790,14515,1790_14515
1,323,323,SC #451,Herbert,Herbert,1390079.35762000000,-1984617.93677000000,53874,145.15000000000,-17.90000000000,1790,14515,1790_14515
1,324,324,SC #270,Herbert,Herbert,1409705.33208000000,-1991424.42045000000,54218,145.35000000000,-17.95000000000,1795,14535,1795_14535
1,325,325,SC #298,Herbert,Herbert,1376015.42836000000,-1986408.93462000000,54211,145.00000000000,-17.95000000000,1795,14500,1795_14500
1,326,326,SC #302,Herbert,Herbert,1370407.87227000000,-1986326.72043000000,54210,144.95000000000,-17.95000000000,1795,14495,1795_14495
1,327,327,SC #281,Herbert,Herbert,1390101.28647000000,-1991709.33919000000,54554,145.15000000000,-18.00000000000,1800,14515,1800_14515
1,328,328,SC #474,Tully,Tully,1478050.71882000000,-1991128.44195000000,53890,145.95000000000,-17.90000000000,1790,14595,1790_14595
1,329,329,SC #296,Herbert,Herbert,1380671.79402000000,-1986161.74972000000,54212,145.05000000000,-17.95000000000,1795,14505,1795_14505
1,330,330,SC #313,Herbert,Herbert,1399041.27026000000,-1986295.12296000000,53876,145.25000000000,-17.90000000000,1790,14525,1790_14525
1,331,331,SC #292,Herbert,Herbert,1382916.38913000000,-1985771.41728000000,54212,145.05000000000,-17.95000000000,1795,14505,1795_14505
1,332,332,SC #287,Herbert,Herbert,1383843.53400000000,-1986845.05078000000,54213,145.10000000000,-17.95000000000,1795,14510,1795_14510
1,333,333,SC #303,Herbert,Herbert,1362691.11960000000,-1989556.16312000000,54549,144.90000000000,-18.00000000000,1800,14490,1800_14490
1,334,334,SC #273,Herbert,Herbert,1418698.49115000000,-1989190.10512000000,54219,145.40000000000,-17.95000000000,1795,14540,1795_14540
1,335,335,SC #280,Herbert,Herbert,1395673.46558000000,-1989802.81599000000,54215,145.20000000000,-17.95000000000,1795,14520,1795_14520
1,336,336,SC #289,Herbert,Herbert,1378223.68441000000,-1989848.62847000000,54552,145.05000000000,-18.00000000000,1800,14505,1800_14505
1,337,337,SC #299,Herbert,Herbert,1369418.07562000000,-1992615.55783000000,54550,144.95000000000,-18.00000000000,1800,14495,1800_14495
1,338,338,SC #90501,Tully,Tully,1490545.65203000000,-1993283.58816000000,53893,146.10000000000,-17.90000000000,1790,14610,1790_14610
1,339,339,SC #272,Herbert,Herbert,1414721.08421000000,-1989524.89207000000,54219,145.40000000000,-17.95000000000,1795,14540,1795_14540
1,340,340,SC #288,Herbert,Herbert,1384207.25988000000,-1998936.72128000000,54893,145.10000000000,-18.05000000000,1805,14510,1805_14510
1,341,341,SC #171,Tully,Tully,1463566.82174000000,-1993769.06712000000,54228,145.85000000000,-17.95000000000,1795,14585,1795_14585
1,342,342,SC #169,Tully,Tully,1467608.81909000000,-1990224.84940000000,53888,145.85000000000,-17.90000000000,1790,14585,1790_14585
1,343,343,SC #180,Tully,Tully,1450696.81376000000,-1993902.73850000000,54225,145.70000000000,-17.95000000000,1795,14570,1795_14570
1,344,344,SC #275,Herbert,Herbert,1426346.71176000000,-1993588.17337000000,54221,145.50000000000,-17.95000000000,1795,14550,1795_14550
1,345,345,SC #184,Tully,Tully,1472360.13713000000,-1992014.82445000000,53889,145.90000000000,-17.90000000000,1790,14590,1790_14590
1,346,346,SC #168,Tully,Tully,1466665.17160000000,-1993336.86773000000,53888,145.85000000000,-17.90000000000,1790,14585,1790_14585
1,347,347,SC #163,Tully,Tully,1487853.99171000000,-1995796.19406000000,53892,146.05000000000,-17.90000000000,1790,14605,1790_14605
1,348,348,SC #276,Herbert,Herbert,1417635.07747000000,-1995340.10050000000,54559,145.40000000000,-18.00000000000,1800,14540,1800_14540
1,349,349,SC #290,Herbert,Herbert,1375840.27230000000,-2003270.04749000000,55231,145.00000000000,-18.10000000000,1810,14500,1810_14500
1,350,350,SC #291,Herbert,Herbert,1375621.02048000000,-1996628.96108000000,54891,145.00000000000,-18.05000000000,1805,14500,1805_14500
1,351,351,SC #352,Herbert,Herbert,1432390.84172000000,-2000019.01602000000,54562,145.55000000000,-18.00000000000,1800,14555,1800_14555
1,352,352,SC #172,Tully,Tully,1461657.73969000000,-1995036.96831000000,54227,145.80000000000,-17.95000000000,1795,14580,1795_14580
1,353,353,SC #166,Tully,Tully,1468172.32220000000,-1997568.26056000000,54229,145.90000000000,-17.95000000000,1795,14590,1795_14590
1,354,354,SC #164,Tully,Tully,1481636.45846000000,-1998661.47126000000,54231,146.00000000000,-17.95000000000,1795,14600,1795_14600
1,355,355,SC #452,Herbert,Herbert,1414302.00724000000,-1999967.52744000000,54899,145.40000000000,-18.05000000000,1805,14540,1805_14540
1,356,356,SC #476,Tully,Tully,1472098.42006000000,-1995248.71668000000,54229,145.90000000000,-17.95000000000,1795,14590,1795_14590
1,357,357,SC #183,Tully,Tully,1470592.59365000000,-1998397.98475000000,54229,145.90000000000,-17.95000000000,1795,14590,1795_14590
1,358,358,SC #181,Tully,Tully,1459643.91171000000,-1996151.21722000000,54227,145.80000000000,-17.95000000000,1795,14580,1795_14580
1,359,359,SC #278,Herbert,Herbert,1397804.55570000000,-1997523.59619000000,54896,145.25000000000,-18.05000000000,1805,14525,1805_14525
1,360,360,SC #277,Herbert,Herbert,1402755.97869000000,-1995135.34755000000,54556,145.25000000000,-18.00000000000,1800,14525,1800_14525
1,361,361,SC #185,Tully,Tully,1473716.81233000000,-1994541.37810000000,54230,145.95000000000,-17.95000000000,1795,14595,1795_14595
1,362,362,SC #268,Herbert,Herbert,1403648.80292000000,-1995103.74487000000,54557,145.30000000000,-18.00000000000,1800,14530,1800_14530
1,363,363,SC #421,Tully,Tully,1473688.49817000000,-1998150.76496000000,54230,145.95000000000,-17.95000000000,1795,14595,1795_14595
1,364,364,SC #478,Tully,Tully,1450079.40920000000,-1998316.48359000000,54565,145.70000000000,-18.00000000000,1800,14570,1800_14570
1,365,365,SC #301,Herbert,Herbert,1362755.04816000000,-1999684.48837000000,55229,144.90000000000,-18.10000000000,1810,14490,1810_14490
1,366,366,SC #267,Herbert,Herbert,1404172.68822000000,-1998595.27955000000,54897,145.30000000000,-18.05000000000,1805,14530,1805_14530
1,367,367,SC #300,Herbert,Herbert,1362182.99875000000,-2007188.37321000000,55569,144.90000000000,-18.15000000000,1815,14490,1815_14490
1,368,368,SC #165,Tully,Tully,1477803.71730000000,-2002392.44920000000,54571,146.00000000000,-18.00000000000,1800,14600,1800_14600
1,369,369,SC #182,Tully,Tully,1457180.28515000000,-2001054.43956000000,54567,145.80000000000,-18.00000000000,1800,14580,1800_14580
1,370,370,SC #282,Herbert,Herbert,1393054.71943000000,-2001053.45603000000,54895,145.20000000000,-18.05000000000,1805,14520,1805_14520
1,371,371,SC #283,Herbert,Herbert,1390831.54290000000,-2010785.25769000000,55574,145.15000000000,-18.15000000000,1815,14515,1815_14515
1,372,372,SC #350,Herbert,Herbert,1422915.51112000000,-2001833.98468000000,54900,145.45000000000,-18.05000000000,1805,14545,1805_14545
1,373,373,SC #479,Tully,Tully,1445738.03385000000,-2004975.48805000000,54905,145.70000000000,-18.05000000000,1805,14570,1805_14570
1,374,374,SC #266,Herbert,Herbert,1406195.36308000000,-2003032.00899000000,54897,145.30000000000,-18.05000000000,1805,14530,1805_14530
1,375,375,SC #348,Herbert,Herbert,1399168.34311000000,-2003317.22461000000,55236,145.25000000000,-18.10000000000,1810,14525,1810_14525
1,376,376,SC #167,Tully,Tully,1466220.79237000000,-2000688.35149000000,54568,145.85000000000,-18.00000000000,1800,14585,1800_14585
1,377,377,SC #482,Murray,Murray,1465575.44604000000,-2004277.87741000000,54568,145.85000000000,-18.00000000000,1800,14585,1800_14585
1,378,378,SC #90502,Tully,Tully,1484636.43159000000,-2003789.74658000000,54572,146.05000000000,-18.00000000000,1800,14605,1800_14605
1,379,379,SC #360,Herbert,Herbert,1436899.40723000000,-2007955.67464000000,55243,145.60000000000,-18.10000000000,1810,14560,1810_14560
1,380,380,SC #186,Tully,Tully,1477955.14650000000,-2006204.64692000000,54911,146.00000000000,-18.05000000000,1805,14600,1805_14600
1,381,381,SC #349,Herbert,Herbert,1411274.16515000000,-2004999.54818000000,55238,145.35000000000,-18.10000000000,1810,14535,1810_14535
1,382,382,SC #484,Murray,Murray,1456593.19462000000,-2005160.95108000000,54907,145.80000000000,-18.05000000000,1805,14580,1805_14580
1,383,383,SC #351,Herbert,Herbert,1421416.16121000000,-2008285.35675000000,55240,145.45000000000,-18.10000000000,1810,14545,1810_14545
1,384,384,SC #265,Herbert,Herbert,1404529.04718000000,-2006824.77786000000,55237,145.30000000000,-18.10000000000,1810,14530,1810_14530
1,385,385,SC #353,Herbert,Herbert,1429222.87691000000,-2009769.48273000000,55242,145.55000000000,-18.10000000000,1810,14555,1810_14555
1,386,386,SC #189,Murray,Murray,1469878.59038000000,-2006575.66225000000,54909,145.90000000000,-18.05000000000,1805,14590,1805_14590
1,387,387,SC #263,Herbert,Herbert,1413054.61890000000,-2009080.04134000000,55239,145.40000000000,-18.10000000000,1810,14540,1810_14540
1,388,388,SC #485,Murray,Murray,1457680.67510000000,-2008942.57429000000,54907,145.80000000000,-18.05000000000,1805,14580,1805_14580
1,389,389,SC #188,Murray,Murray,1468972.25932000000,-2011427.82077000000,55249,145.90000000000,-18.10000000000,1810,14590,1810_14590
1,390,390,SC #187,Murray,Murray,1477073.64584000000,-2011310.84688000000,54911,146.00000000000,-18.05000000000,1805,14600,1805_14600
1,391,391,SC #190,Murray,Murray,1460653.24007000000,-2011380.52136000000,55248,145.85000000000,-18.10000000000,1810,14585,1810_14585
1,392,392,SC #194,Murray,Murray,1465331.20289000000,-2011303.71276000000,55248,145.85000000000,-18.10000000000,1810,14585,1810_14585
1,393,393,SC #193,Murray,Murray,1461660.21308000000,-2007008.26717000000,54908,145.85000000000,-18.05000000000,1805,14585,1805_14585
1,394,394,SC #354,Herbert,Herbert,1400281.97779000000,-2010487.56410000000,55576,145.25000000000,-18.15000000000,1815,14525,1815_14525
1,395,395,SC #192,Murray,Murray,1451547.81209000000,-2014177.53460000000,55246,145.75000000000,-18.10000000000,1810,14575,1810_14575
1,396,396,SC #359,Herbert,Herbert,1441997.68605000000,-2014165.20866000000,55584,145.65000000000,-18.15000000000,1815,14565,1815_14565
1,397,397,SC #355,Herbert,Herbert,1415279.19851000000,-2013845.33015000000,55579,145.40000000000,-18.15000000000,1815,14540,1815_14540
1,398,398,SC #264,Herbert,Herbert,1407549.89401000000,-2010149.74546000000,55578,145.35000000000,-18.15000000000,1815,14535,1815_14535
1,399,399,SC #262,Herbert,Herbert,1407598.68704000000,-2013258.03163000000,55578,145.35000000000,-18.15000000000,1815,14535,1815_14535
1,400,400,SC #197,Murray,Murray,1467582.14155000000,-2015622.58611000000,55249,145.90000000000,-18.10000000000,1810,14590,1810_14590
1,401,401,SC #90503,Murray,Murray,1479106.16500000000,-2016423.36449000000,55251,146.00000000000,-18.10000000000,1810,14600,1810_14600
1,402,402,SC #453,Herbert,Herbert,1431713.49486000000,-2017407.53069000000,55582,145.55000000000,-18.15000000000,1815,14555,1815_14555
1,403,403,SC #357,Herbert,Herbert,1423737.25463000000,-2015998.62612000000,55581,145.50000000000,-18.15000000000,1815,14550,1815_14550
1,404,404,SC #191,Murray,Murray,1457780.86455000000,-2013373.97965000000,55247,145.80000000000,-18.10000000000,1810,14580,1810_14580
1,405,405,SC #480,Murray,Murray,1457287.64290000000,-2017660.26467000000,55587,145.80000000000,-18.15000000000,1815,14580,1815_14580
1,406,406,SC #260,Herbert,Herbert,1401127.84468000000,-2016598.08049000000,55917,145.30000000000,-18.20000000000,1820,14530,1820_14530
1,407,407,SC #196,Murray,Murray,1469542.32197000000,-2018397.17973000000,55589,145.90000000000,-18.15000000000,1815,14590,1815_14590
1,408,408,SC #195,Murray,Murray,1473937.20194000000,-2013875.11186000000,55250,145.95000000000,-18.10000000000,1810,14595,1810_14595
1,409,409,SC #261,Herbert,Herbert,1406043.38529000000,-2017320.13469000000,55917,145.30000000000,-18.20000000000,1820,14530,1820_14530
1,410,410,SC #198,Murray,Murray,1475174.52596000000,-2019837.93209000000,55590,145.95000000000,-18.15000000000,1815,14595,1815_14595
1,411,411,SC #254,Herbert,Herbert,1419565.88580000000,-2019690.38667000000,55920,145.45000000000,-18.20000000000,1820,14545,1820_14545
1,412,412,SC #467,Herbert,Herbert,1407511.20031000000,-2016424.26342000000,55918,145.35000000000,-18.20000000000,1820,14535,1820_14535
1,413,413,SC #258,Herbert,Herbert,1408097.15545000000,-2024231.04520000000,56258,145.35000000000,-18.25000000000,1825,14535,1825_14535
1,414,414,SC #481,Murray,Murray,1458703.32409000000,-2021306.62699000000,55927,145.80000000000,-18.20000000000,1820,14580,1820_14580
1,415,415,SC #356,Herbert,Herbert,1398899.03389000000,-2021613.78938000000,56256,145.25000000000,-18.25000000000,1825,14525,1825_14525
1,416,416,SC #245,Herbert,Herbert,1447367.87318000000,-2025276.12965000000,56265,145.70000000000,-18.25000000000,1825,14570,1825_14570
1,417,417,SC #247,Herbert,Herbert,1438809.40520000000,-2021966.59016000000,55924,145.65000000000,-18.20000000000,1820,14565,1820_14565
1,418,418,SC #253,Herbert,Herbert,1424791.10154000000,-2022189.55627000000,55921,145.50000000000,-18.20000000000,1820,14550,1820_14550
1,419,419,SC #259,Herbert,Herbert,1404780.39570000000,-2020582.81710000000,56257,145.30000000000,-18.25000000000,1825,14530,1825_14530
1,420,420,SC #358,Herbert,Herbert,1428717.33461000000,-2022163.02784000000,55922,145.55000000000,-18.20000000000,1820,14555,1820_14555
1,421,421,SC #248,Herbert,Herbert,1431325.12195000000,-2027033.73206000000,56262,145.55000000000,-18.25000000000,1825,14555,1825_14555
1,422,422,SC #204,Murray,Murray,1462214.44204000000,-2026851.44953000000,56268,145.85000000000,-18.25000000000,1825,14585,1825_14585
1,423,423,SC #199,Murray,Murray,1472044.88694000000,-2025124.91340000000,55930,145.95000000000,-18.20000000000,1820,14595,1820_14595
1,424,424,SC #255,Herbert,Herbert,1419301.54230000000,-2027391.11226000000,56260,145.45000000000,-18.25000000000,1825,14545,1825_14545
1,425,425,SC #256,Herbert,Herbert,1417939.99415000000,-2022918.65083000000,56260,145.45000000000,-18.25000000000,1825,14545,1825_14545
1,426,426,SC #257,Herbert,Herbert,1413134.26955000000,-2028307.27222000000,56599,145.40000000000,-18.30000000000,1830,14540,1830_14540
1,427,427,SC #249,Herbert,Herbert,1427675.45861000000,-2025417.87465000000,56262,145.55000000000,-18.25000000000,1825,14555,1825_14555
1,428,428,SC #250,Herbert,Herbert,1423818.20387000000,-2028076.46797000000,56601,145.50000000000,-18.30000000000,1830,14550,1830_14550
1,429,429,SC #246,Herbert,Herbert,1436644.49498000000,-2027425.15588000000,56263,145.60000000000,-18.25000000000,1825,14560,1825_14560
1,430,430,SC #200,Murray,Murray,1477422.22563000000,-2031103.07439000000,56271,146.00000000000,-18.25000000000,1825,14600,1825_14600
1,431,431,SC #241,Herbert,Herbert,1451079.77971000000,-2033498.90424000000,56606,145.75000000000,-18.30000000000,1830,14575,1830_14575
1,432,432,SC #203,Murray,Murray,1462210.17980000000,-2032613.63986000000,56608,145.85000000000,-18.30000000000,1830,14585,1830_14585
1,433,433,SC #202,Murray,Murray,1469742.87550000000,-2031687.30881000000,56270,145.95000000000,-18.25000000000,1825,14595,1825_14595
1,434,434,SC #244,Herbert,Herbert,1434379.94084000000,-2031740.28019000000,56603,145.60000000000,-18.30000000000,1830,14560,1830_14560
1,435,435,SC #242,Herbert,Herbert,1440671.85687000000,-2034435.84149000000,56604,145.65000000000,-18.30000000000,1830,14565,1830_14565
1,436,436,SC #201,Murray,Murray,1473880.71903000000,-2033839.72278000000,56611,146.00000000000,-18.30000000000,1830,14600,1830_14600
1,437,437,SC #251,Herbert,Herbert,1428465.41965000000,-2034379.24609000000,56942,145.55000000000,-18.35000000000,1835,14555,1835_14555
1,438,438,SC #252,Herbert,Herbert,1421704.13542000000,-2035062.24873000000,56941,145.50000000000,-18.35000000000,1835,14550,1835_14550
1,439,439,SC #243,Herbert,Herbert,1436122.28765000000,-2036311.44377000000,56943,145.60000000000,-18.35000000000,1835,14560,1835_14560
1,440,440,SC #238,Herbert,Herbert,1453789.70178000000,-2040395.21396000000,56947,145.80000000000,-18.35000000000,1835,14580,1835_14580
1,441,441,SC #90504,Murray,Murray,1479919.03744000000,-2037427.53183000000,56612,146.05000000000,-18.30000000000,1830,14605,1830_14605
1,442,442,SC #365,Herbert,Herbert,1461894.42644000000,-2038947.75812000000,56948,145.85000000000,-18.35000000000,1835,14585,1835_14585
1,443,443,SC #225,Herbert,Herbert,1471470.42849000000,-2043693.14871000000,56950,145.95000000000,-18.35000000000,1835,14595,1835_14595
1,444,444,SC #240,Herbert,Herbert,1446375.14241000000,-2038077.72278000000,56945,145.70000000000,-18.35000000000,1835,14570,1835_14570
1,445,445,SC #205,Murray,Murray,1478206.05827000000,-2040802.26345000000,56951,146.00000000000,-18.35000000000,1835,14600,1835_14600
1,446,446,SC #239,Herbert,Herbert,1447788.87290000000,-2041300.67671000000,56946,145.75000000000,-18.35000000000,1835,14575,1835_14575
1,447,447,SC #361,Herbert,Herbert,1441311.04707000000,-2042154.00098000000,57285,145.70000000000,-18.40000000000,1840,14570,1840_14570
1,448,448,SC #446,Herbert,Herbert,1458289.94655000000,-2045473.39793000000,57288,145.85000000000,-18.40000000000,1840,14585,1840_14585
1,449,449,SC #364,Herbert,Herbert,1464267.19650000000,-2042853.34683000000,56949,145.90000000000,-18.35000000000,1835,14590,1835_14590
1,450,450,SC #90505,Murray,Murray,1488310.27644000000,-2052701.57423000000,57634,146.15000000000,-18.45000000000,1845,14615,1845_14615
1,451,451,SC #236,Herbert,Herbert,1451588.42321000000,-2048865.63654000000,57627,145.80000000000,-18.45000000000,1845,14580,1845_14580
1,452,452,SC #237,Herbert,Herbert,1449566.00103000000,-2044195.46901000000,57286,145.75000000000,-18.40000000000,1840,14575,1840_14575
1,453,453,SC #362,Herbert,Herbert,1445532.10606000000,-2047722.36325000000,57625,145.70000000000,-18.45000000000,1845,14570,1845_14570
1,454,454,SC #468,Herbert,Herbert,1450862.60582000000,-2045495.69946000000,57286,145.75000000000,-18.40000000000,1840,14575,1840_14575
1,455,455,SC #226,Herbert,Herbert,1465190.36175000000,-2050883.34524000000,57629,145.90000000000,-18.45000000000,1845,14590,1845_14590
1,456,456,SC #363,Herbert,Herbert,1457724.58756000000,-2050802.82978000000,57628,145.85000000000,-18.45000000000,1845,14585,1845_14585
1,457,457,SC #224,Herbert,Herbert,1475167.19658000000,-2051569.61323000000,57631,146.00000000000,-18.45000000000,1845,14600,1845_14600
1,458,458,SC #368,Herbert,Herbert,1480655.80696000000,-2052686.88730000000,57632,146.05000000000,-18.45000000000,1845,14605,1845_14605
1,459,459,SC #234,Herbert,Herbert,1455249.78731000000,-2051244.98381000000,57627,145.80000000000,-18.45000000000,1845,14580,1845_14580
1,460,460,SC #235,Herbert,Herbert,1446402.96419000000,-2063067.39692000000,58306,145.75000000000,-18.55000000000,1855,14575,1855_14575
1,461,461,SC #230,Herbert,Herbert,1457887.88465000000,-2055240.89028000000,57968,145.85000000000,-18.50000000000,1850,14585,1850_14585
1,462,462,SC #231,Herbert,Herbert,1452358.92063000000,-2062180.01644000000,58307,145.80000000000,-18.55000000000,1855,14580,1855_14580
1,463,463,SC #445,Herbert,Herbert,1462438.93882000000,-2057471.66183000000,57969,145.90000000000,-18.50000000000,1850,14590,1850_14590
1,464,464,SC #229,Herbert,Herbert,1458089.43332000000,-2057384.18589000000,57968,145.85000000000,-18.50000000000,1850,14585,1850_14585
1,465,465,SC #367,Herbert,Herbert,1483016.13915000000,-2058256.56678000000,57973,146.10000000000,-18.50000000000,1850,14610,1850_14610
1,466,466,SC #227,Herbert,Herbert,1469376.70088000000,-2059028.66038000000,57970,145.95000000000,-18.50000000000,1850,14595,1850_14595
1,467,467,SC #366,Herbert,Herbert,1479943.46255000000,-2061658.67463000000,57972,146.05000000000,-18.50000000000,1850,14605,1850_14605
1,468,468,SC #228,Herbert,Herbert,1458244.25547000000,-2064442.57273000000,58308,145.85000000000,-18.55000000000,1855,14585,1855_14585
1,469,469,SC #223,Herbert,Herbert,1477249.25874000000,-2058788.58433000000,57972,146.05000000000,-18.50000000000,1850,14605,1850_14605
1,470,470,SC #222,Herbert,Herbert,1477104.38275000000,-2064203.54351000000,58312,146.05000000000,-18.55000000000,1855,14605,1855_14605
1,471,471,SC #221,Herbert,Herbert,1470577.27647000000,-2064536.41959000000,58311,146.00000000000,-18.55000000000,1855,14600,1855_14600
1,472,472,SC #470,Herbert,Herbert,1488395.83308000000,-2068212.04610000000,58314,146.15000000000,-18.55000000000,1855,14615,1855_14615
1,473,473,SC #90506,Herbert,Herbert,1498624.90598000000,-2063830.40877000000,57976,146.25000000000,-18.50000000000,1850,14625,1850_14625
1,474,474,SC #90507,Herbert,Herbert,1505740.42004000000,-2068914.84733000000,58317,146.30000000000,-18.55000000000,1855,14630,1855_14630
1,475,475,SC #206,Herbert,Herbert,1501076.47348000000,-2068349.90651000000,58316,146.25000000000,-18.55000000000,1855,14625,1855_14625
1,476,476,SC #422,Herbert,Herbert,1481700.02907000000,-2070479.32028000000,58653,146.10000000000,-18.60000000000,1860,14610,1860_14610
1,477,477,SC #220,Herbert,Herbert,1464730.12036000000,-2067244.59132000000,58650,145.95000000000,-18.60000000000,1860,14595,1860_14595
1,478,478,SC #369,Herbert,Herbert,1496419.02476000000,-2067371.06113000000,58315,146.20000000000,-18.55000000000,1855,14620,1855_14620
1,479,479,SC #219,Herbert,Herbert,1473761.36015000000,-2068032.12047000000,58651,146.00000000000,-18.60000000000,1860,14600,1860_14600
1,480,480,SC #217,Herbert,Herbert,1473582.16348000000,-2072028.69957000000,58651,146.00000000000,-18.60000000000,1860,14600,1860_14600
1,481,481,SC #209,Herbert,Herbert,1477421.56640000000,-2070700.85269000000,58652,146.05000000000,-18.60000000000,1860,14605,1860_14605
1,482,482,SC #218,Herbert,Herbert,1465983.08686000000,-2071819.71235000000,58990,145.95000000000,-18.65000000000,1865,14595,1865_14595
1,483,483,SC #232,Herbert,Herbert,1454936.94947000000,-2075995.56738000000,59328,145.85000000000,-18.70000000000,1870,14585,1870_14585
1,484,484,SC #233,Herbert,Herbert,1450211.26700000000,-2077895.64359000000,59327,145.80000000000,-18.70000000000,1870,14580,1870_14580
1,485,485,SC #208,Herbert,Herbert,1493483.61658000000,-2071889.59356000000,58655,146.20000000000,-18.60000000000,1860,14620,1860_14620
1,486,486,SC #207,Herbert,Herbert,1493386.10783000000,-2073669.95062000000,58655,146.20000000000,-18.60000000000,1860,14620,1860_14620
1,487,487,SC #370,Herbert,Herbert,1499172.63901000000,-2075273.07052000000,58996,146.25000000000,-18.65000000000,1865,14625,1865_14625
1,488,488,SC #466,Herbert,Herbert,1484020.93124000000,-2076069.17575000000,58993,146.10000000000,-18.65000000000,1865,14610,1865_14610
1,489,489,SC #210,Herbert,Herbert,1472675.89704000000,-2075965.77930000000,58991,146.00000000000,-18.65000000000,1865,14600,1865_14600
1,490,490,SC #216,Herbert,Herbert,1463857.05342000000,-2075522.47747000000,58990,145.95000000000,-18.65000000000,1865,14595,1865_14595
1,491,491,SC #375,Herbert,Herbert,1483707.61552000000,-2082341.62207000000,59333,146.10000000000,-18.70000000000,1870,14610,1870_14610
1,492,492,SC #215,Herbert,Herbert,1458855.00401000000,-2084742.64469000000,59669,145.90000000000,-18.75000000000,1875,14590,1875_14590
1,493,493,SC #90508,Herbert,Herbert,1502733.47155000000,-2079144.29479000000,58997,146.30000000000,-18.65000000000,1865,14630,1865_14630
1,494,494,SC #373,Herbert,Herbert,1491309.76964000000,-2080938.08908000000,59335,146.20000000000,-18.70000000000,1870,14620,1870_14620
1,495,495,SC #211,Herbert,Herbert,1468750.93503000000,-2079141.73515000000,59331,146.00000000000,-18.70000000000,1870,14600,1870_14600
1,496,496,SC #374,Herbert,Herbert,1498582.70158000000,-2081169.52774000000,59336,146.25000000000,-18.70000000000,1870,14625,1870_14625
1,497,497,SC #385,Herbert,Herbert,1481407.15291000000,-2085050.80226000000,59673,146.10000000000,-18.75000000000,1875,14610,1875_14610
1,498,498,SC #212,Herbert,Herbert,1467084.37560000000,-2085056.65560000000,59670,145.95000000000,-18.75000000000,1875,14595,1875_14595
1,499,499,SC #371,Herbert,Herbert,1499553.41580000000,-2088726.21507000000,59677,146.30000000000,-18.75000000000,1875,14630,1875_14630
1,500,500,SC #372,Herbert,Herbert,1497857.07668000000,-2085578.13945000000,59336,146.25000000000,-18.70000000000,1870,14625,1870_14625
1,501,501,SC #384,Herbert,Herbert,1475618.68808000000,-2090286.89393000000,60012,146.05000000000,-18.80000000000,1880,14605,1880_14605
1,502,502,SC #382,Herbert,Herbert,1485432.12999000000,-2093577.63919000000,60014,146.15000000000,-18.80000000000,1880,14615,1880_14615
1,503,503,SC #213,Herbert,Herbert,1469786.12194000000,-2096761.70392000000,60351,146.00000000000,-18.85000000000,1885,14600,1885_14600
1,504,504,SC #214,Herbert,Herbert,1462208.43467000000,-2093240.96422000000,60010,145.95000000000,-18.80000000000,1880,14595,1880_14595
1,505,505,SC #383,Herbert,Herbert,1476837.72449000000,-2096944.77476000000,60352,146.05000000000,-18.85000000000,1885,14605,1885_14605
1,506,506,SC #90513,Herbert,Herbert,1495981.16415000000,-2094915.38511000000,60016,146.25000000000,-18.80000000000,1880,14625,1880_14625
1,507,507,SC #381,Herbert,Herbert,1492990.31035000000,-2096145.21209000000,60015,146.20000000000,-18.80000000000,1880,14620,1880_14620
1,508,508,SC #379,Herbert,Herbert,1492729.10503000000,-2097684.04761000000,60355,146.20000000000,-18.85000000000,1885,14620,1885_14620
1,509,509,SC #380,Herbert,Herbert,1491294.44835000000,-2097221.36120000000,60355,146.20000000000,-18.85000000000,1885,14620,1885_14620
1,510,510,SC #469,Herbert,Herbert,1481598.94284000000,-2102246.43840000000,60693,146.10000000000,-18.90000000000,1890,14610,1890_14610
1,511,511,SC #376,Herbert,Herbert,1496278.85205000000,-2099766.76494000000,60356,146.25000000000,-18.85000000000,1885,14625,1885_14625
1,512,512,SC #386,Herbert,Herbert,1486865.00981000000,-2101551.84260000000,60354,146.15000000000,-18.85000000000,1885,14615,1885_14615
1,513,513,SC #377,Herbert,Herbert,1489124.10470000000,-2104334.06746000000,60695,146.20000000000,-18.90000000000,1890,14620,1890_14620
1,514,514,SC #378,Herbert,Herbert,1494503.63051000000,-2099333.85827000000,60356,146.25000000000,-18.85000000000,1885,14625,1885_14625
1,515,515,SC #387,Herbert,Herbert,1494169.04030000000,-2104124.10377000000,60696,146.25000000000,-18.90000000000,1890,14625,1890_14625
1,516,516,SC #388,Herbert,Herbert,1496645.32907000000,-2107724.52306000000,60696,146.25000000000,-18.90000000000,1890,14625,1890_14625
