ID,VALUE
ABC-1-1,7.4
ABC-220-1,4.2
ABC-48-1,7.3
ABC-52-1,9.6
ABC-6-1,6.8
ACL-127-1,0.8
ACL-137-1,0.7
ACL-138-1,1.5
ACL-63-1,0.7
ARD-507-1,1.8
ARD-9000-1,1.3
ARD-9001-1,0.6
ARD-9003-1,0.7
ARD-9005-1,2.2
ARD-9006-1,1.2
ARD-9007-1,2.3
ARD-9008-1,2.4
ARD-9009-1,3
ARD-9010-1,3.3
ARD-9011-1,0.6
ARD-9012-1,0.5
ARD-9013-1,1.6
ARD-9014-1,0.5
ASOM-10-1,1.8
ASOM-12-1,1.6
ASOM-13-1,2.3
ASOM-14-1,0.75
ASOM-15-1,0.75
ASOM-16-1,0.75
ASOM-17-1,0.75
ASOM-23-1,2.2
ASOM-24-1,0.75
ASOM-25-1,0.75
ASOM-26-1,1.5
ASOM-27-1,2.4
ASOM-29-1,3.3
ASOM-30-1,1.8
ASOM-9-1,2.8
ATB-6000-1,0.8
ATB-6001-1,0.7
ATB-6002-1,1
ATB-6003-1,3.2
ATB-6004-1,2.4
ATB-6007-1,0.6
ATB-6008-1,0.5
ATB-6010-1,0.6
ATB-6011-1,0.4
ATB-6012-1,5.1
ATB-6013-1,5
ATB-6015-1,4.4
ATB-6016-1,10.3
ATB-6017-1,3.5
ATB-6018-1,3.9
ATB-6019-1,3.8
ATB-6020-1,0.5
ATB-6021-1,1.3
ATB-6022-1,0.5
ATB-6024-1,0.9
ATB-6025-1,0.8
ATB-6026-1,0.6
ATB-6028-1,0.5
ATB-6029-1,2.05
ATB-6030-1,0.4
ATB-6031-1,1.4
BAB-440-1,1.1
BAB-9001-1,0.5
BAB-9002-1,3.3
BAB-9003-1,0.4
BAB-9004-1,0.4
BAB-9005-1,2.1
BAB-9006-1,4.4
BAB-9007-1,6
BAB-9008-1,11.9
BAB-9009-1,8.9
BAB-9010-1,3
BAB-9011-1,3.7
BAB-9012-1,1.3
BAB-9013-1,2.4
BAB-9014-1,4.4
BAN-1088-1,2.98
BAN-1093-1,2.1
BAN-1142-1,1.4
BAN-1147-1,2.6
BAN-150-1,0.9
BAN-1601-1,8.2
BAN-1625-1,3
BAN-1648-1,2.8
BAN-165-1,1.6
BAN-1805-1,0.6
BAN-181-1,0.9
BAN-1811-1,1.2
BAN-1812-1,0.4
BAN-185-1,4.8
BAN-1971-1,1.3
BAN-2015-1,2.3
BAN-2090-1,2.4
BAN-2096-1,3.288
BAN-2097-1,3.4
BAN-2099-1,2.4
BAN-21-1,2.6
BAN-2105-1,5.2
BAN-2128-1,5.4
BAN-2164-1,4.7
BAN-2256-1,5.1
BAN-2257-1,6.9
BAN-2258-1,4.4
BAN-2259-1,4.6
BAN-2260-1,1.6
BAN-2262-1,4.1
BAN-2263-1,8.8
BAN-2264-1,5.2
BAN-2265-1,6.7
BAN-2298-1,2.7
BAN-2597-1,2.7
BAN-2598-1,3.1
BAN-271-1,4.3
BAN-286-1,3.2
BAN-289-1,2.8
BAN-301-1,1
BAN-302-1,0.4
BAN-339-1,3.6
BAN-405-1,1.6
BAN-474-1,6
BAN-5-1,1.4
BAN-507-1,4.3
BAN-508-1,5.7
BAN-510-1,4.5
BAN-511-1,5
BAN-513-1,6.3
BAN-516-1,6
BAN-522-1,6.8
BAN-599-1,4.4
BAN-6-1,3.7
BAN-63-1,1.9
BAN-657-1,7.2
BAN-657-1,4.5
BAN-682-1,12.1
BAN-708-1,3.8
BAN-723-1,3.9
BAN-748-1,4.9
BAN-790-1,4.7
BAN-804-1,2.6
BAN-835-1,3.6
BAN-858-1,4.3
BAN-859-1,7.4
BAN-865-1,2.5
BAN-881-1,5.1
BAN-940-1,4.5
BAN-947-1,3.9
BAN-95-1,0.4
BAN-97-1,3.7
BBC-6003-1,3
BBC-6006-1,12
BDS-1142-2,3.9
BDS-1186-2,0.4
BDS-1225-2,1.6
BDS-1313-2,1.7
BDS-1381-2,1
BDS-1397-2,0.9
BDS-1431-2,3.3
BDS-1502-1,0.4
BDS-198-2,2.5
BDS-209-2,1.9
BDS-265-2,3.7
BDS-276-2,2.9
BDS-369-2,1.1
BDS-589-2,3.4
BDS-689-2,3.8
BDS-755-2,3
BDS-800-2,2.4
BDS-877-2,2.2
BER-9000-1,0.4
BER-9001-1,1.7
BER-9002-1,1.1
BER-9003-1,4.3
BER-9004-1,4.7
BER-9004-1,5.5
BER-9006-1,3.6
BER-9007-1,1.5
BER-9009-1,0.4
BER-9011-1,0.4
BER-9016-1,1.6
BER-9017-1,0.9
BER-9018-1,0.5
BER-9020-1,1.4
BER-9021-1,1.6
BER-9027-1,4.1
BER-9028-1,4.7
BER-9028-1,5.3
BER-9029-1,2.9
BER-9030-1,4.6
BER-9030-1,4.6
BER-9032-1,2
BER-9034-1,2.4
BER-9040-1,1.3
BER-9041-1,2.3
BER-9042-1,2.8
BER-9046-1,1.8
BER-9047-1,2.5
BER-9050-1,1.5
BER-9051-1,1.1
BER-9052-1,2
BER-9053-1,2.1
BER-9054-1,1.6
BLS-9000-1,1.6
BLS-9001-1,3.3
BLS-9005-1,1.6
BLS-9007-1,3.2
BLS-9008-1,1.3
BLS-9009-1,2.4
BLS-9010-1,3.4
BMSE-21-1,1.5
BMSE-60-1,1.5
BMSE-62-1,7.2
BPA-1-1,0.4
BPA-13-1,0.4
BPA-22-1,0.4
BPA-3-1,0.4
BPA-6-1,0.4
BPS-9007-1,7.95
BPS-9008-1,1.65
BPS-9009-1,6.6
BPS-9010-1,8.3
BPS-9012-1,6.15
BPS-9013-1,3.7
BPS-9015-1,3.55
BRB-6020-1,4.3
BRCL-2-1,4
BRCL-51-1,9.5
BRCL-61-1,6.4
BRL-9000-1,3.3
BRL-9001-1,4
BRL-9002-1,1.5
BRL-9003-1,2.6
BRL-9004-1,1.5
BRL-9005-1,1.7
BRL-9006-1,2.7
BRL-9007-1,1.9
BRL-9008-1,4.5
BRL-9010-1,2.9
BRL-9011-1,1.1
BRL-9012-1,0.5
BRL-9013-1,2.8
BRL-9014-1,3.1
BRL-9016-1,2.6
BRL-9017-1,2.5
BRL-9018-1,0.6
BRL-9019-1,1.7
BRL-9020-1,1.9
BRL-9021-1,6.6
BRL-9022-1,4.6
BRL-9024-1,1.6
BRL-9025-1,3.1
BRL-9026-1,1.1
BRL-9027-1,1.7
BRL-9028-1,1.6
BRL-9029-1,1.5
BRL-9030-1,2.1
BRL-9031-1,6.9
BRL-9032-1,5.5
BRL-9034-1,5.8
BRL-9036-1,5.9
BRL-9039-1,2.9
BRL-9041-1,3.6
BRL-9043-1,0.9
BRL-9044-1,5.4
BRL-9045-1,0.7
BRL-9047-1,1.6
BRL-9048-1,2
BRL-9053-1,0.9
BRL-9054-1,0.7
BRL-9056-1,0.9
BRL-9059-1,1.4
BRL-9065-1,5.1
BRL-9067-1,5.6
BRS-6011-1,3.1
BRS-6015-1,3.4
BRS-6050-1,3.1
BRS-6059-1,3.5
BRS-6077-1,3.8
BRS-6079-1,3.5
BRS-6081-1,3.9
BSA-11-1,0.4
BSA-15-1,1.5
BSA-17-1,0.7
BSA-22-1,0.4
BSA-23-1,0.4
BSA-25-1,0.5
BSA-26-1,0.4
BSA-28-1,0.4
BSA-7-1,0.4
BSA-8-1,0.5
BUN-103-1,0.4
BUN-108-1,1.2
BUN-109-1,4.1
BUN-110-1,0.9
BUN-111-1,2.4
BUN-112-1,2.3
BUN-113-1,2
BUN-114-1,0.4
BUN-115-1,1
BUN-116-1,1.9
BUN-117-1,0.8
BUN-120-1,1.6
BUN-122-1,0.7
BUN-123-1,1.7
BUN-6001-1,2.2
BUN-6002-1,0.9
CBW-1024-1,2.6
CBW-1025-1,1
CBW-1026-1,1.8
CBW-263-1,1.2
CBW-264-1,0.4
CBW-265-1,0.6
CBW-266-1,0.8
CBW-267-1,1.2
CBW-268-1,0.4
CBW-269-1,1
CBW-270-1,1.7
CBW-271-1,1.5
CBW-272-1,1.5
CBW-273-1,2.2
CBW-274-1,0.7
CBW-275-1,0.5
CBW-276-1,1
CBW-277-1,0.4
CBW-278-1,0.6
CBW-279-1,1
CBW-280-1,0.5
CBW-281-1,0.4
CBW-282-1,0.4
CBW-283-1,0.5
CBW-284-1,2.8
CBW-285-1,0.6
CBW-286-1,2
CBW-287-1,0.5
CBW-288-1,1.6
CBW-9000-1,0.6
CBW-9001-1,0.5
CBW-9002-1,1.3
CBW-9003-1,1.1
CBW-9004-1,0.4
CBW-9005-1,0.5
CBW-9006-1,0.6
CBW-9007-1,0.7
CBW-9008-1,1
CBW-9009-1,0.5
CBW-9010-1,0.4
CBW-9011-1,0.4
CBW-9012-1,1.5
CBW-911-1,0.5
CBW-918-1,0.7
CCL-325-1,0.8
CIS-9000-1,1.7
CIS-9001-1,3.3
CIS-9003-1,3.5
CIS-9004-1,6.9
CIS-9005-1,2.1
CIS-9006-1,2.2
CIS-9007-1,1.4
CIS-9008-1,2.1
CIS-9009-1,1.9
CIS-9010-1,2.5
CIS-9011-1,2.1
CIS-9012-1,1.7
CIS-9013-1,4
CIS-9014-1,3.4
CQCS-2-1,2.5
CQH-1018-1,1.4
CQH-1019-1,2.4
CQH-1109-1,1.55
CQH-128-1,1.2
CQH-210-1,0.8
CQH-248-1,2.3
CQH-250-1,3
CQH-26-1,1.3
CQH-289-1,3.4
CQH-295-1,1.2
CQH-331-1,1.3
CQH-384-1,0.7
CQH-401-1,2.6
CQH-412-1,1.2
CQH-423-1,1.4
CQH-455-1,0.7
CQH-615-1,1.4
CQH-616-1,7.3
CQH-695-1,1.3
CQH-802-1,1.3
CQH-806-1,1.1
CQH-820-1,3.4
CQH-821-1,3.3
CQH-822-1,2.7
CQH-832-1,1
CQH-946-1,5.9
CTAP-1-1,4.2
CTAP-106-1,2.5
CTAP-119-1,1.7
CTAP-146-1,4.4
CTAP-177-1,8.2
CTAP-189-1,1.5
CTAP-211-1,4
CTAP-228-1,1.5
CTAP-238-1,1.5
CTAP-245-1,1.6
CTAP-247-1,1.5
CTAP-5-1,2.6
CTAP-59-1,4.2
CTAP-8-1,0.75
CTI-310-1,2.9
CTI-311-1,1.2
CTI-314-1,3.2
CTI-315-1,1.2
CTI-316-1,3
CTI-317-1,1.3
CTI-318-1,3
CTI-320-1,1.9
CTI-321-1,1.1
CTI-327-1,1.4
CTI-328-1,2.2
CTI-412-1,0.7
CTI-9005-1,1.5
CTI-9008-1,2.2
CTI-9009-1,3.8
CTI-9012-1,2
CTI-9013-1,2.9
CTI-9027-1,7.5
CTI-9033-1,3.9
CTI-9035-1,2
CTI-9037-1,2
CTI-9038-1,0.8
CYP-392-1,2.8
CYP-836-1,0.4
DHR-6001-1,2.85
EIL-1-1,8
EIL-15-1,6
EIL-16-1,9
EIL-17-1,6
EIL-18-1,4
EIL-19-1,6
EIL-2-1,8
EIL-20-1,6
EIL-21-1,6
EIL-22-1,4.8
EIL-23-1,1
EIL-24-1,1.7
EIL-25-1,1.8
EIL-26-1,2.3
EIL-27-1,2.4
EIL-28-1,1.7
EIL-3-1,6
EIL-31-1,3.3
EIL-33-1,6.6
EIL-34-1,4.9
EIL-35-1,5.2
EIL-36-1,3.8
EIL-38-1,1.3
EIL-4-1,8
EIL-40-1,4.9
EIL-42-1,5.7
EIL-44-1,4.4
EIL-46-1,5.1
EIL-48-1,2.3
EIL-5-1,7
EIL-50-1,3.7
EIL-51-1,3
EIL-53-1,4
EIL-55-1,5.9
EIL-56-1,5.6
EIL-58-1,6.9
EIL-59-1,7.3
EIL-6-1,8
EIL-62-1,11.2
EIL-63-1,10.3
EIL-64-1,11.6
EIL-65-1,15.7
EIL-66-1,10.9
EIL-68-1,10.4
EIL-69-1,16
EIL-7-1,9
EIL-71-1,13.5
EIL-72-1,12.1
EIL-75-1,13.3
EIL-76-1,13.6
EIL-77-1,8.7
EIL-78-1,9.9
EIL-79-1,6.3
EIL-80-1,7.5
EIL-82-1,11.3
EIL-83-1,8.9
EIL-84-1,6.6
EIR-9001-1,8.73
EIR-9002-1,6.99
EIR-9003-1,5.49
EIR-9004-1,6.85
EIR-9005-1,1.2
EIR-9006-1,1.22
EIR-9007-1,1.01
EIR-9008-1,1.58
EIR-9009-1,1.26
EIR-9012-1,5.98
EIR-9012-1,7.48
EIR-9013-1,6.8
EIR-9014-1,0.62
EIR-9015-1,0.725
EIR-9016-1,1.485
EIR-9017-1,2.045
EIR-9019-1,3.9
EIR-9020-1,2.6
EIR-9022-1,1
EIR-9023-1,4.9
EIR-9024-1,5.6
EIR-9025-1,5.1
EIR-9027-1,2.5
EIR-9028-1,0.8
EIR-9030-1,3.05
EIR-9031-1,6.9
EIR-9034-1,1.6
EIR-9035-1,2.7
EIR-9037-1,3.5
EIR-9042-1,4.3
EIR-9043-1,3.8
EIR-9044-1,4.1
EIR-9046-1,3.6
EIR-9047-1,4.8
EIR-9048-1,2.9
EIR-9049-1,4.5
EIR-9050-1,4.8
EIR-9052-1,4
EME-9008-1,6
ESH-6000-1,6.6
ESH-6001-1,6.5
ESH-6002-1,6.1
ESH-6003-1,6.2
ESH-6004-1,7
ESH-6005-1,7.6
ESH-6006-1,5.7
ESH-6007-1,14.5
ESH-6010-1,0.8
ESH-6012-1,4.6
ESH-6013-1,4.8
ESH-6014-1,4.8
ESH-6015-1,3.9
ESH-6016-1,11.3
ESH-6017-1,11.7
ESH-6019-1,6.3
ESH-6020-1,9.3
FSE-184-1,4.5
FSE-200-1,4.2
FSE-210-1,5.6
FSE-223-1,4.2
FSE-235-1,5.3
FSE-273-1,3.9
FSE-31-1,1.8
FSE-81-1,0.75
GAY-6002-1,2.9
GCL-9000-1,3.942
GCL-9001-1,8.197
GCL-9002-1,3.63
GCL-9004-1,1.598
GCL-9005-1,0.785
GCL-9006-1,2.179
GCL-9007-1,1.741
GCL-9008-1,1.177
GCL-9009-1,0.751
GULLY-64-1,1
GULLY-66-1,2
GULLY-73-1,2.7
HRT-1-1,4
HRT-10-1,0.9
HRT-11-1,1.2
HRT-12-1,0.9
HRT-13-1,0.9
HRT-3-1,1.1
HRT-4-1,1.2
HRT-5-1,1.6
HRT-6-1,0.9
HTC-9000-1,3.4
HTC-9001-1,3.2
HTC-9002-1,2.7
HTC-9003-1,2.9
HTC-9005-1,5
HTC-9006-1,3.75
HTN-9000-1,2.8
HTN-9001-1,1.2
HTN-9002-1,1.5
HTN-9003-1,1.9
HTN-9004-1,1.6
HTN-9005-1,2.5
HTN-9006-1,5.8
HTN-9008-1,1.2
HTN-9009-1,2.3
HTN-9010-1,1.7
HTN-9011-1,1.3
HTR-9001-1,1.4
HTR-9002-1,1.1
HTR-9003-1,1.3
HTR-9004-1,1.4
HTR-9005-1,1.2
HTR-9008-1,3.447
HTR-9009-1,2.943
HTR-9010-1,0.4
HTS-152-1,0.6
HTS-153-1,0.8
HTS-161-1,0.6
HTS-195-1,1.1
HTS-204-1,2.2
HTS-208-1,1
HTS-209-1,1.7
HTS-323-1,2
HTS-328-1,1.6
HTS-372-1,3.7
HTS-381-1,7.8
HTS-392-1,1.4
HTS-393-1,0.9
HTS-397-1,1.1
HTS-399-1,0.8
HTS-402-1,1.9
HTS-460-1,1
HTS-470-1,1
HTS-571-1,0.5
HTS-596-1,1.7
HTS-608-1,1.2
HTS-660-1,2.5
HTS-9001-1,1.2
HTS-9002-1,2.8
HTS-9003-1,3.7
HTS-9004-1,4.9
HTS-9005-1,3.1
HTS-9006-1,4.9
HTS-9007-1,2.8
HTS-9008-1,1.7
HTS-9009-1,3.2
HTS-9010-1,0.6
HTS-9011-1,2
HTS-9012-1,1.7
HTS-9013-1,0.6
HTS-98-1,2.4
INK-8000-1,4.2
INK-8001-1,2.5
INK-8002-1,1.5
INK-8003-1,1.9
INK-8004-1,0.6
INK-9000-1,7.4
INK-9001-1,7
INK-9002-1,9.2
INK-9003-1,10.2
INK-9004-1,3.5
INK-9005-1,6.7
INK-9006-1,6.1
INK-9007-1,6.9
INK-9008-1,6.4
INK-9009-1,7.1
INK-9010-1,7.3
INK-9013-1,2.3
INK-9014-1,3.8
IPB-1-1,3.4
IPB-10-1,4
IPB-2-1,3
IPB-4-1,8.8
IPB-5-1,6.8
IPB-6-1,5.1
IPB-7-1,1.3
IPB-8-1,3.7
IPB-9-1,7.8
JFD-9000-1,1.2
JFD-9001-1,2.4
JFD-9003-1,1.1
JFD-9004-1,2.3
JFD-9005-1,1.2
JFD-9006-1,0.8
JFD-9007-1,1.9
JFD-9008-1,2.9
JFD-9009-1,0.6
JFD-9010-1,1.9
JFD-9011-1,3.8
JFD-9012-1,3.5
KAI-6001-1,3.2
KAI-6004-1,3.2
KAI-6006-1,3.6
KCM-9001-1,9.8
KCM-9002-1,8
KCM-9003-1,1.1
KCM-9005-1,6.9
KCM-9006-1,5.3
KCM-9007-1,7.2
KCM-9008-1,5
KCM-9009-1,6
KCM-9010-1,7.6
KCM-9011-1,4.7
KCM-9012-1,2.4
KCM-9013-1,10.7
KCM-9014-1,7.9
KCM-9015-1,4.2
KCM-9016-1,3.8
KCM-9017-1,4.5
KCM-9019-1,6.8
KCM-9022-1,4.7
KCM-9024-1,1
KCM-9027-1,8.5
KCM-9028-1,10
KCM-9029-1,3
KCM-9030-1,2.5
KCM-9031-1,2.4
KCM-9032-1,2.5
KCM-9033-1,5.8
KCM-9035-1,4
KCM-9036-1,5.2
KCM-9040-1,5.4
KCM-9041-1,3.5
KCM-9042-1,4
KCM-9043-1,5.2
KCM-9044-1,5.9
KCM-9045-1,7.3
KCM-9046-1,8.2
KCM-9047-1,8.5
KCM-9048-1,1
KCM-9050-1,2.8
KCM-9051-1,7.6
KCM-9052-1,4.4
KCM-9053-1,4.3
KCM-9054-1,7.8
LAK-9000-1,4.2
LAK-9001-1,5
LAK-9002-1,7.9
LAK-9003-1,13.2
LAK-9004-1,6.1
LAK-9005-1,5
LAK-9006-1,11
LDR-9000-1,8.4
LDR-9001-1,7.1
LDR-9003-1,3.95
LDR-9004-1,7.3
LDR-9005-1,2.3
LDR-9006-1,3
LFZ-464-1,1
LFZ-467-1,1.5
LFZ-468-1,0.4
LFZ-471-1,2.7
LFZ-472-1,4.7
LFZ-473-1,4.8
LFZ-486-1,1.5
LFZ-487-1,1
LFZ-488-1,3.3
LFZ-489-1,2.9
LFZ-490-1,4
LFZ-491-1,6.2
LFZ-494-1,0.5
LFZ-496-1,4.4
LFZ-497-1,2.5
LFZ-499-1,3.7
LFZ-500-1,3.3
LFZ-502-1,4.2
LFZ-503-1,5.1
LFZ-504-1,2.6
LFZ-505-1,4.4
LFZ-506-1,1.6
LFZ-507-1,1.3
LIA-15-1,3.3
LIA-194-1,6.8
LIA-195-1,4.3
LIA-211-1,9.7
LIA-261-1,8.5
LIA-265-1,4.4
LIA-267-1,1.5
LIA-86-1,3.5
MAK-106-1,3
MAK-13-1,3.4
MBN-54-1,12.9
MBN-6-1,4.2
MBP-6006-1,0.6
MCL-9000-1,1.6
MCL-9001-1,1.5
MCL-9002-1,1.5
MCL-9003-1,6.4
MCL-9004-1,1.4
MCL-9005-1,4.3
MCL-9006-1,3.7
MCL-9007-1,1
MCL-9008-1,4.6
MCL-9009-1,3.1
MCL-9010-1,1.9
MCL-9011-1,1.15
MCL-9012-1,2
MCL-9013-1,1.3
MCL-9014-1,2.3
MCL-9015-1,5.1
MCL-9016-1,0.9
MCL-9017-1,0.8
MCL-9018-1,1.3
MCL-9019-1,5.5
MCL-9020-1,0.8
MCL-9022-1,2.7
MCL-9023-1,3.2
MCL-9024-1,2.7
MCL-9025-1,1.4
MCL-9026-1,1.2
MCL-9027-1,1.9
MCL-9028-1,3.9
MCL-9029-1,1.2
MCL-9030-1,0.9
MCL-9031-1,0.6
MCL-9032-1,3.6
MCL-9033-1,0.5
MCL-9034-1,0.9
MCL-9035-1,1.1
MCL-9036-1,0.7
MCL-9037-1,3.3
MCL-9038-1,4.5
MCL-9039-1,1.7
MCL-9040-1,5
MCL-9041-1,3.9
MCL-9042-1,1.8
MCL-9043-1,0.4
MCL-9043-1,0.4
MCL-9044-1,0.6
MCL-9045-1,3.1
MCL-9045-1,4.2
MCL-9046-1,1.15
MCL-9047-1,2.5
MCL-9048-1,0.7
MCL-9049-1,3
MCL-9050-1,2.2
MCL-9051-1,1.5
MCL-9052-1,3.6
MCL-9053-1,1.9
MCL-9054-1,1.4
MCL-9055-1,7.3
MCL-9056-1,0.9
MCL-9057-1,3.3
MCL-9058-1,0.6
MCL-9059-1,1.6
MCL-9060-1,1
MGR-9001-1,11.6
MGR-9002-1,4.1
MGR-9003-1,3
MGR-9004-1,0.8
MGR-9005-1,2.1
MGR-9007-1,0.6
MGR-9008-1,0.6
MHB-386-1,3.9
MHB-447-1,0.4
MHB-448-1,1.6
MHB-449-1,2.6
MHB-450-1,0.7
MHB-451-1,0.4
MHB-558-1,2.8
MHB-57-1,1.6
MIPS-1-1,2.3
MIPS-19-1,1.9
MIPS-2-1,6.6
MIPS-46-1,1.6
MIPS-47-1,3.2
MISCQ-300-1,1.5
MISCQ-301-1,1.8
MISCQ-304-1,1.5
MISCQ-305-1,2
MISCQ-306-1,2
MISCQ-307-1,2
MISCQ-308-1,2
MISCQ-309-1,1.5
MISCQ-311-1,2
MISCQ-42-1,2.5
MISCQ-44-1,1.5
MISCQ-45-1,1.5
MISCQ-49-1,1.9
MISCQ-50-1,1.5
MISCQ-53-1,1.5
MISCQ-54-1,1.5
MISCQ-56-1,1.5
MISCQ-58-1,8.3
MISCQ-66-1,1.5
MISCQ-67-1,1.5
MISCQ-68-1,1.5
MISCQ-69-1,2.8
MISCQ-70-1,2.9
MISCQ-71-1,1.5
MISCQ-72-1,1.5
MISCQ-73-1,3.2
MISCQ-74-1,1.5
MISCQ-75-1,2
MISCQ-76-1,2
MISCQ-77-1,1.5
MISCQ-78-1,1.5
MISCQ-79-1,2.5
MISCQ-80-1,2.3
MISCQ-81-1,2.4
MISCQ-82-1,1.5
MISCQ-83-1,1.5
MISCQ-86-1,1.5
MISCQ-87-1,1.5
MISCQ-88-1,1.5
MISNQ-101-1,1.5
MISNQ-102-1,2
MISNQ-103-1,2.6
MISNQ-109-1,1.5
MISNQ-115-1,2.45
MISNQ-128-1,1.9
MISNQ-139-1,1.5
MISNQ-145-1,1.5
MISNQ-147-1,4.3
MISNQ-162-1,1.8
MISNQ-163-1,1.5
MISNQ-164-1,1.6
MISNQ-166-1,2.7
MISNQ-167-1,1.5
MISNQ-170-1,4.5
MISNQ-171-1,3.1
MISNQ-172-1,1.5
MISNQ-175-1,1.5
MISNQ-177-1,5.4
MISNQ-178-1,7.9
MISNQ-179-1,2.3
MISNQ-181-1,2.7
MISNQ-183-1,1.5
MISNQ-185-1,1.5
MISNQ-186-1,1.5
MISNQ-189-1,7.7
MISNQ-191-1,1.5
MISNQ-192-1,1.5
MISNQ-195-1,1.5
MISNQ-197-1,5.6
MISNQ-203-1,1.5
MISNQ-206-1,1.5
MISNQ-208-1,1.5
MISNQ-209-1,4.3
MISNQ-210-1,1.6
MISNQ-212-1,2.7
MISNQ-219-1,2.4
MISSE-101-1,3
MISSE-102-1,1.5
MISSE-111-1,1.5
MISSE-150-1,2.6
MISSE-151-1,5.9
MISSE-162-1,2
MISSE-163-1,7.1
MISSE-164-1,3.7
MJA-6000-1,3.3
MJA-6001-1,2.7
MJA-6004-1,0.7
MJA-6005-1,0.9
MJA-6006-1,1.6
MJA-6007-1,0.6
MJA-6010-1,5.4
MJA-6011-1,6.2
MJA-6012-1,7.2
MJA-6014-1,6
MJA-6015-1,16.6
MJA-6018-1,9.9
MJA-6021-1,1.5
MJA-6022-1,2.8
MJA-6023-1,1.7
MJA-6024-1,1.6
MLG-9000-1,1.65
MLG-9001-1,2.7
MLG-9002-1,2.3
MLG-9002-1,5
MLG-9003-1,4.4
MLG-9003-1,4.3
MLG-9004-1,2.8
MLG-9005-1,3.9
MLG-9006-1,3.2
MLG-9007-1,4.85
MLG-9008-1,2.4
MLG-9009-1,2
MLG-9009-1,3.6
MLG-9010-1,2.3
MLG-9011-1,1.6
MLG-9011-1,3.8
MLG-9012-1,2.45
MON-6000-1,1.5
MON-6001-1,0.4
MON-6002-1,5.75
MON-6003-1,0.55
MON-6005-1,0.8
MON-6006-1,1.3
MON-6007-1,0.9
MON-6009-1,0.4
MON-6010-1,0.45
MON-6011-1,0.4
MON-6012-1,0.55
MON-6013-1,0.9
MON-6014-1,0.75
MON-6015-1,2.05
MON-6091-1,3.7
MON-6092-1,3.2
MON-6093-1,2.8
MON-6094-1,1
MON-6095-1,4.5
MRC-1058-1,0.6
MRC-1061-1,1.9
MRC-1072-1,7.4
MRC-1116-1,12.2
MRC-1117-1,4
MRC-22-1,2
MRC-233-1,0.8
MRC-268-1,2.4
MRC-313-1,1.8
MRC-36-1,1.4
MRC-372-1,2
MRC-515-1,2.4
MRC-769-1,1.7
MRC-830-1,2.5
MRC-859-1,0.9
MRC-866-1,2
MRC-90-1,1.6
MRC-993-1,1.2
MSL-217-1,3.2
MTL-282-1,1
MTL-299-1,2
MTL-315-1,1.2
MTL-350-1,1.2
MTL-576-1,0.7
MTL-583-1,1
MTL-9002-1,1.5
MTL-9003-1,4.6
MTL-9004-1,0.8
MTL-9005-1,0.5
MTL-9006-1,2.5
NCD-1031-1,5.5
NCD-1032-1,3.4
NCD-1035-1,7.5
NCD-1036-1,3.7
NCD-1038-1,3.6
NCD-125-1,1.7
NCD-127-1,1.4
NCD-143-1,0.8
NCD-224-1,4.3
NCD-272-1,2.8
NCD-276-1,2.5
NCD-285-1,3.6
NCD-339-1,1.6
NCD-344-1,2.2
NCD-356-1,4.2
NCD-364-1,0.4
NCD-37-1,3.4
NCD-393-1,5.6
NCD-44-1,1.1
NCD-452-1,4.9
NCD-51-1,1.8
NCD-52-1,4.4
NCD-58-1,4.8
NCD-71-1,6
NCD-72-1,5
NCD-83-1,1.2
NCD-885-1,2.3
NCD-89-1,5.1
NHC-9000-1,3.3
NHC-9001-1,5.3
NHC-9002-1,1
NHC-9003-1,1
NHC-9004-1,2.2
NHC-9005-1,2.9
NHC-9006-1,1.65
NHC-9007-1,1.4
NLH-9000-1,5.4
NLH-9001-1,2.2
NLH-9002-1,4
NLH-9003-1,4.1
NLH-9004-1,3
NLH-9005-1,2.8
NLH-9007-1,1.9
NLH-9008-1,4.3
NLH-9009-1,4.1
NLH-9010-1,4.7
NLH-9011-1,2.3
NLH-9012-1,3.7
NLH-9013-1,3.4
P2REEF-15-1,2.3
P2REEF-22-1,1.5
P2REEF-23-1,0.75
P2REEF-24-1,2.9
P2REEF-25-1,2.5
P2REEF-26-1,3.3
P2REEF-42-1,1.8
P2REEF-43-1,1.9
P2REEF-44-1,2.8
P2REEF-45-1,2
P2REEF-46-1,1.7
P2REEF-5-1,0.75
P2REEF-508-1,2.1
P2REEF-508-1,3.2
P2REEF-509-1,4.4
P2REEF-509-1,10.8
P2REEF-510-1,0.75
P2REEF-510-1,0.75
P2REEF-53-1,1.9
P2REEF-56-1,0.75
P2REEF-58-1,2
P2REEF-73-1,1.8
P2REEF-9-1,2.8
P2REEF-96-1,1.5
P2REEF-99-1,1.6
PLS-1-1,1.01
PLS-13-1,1.34
PLS-14-1,0.5
PLS-18-1,0.54
PLS-26-1,0.54
PLS-5-1,0.51
PLS-7-1,3.03
PLS-8-1,0.68
RAV-6002-1,2
RAV-6003-1,3.6
RAV-6013-1,0.4
RAV-6015-1,0.4
RAV-6016-1,0.4
RAV-6017-1,0.8
RAV-6018-1,1.7
RAV-6019-1,3.5
RAV-6022-1,8.5
RAV-6023-1,6.2
RAV-6024-1,4.2
RAV-6028-1,2.6
RAV-6029-1,0.4
RAV-6033-1,1.3
RAV-6036-1,2.4
RAV-6037-1,1.4
RAV-6038-1,10.6
RAV-6039-1,0.7
RUSS-38-1,5.6
RUSS-40-1,2.1
SALTE-738-1,3.6
SALTE-744-1,3.4
SALTE-745-1,3.6
SALTN-504-1,6.7
SALTN-507-1,9.5
SALTN-508-1,11.1
SALTN-509-1,8.2
SALTN-510-1,8.8
SALTN-511-1,6.8
SALTN-514-1,8.4
SAR-15-1,0.75
SAR-306-1,0.75
SAR-36-1,0.75
SAR-37-1,0.75
SAR-38-1,0.75
SAR-600-1,1.6
SAR-601-1,0.75
SAR-602-1,1.7
SAR-603-1,0.75
SAR-604-1,1.9
SAR-605-1,1.5
SAR-91-1,2.7
SBT-9000-1,6
SBT-9001-1,4.2
SBT-9002-1,3.5
SBT-9003-1,8.8
SBT-9004-1,6.6
SBT-9005-1,4.5
SBT-9006-1,8.3
SBT-9007-1,10.8
SBT-9008-1,10.9
SBT-9009-1,1.1
SBT-9010-1,5
SBT-9011-1,8.6
SBT-9012-1,3.9
SBT-9013-1,3.9
SBT-9014-1,3.3
SBT-9015-1,2.2
SBT-9016-1,5
SBT-9017-1,2.7
SBT-9018-1,3.6
SBT-9019-1,3.8
SBT-9020-1,7.8
SBT-9021-1,3.7
SBT-9022-1,5.9
SBT-9023-1,1
SBT-9024-1,3.5
SBT-9025-1,5.6
SBT-9026-1,5.3
SBT-9027-1,5
SBT-9028-1,5.2
SBT-9029-1,5.8
SBT-9031-1,4.9
SBT-9032-1,2.8
SBT-9034-1,3.5
SBT-9035-1,3.2
SBT-9036-1,4.1
SBT-9037-1,2.6
SBT-9039-1,4.1
SERES-49-1,1.7
SERES-51-1,1.6
SERES-53-1,5
SERES-55-1,1.5
SERES-57-1,1.5
SERES-59-1,1.5
SERES-61-1,1.5
SERES-63-1,1.5
SERES-65-1,9
SERES-67-1,2.7
SERES-68-1,2.2
SERES-71-1,6.9
SERES-73-1,1.7
SERES-74-1,2.7
SERES-76-1,3.9
SERES-87-1,3
SFS-103-1,7.9
SFS-126-1,3.7
SFS-152-1,3.9
SFS-176-1,5.6
SFS-200-1,6.7
SFS-229-1,2.4
SFS-253-1,3.4
SFS-26-1,3.9
SFS-29-1,5.9
SFS-30-1,7.4
SFS-302-1,9.3
SFS-31-1,7.4
SFS-325-1,13
SFS-400-1,20
SFS-405-1,17.9
SFS-457-1,4.6
SFS-515-1,4.4
SFS-55-1,10.1
SFS-600-1,0.6
SFS-601-1,0.6
SFS-604-1,0.8
SFS-76-1,7.1
SFS-8-1,9
SFS-9-1,9.8
SJS-9000-1,2.2
SJS-9002-1,2.8
SJS-9003-1,2.8
SLK-1006-1,2.8
SLK-1016-1,1.3
SLK-1050-1,4.7
SLK-1076-1,2.5
SLK-1089-1,1.1
SLK-9000-1,2.6
SLK-9001-1,1.2
SLK-9003-1,1
SLK-9004-1,1.8
SLK-9005-1,2.9
SLK-9006-1,2.9
SLK-9007-1,1
SLK-9008-1,5.7
SLK-9009-1,6.3
SLK-9010-1,6.2
SLK-994-1,1.3
SPY-95-1,0.75
TAB-2475-1,3.8
TAB-2476-1,8.1
TAB-2477-1,3
TAB-2478-1,11
TAB-2479-1,5.5
TAB-2480-1,1.8
TAB-2481-1,10.8
TAB-2482-1,5.3
TAB-2483-1,7.9
TAB-2484-1,7.7
TAB-2485-1,15.4
TAB-2486-1,5
TAB-2487-1,5.6
UBRISS-195-1,0.9
UBRISS-196-1,0.9
UBRISS-197-1,0.9
UBRISS-198-1,6.1
UBRISS-198-2,6.8
UBRISS-199-1,0.6
UBRISS-200-1,2.5
UBRISS-202-1,1.6
UBRISS-205-1,1.6
UBRISS-206-1,2.6
UBRISS-207-2,4
UCS-9000-1,3.6
UCS-9002-1,2.7
WAN-23-1,2.4
WAN-6-1,6.4
WCS-1001-1,3.3
WCS-1003-1,2.7
WCS-1004-1,2.7
WCS-1005-1,2
WCS-1106-1,1.7
WCS-1114-1,4.3
WCS-1116-1,5.6
WCS-1143-1,3.4
WCS-1170-1,2.5
WCS-1228-1,2.5
WCS-1306-1,2.3
WCS-1407-1,1
WCS-1422-1,2.6
WCS-1429-1,0.8
WCS-1439-1,2.2
WCS-1497-1,0.4
WCS-1507-1,0.4
WCS-1602-1,0.4
WCS-1607-1,0.7
WCS-1608-1,1.4
WCS-1609-1,1.1
WCS-1612-1,2.7
WCS-1900-1,0.4
WCS-1902-1,1.2
WCS-1936-1,0.9
WCS-1977-1,0.7
WCS-2005-1,0.7
WCS-2079-1,0.5
WCS-2161-1,0.4
WCS-2182-1,1.1
WCS-2186-1,0.7
WCS-2201-1,0.4
WCS-2218-1,0.7
WCS-2228-1,0.4
WCS-2229-1,0.4
WCS-2247-1,0.4
WCS-2251-1,0.5
WCS-2273-1,1.6
WCS-2283-1,0.4
WCS-2305-1,1.6
WCS-2411-1,1.6
WCS-4039-1,3.3
WCS-4064-1,2
WCS-4543-1,2.1
WCS-6000-1,0.6
WCS-6001-1,0.8
WCS-6003-1,1.6
WCS-6006-1,0.9
WCS-6007-1,0.8
WCS-6008-1,1.6
WCS-6009-1,0.4
WCS-6010-1,1.5
WCS-6011-1,0.8
WCS-6012-1,0.8
WCS-6013-1,2.7
WCS-6015-1,1.6
WCS-6016-1,0.5
WCS-6017-1,0.8
WCS-6018-1,2.1
WCS-6019-1,1
WCS-6020-1,0.6
WCS-6021-1,0.7
WCS-6022-1,0.6
WCS-6023-1,1.5
WCS-6024-1,0.5
WCS-6025-1,0.6
WCS-6026-1,0.7
WCS-6027-1,1
WCS-6028-1,1.1
WCS-6029-1,3.7
WCS-6030-1,0.9
WCS-6031-1,5.7
WCS-6032-1,4.3
WCS-6033-1,3.5
WCS-6034-1,1
WCS-759-1,2.1
WCS-780-1,1.6
WCS-781-1,0.4
WCS-782-1,0.4
WCS-783-1,0.4
WCS-785-1,0.9
WCS-787-1,1
WCS-796-1,0.4
WCS-816-1,1.5
WCS-822-1,2.7
WCS-832-1,0.4
WCS-842-1,0.4
WCS-857-1,0.4
WCS-864-1,1.1
WCS-866-1,1.4
WCS-868-1,2.3
WCS-874-1,1.4
WCS-875-1,2.5
WCS-880-1,2.2
WCS-885-1,0.4
WCS-886-1,0.4
WCS-897-1,0.4
WCS-899-1,2.3
WCS-903-1,0.8
WCS-908-1,4.6
WCS-913-1,4.5
WCS-914-1,1.2
WCS-925-1,2.1
WCS-930-1,1.6
WCS-931-1,1.1
WCS-938-1,1.5
WCS-940-1,2.4
WCS-942-1,2.5
WCS-943-1,2
WCS-952-1,1.2
WDH-825-1,3.6
WDH-9001-1,0.9
WDH-9007-1,1.4
WDH-9012-1,1.1
WDH-9019-1,1
WDH-9020-1,0.6
WDH-9026-1,2.5
WDH-9027-1,2.8
WDH-9028-1,4.3
WDH-9029-1,4.9
WDH-9030-1,4.1
WDH-9031-1,4.5
WDH-9032-1,6.4
WDH-9033-1,4.4
WDH-9050-1,3.1
WDH-9051-1,2.4
WDH-9054-1,6.2
WDH-9055-1,3.6
WDH-9056-1,4.2
WDH-9064-1,9.8
WDH-9080-1,5.2
WDH-9081-1,5.6
WDH-9089-1,11.7
WDH-9090-1,5.8
WDH-9091-1,2.2
WDH-9092-1,1.5
WDH-9104-1,3.4
WDH-9106-1,1.2
WDH-9107-1,1.7
WDH-9115-1,3.2
WIN-279-1,1.5
WIN-289-1,1.5
WIN-297-1,1.5
WIN-333-1,1.5
WIN-335-1,1.5
WIN-486-1,1.5
WIN-658-1,0.8
WTC-6000-1,1
WTC-6001-1,0.9
WTC-6002-1,1.6
WTC-6003-1,1
WTC-6004-1,1.6
WTC-6005-1,1.7
WTC-6006-1,1.4
WTC-6007-1,1
WTC-6008-1,2.5
WTC-6009-1,2
WTC-6010-1,2.5
WTC-6011-1,1.8
WTC-6012-1,1.4
WTC-6013-1,0.9
WTC-6014-1,2.7
WTC-6015-1,1.5
WTC-6016-1,2.3
WTC-6017-1,1.9
WTC-6018-1,3.3
WTC-6019-1,1.9
WTC-6020-1,1.6
WTC-6021-1,1.4
WTC-6022-1,1.4
WTC-6023-1,1.2
WTC-6024-1,2.2
WTC-6025-1,2.1
WTC-6026-1,1
WTC-6027-1,0.6
WTC-6028-1,3.1
WTC-6029-1,2.4
WTC-6030-1,1.6
WTC-6031-1,2.7
WTC-6032-1,1.2
WTC-6033-1,1.1
WTC-6034-1,1.6
WTC-6035-1,1.5
WTC-6036-1,2.5
WTC-6037-1,1.9
WTC-6038-1,2.6
WTC-6039-1,2
WTC-6040-1,1.3
WTC-6041-1,1.2
WTC-6042-1,3.3
WTC-6043-1,2.3
WTC-6044-1,1
WTC-6045-1,1.3
WTC-6046-1,1.9
WTC-6047-1,1.8
WTC-6048-1,1.5
WTC-6049-1,1.3
WTC-6050-1,2.6
WTC-6051-1,2.5
WTC-6052-1,1.8
WTC-6053-1,1.8
WTC-6054-1,1.1
WTC-6055-1,1
WTC-6056-1,1.3
WTC-6057-1,1.4
WTC-6058-1,1.3
WTC-6059-1,1.1
WTC-9000-1,1
WTC-9001-1,0.5
WTC-9002-1,0.5
WTC-9003-1,1.3
WTC-9006-1,1.5
WTC-9007-1,1.4
WTC-9010-1,1.3
WTC-9014-1,3.9
WTC-9015-1,1.9
WTC-9017-1,2.6
WTC-9018-1,2.2
WTC-9019-1,1.4
WTC-9020-1,4.4
WTC-9022-1,0.4
WTC-9024-1,1.6
WTC-9025-1,0.7
WTC-9028-1,1.7
WTC-9029-1,1.2
WTC-9033-1,1.2
WTC-9036-1,0.4
WTC-9037-1,3
WTC-9038-1,1.5
WTC-9039-1,0.4
WTC-9042-1,2.8
WTC-9044-1,0.4
WTC-9045-1,4.8
WTC-9047-1,1.7
WTC-9049-1,0.6
WTC-9050-1,0.4
WTC-9052-1,0.6
WTC-9054-1,1.9
WTC-9064-1,1.7
WTC-9065-1,1.2
WTC-9068-1,1.5
WTC-9069-1,1.1
WTC-9070-1,0.5
WTC-9071-1,1.4
WTC-9072-1,2.2
WTC-9073-1,1.5
WTC-9075-1,1.2
WTC-9076-1,1.2
WTC-9078-1,2.7
WTC-9079-1,3.3
WTC-9080-1,1.4
WTC-9081-1,1
WTC-9082-1,4.2
WTC-9086-1,0.7
WTC-9088-1,1
WTC-9089-1,0.6
WTC-9090-1,0.5
WTC-9091-1,0.4
WTC-9092-1,0.4
WTC-9093-1,0.6
WTC-9094-1,0.6
WTC-9095-1,1.4
WTC-9096-1,1.4
ZED-6000-1,1.3
ZED-6001-1,2.6
ZED-6002-1,1.2
ZED-6003-1,2.3
ZED-6008-1,0.5
ZED-6010-1,2.5
ZED-6013-1,5
