ID,VALUE
ABC-1-1,0.065
ABC-15-1,0.04
ABC-220-1,0.025
ABC-275-1,0.08
ABC-281-1,0.04
ABC-312-1,0.05
ABC-396-1,0.04
ABC-40-1,0.08
ABC-416-1,0.06
ABC-48-1,0.09
ABC-52-1,0.185
ABC-6-1,0.05
ABS-99-1,0.02
ACL-127-1,0.02
ACL-137-1,0.04
ACL-138-1,0.03
ACL-63-1,0.02
ARD-507-1,0.045
ARD-9000-1,0.03
ARD-9001-1,0.05
ARD-9002-1,0.05
ARD-9003-1,0.06
ARD-9005-1,0.05
ARD-9006-1,0.03
ARD-9007-1,0.055
ARD-9008-1,0.14
ARD-9009-1,0.19
ARD-9010-1,0.115
ARD-9011-1,0.15
ARD-9012-1,0.035
ARD-9013-1,0.095
ARD-9014-1,0.02
ASOM-10-1,0.03
ASOM-12-1,0.03
ASOM-13-1,0.15
ASOM-14-1,0.02
ASOM-15-1,0.07
ASOM-16-1,0.08
ASOM-17-1,0.04
ASOM-23-1,0.04
ASOM-24-1,0.07
ASOM-25-1,0.05
ASOM-26-1,0.05
ASOM-27-1,0.04
ASOM-29-1,0.14
ASOM-30-1,0.12
ASOM-9-1,0.17
ATB-6000-1,0.02
ATB-6001-1,0.03
ATB-6002-1,0.06
ATB-6003-1,0.12
ATB-6004-1,0.05
ATB-6007-1,0.04
ATB-6008-1,0.14
ATB-6010-1,0.04
ATB-6011-1,0.01
ATB-6012-1,0.03
ATB-6015-1,0.08
ATB-6016-1,0.04
ATB-6017-1,0.05
ATB-6018-1,0.04
ATB-6019-1,0.07
ATB-6020-1,0.01
ATB-6021-1,0.03
ATB-6022-1,0.02
ATB-6024-1,0.01
ATB-6025-1,0.01
ATB-6026-1,0.04
ATB-6028-1,0.14
ATB-6029-1,0.19
ATB-6030-1,0.02
ATB-6031-1,0.01
BAB-440-1,0.03
BAB-9001-1,0.175
BAB-9002-1,0.24
BAB-9003-1,0.03
BAB-9004-1,0.035
BAB-9005-1,0.11
BAB-9005-1,0.06
BAB-9006-1,0.08
BAB-9007-1,0.125
BAB-9008-1,0.18
BAB-9009-1,0.075
BAB-9010-1,0.1
BAB-9011-1,0.31
BAB-9012-1,0.055
BAB-9013-1,0.035
BAB-9014-1,0.08
BAB-9014-1,0.09
BAN-100-1,0.1
BAN-101-1,0.16
BAN-103-1,0.13
BAN-1041-1,0.06
BAN-1052-1,0.025
BAN-1059-1,0.04
BAN-1061-1,0.16
BAN-107-1,0.07
BAN-1088-1,0.235
BAN-1110-1,0.08
BAN-1142-1,0.33
BAN-1147-1,0.0625
BAN-116-1,0.09
BAN-1182-1,0.08
BAN-119-1,0.09
BAN-121-1,0.04
BAN-1352-1,0.22
BAN-1354-1,0.22
BAN-1374-1,0.2
BAN-1377-1,0.06
BAN-1378-1,0.05
BAN-1381-1,0.08
BAN-139-1,0.07
BAN-1401-1,0.03
BAN-1435-1,0.12
BAN-1442-1,0.05
BAN-1452-1,0.1
BAN-1456-1,0.1
BAN-1465-1,0.04
BAN-1487-1,0.12
BAN-150-1,0.04
BAN-1522-1,0.05
BAN-1533-1,0.06
BAN-1542-1,0.14
BAN-1559-1,0.05
BAN-1569-1,0.08
BAN-1571-1,0.03
BAN-1590-1,0.07
BAN-1598-1,0.21
BAN-1601-1,0.21
BAN-1605-1,0.21
BAN-1607-1,0.22
BAN-1614-1,0.11
BAN-1615-1,0.08
BAN-1618-1,0.1
BAN-1619-1,0.07
BAN-1625-1,0.045
BAN-1628-1,0.09
BAN-1640-1,0.06
BAN-1647-1,0.06
BAN-1648-1,0.28
BAN-165-1,0.11
BAN-1651-1,0.15
BAN-1655-1,0.19
BAN-1660-1,0.06
BAN-1663-1,0.33
BAN-1668-1,0.04
BAN-167-1,0.05
BAN-169-1,0.08
BAN-1695-1,0.13
BAN-1702-1,0.11
BAN-1703-1,0.08
BAN-1713-1,0.28
BAN-1717-1,0.05
BAN-172-1,0.03
BAN-1725-1,0.08
BAN-1726-1,0.04
BAN-1734-1,0.04
BAN-1738-1,0.14
BAN-1740-1,0.03
BAN-1749-1,0.02
BAN-1756-1,0.16
BAN-1758-1,0.12
BAN-1760-1,0.28
BAN-1763-1,0.03
BAN-1771-1,0.01
BAN-1773-1,0.02
BAN-1777-1,0.02
BAN-1781-1,0.03
BAN-1800-1,0.1
BAN-1803-1,0.03
BAN-1805-1,0.025
BAN-181-1,0.07
BAN-1811-1,0.215
BAN-1812-1,0.0333333333333333
BAN-1815-1,0.01
BAN-1829-1,0.01
BAN-185-1,0.12
BAN-1858-1,0.115
BAN-1865-1,0.045
BAN-187-1,0.06
BAN-1872-1,0.055
BAN-19-1,0.07
BAN-1903-1,0.13
BAN-1906-1,0.185
BAN-1914-1,0.1
BAN-1940-1,0.06
BAN-1945-1,0.065
BAN-1949-1,0.105
BAN-1956-1,0.155
BAN-1971-1,0.1075
BAN-1975-1,0.07
BAN-1977-1,0.16
BAN-1983-1,0.115
BAN-1987-1,0.07
BAN-1996-1,0.085
BAN-2-1,0.08
BAN-20-1,0.17
BAN-2015-1,0.155
BAN-2023-1,0.035
BAN-2034-1,0.135
BAN-2037-1,0.1
BAN-2038-1,0.115
BAN-2042-1,0.07
BAN-2051-1,0.11
BAN-2057-1,0.1
BAN-2074-1,0.09
BAN-2090-1,0.115
BAN-2093-1,0.18
BAN-2096-1,0.105
BAN-2097-1,0.18
BAN-2099-1,0.175
BAN-2105-1,0.115
BAN-2108-1,0.04
BAN-2121-1,0.13
BAN-2123-1,0.16
BAN-2128-1,0.175
BAN-2141-1,0.08
BAN-2164-1,0.08
BAN-2172-1,0.09
BAN-2177-1,0.1
BAN-224-1,0.13
BAN-2255-1,0.16
BAN-2256-1,0.13
BAN-2256-1,0.21
BAN-2257-1,0.18
BAN-2257-1,0.14
BAN-2258-1,0.11
BAN-2258-1,0.23
BAN-2259-1,0.15
BAN-2259-1,0.23
BAN-2262-1,0.03
BAN-2262-1,0.04
BAN-2263-1,0.08
BAN-2263-1,0.07
BAN-2264-1,0.06
BAN-2264-1,0.05
BAN-2265-1,0.06
BAN-2265-1,0.1
BAN-2298-1,0.11
BAN-2330-1,0.07
BAN-2332-1,0.03
BAN-2337-1,0.08
BAN-2350-1,0.07
BAN-2352-1,0.02
BAN-2355-1,0.03
BAN-2390-1,0.04
BAN-2451-1,0.02
BAN-2455-1,0.03
BAN-2480-1,0.23
BAN-2497-1,0.08
BAN-25-1,0.05
BAN-2531-1,0.02
BAN-2535-1,0.05
BAN-2537-1,0.04
BAN-2538-1,0.04
BAN-2559-1,0.02
BAN-2586-1,0.11
BAN-2590-1,0.03
BAN-2597-1,0.205
BAN-2598-1,0.115
BAN-271-1,0.065
BAN-274-1,0.1
BAN-275-1,0.06
BAN-277-1,0.08
BAN-281-1,0.16
BAN-282-1,0.05
BAN-284-1,0.08
BAN-286-1,0.07
BAN-288-1,0.13
BAN-289-1,0.07
BAN-29-1,0.16
BAN-291-1,0.05
BAN-3-1,0.12
BAN-301-1,0.025
BAN-32-1,0.11
BAN-322-1,0.05
BAN-339-1,0.13
BAN-339-1,0.16
BAN-360-1,0.14
BAN-365-1,0.07
BAN-368-1,0.07
BAN-376-1,0.06
BAN-409-1,0.06
BAN-440-1,0.14
BAN-45-1,0.03
BAN-468-1,0.1
BAN-474-1,0.06
BAN-474-1,0.06
BAN-484-1,0.08
BAN-487-1,0.06
BAN-493-1,0.11
BAN-5-1,0.02
BAN-507-1,0.08
BAN-507-1,0.14
BAN-508-1,0.06
BAN-508-1,0.07
BAN-509-1,0.04
BAN-510-1,0.08
BAN-511-1,0.1
BAN-513-1,0.07
BAN-513-1,0.08
BAN-516-1,0.07
BAN-516-1,0.11
BAN-522-1,0.17
BAN-522-1,0.21
BAN-53-1,0.07
BAN-532-1,0.06
BAN-533-1,0.13
BAN-539-1,0.16
BAN-55-1,0.14
BAN-57-1,0.21
BAN-585-1,0.15
BAN-596-1,0.06
BAN-599-1,0.035
BAN-6-1,0.185
BAN-657-1,0.05
BAN-657-1,0.05
BAN-66-1,0.11
BAN-682-1,0.215
BAN-708-1,0.13
BAN-723-1,0.155
BAN-73-1,0.03
BAN-738-1,0.08
BAN-748-1,0.17
BAN-748-1,0.22
BAN-761-1,0.19
BAN-767-1,0.19
BAN-790-1,0.1
BAN-790-1,0.1
BAN-804-1,0.07
BAN-804-1,0.08
BAN-81-1,0.21
BAN-82-1,0.26
BAN-820-1,0.19
BAN-823-1,0.11
BAN-824-1,0.09
BAN-835-1,0.1
BAN-850-1,0.08
BAN-857-1,0.09
BAN-858-1,0.18
BAN-858-1,0.17
BAN-859-1,0.09
BAN-859-1,0.07
BAN-865-1,0.06
BAN-865-1,0.05
BAN-87-1,0.1
BAN-881-1,0.24
BAN-883-1,0.17
BAN-913-1,0.04
BAN-914-1,0.08
BAN-922-1,0.12
BAN-93-1,0.17
BAN-940-1,0.05
BAN-947-1,0.18
BAN-947-1,0.14
BAN-949-1,0.09
BAN-95-1,0.05
BAN-97-1,0.195
BAS-1-1,2.83
BAS-10-1,0.68
BAS-12-1,0.15
BAS-13-1,0.31
BAS-14-1,0.18
BAS-21-1,0.44
BAS-23-1,0.53
BAS-27-1,0.18
BAS-28-1,0.02
BAS-29-1,0.15
BAS-30-1,0.33
BAS-31-1,0.23
BAS-32-1,0.14
BAS-35-1,0.39
BAS-37-1,0.44
BAS-38-1,0.36
BAS-40-1,0.3
BAS-42-1,0.1
BAS-43-1,0.27
BAS-44-1,0.77
BAS-6-1,0.18
BAS-8-1,0.41
BAS-9-1,0.42
BBC-6000-1,0.14
BBC-6002-1,0.05
BBC-6003-1,0.03
BBC-6004-1,0.03
BBC-6006-1,0.06
BBC-6010-1,0.06
BBC-6012-1,0.05
BBC-6013-1,0.04
BBC-6016-1,0.03
BBC-6018-1,0.27
BBC-6019-1,0.03
BBC-6020-1,0.19
BBC-6022-1,0.03
BDS-1142-2,0.08
BDS-1186-2,0.04
BDS-1225-2,0.105
BDS-1313-2,0.07
BDS-1381-2,0.165
BDS-1397-2,0.465
BDS-1431-2,0.18
BDS-1502-1,0.035
BDS-198-2,0.06
BDS-209-2,0.085
BDS-265-2,0.525
BDS-276-2,0.315
BDS-369-2,0.06
BDS-589-2,0.11
BDS-689-2,0.205
BDS-755-2,0.045
BDS-800-2,0.04
BDS-877-2,0.035
BER-9000-1,0.03
BER-9001-1,0.06
BER-9002-1,0.03
BER-9003-1,0.02
BER-9004-1,0.03
BER-9004-1,0.04
BER-9006-1,0.02
BER-9007-1,0.04
BER-9008-1,0.04
BER-9009-1,0.01
BER-9011-1,0.01
BER-9016-1,0.09
BER-9017-1,0.03
BER-9018-1,0.02
BER-9019-1,0.04
BER-9020-1,0.03
BER-9021-1,0.04
BER-9027-1,0.03
BER-9028-1,0.02
BER-9028-1,0.02
BER-9029-1,0.03
BER-9030-1,0.05
BER-9030-1,0.04
BER-9032-1,0.02
BER-9034-1,0.05
BER-9040-1,0.06
BER-9041-1,0.04
BER-9042-1,0.05
BER-9046-1,0.03
BER-9047-1,0.63
BER-9050-1,0.02
BER-9051-1,0.02
BER-9052-1,0.02
BER-9053-1,0.02
BER-9054-1,0.02
BLS-9000-1,0.05
BLS-9001-1,0.09
BLS-9005-1,0.03
BLS-9007-1,0.08
BLS-9008-1,0.06
BLS-9009-1,0.07
BLS-9010-1,0.09
BMSE-21-1,0.03
BMSE-60-1,0.03
BMSE-62-1,0.07
BPA-1-1,0.01
BPA-13-1,0.07
BPA-22-1,0.08
BPA-3-1,0.04
BPA-6-1,0.02
BPS-9007-1,0.05
BPS-9008-1,0.05
BPS-9009-1,0.035
BPS-9010-1,0.035
BPS-9012-1,0.08
BPS-9013-1,0.045
BPS-9015-1,0.05
BRB-6006-1,0.05
BRB-6007-1,0.07
BRB-6008-1,0.1
BRB-6009-1,0.08
BRB-6014-1,0.09
BRB-6019-1,0.05
BRB-6020-1,0.04
BRB-6042-1,0.02
BRB-6053-1,0.09
BRB-6054-1,0.07
BRB-6055-1,0.06
BRB-6057-1,0.03
BRB-6064-1,0.07
BRB-6065-1,0.1
BRCL-16-1,0.19
BRCL-2-1,0.025
BRCL-4-1,0.02
BRCL-51-1,0.145
BRCL-61-1,0.055
BRCL-9-1,0.15
BRL-9000-1,0.03
BRL-9001-1,0.04
BRL-9002-1,0.025
BRL-9003-1,0.025
BRL-9004-1,0.025
BRL-9005-1,0.03
BRL-9006-1,0.035
BRL-9007-1,0.025
BRL-9008-1,0.05
BRL-9009-1,0.075
BRL-9010-1,0.03
BRL-9011-1,0.025
BRL-9012-1,0.1
BRL-9013-1,0.075
BRL-9014-1,0.1
BRL-9016-1,0.045
BRL-9017-1,0.04
BRL-9018-1,0.04
BRL-9019-1,0.065
BRL-9020-1,0.025
BRL-9021-1,0.04
BRL-9022-1,0.035
BRL-9023-1,0.05
BRL-9024-1,0.04
BRL-9025-1,0.035
BRL-9026-1,0.025
BRL-9027-1,0.03
BRL-9028-1,0.03
BRL-9029-1,0.025
BRL-9030-1,0.02
BRL-9031-1,0.085
BRL-9032-1,0.07
BRL-9033-1,0.05
BRL-9034-1,0.07
BRL-9035-1,0.06
BRL-9036-1,0.12
BRL-9039-1,0.025
BRL-9040-1,0.02
BRL-9041-1,0.03
BRL-9042-1,0.03
BRL-9043-1,0.025
BRL-9044-1,0.04
BRL-9045-1,0.02
BRL-9046-1,0.02
BRL-9047-1,0.02
BRL-9048-1,0.03
BRL-9049-1,0.01
BRL-9050-1,0.01
BRL-9051-1,0.03
BRL-9052-1,0.05
BRL-9053-1,0.02
BRL-9054-1,0.015
BRL-9055-1,0.09
BRL-9056-1,0.01
BRL-9059-1,0.02
BRL-9060-1,0.06
BRL-9062-1,0.02
BRL-9064-1,0.45
BRL-9065-1,0.05
BRL-9066-1,0.095
BRL-9067-1,0.035
BRS-6011-1,0.115
BRS-6015-1,0.11
BRS-6050-1,0.125
BRS-6057-1,0.125
BRS-6059-1,0.12
BRS-6077-1,0.06
BRS-6079-1,0.05
BRS-6081-1,0.045
BSA-11-1,0.03
BSA-15-1,0.06
BSA-17-1,0.025
BSA-22-1,0.02
BSA-23-1,0.025
BSA-25-1,0.035
BSA-26-1,0.055
BSA-28-1,0.045
BSA-7-1,0.015
BSA-8-1,0.12
BUN-103-1,0.02
BUN-108-1,0.05
BUN-109-1,0.07
BUN-110-1,0.03
BUN-111-1,0.09
BUN-112-1,0.04
BUN-113-1,0.28
BUN-114-1,0.02
BUN-115-1,0.04
BUN-116-1,0.12
BUN-117-1,0.04
BUN-120-1,0.06
BUN-122-1,0.04
BUN-123-1,0.03
BUN-6001-1,0.05
BUN-6002-1,0.02
CBW-1024-1,0.07
CBW-1025-1,0.03
CBW-1026-1,0.11
CBW-263-1,0.09
CBW-264-1,0.04
CBW-265-1,0.03
CBW-266-1,0.05
CBW-267-1,0.04
CBW-268-1,0.03
CBW-269-1,0.09
CBW-270-1,0.08
CBW-271-1,0.08
CBW-272-1,0.3
CBW-273-1,0.03
CBW-274-1,0.06
CBW-275-1,0.23
CBW-276-1,0.09
CBW-277-1,0.05
CBW-278-1,0.14
CBW-279-1,0.02
CBW-280-1,0.07
CBW-281-1,0.05
CBW-282-1,0.02
CBW-283-1,0.06
CBW-284-1,0.04
CBW-285-1,0.02
CBW-286-1,0.05
CBW-287-1,0.01
CBW-288-1,0.06
CBW-289-1,0.08
CBW-9000-1,0.03
CBW-9001-1,0.02
CBW-9002-1,0.03
CBW-9003-1,0.03
CBW-9004-1,0.02
CBW-9005-1,0.02
CBW-9006-1,0.01
CBW-9007-1,0.02
CBW-9008-1,0.07
CBW-9009-1,0.01
CBW-9010-1,0.26
CBW-9011-1,0.01
CBW-9012-1,0.03
CBW-911-1,0.03
CBW-918-1,0.0775
CCL-325-1,0.085
CIS-9000-1,0.055
CIS-9001-1,0.055
CIS-9003-1,0.15
CIS-9004-1,0.135
CIS-9005-1,0.03
CIS-9006-1,0.05
CIS-9007-1,0.055
CIS-9008-1,0.04
CIS-9009-1,0.09
CIS-9010-1,0.06
CIS-9011-1,0.045
CIS-9012-1,0.06
CIS-9013-1,0.1
CIS-9014-1,0.05
CQCS-2-1,0.12
CQG-114-1,0.02
CQG-149-1,0.03
CQH-1018-1,0.05
CQH-1019-1,0.055
CQH-1109-1,0.035
CQH-1200-1,0.13
CQH-1201-1,0.04
CQH-1212-1,0.04
CQH-1213-1,0.03
CQH-128-1,0.04
CQH-1321-1,0.04
CQH-1358-1,0.02
CQH-1364-1,0.02
CQH-2-1,0.03
CQH-210-1,0.16
CQH-248-1,0.065
CQH-250-1,0.02
CQH-26-1,0.035
CQH-289-1,0.055
CQH-295-1,0.065
CQH-331-1,0.07
CQH-384-1,0.03
CQH-401-1,0.125
CQH-412-1,0.05
CQH-423-1,0.03
CQH-452-1,0.06
CQH-455-1,0.1066667
CQH-459-1,0.17
CQH-467-1,0.12
CQH-615-1,0.01
CQH-616-1,0.035
CQH-640-1,0.04
CQH-695-1,0.02
CQH-723-1,0.05
CQH-727-1,0.05
CQH-728-1,0.02
CQH-746-1,0.02
CQH-802-1,0.04
CQH-806-1,0.02
CQH-820-1,0.07
CQH-821-1,0.21
CQH-822-1,0.045
CQH-832-1,0.05
CQH-922-1,0.07
CQH-940-1,0.17
CQH-944-1,0.09
CQH-946-1,0.295
CQH-949-1,0.09
CTAP-1-1,0.165
CTAP-106-1,0.09
CTAP-119-1,0.045
CTAP-146-1,0.075
CTAP-177-1,0.12
CTAP-189-1,0.075
CTAP-211-1,0.06
CTAP-228-1,0.04
CTAP-238-1,0.035
CTAP-245-1,0.05
CTAP-247-1,0.05
CTAP-5-1,0.285
CTAP-59-1,0.19
CTAP-8-1,0.025
CTI-310-1,0.07
CTI-311-1,0.05
CTI-314-1,0.05
CTI-315-1,0.03
CTI-316-1,0.02
CTI-317-1,0.03
CTI-318-1,0.08
CTI-320-1,0.05
CTI-321-1,0.03
CTI-327-1,0.16
CTI-328-1,0.15
CTI-370-1,0.02
CTI-378-1,0.03
CTI-412-1,0.1
CTI-6001-1,0.01
CTI-6002-1,0.13
CTI-6003-1,0.01
CTI-6004-1,0.01
CTI-6005-1,0.15
CTI-6006-1,0.06
CTI-6007-1,0.05
CTI-6008-1,0.11
CTI-6009-1,0.36
CTI-6010-1,0.06
CTI-6012-1,0.06
CTI-6013-1,0.28
CTI-6015-1,0.07
CTI-6016-1,0.11
CTI-6017-1,0.06
CTI-6018-1,0.02
CTI-6019-1,0.02
CTI-6020-1,0.03
CTI-6021-1,0.02
CTI-6022-1,0.07
CTI-6025-1,0.05
CTI-6027-1,0.06
CTI-6028-1,0.03
CTI-6029-1,0.07
CTI-6030-1,0.06
CTI-6031-1,0.05
CTI-9000-1,0.07
CTI-9001-1,0.04
CTI-9003-1,0.03
CTI-9005-1,0.11
CTI-9006-1,0.05
CTI-9007-1,0.05
CTI-9008-1,0.15
CTI-9009-1,0.08
CTI-9012-1,0.07
CTI-9013-1,0.09
CTI-9014-1,0.03
CTI-9015-1,0.04
CTI-9027-1,0.15
CTI-9029-1,0.03
CTI-9030-1,0.02
CTI-9032-1,0.02
CTI-9033-1,0.13
CTI-9034-1,0.15
CTI-9035-1,0.05
CTI-9037-1,0.04
CTI-9038-1,0.08
CTI-9039-1,0.09
CWR-9000-1,0.03
CWR-9001-1,0.02
CWR-9002-1,0.03
CWR-9002-1,0.025
CWR-9003-1,0.015
CWR-9004-1,0.03
CWR-9005-1,0.025
CWR-9007-1,0.02
CWR-9007-1,0.03
CWR-9008-1,0.06
CWR-9008-1,0.04
CWR-9010-1,0.03
CYP-392-1,0.15
CYP-836-1,0.01
DHR-6001-1,0.58
DLR-1010-1,0.03
DLR-1013-1,0.12
DLR-1015-1,0.06
DLR-1018-1,0.02
DLR-1019-1,0.03
DLR-1020-1,0.13
DLR-1022-1,0.02
DLR-1023-1,0.05
DLR-1024-1,0.05
DLR-1027-1,0.05
DLR-1028-1,0.02
DLR-1033-1,0.03
DLR-1034-1,0.05
DLR-1035-1,0.07
DLR-1037-1,0.06
DLR-1039-1,0.07
DLR-1042-1,0.13
DLR-1044-1,0.03
DLR-1045-1,0.07
DLR-1047-1,0.06
DLR-1050-1,0.14
DLR-1051-1,0.01
DLR-1053-1,0.01
DLR-1054-1,0.02
DLR-1057-1,0.14
DLR-1061-1,0.03
DLR-1064-1,0.01
DLR-1601-1,0.07
DLR-1768-1,0.13
DLR-1769-1,0.11
DLR-1772-1,0.08
DLR-1773-1,0.1
DLR-1776-1,0.17
DLR-1777-1,0.11
DLR-1778-1,0.06
DLR-1780-1,0.07
DLR-1783-1,0.2
DLR-1785-1,0.03
DLR-1788-1,0.04
DLR-1789-1,0.08
DLR-250-1,0.03
DLR-251-1,0.03
DLR-252-1,0.02
DLR-253-1,0.03
DLR-254-1,0.05
DLR-256-1,0.13
DLR-257-1,0.06
EIE-437-1,0.23
EIL-1-1,0.1
EIL-15-1,0.18
EIL-16-1,0.24
EIL-17-1,0.13
EIL-18-1,0.2
EIL-19-1,0.2
EIL-2-1,0.08
EIL-20-1,0.21
EIL-21-1,0.13
EIL-22-1,0.05
EIL-23-1,0.02
EIL-24-1,0.04
EIL-25-1,0.04
EIL-26-1,0.05
EIL-27-1,0.05
EIL-28-1,0.03
EIL-3-1,0.09
EIL-31-1,0.15
EIL-33-1,0.23
EIL-34-1,0.13
EIL-35-1,0.14
EIL-36-1,0.13
EIL-38-1,0.12
EIL-4-1,0.15
EIL-40-1,0.12
EIL-42-1,0.14
EIL-44-1,0.15
EIL-46-1,0.2
EIL-48-1,0.04
EIL-5-1,0.11
EIL-50-1,0.17
EIL-51-1,0.13
EIL-53-1,0.1
EIL-55-1,0.05
EIL-56-1,0.15
EIL-58-1,0.19
EIL-59-1,0.14
EIL-6-1,0.12
EIL-62-1,0.12
EIL-63-1,0.05
EIL-64-1,0.08
EIL-65-1,0.07
EIL-66-1,0.16
EIL-68-1,0.06
EIL-69-1,0.13
EIL-7-1,0.16
EIL-71-1,0.06
EIL-72-1,0.04
EIL-75-1,0.1
EIL-76-1,0.09
EIL-77-1,0.06
EIL-78-1,0.09
EIL-79-1,0.1
EIL-80-1,0.1
EIL-82-1,0.22
EIL-83-1,0.08
EIL-84-1,0.06
EIR-1000-1,0.16
EIR-1001-1,0.09
EIR-1002-1,0.45
EIR-1003-1,0.1
EIR-1004-1,0.05
EIR-1005-1,0.11
EIR-9001-1,0.215
EIR-9002-1,0.08
EIR-9003-1,0.115
EIR-9004-1,0.055
EIR-9005-1,0.03
EIR-9006-1,0.035
EIR-9007-1,0.03
EIR-9008-1,0.05
EIR-9009-1,0.03
EIR-9012-1,0.12
EIR-9012-1,0.11
EIR-9013-1,0.065
EIR-9014-1,0.04
EIR-9015-1,0.03
EIR-9016-1,0.045
EIR-9017-1,0.03
EIR-9019-1,0.04
EIR-9020-1,0.02
EIR-9020-1,0.04
EIR-9022-1,0.02
EIR-9023-1,0.085
EIR-9024-1,0.045
EIR-9025-1,0.125
EIR-9027-1,0.03
EIR-9027-1,0.03
EIR-9028-1,0.025
EIR-9030-1,0.055
EIR-9031-1,0.055
EIR-9034-1,0.045
EIR-9035-1,0.05
EIR-9035-1,0.05
EIR-9037-1,0.06
EIR-9042-1,0.065
EIR-9043-1,0.11
EIR-9044-1,0.075
EIR-9046-1,0.06
EIR-9047-1,0.1
EIR-9048-1,0.075
EIR-9049-1,0.08
EIR-9050-1,0.165
EIR-9052-1,0.06
EME-9008-1,0.145
ESH-6000-1,0.11
ESH-6001-1,0.1
ESH-6002-1,0.14
ESH-6003-1,0.1
ESH-6004-1,0.06
ESH-6005-1,0.13
ESH-6006-1,0.14
ESH-6007-1,0.06
ESH-6010-1,0.06
ESH-6012-1,0.08
ESH-6013-1,0.08
ESH-6014-1,0.07
ESH-6015-1,0.07
ESH-6016-1,0.07
ESH-6017-1,0.16
ESH-6019-1,0.12
ESH-6020-1,0.16
FSE-184-1,0.19
FSE-200-1,0.06
FSE-210-1,0.06
FSE-223-1,0.08
FSE-235-1,0.13
FSE-273-1,0.08
FSE-31-1,0.04
FSE-43-1,0.26
FSE-81-1,0.06
GAY-6002-1,0.03
GCL-9000-1,0.03
GCL-9001-1,0.035
GCL-9002-1,0.03
GCL-9004-1,0.12
GCL-9005-1,0.045
GCL-9006-1,0.055
GCL-9007-1,0.055
GCL-9008-1,0.2
GCL-9009-1,0.03
GRU-17-1,2.79
GRU-188-1,0.18
GRU-299-1,0.05
GRU-313-1,0.27
GRU-319-1,0.05
GRU-331-1,0.05
GRU-388-1,0.09
GRU-62-1,0.66
GULLY-64-1,0.035
GULLY-66-1,0.06
GULLY-73-1,0.075
HRT-1-1,0.03
HRT-10-1,0.03
HRT-11-1,0.04
HRT-12-1,0.03
HRT-13-1,0.04
HRT-3-1,0.035
HRT-4-1,0.035
HRT-5-1,0.03
HRT-6-1,0.05
HTC-9000-1,0.08
HTC-9001-1,0.14
HTC-9002-1,0.09
HTC-9003-1,0.07
HTC-9005-1,0.83
HTC-9006-1,0.25
HTN-9000-1,0.28
HTN-9001-1,0.07
HTN-9002-1,0.07
HTN-9003-1,0.085
HTN-9004-1,0.065
HTN-9005-1,0.05
HTN-9006-1,0.5
HTN-9006-1,0.52
HTN-9008-1,0.05
HTN-9009-1,0.075
HTN-9010-1,0.08
HTN-9011-1,0.055
HTR-9001-1,0.04
HTR-9001-1,0.03
HTR-9002-1,0.2066667
HTR-9003-1,0.04
HTR-9003-1,0.09
HTR-9004-1,0.07
HTR-9005-1,0.035
HTR-9008-1,0.06
HTR-9009-1,0.02
HTR-9010-1,0.03
HTS-152-1,0.01
HTS-153-1,0.15
HTS-161-1,0.03
HTS-195-1,0.02
HTS-204-1,0.07
HTS-208-1,0.12
HTS-209-1,0.11
HTS-323-1,0.01
HTS-328-1,0.02
HTS-372-1,0.13
HTS-381-1,0.03
HTS-392-1,0.15
HTS-393-1,0.17
HTS-397-1,0.26
HTS-399-1,0.04
HTS-402-1,0.02
HTS-460-1,0.02
HTS-470-1,1
HTS-571-1,0.01
HTS-596-1,0.06
HTS-608-1,0.02
HTS-660-1,0.13
HTS-9001-1,0.02
HTS-9002-1,0.03
HTS-9003-1,0.09
HTS-9004-1,0.08
HTS-9004-1,0.05
HTS-9005-1,0.03
HTS-9006-1,0.09
HTS-9007-1,0.02
HTS-9008-1,0.035
HTS-9009-1,0.095
HTS-9010-1,0.03
HTS-9011-1,0.02
HTS-9012-1,0.025
HTS-9013-1,0.02
HTS-98-1,0.08
IAS-1-1,0.34
IAS-11-1,0.32
IAS-12-1,0.14
IAS-14-1,0.14
IAS-17-1,0.18
IAS-18-1,0.2
IAS-20-1,0.21
IAS-21-1,0.26
IAS-22-1,0.25
IAS-23-1,0.15
IAS-24-1,5.48
IAS-28-1,0.19
IAS-29-1,0.13
IAS-3-1,0.24
IAS-30-1,0.2
IAS-31-1,1.08
IAS-32-1,0.11
IAS-33-1,0.98
IAS-35-1,0.27
IAS-36-1,0.17
IAS-38-1,0.12
IAS-43-1,0.2
IAS-44-1,0.19
IAS-47-1,0.26
IAS-48-1,0.24
IAS-49-1,0.13
IAS-50-1,0.27
IAS-51-1,0.51
IAS-52-1,0.07
IAS-53-1,1.61
IAS-54-1,0.38
IAS-6-1,0.17
IAS-9-1,0.94
INK-8000-1,0.085
INK-8001-1,0.09
INK-8002-1,0.08
INK-8003-1,0.095
INK-8004-1,0.055
INK-9000-1,0.105
INK-9001-1,0.055
INK-9002-1,0.12
INK-9003-1,0.055
INK-9004-1,0.505
INK-9005-1,0.05
INK-9006-1,0.045
INK-9007-1,0.09
INK-9008-1,0.03
INK-9009-1,0.075
INK-9010-1,0.05
INK-9013-1,0.025
INK-9014-1,0.03
IPB-1-1,0.08
IPB-10-1,0.09
IPB-2-1,0.15
IPB-4-1,0.11
IPB-5-1,0.13
IPB-6-1,0.24
IPB-7-1,0.09
IPB-8-1,0.09
IPB-9-1,0.1
JFD-9000-1,0.03
JFD-9000-1,0.02
JFD-9001-1,0.02
JFD-9001-1,0.04
JFD-9003-1,0.035
JFD-9004-1,0.04
JFD-9005-1,0.04
JFD-9006-1,0.01
JFD-9007-1,0.035
JFD-9008-1,0.1
JFD-9009-1,0.01
JFD-9010-1,0.06
JFD-9010-1,0.07
JFD-9011-1,0.035
JFD-9012-1,0.08
KAI-12-1,0.14
KAI-13-1,0.24
KAI-14-1,0.18
KAI-17-1,0.15
KAI-2-1,0.18
KAI-21-1,0.68
KAI-22-1,0.08
KAI-23-1,0.1
KAI-25-1,0.16
KAI-26-1,0.27
KAI-27-1,0.63
KAI-28-1,0.19
KAI-29-1,0.21
KAI-3-1,0.28
KAI-30-1,0.16
KAI-35-1,0.19
KAI-36-1,0.13
KAI-37-1,0.1
KAI-38-1,0.17
KAI-39-1,0.15
KAI-4-1,0.21
KAI-43-1,0.16
KAI-46-1,0.18
KAI-47-1,0.2
KAI-5-1,0.19
KAI-51-1,0.16
KAI-52-1,0.14
KAI-53-1,0.2
KAI-54-1,0.24
KAI-6-1,0.25
KAI-6001-1,0.155
KAI-6004-1,0.155
KAI-6006-1,0.245
KAI-61-1,0.3
KAI-62-1,0.21
KAI-63-1,0.26
KAI-64-1,0.18
KAI-66-1,0.3
KAI-67-1,0.14
KAI-68-1,0.1
KAI-69-1,0.32
KAI-70-1,0.12
KAI-71-1,0.42
KAI-72-1,0.26
KAI-73-1,0.08
KAI-74-1,0.06
KAI-75-1,0.15
KAI-76-1,0.11
KAI-77-1,0.05
KAI-78-1,0.12
KAI-79-1,0.39
KCM-9001-1,0.155
KCM-9002-1,0.15
KCM-9003-1,0.04
KCM-9005-1,0.19
KCM-9006-1,0.115
KCM-9007-1,0.085
KCM-9008-1,0.16
KCM-9009-1,0.175
KCM-9010-1,0.14
KCM-9011-1,0.13
KCM-9012-1,0.18
KCM-9013-1,0.13
KCM-9014-1,0.06
KCM-9015-1,0.105
KCM-9016-1,0.17
KCM-9017-1,0.07
KCM-9019-1,0.08
KCM-9022-1,0.07
KCM-9024-1,0.025
KCM-9027-1,0.145
KCM-9028-1,0.145
KCM-9029-1,0.035
KCM-9030-1,0.06
KCM-9030-1,0.14
KCM-9031-1,0.11
KCM-9032-1,0.11
KCM-9032-1,0.13
KCM-9033-1,0.18
KCM-9035-1,0.43
KCM-9035-1,0.21
KCM-9036-1,0.13
KCM-9040-1,0.225
KCM-9041-1,0.145
KCM-9042-1,0.17
KCM-9042-1,0.13
KCM-9043-1,0.05
KCM-9043-1,0.1
KCM-9044-1,0.14
KCM-9045-1,0.265
KCM-9046-1,0.1
KCM-9047-1,0.105
KCM-9048-1,0.135
KCM-9049-1,0.03
KCM-9050-1,0.05
KCM-9051-1,0.095
KCM-9052-1,0.695
KCM-9053-1,0.13
KCM-9054-1,0.1
LAK-9000-1,0.03
LAK-9000-1,0.07
LAK-9001-1,0.035
LAK-9002-1,0.075
LAK-9003-1,0.035
LAK-9004-1,0.03
LAK-9005-1,0.025
LAK-9006-1,0.035
LDR-9000-1,0.07
LDR-9001-1,0.065
LDR-9003-1,0.055
LDR-9004-1,0.125
LDR-9005-1,0.08
LDR-9005-1,0.08
LDR-9006-1,0.06
LDR-9006-1,0.05
LFZ-105-1,0.21
LFZ-137-1,0.07
LFZ-17-1,0.08
LFZ-212-1,0.08
LFZ-224-1,0.08
LFZ-3-1,0.06
LFZ-362-1,0.05
LFZ-395-1,0.07
LFZ-429-1,0.06
LFZ-459-1,0.07
LFZ-460-1,0.23
LFZ-461-1,0.56
LFZ-464-1,0.05
LFZ-467-1,0.04
LFZ-468-1,0.04
LFZ-471-1,0.155
LFZ-472-1,0.125
LFZ-473-1,0.16
LFZ-486-1,0.04
LFZ-486-1,0.05
LFZ-487-1,0.04
LFZ-487-1,0.03
LFZ-488-1,0.085
LFZ-489-1,0.095
LFZ-490-1,0.07
LFZ-491-1,0.135
LFZ-494-1,0.155
LFZ-496-1,0.045
LFZ-497-1,0.13
LFZ-499-1,0.17
LFZ-500-1,0.065
LFZ-502-1,0.08
LFZ-503-1,0.08
LFZ-504-1,0.06
LFZ-505-1,0.175
LFZ-506-1,0.08
LFZ-507-1,0.15
LFZ-6-1,0.14
LFZ-78-1,0.06
LFZ-98-1,0.08
LIA-15-1,0.045
LIA-194-1,0.055
LIA-195-1,0.025
LIA-211-1,0.035
LIA-261-1,0.09
LIA-265-1,0.07
LIA-267-1,0.035
LIA-86-1,0.1
MAC-1-1,0.25
MAC-10-1,3.03
MAC-11-1,0.22
MAC-12-1,19.81
MAC-16-1,1.66
MAC-17-1,0.19
MAC-18-1,1.36
MAC-19-1,1.06
MAC-20-1,0.37
MAC-21-1,1.37
MAC-23-1,0.88
MAC-25-1,0.31
MAC-26-1,0.51
MAC-27-1,2.97
MAC-28-1,0.55
MAC-29-1,1.78
MAC-3-1,0.7
MAC-30-1,0.31
MAC-31-1,0.58
MAC-32-1,0.59
MAC-33-1,0.24
MAC-34-1,0.51
MAC-4-1,1.61
MAC-5-1,0.73
MAC-6-1,11.36
MAC-7-1,2.16
MAC-8-1,2.85
MAC-9-1,0.61
MAK-106-1,0.03
MAK-13-1,0.085
MAK-37-1,0.23
MBN-54-1,0.035
MBN-6-1,0.06
MBP-6006-1,0.055
MCL-9000-1,0.03
MCL-9001-1,0.03
MCL-9002-1,0.02
MCL-9003-1,0.06
MCL-9004-1,0.03
MCL-9005-1,0.03
MCL-9006-1,0.03
MCL-9007-1,0.02
MCL-9008-1,0.06
MCL-9009-1,0.025
MCL-9010-1,0.05
MCL-9011-1,0.02
MCL-9012-1,0.07
MCL-9013-1,0.035
MCL-9014-1,0.145
MCL-9015-1,0.035
MCL-9016-1,0.03
MCL-9017-1,0.02
MCL-9018-1,0.025
MCL-9019-1,0.055
MCL-9020-1,0.02
MCL-9022-1,0.035
MCL-9023-1,0.03
MCL-9024-1,0.02
MCL-9025-1,0.02
MCL-9026-1,0.02
MCL-9027-1,0.03
MCL-9028-1,0.03
MCL-9029-1,0.04
MCL-9030-1,0.02
MCL-9031-1,0.025
MCL-9032-1,0.18
MCL-9032-1,0.03
MCL-9033-1,0.015
MCL-9034-1,0.035
MCL-9035-1,0.02
MCL-9036-1,0.01
MCL-9037-1,0.05
MCL-9038-1,0.02
MCL-9039-1,0.02
MCL-9040-1,0.04
MCL-9041-1,0.025
MCL-9042-1,0.05
MCL-9043-1,0.02
MCL-9043-1,0.01
MCL-9044-1,0.025
MCL-9045-1,0.05
MCL-9045-1,0.07
MCL-9046-1,0.02
MCL-9047-1,0.03
MCL-9048-1,0.01
MCL-9049-1,0.045
MCL-9050-1,0.05
MCL-9051-1,0.065
MCL-9052-1,0.085
MCL-9053-1,0.13
MCL-9054-1,0.035
MCL-9055-1,0.035
MCL-9056-1,0.02
MCL-9057-1,0.055
MCL-9058-1,0.055
MCL-9059-1,0.02
MCL-9060-1,0.035
MDIA-1107-1,0.04
MDIA-1108-1,0.02
MDIA-1109-1,0.03
MDIA-1238-1,0.08
MDIA-401-1,0.025
MDIA-404-1,0.02
MDIA-408-1,0.095
MDIA-409-1,0.06
MDIA-410-1,0.02
MDIA-412-1,0.05
MDIA-413-1,0.02
MDIA-414-1,0.015
MDIA-415-1,0.01
MDIA-416-1,0.075
MDIA-417-1,0.02
MDIA-418-1,0.03
MDIA-421-1,0.01
MDIA-423-1,0.02
MDIA-424-1,0.015
MDIA-425-1,0.05
MDIA-426-1,0.03
MDIA-427-1,0.02
MDIA-428-1,0.015
MDIA-434-1,0.015
MDIA-435-1,0.02
MDIA-436-1,0.02
MDIA-437-1,0.04
MDIA-445-1,0.03
MDIA-446-1,0.04
MDIA-447-1,0.07
MDIA-449-1,0.02
MDIA-450-1,0.025
MDIA-451-1,0.02
MDIA-452-1,0.03
MDIA-453-1,0.01
MDIA-454-1,0.03
MDIA-455-1,0.015
MDIA-457-1,0.035
MDIA-458-1,0.065
MDIA-459-1,0.04
MDIA-737-1,0.05
MDIA-743-1,0.02
MDIA-755-1,0.06
MDIA-887-1,0.06
MGR-9001-1,0.115
MGR-9002-1,0.13
MGR-9002-1,0.16
MGR-9003-1,0.12
MGR-9003-1,0.12
MGR-9004-1,0.255
MGR-9005-1,0.16
MGR-9005-1,0.16
MGR-9007-1,0.02
MGR-9007-1,0.05
MGR-9008-1,0.04
MGR-9008-1,0.04
MHB-386-1,2.19
MHB-447-1,0.025
MHB-448-1,0.99
MHB-448-1,0.085
MHB-449-1,0.355
MHB-450-1,0.34
MHB-451-1,0.01
MHB-558-1,0.375
MHB-56-1,0.06
MHB-57-1,0.075
MIPS-1-1,0.06
MIPS-19-1,0.08
MIPS-2-1,0.05
MIPS-46-1,0.08
MIPS-47-1,0.06
MIPS-55-1,0.07
MISCQ-300-1,0.05
MISCQ-301-1,0.1
MISCQ-304-1,0.07
MISCQ-305-1,0.06
MISCQ-306-1,0.04
MISCQ-307-1,0.3
MISCQ-308-1,0.03
MISCQ-309-1,0.17
MISCQ-311-1,0.03
MISCQ-42-1,0.15
MISCQ-44-1,0.06
MISCQ-45-1,0.07
MISCQ-49-1,0.17
MISCQ-50-1,0.04
MISCQ-53-1,0.36
MISCQ-54-1,0.2
MISCQ-56-1,0.09
MISCQ-58-1,0.06
MISCQ-66-1,0.07
MISCQ-67-1,0.05
MISCQ-68-1,0.07
MISCQ-69-1,0.13
MISCQ-70-1,0.07
MISCQ-71-1,0.05
MISCQ-72-1,0.08
MISCQ-73-1,0.47
MISCQ-74-1,0.07
MISCQ-75-1,0.06
MISCQ-76-1,0.04
MISCQ-77-1,0.1
MISCQ-78-1,0.04
MISCQ-79-1,0.16
MISCQ-80-1,0.06
MISCQ-81-1,0.18
MISCQ-82-1,0.04
MISCQ-83-1,0.06
MISCQ-86-1,0.17
MISCQ-87-1,0.11
MISCQ-88-1,0.05
MISNQ-10-1,0.04
MISNQ-101-1,0.04
MISNQ-102-1,0.09
MISNQ-103-1,0.06
MISNQ-109-1,0.04
MISNQ-11-1,0.14
MISNQ-115-1,0.07
MISNQ-128-1,0.05
MISNQ-139-1,0.38
MISNQ-145-1,0.02
MISNQ-147-1,0.05
MISNQ-162-1,0.11
MISNQ-163-1,0.07
MISNQ-164-1,0.08
MISNQ-166-1,0.06
MISNQ-167-1,0.03
MISNQ-170-1,0.08
MISNQ-171-1,0.17
MISNQ-172-1,0.04
MISNQ-175-1,0.04
MISNQ-177-1,0.12
MISNQ-178-1,0.11
MISNQ-179-1,0.06
MISNQ-181-1,0.08
MISNQ-183-1,0.05
MISNQ-185-1,0.02
MISNQ-186-1,0.07
MISNQ-189-1,0.04
MISNQ-191-1,0.15
MISNQ-192-1,0.08
MISNQ-195-1,0.07
MISNQ-197-1,0.06
MISNQ-203-1,0.06
MISNQ-206-1,0.06
MISNQ-208-1,0.07
MISNQ-209-1,0.07
MISNQ-210-1,0.08
MISNQ-212-1,0.08
MISNQ-219-1,0.06
MISNQ-6-1,0.04
MISNQ-8-1,0.05
MISSE-101-1,0.17
MISSE-102-1,0.04
MISSE-111-1,0.05
MISSE-150-1,0.09
MISSE-151-1,0.16
MISSE-162-1,0.32
MISSE-163-1,0.26
MISSE-164-1,0.06
MJA-6000-1,0.07
MJA-6001-1,0.04
MJA-6003-1,0.04
MJA-6004-1,0.11
MJA-6005-1,0.01
MJA-6006-1,0.03
MJA-6007-1,0.02
MJA-6010-1,0.09
MJA-6011-1,0.1
MJA-6012-1,0.05
MJA-6014-1,0.04
MJA-6015-1,1.81
MJA-6018-1,0.09
MJA-6021-1,0.05
MJA-6022-1,0.07
MJA-6023-1,0.02
MJA-6024-1,0.05
MLG-9000-1,0.08
MLG-9001-1,0.16
MLG-9002-1,0.05
MLG-9002-1,0.03
MLG-9003-1,0.04
MLG-9003-1,0.04
MLG-9004-1,0.03
MLG-9005-1,0.03
MLG-9006-1,0.03
MLG-9007-1,0.03
MLG-9008-1,0.05
MLG-9009-1,0.03
MLG-9009-1,0.03
MLG-9010-1,0.035
MLG-9011-1,0.05
MLG-9011-1,0.11
MLG-9012-1,0.025
MON-6000-1,0.115
MON-6001-1,0.065
MON-6002-1,0.07
MON-6003-1,0.035
MON-6005-1,0.03
MON-6006-1,0.05
MON-6007-1,0.04
MON-6009-1,0.145
MON-6010-1,0.03
MON-6011-1,0.015
MON-6012-1,0.035
MON-6013-1,0.035
MON-6014-1,0.04
MON-6015-1,0.105
MON-6091-1,0.195
MON-6092-1,0.07
MON-6093-1,0.07
MON-6094-1,0.025
MON-6095-1,0.08
MRC-1058-1,0.025
MRC-1061-1,0.07
MRC-1072-1,0.13
MRC-1116-1,0.055
MRC-1117-1,0.08
MRC-22-1,0.57
MRC-233-1,0.115
MRC-268-1,0.22
MRC-313-1,0.06
MRC-36-1,0.175
MRC-372-1,0.21
MRC-515-1,0.065
MRC-769-1,0.045
MRC-830-1,0.13
MRC-859-1,0.15
MRC-866-1,0.145
MRC-90-1,0.155
MRC-993-1,0.05
MSL-217-1,0.08
MTL-282-1,0.065
MTL-299-1,0.53
MTL-315-1,0.045
MTL-350-1,0.115
MTL-576-1,0.055
MTL-583-1,0.04
MTL-9000-1,0.06
MTL-9001-1,0.05
MTL-9002-1,0.05
MTL-9003-1,0.465
MTL-9004-1,0.12
MTL-9005-1,0.04
MTL-9006-1,0.07
NCD-1019-1,0.27
NCD-1020-1,0.17
NCD-1021-1,0.08
NCD-1023-1,0.16
NCD-1024-1,0.13
NCD-1025-1,0.16
NCD-1026-1,0.16
NCD-1027-1,0.1
NCD-1028-1,0.11
NCD-1029-1,0.16
NCD-1030-1,0.17
NCD-1031-1,0.26
NCD-1032-1,1.33
NCD-1033-1,0.19
NCD-1034-1,0.14
NCD-1035-1,0.15
NCD-1036-1,0.39
NCD-1037-1,0.17
NCD-1038-1,0.07
NCD-125-1,0.065
NCD-127-1,0.11
NCD-143-1,0.025
NCD-224-1,0.105
NCD-272-1,0.095
NCD-276-1,0.155
NCD-285-1,0.175
NCD-339-1,0.05
NCD-344-1,0.165
NCD-356-1,0.15
NCD-364-1,0.105
NCD-37-1,0.065
NCD-393-1,0.195
NCD-44-1,0.07
NCD-452-1,0.145
NCD-51-1,0.05
NCD-52-1,0.165
NCD-58-1,0.115
NCD-59-1,0.235
NCD-6-1,0.16
NCD-68-1,0.245
NCD-70-1,0.505
NCD-71-1,0.265
NCD-72-1,0.16
NCD-83-1,0.055
NCD-885-1,0.13
NCD-89-1,0.155
NHC-9000-1,0.025
NHC-9001-1,0.02
NHC-9002-1,0.03
NHC-9003-1,0.01
NHC-9004-1,0.045
NHC-9005-1,0.06
NHC-9006-1,0.035
NHC-9007-1,0.055
NLH-9000-1,0.04
NLH-9001-1,0.08
NLH-9001-1,0.04
NLH-9002-1,0.1
NLH-9002-1,0.05
NLH-9003-1,0.03
NLH-9004-1,0.05
NLH-9005-1,0.03
NLH-9005-1,0.03
NLH-9007-1,0.035
NLH-9008-1,0.03
NLH-9008-1,0.06
NLH-9009-1,0.03
NLH-9009-1,0.03
NLH-9010-1,0.03
NLH-9010-1,0.03
NLH-9011-1,0.02
NLH-9012-1,0.055
NLH-9013-1,0.045
P2REEF-15-1,0.04
P2REEF-22-1,0.05
P2REEF-23-1,0.055
P2REEF-24-1,0.04
P2REEF-25-1,0.04
P2REEF-26-1,0.04
P2REEF-42-1,0.04
P2REEF-43-1,0.035
P2REEF-44-1,0.03
P2REEF-45-1,0.025
P2REEF-46-1,0.03
P2REEF-5-1,0.09
P2REEF-5-1,0.15
P2REEF-508-1,0.025
P2REEF-509-1,0.12
P2REEF-510-1,0.02
P2REEF-53-1,0.06
P2REEF-56-1,0.07
P2REEF-58-1,0.08
P2REEF-73-1,0.09
P2REEF-73-1,0.1
P2REEF-9-1,0.025
P2REEF-96-1,0.01
P2REEF-99-1,0.03
PCS-6000-1,0.02
PCS-6002-1,0.035
PCS-6003-1,0.05
PCS-6005-1,0.015
PCS-6008-1,0.135
PCS-6009-1,0.03
PCS-6010-1,0.055
PCS-6011-1,0.035
PCS-6012-1,0.055
PCS-6013-1,0.025
PCS-6014-1,0.05
PCS-6015-1,0.025
PCS-6017-1,0.03
PCS-6020-1,0.135
PCS-6021-1,0.11
PCS-6022-1,0.13
PCS-6023-1,0.02
PCS-6024-1,0.05
PCS-6025-1,0.12
PCS-6026-1,0.1
PCS-6028-1,0.04
PCS-6029-1,0.05
PCS-724-1,0.04
PCS-725-1,0.07
PCS-727-1,0.19
PLS-1-1,0.045
PLS-13-1,0.185
PLS-14-1,0.035
PLS-18-1,0.04
PLS-26-1,0.125
PLS-5-1,0.06
PLS-7-1,0.035
PLS-8-1,0.03
QCS-76-1,0.11
RAV-6002-1,0.03
RAV-6003-1,0.08
RAV-6013-1,0.01
RAV-6015-1,0.04
RAV-6015-1,0.02
RAV-6016-1,0.015
RAV-6017-1,0.02
RAV-6017-1,0.02
RAV-6018-1,0.025
RAV-6019-1,0.045
RAV-6022-1,0.05
RAV-6023-1,0.08
RAV-6023-1,0.06
RAV-6024-1,0.04
RAV-6028-1,0.06
RAV-6028-1,0.04
RAV-6029-1,0.015
RAV-6033-1,0.045
RAV-6036-1,0.13
RAV-6037-1,0.035
RAV-6038-1,0.065
RAV-6039-1,0.025
RUSS-131-1,0.04
RUSS-133-1,0.11
RUSS-24-1,0.05
RUSS-25-1,0.06
RUSS-38-1,0.11
RUSS-40-1,0.06
RUSS-434-1,0.04
RUSS-474-1,0.04
RUSS-475-1,0.03
RUSS-477-1,0.05
RUSS-479-1,0.04
RUSS-484-1,0.04
RUSS-486-1,0.04
RUSS-490-1,0.04
RUSS-491-1,0.04
RUSS-535-1,0.04
RUSS-539-1,0.03
RUSS-540-1,0.03
SALTC-349-1,0.02
SALTC-350-1,0.46
SALTC-351-1,0.1
SALTC-400-1,0.64
SALTE-738-1,0.06
SALTE-740-1,0.21
SALTE-741-1,0.07
SALTE-742-1,0.08
SALTE-744-1,0.12
SALTE-745-1,0.04
SALTE-746-1,0.95
SALTE-749-1,0.04
SALTN-504-1,0.04
SALTN-507-1,0.07
SALTN-508-1,0.26
SALTN-509-1,0.1
SALTN-510-1,0.11
SALTN-511-1,0.17
SALTN-514-1,0.21
SALTS-72-1,0.2
SAR-233-1,0.09
SAR-235-1,0.06
SAR-241-1,0.03
SAR-248-1,0.05
SAR-253-1,0.05
SAR-600-1,0.085
SAR-601-1,0.045
SAR-602-1,0.03
SAR-603-1,0.04
SAR-604-1,0.05
SAR-605-1,0.12
SBNS-32-1,0.13
SBNS-42-1,0.02
SBNS-47-1,0.04
SBNS-49-1,0.03
SBNS-52-1,0.3
SBNS-58-1,0.02
SBNS-6-1,0.09
SBNS-62-1,0.02
SBT-9000-1,0.3
SBT-9001-1,0.09666667
SBT-9002-1,0.06333333
SBT-9003-1,0.1033333
SBT-9004-1,0.06
SBT-9005-1,0.05
SBT-9006-1,0.04666667
SBT-9007-1,0.06
SBT-9008-1,0.13
SBT-9009-1,0.05666667
SBT-9010-1,0.05
SBT-9011-1,0.04333333
SBT-9012-1,0.04666667
SBT-9013-1,0.04666667
SBT-9014-1,0.1466667
SBT-9015-1,0.03
SBT-9016-1,0.09333333
SBT-9017-1,0.07
SBT-9018-1,0.09
SBT-9019-1,0.03666667
SBT-9020-1,0.06666667
SBT-9021-1,0.05
SBT-9022-1,0.1333333
SBT-9023-1,0.02
SBT-9024-1,0.06
SBT-9025-1,0.1133333
SBT-9026-1,0.62
SBT-9027-1,0.14
SBT-9028-1,0.1333333
SBT-9029-1,0.09666667
SBT-9031-1,0.1233333
SBT-9032-1,0.1066667
SBT-9034-1,0.05333333
SBT-9035-1,0.09
SBT-9036-1,0.075
SBT-9037-1,0.05
SBT-9039-1,0.11
SERES-48-1,0.24
SERES-49-1,0.13
SERES-50-1,0.14
SERES-51-1,0.21
SERES-52-1,0.16
SERES-53-1,0.14
SERES-55-1,0.15
SERES-56-1,0.05
SERES-57-1,0.14
SERES-58-1,0.17
SERES-59-1,0.43
SERES-60-1,0.07
SERES-61-1,0.06
SERES-62-1,0.05
SERES-63-1,0.09
SERES-64-1,0.17
SERES-65-1,0.13
SERES-66-1,0.16
SERES-67-1,0.19
SERES-68-1,0.09
SERES-69-1,0.15
SERES-70-1,0.14
SERES-71-1,0.12
SERES-72-1,0.09
SERES-73-1,0.23
SERES-74-1,0.28
SERES-75-1,0.2
SERES-76-1,0.32
SERES-85-1,0.15
SERES-86-1,0.12
SERES-87-1,0.3
SFS-1-1,0.11
SFS-103-1,0.22
SFS-126-1,0.065
SFS-152-1,0.13
SFS-176-1,0.14
SFS-2-1,0.07
SFS-20-1,0.075
SFS-200-1,0.165
SFS-21-1,0.07
SFS-22-1,0.07
SFS-229-1,0.06
SFS-23-1,0.11
SFS-25-1,0.11
SFS-253-1,0.085
SFS-26-1,0.1066667
SFS-27-1,0.05
SFS-28-1,0.07
SFS-29-1,0.08666667
SFS-3-1,0.095
SFS-30-1,0.1266667
SFS-300-1,0.11
SFS-302-1,0.055
SFS-31-1,0.12
SFS-32-1,0.11
SFS-325-1,0.065
SFS-327-1,0.07
SFS-4-1,0.055
SFS-400-1,0.075
SFS-405-1,0.075
SFS-454-1,0.09
SFS-457-1,0.1433333
SFS-5-1,0.165
SFS-50-1,0.1
SFS-506-1,0.19
SFS-51-1,0.09
SFS-515-1,0.13
SFS-52-1,0.08
SFS-53-1,0.1
SFS-54-1,0.08
SFS-55-1,0.16
SFS-56-1,0.205
SFS-6-1,0.09
SFS-600-1,0.385
SFS-601-1,0.32
SFS-604-1,0.28
SFS-7-1,0.1
SFS-70-1,0.06
SFS-71-1,0.04
SFS-73-1,0.07
SFS-75-1,0.04
SFS-76-1,0.1133333
SFS-8-1,0.06
SFS-9-1,0.06
SJS-9000-1,0.035
SJS-9002-1,0.08
SJS-9003-1,0.205
SLK-1006-1,0.03
SLK-1016-1,0.02
SLK-1050-1,0.05
SLK-1076-1,0.06
SLK-1089-1,0.03
SLK-9000-1,0.045
SLK-9001-1,0.02
SLK-9003-1,0.045
SLK-9004-1,0.06
SLK-9004-1,0.03
SLK-9005-1,0.06
SLK-9005-1,0.04
SLK-9006-1,0.05
SLK-9006-1,0.04
SLK-9007-1,0.03
SLK-9008-1,0.08
SLK-9008-1,0.06
SLK-9009-1,0.04
SLK-9010-1,0.065
SLK-994-1,0.02
SPY-149-1,0.02
SPY-22-1,0.02
SPY-95-1,0.02
SWRES-781-1,0.07
TAB-2475-1,0.07
TAB-2476-1,0.145
TAB-2477-1,0.085
TAB-2478-1,0.11
TAB-2479-1,0.095
TAB-2480-1,0.075
TAB-2481-1,0.035
TAB-2482-1,0.035
TAB-2483-1,0.07
TAB-2484-1,0.045
TAB-2485-1,0.075
TAB-2486-1,0.11
TAB-2487-1,0.25
UBRISS-195-1,0.05
UBRISS-195-1,0.01
UBRISS-196-1,0.03
UBRISS-196-1,0.01
UBRISS-197-1,0.05
UBRISS-197-1,0.03
UBRISS-198-1,0.12
UBRISS-198-2,0.14
UBRISS-199-1,0.03
UBRISS-199-1,0.02
UBRISS-200-1,0.04
UBRISS-202-1,0.02
UBRISS-202-1,0.03
UBRISS-205-1,0.07
UBRISS-205-1,0.04
UBRISS-206-1,0.04
UBRISS-206-1,0.04
UBRISS-207-2,0.05
UCS-9000-1,0.105
UCS-9002-1,0.135
WAN-23-1,0.03
WAN-6-1,0.1
WCS-1001-1,0.07
WCS-1002-1,0.09
WCS-1003-1,0.065
WCS-1004-1,0.095
WCS-1005-1,0.125
WCS-1106-1,0.32
WCS-1114-1,0.06
WCS-1143-1,0.09
WCS-1167-1,0.05
WCS-1170-1,0.06
WCS-1201-1,0.05
WCS-1228-1,0.055
WCS-1249-1,0.05
WCS-1252-1,0.02
WCS-1306-1,0.05
WCS-1310-1,0.03
WCS-1311-1,0.12
WCS-1328-1,0.04
WCS-1329-1,0.08
WCS-1331-1,0.03
WCS-1407-1,0.055
WCS-1422-1,0.045
WCS-1429-1,0.035
WCS-1439-1,0.04
WCS-1497-1,0.03
WCS-1507-1,0.02
WCS-1602-1,0.08
WCS-1607-1,0.02
WCS-1608-1,0.04
WCS-1609-1,0.04
WCS-1612-1,0.05
WCS-1900-1,0.03
WCS-1902-1,0.05
WCS-1936-1,0.02
WCS-1977-1,0.04
WCS-2005-1,0.03
WCS-2079-1,0.68
WCS-2161-1,0.53
WCS-2182-1,0.06
WCS-2186-1,0.06
WCS-2201-1,0.03
WCS-2218-1,0.065
WCS-2228-1,0.025
WCS-2229-1,0.03
WCS-2247-1,0.04
WCS-2251-1,0.075
WCS-2273-1,0.11
WCS-2283-1,0.06
WCS-2305-1,0.1
WCS-2411-1,0.05
WCS-2472-1,0.03
WCS-2484-1,0.03
WCS-2489-1,0.07
WCS-2500-1,0.05
WCS-2505-1,0.05
WCS-2507-1,0.05
WCS-2536-1,0.06
WCS-2538-1,0.06
WCS-2552-1,0.05
WCS-2557-1,0.04
WCS-2567-1,0.04
WCS-2574-1,0.05
WCS-2579-1,0.01
WCS-2604-1,0.16
WCS-2787-1,0.12
WCS-2803-1,0.07
WCS-2823-1,0.07
WCS-2833-1,0.04
WCS-2837-1,0.08
WCS-2862-1,0.07
WCS-2866-1,0.18
WCS-2867-1,0.05
WCS-4039-1,0.07
WCS-4064-1,0.125
WCS-4266-1,0.13
WCS-4346-1,0.07
WCS-4543-1,0.11
WCS-4820-1,0.14
WCS-6000-1,0.055
WCS-6001-1,0.05
WCS-6003-1,0.07
WCS-6006-1,0.1
WCS-6007-1,0.04
WCS-6008-1,0.05
WCS-6009-1,0.08
WCS-6010-1,0.13
WCS-6011-1,0.05
WCS-6012-1,0.025
WCS-6013-1,0.095
WCS-6015-1,0.06
WCS-6016-1,0.04
WCS-6017-1,0.03
WCS-6018-1,0.075
WCS-6019-1,0.11
WCS-6020-1,0.06
WCS-6021-1,0.045
WCS-6022-1,0.03
WCS-6023-1,0.055
WCS-6024-1,0.06
WCS-6025-1,0.04
WCS-6026-1,0.03
WCS-6027-1,0.125
WCS-6028-1,0.035
WCS-6029-1,0.035
WCS-6030-1,0.045
WCS-6031-1,0.305
WCS-6032-1,0.15
WCS-6033-1,0.045
WCS-6034-1,0.075
WCS-759-1,0.11
WCS-780-1,0.19
WCS-781-1,0.28
WCS-782-1,0.19
WCS-783-1,0.21
WCS-785-1,0.29
WCS-787-1,0.18
WCS-796-1,0.14
WCS-816-1,0.05
WCS-822-1,0.11
WCS-832-1,0.04
WCS-842-1,0.02
WCS-857-1,0.17
WCS-864-1,0.13
WCS-866-1,0.04
WCS-868-1,0.07
WCS-874-1,0.26
WCS-875-1,0.34
WCS-880-1,0.16
WCS-885-1,0.02
WCS-886-1,0.02
WCS-897-1,0.03
WCS-899-1,0.06
WCS-903-1,0.03
WCS-908-1,0.09
WCS-913-1,0.09
WCS-914-1,0.05
WCS-925-1,0.11
WCS-930-1,0.05
WCS-931-1,0.05
WCS-938-1,0.05
WCS-940-1,0.09
WCS-942-1,0.03
WCS-943-1,0.05
WCS-952-1,0.07
WDH-1024-1,0.04
WDH-1063-1,0.01
WDH-1208-1,0.11
WDH-1210-1,0.16
WDH-1223-1,0.08
WDH-1237-1,0.12
WDH-1248-1,0.17
WDH-1252-1,0.09
WDH-1261-1,0.11
WDH-1262-1,0.14
WDH-1270-1,0.16
WDH-1271-1,0.21
WDH-1272-1,0.12
WDH-1291-1,0.06
WDH-1394-1,0.08
WDH-1507-1,0.06
WDH-1508-1,0.02
WDH-1520-1,0.095
WDH-1557-1,0.21
WDH-1633-1,0.17
WDH-1726-1,0.085
WDH-1787-1,0.02
WDH-1901-1,0.07
WDH-1905-1,0.28
WDH-1907-1,0.05
WDH-1987-1,0.09
WDH-2034-1,0.18
WDH-2035-1,0.1
WDH-2081-1,0.095
WDH-2085-1,0.07
WDH-2086-1,0.105
WDH-2114-1,0.12
WDH-2145-1,0.03
WDH-2159-1,0.02
WDH-322-1,0.16
WDH-330-1,0.09
WDH-330-2,0.03
WDH-331-1,0.01
WDH-332-1,0.03
WDH-334-1,0.03
WDH-339-1,0.03
WDH-340-1,0.01
WDH-342-1,0.1
WDH-347-1,0.02
WDH-349-1,0.16
WDH-350-1,0.15
WDH-351-1,0.02
WDH-352-1,0.09
WDH-353-1,0.04
WDH-354-1,0.26
WDH-571-1,0.01
WDH-574-1,0.04
WDH-649-1,0.12
WDH-690-1,0.25
WDH-698-1,0.03
WDH-699-1,0.01
WDH-701-1,0.02
WDH-702-1,0.01
WDH-716-1,0.15
WDH-718-1,0.07
WDH-720-1,0.39
WDH-721-1,0.24
WDH-731-1,0.1
WDH-742-1,0.74
WDH-743-1,0.19
WDH-751-1,0.08
WDH-757-1,0.09
WDH-758-1,0.14
WDH-760-1,0.02
WDH-767-1,0.13
WDH-824-1,0.08
WDH-825-1,0.12
WDH-825-1,0.12
WDH-830-1,0.1
WDH-830-2,0.06
WDH-874-1,0.13
WDH-890-1,0.22
WDH-9001-1,0.015
WDH-9007-1,0.02
WDH-9012-1,0.025
WDH-9019-1,0.015
WDH-9020-1,0.01
WDH-9026-1,0.07
WDH-9026-1,0.15
WDH-9027-1,0.09
WDH-9027-1,0.06
WDH-9028-1,0.11
WDH-9028-1,0.14
WDH-9029-1,0.09
WDH-9029-1,0.24
WDH-9030-1,0.12
WDH-9030-1,0.16
WDH-9031-1,0.2
WDH-9031-1,0.27
WDH-9032-1,0.13
WDH-9032-1,0.2
WDH-9033-1,0.13
WDH-9033-1,0.11
WDH-905-1,0.07
WDH-905-2,0.05
WDH-9050-1,0.19
WDH-9050-1,0.46
WDH-9051-1,0.04
WDH-9051-1,0.16
WDH-9054-1,0.12
WDH-9054-1,0.05
WDH-9055-1,0.09
WDH-9055-1,0.17
WDH-9056-1,0.1
WDH-9056-1,0.19
WDH-9064-1,0.14
WDH-9064-1,0.12
WDH-907-1,0.17
WDH-9080-1,0.11
WDH-9080-1,0.13
WDH-9081-1,0.06
WDH-9081-1,0.07
WDH-9089-1,0.16
WDH-9089-1,0.05
WDH-9090-1,0.09
WDH-9090-1,0.05
WDH-9091-1,0.105
WDH-9092-1,0.05
WDH-9092-1,0.05
WDH-9104-1,0.07
WDH-9104-1,0.12
WDH-9106-1,0.025
WDH-9107-1,0.12
WDH-9115-1,0.05
WDH-9115-1,0.06
WDH-917-1,0.14
WDH-928-1,0.17
WDH-929-1,0.15
WDH-935-1,0.09
WDH-943-1,0.19
WDH-944-1,0.1
WDH-959-1,0.21
WDH-965-1,0.06
WDH-968-1,0.09
WDH-973-1,0.18
WDH-992-1,0.14
WDH-995-1,0.135
WIN-279-1,0.04
WIN-289-1,0.05
WIN-297-1,0.03
WIN-333-1,0.025
WIN-335-1,0.01
WIN-486-1,0.065
WIN-658-1,0.12
WIN-686-1,0.07
WRS-9005-1,0.065
WRS-9012-1,0.065
WTC-6000-1,0.04
WTC-6001-1,0.145
WTC-6002-1,0.035
WTC-6003-1,0.05
WTC-6004-1,0.065
WTC-6005-1,0.445
WTC-6006-1,0.095
WTC-6007-1,0.06
WTC-6008-1,0.105
WTC-6009-1,0.1
WTC-6010-1,0.09
WTC-6011-1,0.07
WTC-6012-1,0.11
WTC-6013-1,0.075
WTC-6014-1,0.18
WTC-6015-1,0.065
WTC-6016-1,0.17
WTC-6017-1,0.22
WTC-6018-1,0.15
WTC-6019-1,0.5
WTC-6020-1,0.04
WTC-6021-1,0.045
WTC-6022-1,0.065
WTC-6023-1,0.175
WTC-6024-1,0.105
WTC-6025-1,0.145
WTC-6026-1,0.055
WTC-6027-1,0.085
WTC-6028-1,0.11
WTC-6029-1,0.085
WTC-6030-1,0.06
WTC-6031-1,0.14
WTC-6032-1,0.06
WTC-6033-1,0.05
WTC-6034-1,0.05
WTC-6035-1,0.07
WTC-6036-1,0.08
WTC-6037-1,0.05
WTC-6038-1,0.095
WTC-6039-1,0.17
WTC-6040-1,0.05
WTC-6041-1,0.255
WTC-6042-1,0.18
WTC-6043-1,0.05
WTC-6044-1,0.055
WTC-6045-1,0.1
WTC-6046-1,0.095
WTC-6047-1,0.095
WTC-6048-1,0.055
WTC-6049-1,0.085
WTC-6050-1,0.11
WTC-6051-1,0.065
WTC-6052-1,0.055
WTC-6053-1,0.035
WTC-6054-1,0.035
WTC-6055-1,0.065
WTC-6056-1,0.025
WTC-6057-1,0.03
WTC-6058-1,0.06
WTC-6059-1,0.055
WTC-9000-1,0.025
WTC-9001-1,0.035
WTC-9002-1,0.02
WTC-9003-1,0.06
WTC-9004-1,0.02
WTC-9005-1,0.02
WTC-9006-1,0.055
WTC-9007-1,0.095
WTC-9008-1,0.04
WTC-9009-1,0.08
WTC-9010-1,0.025
WTC-9011-1,0.03
WTC-9012-1,0.02
WTC-9013-1,0.02
WTC-9014-1,0.035
WTC-9015-1,0.02
WTC-9016-1,0.04
WTC-9017-1,0.02
WTC-9018-1,0.03
WTC-9019-1,0.025
WTC-9020-1,0.04
WTC-9021-1,0.06
WTC-9022-1,0.025
WTC-9023-1,0.02
WTC-9024-1,0.02
WTC-9025-1,0.015
WTC-9026-1,0.03
WTC-9027-1,0.02
WTC-9028-1,0.105
WTC-9029-1,0.02
WTC-9030-1,0.02
WTC-9031-1,0.03
WTC-9032-1,0.03
WTC-9033-1,0.025
WTC-9034-1,0.03
WTC-9035-1,0.03
WTC-9036-1,0.025
WTC-9037-1,0.085
WTC-9038-1,0.07
WTC-9039-1,0.035
WTC-9040-1,0.02
WTC-9041-1,0.04
WTC-9042-1,0.075
WTC-9043-1,0.05
WTC-9044-1,0.025
WTC-9045-1,0.09
WTC-9046-1,0.02
WTC-9047-1,0.115
WTC-9048-1,0.04
WTC-9049-1,0.03
WTC-9050-1,0.02
WTC-9051-1,0.03
WTC-9052-1,0.025
WTC-9053-1,0.04
WTC-9054-1,0.055
WTC-9055-1,0.02
WTC-9056-1,0.04
WTC-9057-1,0.03
WTC-9058-1,0.03
WTC-9060-1,0.04
WTC-9061-1,0.05
WTC-9062-1,0.05
WTC-9064-1,0.09
WTC-9065-1,0.045
WTC-9066-1,0.01
WTC-9067-1,0.16
WTC-9068-1,0.045
WTC-9069-1,0.035
WTC-9070-1,0.03
WTC-9071-1,0.04
WTC-9072-1,0.025
WTC-9073-1,0.04
WTC-9074-1,0.34
WTC-9075-1,0.065
WTC-9076-1,0.04
WTC-9077-1,0.04
WTC-9078-1,0.1
WTC-9079-1,0.075
WTC-9080-1,0.03
WTC-9081-1,0.04
WTC-9082-1,0.15
WTC-9086-1,0.025
WTC-9088-1,0.025
WTC-9089-1,0.025
WTC-9090-1,0.015
WTC-9091-1,0.015
WTC-9092-1,0.02
WTC-9093-1,0.035
WTC-9094-1,0.025
WTC-9095-1,0.04
WTC-9096-1,0.035
ZED-6000-1,0.04
ZED-6001-1,0.04
ZED-6002-1,0.05
ZED-6003-1,0.03
ZED-6008-1,0.13
ZED-6010-1,0.09
ZED-6013-1,0.24
