ID,VALUE
ABC-1-1,2.85
ABC-15-1,1.2
ABC-220-1,1.75
ABC-312-1,2.6
ABC-396-1,2.4
ABC-40-1,2.3
ABC-416-1,3.1
ABC-48-1,2.9
ABC-52-1,2.6
ABC-6-1,2.45
ACL-127-1,0.7
ACL-137-1,0.7
ACL-138-1,1
ACL-63-1,0.8
ARD-507-1,2.7
ARD-9000-1,1.7
ARD-9001-1,1.2
ARD-9002-1,2.7
ARD-9003-1,1.4
ARD-9005-1,2.3
ARD-9006-1,1.7
ARD-9007-1,1.9
ARD-9008-1,1.5
ARD-9009-1,2.3
ARD-9010-1,1.8
ARD-9011-1,0.8
ARD-9012-1,1.1
ARD-9013-1,3.7
ARD-9014-1,1.6
ATB-6000-1,0.7
ATB-6001-1,1.2
ATB-6002-1,2.4
ATB-6003-1,2.1
ATB-6004-1,3
ATB-6007-1,1.1
ATB-6008-1,0.6
ATB-6010-1,1
ATB-6011-1,0.7
ATB-6012-1,3.9
ATB-6013-1,4.1
ATB-6015-1,2.7
ATB-6016-1,2.25
ATB-6020-1,1.2
ATB-6021-1,1.3
ATB-6022-1,1
ATB-6024-1,1.4
ATB-6025-1,1.2
ATB-6026-1,1
ATB-6028-1,0.6
ATB-6029-1,1.15
ATB-6030-1,0.3
ATB-6031-1,2.1
BAB-9001-1,0.8
BAB-9002-1,1.5
BAB-9003-1,1.5
BAB-9004-1,1.8
BAB-9005-1,1.1
BAB-9007-1,1.8
BAB-9008-1,5.1
BAB-9009-1,5.3
BAB-9010-1,1.8
BAB-9011-1,3.4
BAB-9012-1,2.3
BAB-9013-1,2.4
BAB-9014-1,2.9
BAN-101-1,1.7
BAN-103-1,2
BAN-1041-1,1.1
BAN-1052-1,1.8
BAN-1059-1,2.2
BAN-1061-1,3.3
BAN-107-1,1.4
BAN-1088-1,2.3
BAN-1110-1,2.8
BAN-1142-1,1.7
BAN-1147-1,3.1
BAN-116-1,1.2
BAN-1182-1,1.7
BAN-119-1,2.8
BAN-121-1,2.4
BAN-1352-1,2.6
BAN-1354-1,2.8
BAN-1374-1,5.1
BAN-1377-1,1.5
BAN-1378-1,1.4
BAN-1381-1,3.9
BAN-139-1,1.9
BAN-1401-1,2.2
BAN-1435-1,2
BAN-1442-1,0.9
BAN-1452-1,1.7
BAN-1456-1,2.4
BAN-1465-1,2.8
BAN-1487-1,3.7
BAN-150-1,2.6
BAN-1522-1,1.9
BAN-1533-1,2
BAN-1542-1,2
BAN-1559-1,3.6
BAN-1569-1,2
BAN-1571-1,1.9
BAN-1590-1,3.3
BAN-1598-1,3
BAN-1601-1,3.1
BAN-1605-1,4.5
BAN-1607-1,5.4
BAN-1614-1,2.4
BAN-1615-1,2.5
BAN-1618-1,5.8
BAN-1619-1,2.4
BAN-1625-1,2
BAN-1628-1,1.2
BAN-1640-1,1.6
BAN-1647-1,1.9
BAN-1648-1,1.8
BAN-165-1,1.6
BAN-1651-1,2.5
BAN-1655-1,3.3
BAN-1660-1,1.4
BAN-1663-1,1.6
BAN-1668-1,1.6
BAN-167-1,3.4
BAN-1695-1,2.9
BAN-1702-1,2.3
BAN-1703-1,3.2
BAN-1713-1,1.7
BAN-1717-1,1.3
BAN-172-1,1.6
BAN-1725-1,1.9
BAN-1726-1,1.3
BAN-1734-1,1.6
BAN-1738-1,1.4
BAN-1740-1,1.4
BAN-1749-1,1.5
BAN-1756-1,2
BAN-1758-1,1.7
BAN-1760-1,2
BAN-1763-1,1
BAN-1771-1,1
BAN-1773-1,2.4
BAN-1777-1,0.9
BAN-1781-1,1.8
BAN-1800-1,1.9
BAN-1803-1,1
BAN-1805-1,1.7
BAN-181-1,2.1
BAN-1811-1,4.5
BAN-1812-1,1.55
BAN-1815-1,1.1
BAN-1829-1,1.4
BAN-185-1,1
BAN-1858-1,1.4
BAN-1865-1,1.3
BAN-187-1,1.8
BAN-1872-1,1.85
BAN-19-1,2.3
BAN-1903-1,2.1
BAN-1906-1,2.5
BAN-1914-1,1.95
BAN-1940-1,1.4
BAN-1945-1,1.45
BAN-1949-1,1.2
BAN-1956-1,1.45
BAN-1971-1,2.06666666666667
BAN-1975-1,2.3
BAN-1977-1,4.05
BAN-1983-1,3.75
BAN-1987-1,1.75
BAN-1996-1,2.35
BAN-2015-1,2.5
BAN-2023-1,1
BAN-2034-1,2.35
BAN-2037-1,1.3
BAN-2038-1,1.7
BAN-2042-1,1.2
BAN-2051-1,2.4
BAN-2057-1,1.3
BAN-2074-1,2.1
BAN-2090-1,1.2
BAN-2093-1,2.3
BAN-2096-1,1.8
BAN-2097-1,1.3
BAN-2099-1,1.7
BAN-2105-1,1.2
BAN-2121-1,3.1
BAN-2123-1,2.3
BAN-2128-1,1.8
BAN-2141-1,2.4
BAN-2164-1,1.3
BAN-2172-1,3.8
BAN-2177-1,2.1
BAN-224-1,1.2
BAN-2255-1,2.2
BAN-2256-1,2.4
BAN-2257-1,1.4
BAN-2258-1,1.5
BAN-2259-1,2.8
BAN-2262-1,1.6
BAN-2263-1,1.2
BAN-2264-1,1.3
BAN-2265-1,1.7
BAN-2298-1,2
BAN-2330-1,1.2
BAN-2332-1,1.4
BAN-2337-1,1.4
BAN-2350-1,1.2
BAN-2352-1,1.4
BAN-2355-1,2.1
BAN-2390-1,3.6
BAN-2451-1,2
BAN-2455-1,1.2
BAN-2480-1,2.6
BAN-2497-1,1.3
BAN-2531-1,1.4
BAN-2535-1,3.6
BAN-2537-1,1.3
BAN-2538-1,2.6
BAN-2559-1,1.8
BAN-2586-1,1.1
BAN-2590-1,2.6
BAN-2597-1,2.3
BAN-2598-1,1.7
BAN-271-1,2.2
BAN-275-1,3.1
BAN-281-1,1.6
BAN-286-1,2.5
BAN-289-1,2.5
BAN-29-1,2.8
BAN-291-1,2.3
BAN-3-1,4.7
BAN-301-1,1.2
BAN-322-1,1.6
BAN-339-1,3
BAN-360-1,2.6
BAN-365-1,1.5
BAN-368-1,2.6
BAN-376-1,2
BAN-409-1,3.5
BAN-440-1,2.5
BAN-45-1,2.2
BAN-468-1,1.9
BAN-474-1,0.9
BAN-484-1,1.2
BAN-487-1,1.3
BAN-493-1,2.6
BAN-5-1,1.5
BAN-507-1,2
BAN-508-1,1.8
BAN-509-1,1.6
BAN-510-1,1.1
BAN-511-1,2.4
BAN-513-1,2
BAN-516-1,1
BAN-522-1,1.4
BAN-53-1,1.1
BAN-532-1,3.1
BAN-533-1,1.4
BAN-539-1,2.7
BAN-585-1,1.8
BAN-596-1,1.5
BAN-599-1,2.4
BAN-6-1,3.1
BAN-657-1,2
BAN-682-1,4.4
BAN-723-1,3.2
BAN-73-1,1.5
BAN-738-1,1.8
BAN-748-1,2
BAN-761-1,2
BAN-767-1,2
BAN-790-1,1.4
BAN-804-1,2.4
BAN-820-1,2.5
BAN-823-1,3.6
BAN-824-1,3.1
BAN-835-1,2.1
BAN-850-1,1.5
BAN-857-1,1.5
BAN-858-1,2.8
BAN-859-1,1.6
BAN-865-1,2.5
BAN-881-1,3.8
BAN-883-1,2.8
BAN-913-1,1.8
BAN-914-1,2.8
BAN-922-1,1.9
BAN-93-1,2.3
BAN-940-1,2.6
BAN-947-1,2.1
BAN-949-1,3.7
BAN-95-1,1.2
BAN-97-1,1.1
BDS-1142-2,1.9
BDS-1186-2,0.9
BDS-1225-2,1.1
BDS-1313-2,1.6
BDS-1381-2,1
BDS-1397-2,0.9
BDS-1431-2,1.6
BDS-1502-1,0.6
BDS-198-2,1.4
BDS-209-2,1.4
BDS-265-2,1.5
BDS-276-2,1.5
BDS-369-2,0.9
BDS-589-2,3.8
BDS-689-2,2.2
BDS-755-2,1.4
BDS-800-2,1.9
BDS-877-2,1.7
BER-9000-1,0.4
BER-9001-1,0.5
BER-9002-1,0.4
BER-9003-1,1.8
BER-9004-1,0.8
BER-9004-1,0.5
BER-9006-1,2.1
BER-9007-1,1.3
BER-9008-1,1.4
BER-9009-1,0.4
BER-9011-1,0.4
BER-9016-1,1.1
BER-9017-1,0.5
BER-9018-1,0.5
BER-9019-1,0.6
BER-9020-1,0.9
BER-9021-1,0.6
BER-9027-1,1.1
BER-9028-1,0.7
BER-9029-1,1.9
BER-9030-1,1.6
BER-9030-1,1.1
BER-9032-1,0.8
BER-9034-1,0.5
BER-9040-1,0.8
BER-9041-1,1.5
BER-9042-1,1.4
BER-9046-1,1.7
BER-9047-1,1
BER-9050-1,0.8
BER-9051-1,0.4
BER-9052-1,0.7
BER-9053-1,0.8
BER-9054-1,0.4
BLS-9000-1,1.1
BLS-9001-1,1.7
BLS-9005-1,1.1
BLS-9007-1,1.2
BLS-9008-1,0.7
BLS-9009-1,1.3
BLS-9010-1,2.1
BMSE-21-1,1
BMSE-60-1,1.1
BMSE-62-1,1.9
BPA-1-1,0.33
BPA-13-1,0.99
BPA-22-1,0.21
BPA-3-1,0.61
BPA-6-1,0.33
BPS-9007-1,2.05
BPS-9008-1,1.3
BPS-9009-1,2.15
BPS-9010-1,1.6
BPS-9012-1,1.6
BPS-9013-1,2.45
BPS-9015-1,1.75
BRB-6006-1,0.4
BRB-6007-1,1.1
BRB-6008-1,0.7
BRB-6009-1,0.9
BRB-6014-1,0.9
BRB-6019-1,1
BRB-6020-1,1
BRB-6042-1,0.4
BRB-6053-1,2.2
BRB-6054-1,0.8
BRB-6055-1,0.7
BRB-6057-1,1.4
BRB-6064-1,1.3
BRB-6065-1,2.2
BRCL-16-1,3.7
BRCL-2-1,1.6
BRCL-4-1,2.4
BRCL-51-1,1.7
BRCL-61-1,5.2
BRCL-9-1,1.8
BRL-9000-1,1.45
BRL-9001-1,1.05
BRL-9002-1,1.05
BRL-9003-1,1.25
BRL-9004-1,0.85
BRL-9005-1,1.1
BRL-9006-1,0.95
BRL-9007-1,0.9
BRL-9008-1,1.4
BRL-9010-1,1.05
BRL-9011-1,0.9
BRL-9012-1,0.7
BRL-9013-1,1.45
BRL-9014-1,1.15
BRL-9016-1,1.3
BRL-9017-1,1.25
BRL-9018-1,0.65
BRL-9019-1,0.85
BRL-9020-1,1.1
BRL-9021-1,1.3
BRL-9022-1,1.25
BRL-9024-1,0.95
BRL-9025-1,2.4
BRL-9026-1,0.9
BRL-9027-1,1.1
BRL-9028-1,1.4
BRL-9029-1,1.25
BRL-9030-1,1.25
BRL-9031-1,0.85
BRL-9032-1,1
BRL-9034-1,1.05
BRL-9036-1,0.9
BRL-9039-1,1.3
BRL-9041-1,1.1
BRL-9043-1,0.85
BRL-9044-1,1.45
BRL-9045-1,0.7
BRL-9047-1,1
BRL-9048-1,0.9
BRL-9053-1,0.6
BRL-9054-1,0.6
BRL-9056-1,0.65
BRL-9059-1,0.9
BRL-9065-1,1.45
BRL-9067-1,1.2
BRS-6011-1,1.5
BRS-6015-1,1.6
BRS-6050-1,1.6
BRS-6057-1,1.7
BRS-6059-1,1.5
BRS-6077-1,1.6
BRS-6079-1,1.5
BRS-6081-1,1.6
BSA-11-1,0.25
BSA-15-1,0.85
BSA-17-1,0.6
BSA-22-1,0.5
BSA-23-1,0.35
BSA-25-1,0.85
BSA-26-1,0.35
BSA-28-1,0.7
BSA-7-1,0.25
BSA-8-1,0.35
BSS-1-1,2
BSS-12-1,2
BSS-13-1,2.6
BSS-16-1,0.8
BSS-17-1,2
BSS-18-1,1
BSS-19-1,2.7
BSS-2-1,2.2
BSS-20-1,1.5
BSS-22-1,5.5
BSS-23-1,4.7
BSS-24-1,2.4
BSS-25-1,2.5
BSS-26-1,2.1
BSS-27-1,2.9
BSS-28-1,1.4
BSS-29-1,5.7
BSS-3-1,2.4
BSS-30-1,1
BSS-31-1,2
BSS-32-1,1.3
BSS-33-1,1.2
BSS-37-1,3
BSS-38-1,3.5
BSS-4-1,2.4
BSS-41-1,1.1
BSS-45-1,2.1
BSS-5-1,2.3
BSS-6-1,2.5
BSS-7-1,2.7
BSS-8-1,2
BSS-9-1,2.3
BUN-103-1,1.2
BUN-108-1,1.7
BUN-109-1,2.2
BUN-110-1,1.2
BUN-111-1,2.7
BUN-112-1,3.1
BUN-113-1,1.2
BUN-114-1,0.9
BUN-115-1,1.3
BUN-116-1,2.3
BUN-117-1,1
BUN-120-1,1.9
BUN-122-1,0.9
BUN-123-1,2.3
BUN-6001-1,2.3
BUN-6002-1,1.3
CBW-1024-1,2.2
CBW-1025-1,0.6
CBW-1026-1,1.5
CBW-263-1,1
CBW-264-1,0.7
CBW-265-1,0.7
CBW-266-1,1.1
CBW-267-1,1.1
CBW-268-1,0.6
CBW-269-1,0.8
CBW-270-1,1.2
CBW-271-1,1.3
CBW-272-1,1.3
CBW-273-1,1.3
CBW-274-1,0.6
CBW-275-1,0.7
CBW-276-1,0.9
CBW-277-1,0.8
CBW-278-1,0.6
CBW-279-1,0.9
CBW-280-1,0.7
CBW-281-1,1
CBW-282-1,0.7
CBW-283-1,0.6
CBW-284-1,1.9
CBW-285-1,0.5
CBW-286-1,2
CBW-287-1,0.5
CBW-288-1,1.1
CBW-289-1,1.8
CBW-9000-1,1.4
CBW-9001-1,1
CBW-9002-1,2
CBW-9003-1,1.9
CBW-9004-1,0.7
CBW-9005-1,0.8
CBW-9006-1,0.9
CBW-9007-1,1.4
CBW-9008-1,2
CBW-9009-1,1
CBW-9010-1,0.9
CBW-9011-1,0.7
CBW-9012-1,1.9
CBW-911-1,1.8
CBW-918-1,1.9
CCL-325-1,0.6
CIS-9000-1,1.5
CIS-9001-1,2.3
CIS-9003-1,2.5
CIS-9004-1,2.6
CIS-9005-1,1.1
CIS-9006-1,2.3
CIS-9007-1,1
CIS-9008-1,2.2
CIS-9009-1,1.7
CIS-9010-1,2.1
CIS-9011-1,1.8
CIS-9012-1,1.3
CIS-9013-1,2.2
CIS-9014-1,2.5
CQCS-2-1,1
CQH-1018-1,1.1
CQH-1019-1,2.5
CQH-1109-1,1.7
CQH-128-1,1.3
CQH-210-1,1.6
CQH-248-1,3.1
CQH-250-1,1.3
CQH-26-1,7.6
CQH-289-1,2.9
CQH-295-1,3.5
CQH-331-1,2.8
CQH-384-1,1.9
CQH-401-1,4.6
CQH-412-1,3.4
CQH-423-1,2.6
CQH-455-1,1
CQH-615-1,1.2
CQH-616-1,3.8
CQH-695-1,1.4
CQH-822-1,2.4
CQH-832-1,1.1
CQH-946-1,2
CTAP-228-1,0.8
CTAP-238-1,0.9
CTAP-245-1,0.6
CTAP-247-1,1.6
CTI-310-1,3.3
CTI-311-1,1.7
CTI-314-1,5.4
CTI-315-1,2.5
CTI-316-1,5.3
CTI-317-1,2
CTI-318-1,3.2
CTI-320-1,1.9
CTI-321-1,2.1
CTI-327-1,2.1
CTI-328-1,3.7
CTI-6001-1,1
CTI-6002-1,3.2
CTI-6003-1,3
CTI-6004-1,3.1
CTI-6005-1,0.3
CTI-6006-1,2.8
CTI-6007-1,1.35
CTI-6008-1,3.4
CTI-6009-1,6.4
CTI-6010-1,4.3
CTI-6012-1,2
CTI-6013-1,23
CTI-6015-1,3.4
CTI-6016-1,3.6
CTI-6017-1,1.5
CTI-6018-1,0.6
CTI-6019-1,1.1
CTI-6020-1,2.3
CTI-6021-1,1.3
CTI-6022-1,2.9
CTI-6025-1,1.2
CTI-6027-1,1.3
CTI-6028-1,1.2
CTI-6029-1,2.6
CTI-6030-1,2
CTI-6031-1,6.4
CTI-9008-1,4.67
CWR-9000-1,0.8
CWR-9001-1,1
CWR-9002-1,1.7
CWR-9003-1,1.2
CWR-9004-1,1
CWR-9005-1,1
CWR-9007-1,1.7
CWR-9008-1,1.1
CWR-9010-1,1.4
CYP-392-1,4.8
CYP-836-1,0.5
DHR-6001-1,1.45
DLR-1088-1,1
DLR-1601-1,2.6
DLR-1654-1,2.4
DLR-1768-1,2.1
DLR-1769-1,2
DLR-1772-1,1
DLR-1773-1,0.5
DLR-1776-1,0.7
DLR-1777-1,2.5
DLR-1778-1,1.7
DLR-1780-1,0.4
DLR-1783-1,2.3
DLR-1785-1,0.5
DLR-1788-1,0.9
DLR-1789-1,1
DLR-2441-1,1.1
DLR-250-1,0.2
DLR-251-1,1.1
DLR-252-1,0.7
DLR-253-1,0.4
DLR-254-1,1.2
DLR-256-1,1.9
DLR-257-1,0.9
EIL-1-1,1.1
EIL-15-1,1.2
EIL-16-1,1.6
EIL-17-1,2.8
EIL-18-1,3.7
EIL-19-1,2.6
EIL-2-1,1.2
EIL-20-1,2.6
EIL-21-1,1.3
EIL-22-1,0.9
EIL-23-1,0.8
EIL-24-1,1.3
EIL-25-1,1.9
EIL-26-1,0.9
EIL-27-1,1.4
EIL-28-1,0.8
EIL-3-1,1.3
EIL-31-1,0.6
EIL-33-1,2.5
EIL-34-1,0.6
EIL-35-1,1.1
EIL-36-1,1.7
EIL-38-1,0.6
EIL-4-1,1.3
EIL-40-1,0.5
EIL-42-1,0.7
EIL-44-1,0.6
EIL-46-1,1.9
EIL-48-1,0.7
EIL-5-1,1.1
EIL-50-1,0.6
EIL-51-1,0.5
EIL-53-1,0.7
EIL-55-1,0.8
EIL-56-1,0.6
EIL-58-1,1.6
EIL-59-1,0.8
EIL-6-1,1
EIL-62-1,1
EIL-63-1,1
EIL-64-1,1
EIL-65-1,1.1
EIL-66-1,1
EIL-68-1,0.9
EIL-69-1,0.9
EIL-7-1,1
EIL-71-1,0.8
EIL-72-1,1.3
EIL-75-1,1.5
EIL-76-1,1.1
EIL-77-1,0.8
EIL-78-1,0.8
EIL-79-1,1
EIL-80-1,1
EIL-82-1,0.9
EIL-83-1,1.1
EIL-84-1,1.2
EIR-9001-1,1.4
EIR-9002-1,1.1
EIR-9003-1,1.6
EIR-9004-1,1.5
EIR-9005-1,0.565
EIR-9006-1,0.895
EIR-9007-1,0.54
EIR-9008-1,1.04
EIR-9009-1,0.55
EIR-9012-1,1.4
EIR-9012-1,1.6
EIR-9013-1,1.06
EIR-9014-1,0.655
EIR-9015-1,0.875
EIR-9016-1,0.925
EIR-9017-1,0.76
EIR-9019-1,1.3
EIR-9020-1,0.88
EIR-9020-1,0.88
EIR-9022-1,0.93
EIR-9023-1,0.7
EIR-9024-1,0.76
EIR-9025-1,0.775
EIR-9027-1,0.8
EIR-9028-1,0.635
EIR-9030-1,0.5
EIR-9031-1,1.2
EIR-9034-1,0.715
EIR-9035-1,1
EIR-9037-1,0.6
EIR-9042-1,0.6
EIR-9043-1,1.07
EIR-9044-1,0.93
EIR-9046-1,0.555
EIR-9047-1,0.755
EIR-9048-1,0.545
EIR-9049-1,0.775
EIR-9050-1,1
EIR-9052-1,0.825
EME-9008-1,1.4
ESH-6000-1,2.1
ESH-6001-1,2
ESH-6002-1,2.7
ESH-6003-1,1.7
ESH-6004-1,1.8
ESH-6005-1,1.7
ESH-6006-1,1.2
ESH-6007-1,0.5
ESH-6010-1,0.68
ESH-6012-1,1
ESH-6013-1,1
ESH-6014-1,0.4
ESH-6015-1,0.5
ESH-6016-1,1.34
ESH-6017-1,1.56
ESH-6019-1,1.49
ESH-6020-1,1.09
FSE-184-1,2.94
FSE-200-1,2.1
FSE-223-1,1.6
FSE-235-1,2.4
FSE-273-1,4.4
FSE-31-1,1.62
FSE-43-1,1.24
FSE-81-1,1.42
GAY-6002-1,0.8
GCL-9000-1,2.129
GCL-9001-1,2.176
GCL-9002-1,3.091
GCL-9004-1,2.539
GCL-9005-1,0.834
GCL-9006-1,2.286
GCL-9007-1,1.45
GCL-9008-1,1.466
GCL-9009-1,1.355
GULLY-64-1,2.1
GULLY-66-1,1.6
GULLY-73-1,2.7
HRT-1-1,1.25
HRT-10-1,0.8
HRT-11-1,1
HRT-12-1,0.8
HRT-13-1,0.8
HRT-3-1,1
HRT-4-1,1.15
HRT-5-1,1.2
HRT-6-1,0.85
HTC-9000-1,2.1
HTC-9001-1,5
HTC-9002-1,2
HTC-9003-1,2.4
HTC-9005-1,0.4
HTC-9006-1,0.25
HTN-9000-1,1
HTN-9001-1,1.3
HTN-9002-1,2.2
HTN-9003-1,1.9
HTN-9004-1,1.8
HTN-9005-1,1.5
HTN-9006-1,1
HTN-9008-1,1.5
HTN-9009-1,2
HTN-9010-1,1.9
HTN-9011-1,2.1
HTR-9001-1,1.7
HTR-9002-1,1.1
HTR-9003-1,1.3
HTR-9004-1,1.5
HTR-9005-1,1.4
HTR-9008-1,1.15
HTR-9009-1,0.6
HTR-9010-1,0.65
HTS-152-1,0.4
HTS-153-1,0.4
HTS-161-1,0.5
HTS-195-1,1.1
HTS-204-1,1.6
HTS-208-1,0.5
HTS-209-1,1.1
HTS-323-1,0.8
HTS-328-1,1.1
HTS-372-1,1.3
HTS-381-1,0.9
HTS-392-1,0.6
HTS-393-1,0.5
HTS-397-1,0.9
HTS-399-1,0.6
HTS-402-1,1.1
HTS-460-1,0.7
HTS-470-1,1.3
HTS-571-1,0.4
HTS-596-1,0.8
HTS-608-1,0.7
HTS-660-1,0.4
HTS-9001-1,0.5
HTS-9002-1,1.6
HTS-9003-1,1.5
HTS-9004-1,0.9
HTS-9005-1,1.2
HTS-9006-1,0.8
HTS-9007-1,1.2
HTS-9008-1,1
HTS-9009-1,0.8
HTS-9010-1,0.5
HTS-9011-1,0.8
HTS-9012-1,0.5
HTS-9013-1,0.4
HTS-98-1,1.1
INK-8000-1,1.8
INK-8001-1,1.4
INK-8002-1,1.1
INK-8003-1,1.4
INK-8004-1,0.7
INK-9000-1,0.7
INK-9001-1,0.8
INK-9002-1,0.7
INK-9003-1,0.8
INK-9004-1,1.5
INK-9005-1,0.9
INK-9006-1,0.9
INK-9007-1,0.8
INK-9008-1,0.9
INK-9009-1,1.3
INK-9010-1,1.1
INK-9013-1,0.7
INK-9014-1,1.1
IPB-1-1,2.9
IPB-10-1,1.6
IPB-2-1,2.2
IPB-4-1,2.2
IPB-5-1,1.7
IPB-6-1,1.4
IPB-7-1,0.66
IPB-8-1,3
IPB-9-1,2.9
JFD-9000-1,0.9
JFD-9001-1,1.5
JFD-9003-1,1.6
JFD-9004-1,1.9
JFD-9005-1,1.9
JFD-9006-1,0.6
JFD-9007-1,1.9
JFD-9008-1,1.6
JFD-9009-1,0.8
JFD-9010-1,1.5
JFD-9011-1,1.6
JFD-9012-1,2.3
KAI-6001-1,2.1
KAI-6004-1,1.8
KAI-6006-1,3.1
KCM-9001-1,0.9
KCM-9002-1,1.7
KCM-9003-1,2.3
KCM-9005-1,0.7
KCM-9006-1,0.8
KCM-9007-1,0.7
KCM-9008-1,1
KCM-9009-1,1.3
KCM-9010-1,1.4
KCM-9011-1,0.5
KCM-9012-1,2.7
KCM-9013-1,1.2
KCM-9014-1,1.1
KCM-9015-1,1.1
KCM-9016-1,0.9
KCM-9017-1,2.6
KCM-9019-1,0.6
KCM-9022-1,0.7
KCM-9024-1,1.2
KCM-9027-1,1.3
KCM-9028-1,1.7
KCM-9029-1,0.8
KCM-9030-1,0.8
KCM-9031-1,1.2
KCM-9032-1,1.5
KCM-9033-1,1
KCM-9035-1,2
KCM-9036-1,0.9
KCM-9040-1,1.6
KCM-9041-1,2.2
KCM-9042-1,1.2
KCM-9043-1,1.3
KCM-9044-1,1.1
KCM-9045-1,1.8
KCM-9046-1,0.9
KCM-9047-1,0.7
KCM-9048-1,2.6
KCM-9049-1,0.7
KCM-9050-1,2.3
KCM-9051-1,0.5
KCM-9052-1,0.7
KCM-9053-1,1
KCM-9054-1,1
LAK-9000-1,2.6
LAK-9001-1,2
LAK-9002-1,2.7
LAK-9003-1,1.7
LAK-9004-1,1.5
LAK-9005-1,1.5
LAK-9006-1,2.5
LDR-9000-1,1
LDR-9001-1,1.8
LDR-9003-1,1.1
LDR-9004-1,0.8
LDR-9005-1,0.8
LDR-9006-1,0.7
LFZ-3-1,2.1
LFZ-464-1,1.3
LFZ-467-1,1.7
LFZ-468-1,0.7
LFZ-471-1,1.8
LFZ-472-1,2.1
LFZ-473-1,1.3
LFZ-486-1,1.7
LFZ-487-1,1.3
LFZ-488-1,2.9
LFZ-489-1,2.2
LFZ-490-1,1.7
LFZ-491-1,2.3
LFZ-494-1,0.6
LFZ-496-1,2.2
LFZ-497-1,1.5
LFZ-499-1,2.1
LFZ-500-1,1.9
LFZ-502-1,2.5
LFZ-503-1,1.8
LFZ-504-1,2.5
LFZ-505-1,2
LFZ-506-1,2.2
LFZ-507-1,1.7
LFZ-6-1,2.7
MAK-106-1,1.4
MAK-13-1,3.5
MBN-54-1,1.9
MBP-6006-1,1.25
MCL-9000-1,2.1
MCL-9001-1,1.5
MCL-9002-1,1.9
MCL-9003-1,2.7
MCL-9004-1,1.9
MCL-9005-1,2.2
MCL-9006-1,2.7
MCL-9007-1,1.2
MCL-9008-1,2.1
MCL-9009-1,1.4
MCL-9010-1,1.4
MCL-9011-1,1.2
MCL-9012-1,0.8
MCL-9013-1,1.3
MCL-9014-1,2
MCL-9015-1,2.6
MCL-9016-1,1.05
MCL-9017-1,1
MCL-9018-1,1.2
MCL-9019-1,3.3
MCL-9020-1,0.75
MCL-9022-1,1.35
MCL-9023-1,1.1
MCL-9024-1,1.25
MCL-9025-1,0.7
MCL-9026-1,1.15
MCL-9027-1,1
MCL-9028-1,1.95
MCL-9029-1,1.2
MCL-9030-1,1.35
MCL-9031-1,0.85
MCL-9032-1,6.6
MCL-9032-1,0.8
MCL-9033-1,0.75
MCL-9034-1,0.9
MCL-9035-1,0.85
MCL-9036-1,0.7
MCL-9037-1,2.35
MCL-9038-1,1.45
MCL-9039-1,1.85
MCL-9040-1,5.65
MCL-9041-1,1.9
MCL-9042-1,1.05
MCL-9043-1,0.6
MCL-9043-1,0.5
MCL-9044-1,0.85
MCL-9045-1,2
MCL-9045-1,1.2
MCL-9046-1,1.2
MCL-9047-1,1.5
MCL-9048-1,0.35
MCL-9049-1,0.95
MCL-9050-1,1
MCL-9051-1,2.05
MCL-9052-1,1.7
MCL-9053-1,0.95
MCL-9054-1,2.05
MCL-9055-1,2.15
MCL-9056-1,0.35
MCL-9057-1,1.65
MCL-9058-1,0.9
MCL-9059-1,0.8
MCL-9060-1,0.8
MDIA-401-1,0.3
MDIA-404-1,0.9
MDIA-408-1,1.3
MDIA-409-1,0.5
MDIA-410-1,0.55
MDIA-412-1,1
MDIA-413-1,0.95
MDIA-414-1,0.4
MDIA-415-1,0.3
MDIA-416-1,0.4
MDIA-417-1,0.2
MDIA-418-1,0.9
MDIA-421-1,0.5
MDIA-423-1,0.45
MDIA-424-1,0.7
MDIA-425-1,1.5
MDIA-426-1,2.1
MDIA-427-1,0.65
MDIA-428-1,0.6
MDIA-434-1,0.2
MDIA-435-1,1.3
MDIA-436-1,1.5
MDIA-437-1,0.9
MDIA-445-1,1.8
MDIA-446-1,1.2
MDIA-447-1,1.1
MDIA-449-1,1.2
MDIA-450-1,1.3
MDIA-451-1,0.8
MDIA-452-1,0.7
MDIA-453-1,0.8
MDIA-454-1,0.7
MDIA-455-1,0.5
MDIA-457-1,1.1
MDIA-458-1,0.5
MDIA-459-1,0.8
MDIA-887-1,1.7
MGR-9001-1,1.3
MGR-9002-1,1.7
MGR-9003-1,1.5
MGR-9004-1,1.1
MGR-9005-1,1.7
MGR-9007-1,1.1
MGR-9008-1,0.6
MHB-386-1,8.5
MHB-447-1,3.2
MHB-448-1,2.8
MHB-449-1,6.2
MHB-450-1,1.6
MHB-451-1,0.7
MHB-558-1,6.1
MHB-56-1,9.3
MHB-57-1,6.1
MIPS-55-1,0.55
MISCQ-300-1,0.8
MISCQ-301-1,1.2
MISCQ-304-1,1.2
MISCQ-305-1,1
MISCQ-306-1,0.8
MISCQ-307-1,1.9
MISCQ-308-1,0.7
MISCQ-309-1,0.9
MISCQ-311-1,0.8
MISCQ-42-1,1
MISCQ-44-1,0.6
MISCQ-45-1,1
MISCQ-49-1,1.8
MISCQ-50-1,0.7
MISCQ-53-1,0.8
MISCQ-54-1,1.2
MISCQ-56-1,1.2
MISCQ-58-1,1.4
MISCQ-66-1,1.1
MISCQ-67-1,1.3
MISCQ-68-1,1
MISCQ-69-1,1.5
MISCQ-70-1,1.5
MISCQ-71-1,1.3
MISCQ-73-1,2.2
MISCQ-74-1,1
MISCQ-77-1,1.2
MISCQ-78-1,0.9
MISCQ-79-1,1.7
MISCQ-80-1,1.5
MISCQ-81-1,1.6
MISCQ-82-1,0.9
MISCQ-83-1,1.6
MISCQ-86-1,1.2
MISCQ-87-1,1
MISCQ-88-1,1.1
MISNQ-101-1,1.2
MISNQ-102-1,2.5
MISNQ-103-1,1.6
MISNQ-109-1,1.2
MISNQ-115-1,2.3
MISNQ-128-1,2.1
MISNQ-139-1,1.1
MISNQ-145-1,0.5
MISNQ-147-1,1.8
MISNQ-162-1,1.4
MISNQ-163-1,2.8
MISNQ-164-1,2.8
MISNQ-166-1,2.4
MISNQ-167-1,1.2
MISNQ-170-1,5.7
MISNQ-171-1,1.6
MISNQ-172-1,1.2
MISNQ-175-1,1.5
MISNQ-177-1,5.5
MISNQ-178-1,3.9
MISNQ-179-1,2.2
MISNQ-181-1,2.5
MISNQ-183-1,1.7
MISNQ-185-1,1.2
MISNQ-186-1,0.9
MISNQ-189-1,1.9
MISNQ-191-1,1.5
MISNQ-192-1,1.4
MISNQ-195-1,1.6
MISNQ-197-1,2.3
MISNQ-203-1,1.2
MISNQ-206-1,0.7
MISNQ-208-1,1.5
MISNQ-209-1,1.4
MISNQ-210-1,1.5
MISNQ-212-1,2
MISNQ-219-1,2.2
MISSE-101-1,2
MISSE-102-1,1.7
MISSE-111-1,0.9
MISSE-150-1,1.9
MISSE-151-1,1.8
MISSE-162-1,1.9
MISSE-163-1,5.3
MISSE-164-1,1.6
MLG-9000-1,1.1
MLG-9001-1,1.1
MLG-9002-1,0.9
MLG-9002-1,0.9
MLG-9003-1,0.6
MLG-9003-1,0.9
MLG-9004-1,1
MLG-9005-1,0.85
MLG-9006-1,1
MLG-9007-1,1
MLG-9008-1,1.5
MLG-9009-1,1.1
MLG-9009-1,1
MLG-9010-1,1.25
MLG-9011-1,0.6
MLG-9011-1,0.6
MLG-9012-1,1.1
MON-6000-1,2.2
MON-6001-1,1.1
MON-6002-1,3
MON-6003-1,1.2
MON-6005-1,1.3
MON-6006-1,1.6
MON-6007-1,2.2
MON-6009-1,0.6
MON-6010-1,1.3
MON-6011-1,0.8
MON-6012-1,1.8
MON-6013-1,4.1
MON-6014-1,1.7
MON-6015-1,2.2
MON-6091-1,1.1
MON-6092-1,2.5
MON-6093-1,2.5
MON-6094-1,1.2
MON-6095-1,1.1
MRC-1058-1,1.1
MRC-1061-1,4.8
MRC-1072-1,5.1
MRC-1116-1,3.3
MRC-1117-1,3.3
MRC-22-1,4.9
MRC-233-1,2
MRC-268-1,3.9
MRC-313-1,3
MRC-36-1,2.9
MRC-372-1,2.3
MRC-515-1,2.6
MRC-769-1,3.7
MRC-830-1,5.2
MRC-859-1,2.1
MRC-866-1,3.5
MRC-90-1,3.3
MRC-993-1,2
MSL-217-1,1.1
MTL-282-1,2.2
MTL-299-1,2.8
MTL-315-1,1.5
MTL-350-1,1.2
MTL-576-1,2.4
MTL-583-1,2.8
MTL-9000-1,2.6
MTL-9001-1,2.7
MTL-9002-1,2.2
MTL-9003-1,4.8
MTL-9004-1,1.9
MTL-9005-1,1.9
MTL-9006-1,2.8
NCD-1031-1,0.6
NCD-1032-1,0.7
NCD-1035-1,0.6
NCD-1036-1,0.5
NCD-1038-1,0.8
NCD-125-1,1
NCD-127-1,1
NCD-143-1,0.7
NCD-224-1,1.7
NCD-272-1,1.2
NCD-276-1,1.5
NCD-285-1,1
NCD-339-1,1.1
NCD-344-1,1.3
NCD-356-1,1.2
NCD-364-1,1.4
NCD-37-1,1.6
NCD-393-1,1.2
NCD-44-1,1.9
NCD-452-1,1.4
NCD-51-1,1.6
NCD-52-1,1.6
NCD-58-1,1.5
NCD-71-1,1.3
NCD-72-1,1.6
NCD-83-1,1
NCD-885-1,1.1
NCD-89-1,0.7
NHC-9000-1,1.3
NHC-9001-1,0.9
NHC-9002-1,0.9
NHC-9003-1,0.8
NHC-9004-1,1.3
NHC-9005-1,1.4
NHC-9006-1,1
NHC-9007-1,1.2
NLH-9000-1,1.3
NLH-9001-1,1.1
NLH-9001-1,0.6
NLH-9002-1,2.9
NLH-9002-1,1
NLH-9003-1,1.25
NLH-9004-1,2.1
NLH-9005-1,0.9
NLH-9005-1,1.2
NLH-9007-1,1.2
NLH-9008-1,2.2
NLH-9008-1,1.1
NLH-9009-1,1.3
NLH-9009-1,1.2
NLH-9010-1,1.8
NLH-9010-1,1.3
NLH-9011-1,1.1
NLH-9012-1,0.85
NLH-9013-1,1.15
P2REEF-15-1,3.6
P2REEF-22-1,2.3
P2REEF-23-1,3.2
P2REEF-24-1,2.2
P2REEF-25-1,1.3
P2REEF-26-1,3.6
P2REEF-42-1,1.29
P2REEF-43-1,1.11
P2REEF-44-1,1.1
P2REEF-45-1,1.13
P2REEF-46-1,1.26
P2REEF-5-1,0.5
P2REEF-508-1,2.15
P2REEF-509-1,5.69
P2REEF-510-1,1.5
P2REEF-53-1,1.3
P2REEF-56-1,1.1
P2REEF-58-1,1.1
P2REEF-73-1,1.87
P2REEF-9-1,1.8
P2REEF-96-1,0.3
P2REEF-99-1,1.7
PCS-6000-1,2.3
PCS-6002-1,1.5
PCS-6003-1,2.6
PCS-6005-1,0.9
PCS-6008-1,1.4
PCS-6009-1,1.7
PCS-6010-1,1
PCS-6011-1,1.2
PCS-6012-1,0.9
PCS-6013-1,1.8
PCS-6014-1,1.8
PCS-6015-1,0.8
PCS-6017-1,1
PCS-6020-1,5.6
PCS-6021-1,2.9
PCS-6022-1,1.6
PCS-6023-1,1.1
PCS-6028-1,2.8
PCS-6029-1,1.8
PCS-725-1,0.7
PLS-1-1,1.2
PLS-13-1,1.75
PLS-14-1,1.06
PLS-18-1,1.185
PLS-26-1,0.56
PLS-5-1,1.15
PLS-7-1,1.42
PLS-8-1,0.955
QCS-76-1,2.1
QCS-76-1,1.1
RAV-6002-1,1
RAV-6003-1,4.9
RAV-6013-1,0.5
RAV-6015-1,0.7
RAV-6016-1,0.6
RAV-6017-1,0.8
RAV-6018-1,1.9
RAV-6019-1,2.3
RAV-6022-1,2.8
RAV-6023-1,4.8
RAV-6024-1,4.9
RAV-6028-1,2.2
RAV-6029-1,0.6
RAV-6033-1,1.1
RAV-6036-1,3.5
RAV-6037-1,5.7
RAV-6038-1,1.3
RUSS-131-1,2.1
RUSS-133-1,12.8
RUSS-24-1,1.8
RUSS-25-1,4.1
RUSS-38-1,6.6
RUSS-40-1,2.7
RUSS-434-1,1.7
RUSS-460-1,7.6
RUSS-474-1,1.2
RUSS-475-1,1.2
RUSS-477-1,1.1
RUSS-479-1,1.4
RUSS-484-1,1.6
RUSS-486-1,1.3
RUSS-490-1,2.2
RUSS-491-1,2.3
RUSS-535-1,1.4
RUSS-539-1,1.1
RUSS-540-1,1.1
RUSS-545-1,5
RUSS-570-1,5
RUSS-571-1,1.8
RUSS-574-1,9.8
RUSS-578-1,2
RUSS-585-1,3.8
RUSS-589-1,2.3
RUSS-600-1,5.8
RUSS-641-1,1.1
RUSS-646-1,1.7
RUSS-647-1,1.5
RUSS-650-1,1.7
RUSS-652-1,1.3
RUSS-654-1,1.1
RUSS-659-1,1.3
RUSS-662-1,1.3
RUSS-664-1,1.5
RUSS-667-1,1.5
RUSS-669-1,1.8
RUSS-673-1,1.4
RUSS-674-1,1.1
RUSS-677-1,1.2
RUSS-679-1,1
RUSS-680-1,1.2
RUSS-681-1,0.6
RUSS-691-1,0.9
RUSS-697-1,2.1
RUSS-699-1,2.1
RUSS-731-1,1
RUSS-733-1,1.1
RUSS-742-1,1.2
RUSS-743-1,1.2
RUSS-744-1,1.1
RUSS-749-1,1.2
RUSS-757-1,1.7
RUSS-759-1,1.2
RUSS-776-1,1
RUSS-784-1,4.6
RUSS-786-1,7.1
RUSS-787-1,8.8
RUSS-797-1,8.1
RUSS-829-1,17
RUSS-845-1,1.3
RUSS-862-1,5.2
RUSS-877-1,6
RUSS-880-1,10.7
RUSS-895-1,1.6
RUSS-902-1,1.6
RUSS-910-1,3.3
RUSS-919-1,1.1
RUSS-920-1,1.3
RUSS-921-1,3.2
RUSS-922-1,3
RUSS-932-1,1.6
SALTC-349-1,0.8
SALTC-350-1,1.8
SALTC-351-1,1.5
SALTE-738-1,1.5
SALTE-741-1,1.3
SALTE-744-1,2.2
SALTE-745-1,1.9
SALTN-2008-1,0.9
SALTN-2018-1,1
SALTN-2020-1,0.9
SALTN-2021-1,0.7
SALTN-2024-1,1
SAR-600-1,1.6
SAR-601-1,2.2
SAR-602-1,2.1
SAR-603-1,1.5
SAR-604-1,1.6
SAR-605-1,2.2
SBT-9000-1,4.03333333333333
SBT-9001-1,1.93333333333333
SBT-9002-1,1.46666666666667
SBT-9003-1,5.43333333333333
SBT-9004-1,3.6
SBT-9005-1,2.75
SBT-9006-1,4.23333333333333
SBT-9007-1,2.3
SBT-9008-1,3.26666666666667
SBT-9009-1,1.6
SBT-9010-1,2.23333333333333
SBT-9011-1,2.26666666666667
SBT-9012-1,1.3
SBT-9013-1,1.3
SBT-9014-1,2.4
SBT-9015-1,1.5
SBT-9016-1,4.03333333333333
SBT-9017-1,2.13333333333333
SBT-9018-1,1.96666666666667
SBT-9019-1,1.9
SBT-9020-1,2.66666666666667
SBT-9021-1,1.76666666666667
SBT-9022-1,2.26666666666667
SBT-9023-1,0.95
SBT-9024-1,1.9
SBT-9025-1,2.16666666666667
SBT-9026-1,1.7
SBT-9027-1,2.6
SBT-9028-1,3
SBT-9029-1,2.46666666666667
SBT-9031-1,1.8
SBT-9032-1,1.6
SBT-9034-1,1.6
SBT-9035-1,1.66666666666667
SBT-9036-1,2.7
SBT-9037-1,3.4
SBT-9039-1,6.5
SERES-65-1,2.5
SERES-67-1,3.6
SERES-68-1,2.3
SERES-71-1,2.3
SERES-73-1,2.4
SERES-74-1,3.8
SERES-76-1,5.4
SERES-87-1,6.4
SFS-1-1,0.7
SFS-103-1,1.9
SFS-126-1,1.3
SFS-152-1,1.1
SFS-176-1,1.6
SFS-2-1,0.95
SFS-20-1,0.9
SFS-200-1,1.4
SFS-21-1,0.85
SFS-22-1,1
SFS-229-1,1.3
SFS-23-1,1.3
SFS-25-1,1.4
SFS-253-1,1.7
SFS-26-1,1.1
SFS-27-1,1.6
SFS-28-1,1.3
SFS-29-1,1.15
SFS-3-1,0.9
SFS-30-1,1
SFS-300-1,1
SFS-302-1,0.9
SFS-31-1,1.05
SFS-32-1,1.2
SFS-325-1,0.8
SFS-327-1,0.9
SFS-4-1,0.85
SFS-400-1,1
SFS-405-1,1.1
SFS-454-1,1.3
SFS-457-1,1.6
SFS-5-1,1.25
SFS-50-1,1.1
SFS-506-1,1.7
SFS-51-1,1.1
SFS-515-1,1.2
SFS-52-1,1.3
SFS-53-1,1.6
SFS-54-1,1.2
SFS-55-1,1.3
SFS-56-1,1.65
SFS-6-1,1.4
SFS-600-1,1.9
SFS-601-1,1.6
SFS-604-1,1.8
SFS-7-1,1.1
SFS-70-1,1.7
SFS-71-1,1.4
SFS-73-1,1.6
SFS-75-1,1.6
SFS-76-1,1.3
SFS-8-1,0.8
SFS-9-1,0.7
SJS-9000-1,2.9
SJS-9002-1,2.1
SJS-9003-1,2.5
SLK-1006-1,1.4
SLK-1016-1,1.9
SLK-1050-1,1.2
SLK-1076-1,3.3
SLK-1089-1,1.5
SLK-9000-1,1.8
SLK-9001-1,0.6
SLK-9003-1,1.1
SLK-9004-1,1.3
SLK-9005-1,2.1
SLK-9006-1,1.7
SLK-9007-1,1
SLK-9008-1,2.3
SLK-9009-1,2.2
SLK-9010-1,1.7
SLK-994-1,1.9
SPY-95-1,1.13
TAB-2475-1,4.1
TAB-2476-1,4.2
TAB-2477-1,2.9
TAB-2478-1,5.7
TAB-2479-1,5.1
TAB-2480-1,2.7
TAB-2481-1,4.3
TAB-2482-1,2.7
TAB-2483-1,4.3
TAB-2484-1,5.6
TAB-2485-1,5.8
TAB-2486-1,1.9
TAB-2487-1,5.2
UBRISS-195-1,1.4
UBRISS-196-1,1.4
UBRISS-197-1,2.45
UBRISS-198-1,2.55
UBRISS-199-1,0.8
UBRISS-200-1,1.7
UBRISS-202-1,1.4
UBRISS-205-1,1.65
UBRISS-206-1,1.45
UCS-9000-1,3.5
UCS-9002-1,2.4
WAN-23-1,1.5
WAN-6-1,1.6
WCS-1001-1,3.2
WCS-1002-1,2.2
WCS-1003-1,2.4
WCS-1004-1,3.7
WCS-1005-1,2.6
WCS-1106-1,1.4
WCS-1114-1,1.9
WCS-1116-1,3.1
WCS-1143-1,1.1
WCS-1167-1,2.8
WCS-1170-1,1.3
WCS-1228-1,2.8
WCS-1306-1,2.3
WCS-1407-1,1
WCS-1422-1,3.2
WCS-1429-1,1.4
WCS-1439-1,2.2
WCS-1497-1,1.3
WCS-1507-1,0.4
WCS-1602-1,0.8
WCS-1607-1,1.7
WCS-1608-1,2.5
WCS-1609-1,1.6
WCS-1612-1,2.7
WCS-1900-1,0.9
WCS-1902-1,2.1
WCS-1936-1,1.6
WCS-1977-1,1.3
WCS-2005-1,1.5
WCS-2079-1,0.8
WCS-2218-1,0.8
WCS-2228-1,0.6
WCS-2229-1,0.9
WCS-2251-1,0.9
WCS-2411-1,1.9
WCS-2472-1,2.1
WCS-2484-1,1.3
WCS-2489-1,1.9
WCS-2500-1,2.2
WCS-2505-1,2.1
WCS-2507-1,2
WCS-2536-1,1.7
WCS-2538-1,1.8
WCS-2552-1,1.9
WCS-2557-1,1.4
WCS-2567-1,1.7
WCS-2574-1,1.1
WCS-2579-1,1.3
WCS-2604-1,2.8
WCS-2787-1,1.1
WCS-2803-1,2.4
WCS-2823-1,2.8
WCS-2833-1,1.6
WCS-2837-1,3.1
WCS-2862-1,1.9
WCS-2866-1,1.4
WCS-2867-1,1.9
WCS-4039-1,3.2
WCS-4064-1,2.6
WCS-4266-1,5.3
WCS-4346-1,1.7
WCS-4543-1,3.1
WCS-6000-1,1.4
WCS-6001-1,1.7
WCS-6003-1,1.1
WCS-6006-1,1.4
WCS-6007-1,1.2
WCS-6008-1,3.3
WCS-6009-1,0.65
WCS-6010-1,2.8
WCS-6012-1,2.6
WCS-6013-1,3.7
WCS-6015-1,2
WCS-6016-1,1.4
WCS-6017-1,1.2
WCS-6018-1,1.4
WCS-6020-1,1.4
WCS-6021-1,0.9
WCS-6022-1,1
WCS-6023-1,1.4
WCS-6025-1,1.9
WCS-6026-1,1.5
WCS-6027-1,1.3
WCS-6028-1,1.7
WCS-6029-1,2.8
WCS-6030-1,1.5
WCS-6031-1,4.4
WCS-6032-1,2.1
WCS-6033-1,2.2
WCS-6034-1,1.6
WCS-759-1,1.8
WCS-780-1,2.4
WCS-781-1,0.9
WCS-782-1,1.1
WCS-783-1,1.4
WCS-785-1,2
WCS-787-1,1.7
WCS-796-1,2
WCS-816-1,2
WCS-822-1,4.3
WCS-832-1,0.6
WCS-842-1,0.7
WCS-857-1,2.6
WCS-864-1,1.4
WCS-866-1,1.8
WCS-868-1,3.7
WCS-874-1,2.4
WCS-875-1,4.9
WCS-880-1,1.7
WCS-885-1,0.6
WCS-886-1,0.4
WCS-897-1,0.4
WCS-899-1,3.1
WCS-903-1,1.5
WCS-908-1,3.5
WCS-913-1,3.1
WCS-914-1,1.3
WCS-925-1,3.1
WCS-930-1,2.7
WCS-931-1,1.7
WCS-938-1,2.5
WCS-940-1,2.4
WCS-942-1,2.9
WCS-943-1,2.9
WCS-952-1,1.5
WDH-1024-1,1.7
WDH-1063-1,0.4
WDH-1208-1,0.7
WDH-1210-1,1.2
WDH-1223-1,1
WDH-1237-1,0.9
WDH-1248-1,1.1
WDH-1252-1,1.1
WDH-1261-1,0.9
WDH-1262-1,0.7
WDH-1270-1,0.7
WDH-1271-1,1.5
WDH-1272-1,1.5
WDH-1291-1,1.2
WDH-1394-1,0.9
WDH-1507-1,1.3
WDH-1508-1,1.2
WDH-1520-1,0.95
WDH-1557-1,1.6
WDH-1633-1,1
WDH-1726-1,0.85
WDH-1787-1,1
WDH-1901-1,0.8
WDH-1905-1,1.7
WDH-1907-1,0.9
WDH-1987-1,1.5
WDH-2034-1,1.5
WDH-2035-1,1.6
WDH-2081-1,1.55
WDH-2084-1,1.7
WDH-2085-1,1.5
WDH-2086-1,1.5
WDH-2114-1,1.1
WDH-2145-1,0.7
WDH-2159-1,0.5
WDH-322-1,1.9
WDH-330-1,0.8
WDH-330-2,0.9
WDH-331-1,0.4
WDH-332-1,1.1
WDH-334-1,1
WDH-339-1,1.2
WDH-340-1,0.4
WDH-342-1,1.5
WDH-347-1,0.6
WDH-349-1,1.8
WDH-350-1,1.3
WDH-351-1,1
WDH-352-1,1.6
WDH-353-1,1
WDH-354-1,1.7
WDH-571-1,0.6
WDH-574-1,1.7
WDH-649-1,1.8
WDH-690-1,1.6
WDH-698-1,0.8
WDH-699-1,0.5
WDH-701-1,0.7
WDH-702-1,0.7
WDH-716-1,1.3
WDH-718-1,1
WDH-720-1,1.1
WDH-721-1,1.9
WDH-731-1,1
WDH-742-1,2.3
WDH-743-1,1.2
WDH-751-1,1.1
WDH-757-1,1.1
WDH-758-1,1.5
WDH-760-1,0.7
WDH-767-1,1.3
WDH-824-1,1.1
WDH-825-1,1.4
WDH-825-1,1.4
WDH-830-1,1
WDH-830-2,1.5
WDH-874-1,1.5
WDH-890-1,1.9
WDH-9001-1,0.8
WDH-9007-1,1.6
WDH-9012-1,2.1
WDH-9019-1,1
WDH-9020-1,0.6
WDH-9026-1,1.6
WDH-9027-1,1.3
WDH-9028-1,1.2
WDH-9029-1,1
WDH-9030-1,2.6
WDH-9031-1,1.9
WDH-9032-1,1.7
WDH-9033-1,1.3
WDH-905-1,0.9
WDH-905-2,1.1
WDH-9050-1,1.3
WDH-9051-1,1.8
WDH-9054-1,1.4
WDH-9055-1,1.3
WDH-9056-1,1.5
WDH-9064-1,1.4
WDH-907-1,1.4
WDH-9080-1,1.1
WDH-9081-1,1.3
WDH-9089-1,1.6
WDH-9089-1,1.2
WDH-9090-1,1
WDH-9091-1,2
WDH-9092-1,1.2
WDH-9104-1,1.3
WDH-9106-1,1.2
WDH-9107-1,2.1
WDH-9115-1,1.9
WDH-9115-1,1.8
WDH-917-1,0.9
WDH-928-1,1.7
WDH-929-1,1.2
WDH-935-1,1.2
WDH-943-1,1.7
WDH-944-1,1.1
WDH-959-1,1.2
WDH-965-1,1.5
WDH-973-1,1.3
WDH-992-1,0.8
WDH-995-1,1.4
WIN-333-1,1.5
WIN-335-1,0.8
WIN-486-1,2.2
WIN-686-1,1.1
WRS-9005-1,3.43
WRS-9012-1,3.48
WTC-6000-1,1.1
WTC-6001-1,0.7
WTC-6002-1,1.5
WTC-6003-1,0.8
WTC-6004-1,2.7
WTC-6005-1,2
WTC-6006-1,1.8
WTC-6007-1,0.5
WTC-6008-1,4.8
WTC-6009-1,3.1
WTC-6010-1,4.3
WTC-6011-1,3.3
WTC-6012-1,1.5
WTC-6013-1,0.7
WTC-6014-1,2.8
WTC-6015-1,1.1
WTC-6016-1,2.2
WTC-6017-1,1
WTC-6018-1,3.5
WTC-6019-1,1.3
WTC-6020-1,2.2
WTC-6021-1,1.2
WTC-6022-1,2.1
WTC-6023-1,1.1
WTC-6024-1,2.2
WTC-6025-1,1.3
WTC-6026-1,1.2
WTC-6027-1,0.7
WTC-6028-1,2.2
WTC-6029-1,1.3
WTC-6030-1,1.9
WTC-6031-1,1.7
WTC-6032-1,1.4
WTC-6033-1,0.9
WTC-6034-1,1.5
WTC-6035-1,1
WTC-6036-1,2.7
WTC-6037-1,0.9
WTC-6038-1,3
WTC-6039-1,1.2
WTC-6040-1,1.7
WTC-6041-1,0.8
WTC-6042-1,3.9
WTC-6043-1,1.6
WTC-6044-1,1.9
WTC-6045-1,1.2
WTC-6046-1,1.8
WTC-6047-1,1
WTC-6048-1,1.4
WTC-6049-1,0.9
WTC-6050-1,2.1
WTC-6051-1,1.7
WTC-6052-1,1.6
WTC-6053-1,0.8
WTC-6054-1,1.2
WTC-6055-1,0.5
WTC-6056-1,1.3
WTC-6057-1,1.1
WTC-6058-1,1.7
WTC-6059-1,0.7
WTC-9000-1,1
WTC-9001-1,1.1
WTC-9002-1,0.5
WTC-9006-1,1.9
WTC-9007-1,1.3
WTC-9010-1,1.6
WTC-9012-1,1.2
WTC-9013-1,1.9
WTC-9014-1,3
WTC-9015-1,2.2
WTC-9016-1,3
WTC-9017-1,2
WTC-9018-1,1.8
WTC-9019-1,1.6
WTC-9020-1,1.9
WTC-9022-1,0.8
WTC-9023-1,1.4
WTC-9024-1,1.6
WTC-9025-1,0.9
WTC-9027-1,2.2
WTC-9028-1,2
WTC-9029-1,1.5
WTC-9033-1,0.7
WTC-9036-1,0.7
WTC-9037-1,3.5
WTC-9038-1,1.7
WTC-9039-1,0.9
WTC-9042-1,3.6
WTC-9044-1,0.5
WTC-9045-1,4.6
WTC-9047-1,1.7
WTC-9049-1,1
WTC-9050-1,1
WTC-9052-1,1
WTC-9054-1,1.2
WTC-9055-1,1.4
WTC-9058-1,2.5
WTC-9064-1,2.6
WTC-9065-1,1.8
WTC-9066-1,1.2
WTC-9068-1,2
WTC-9069-1,1.4
WTC-9070-1,0.7
WTC-9071-1,0.7
WTC-9072-1,2.8
WTC-9073-1,1.8
WTC-9075-1,1.7
WTC-9076-1,1.6
WTC-9078-1,3.3
WTC-9079-1,2.6
WTC-9080-1,1.6
WTC-9081-1,1.2
WTC-9082-1,3.1
WTC-9086-1,0.1
WTC-9088-1,0.9
WTC-9089-1,1
WTC-9090-1,1
WTC-9091-1,0.7
WTC-9092-1,0.9
WTC-9093-1,0.8
WTC-9094-1,1.1
WTC-9095-1,1.6
WTC-9096-1,1.6
