"Soil","midPnt_cm","FBiom","FInert","legkl","sugarkl","legXF","XF","OC"
"asht",5,0.1,0.33,0.06,0.1,1,1,1.07
"asht",20,0.08,0.51,0.06,0.1,1,1,0.89
"asht",40,0.06,0.73,0.06,0.09,1,1,0.59
"asht",60,0.06,0.84,0.05,0.08,1,1,0.37
"asht",80,0.05,0.89,0.04,0.07,0,1,0.24
"asht",105,0.04,0.93,0.03,0.06,0,1,0.24
"asht",135,0.02,0.95,0.02,0.05,0,1,0.24
"bros",5,0.1,0.33,0.06,0.1,1,1,1.18
"bros",20,0.08,0.51,0.06,0.1,1,1,0.98
"bros",40,0.06,0.73,0.06,0.09,1,1,0.65
"bros",60,0.06,0.84,0.05,0.08,1,1,0.41
"bros",80,0.05,0.89,0.04,0.07,0,1,0.26
"bros",105,0.04,0.93,0.03,0.06,0,1,0.18
"bros",135,0.02,0.95,0.02,0.05,0,1,0.12
"bulg",5,0.1,0.33,0.06,0.1,1,1,4.6
"bulg",20,0.08,0.51,0.06,0.1,1,1,3.82
"bulg",40,0.06,0.73,0.06,0.09,1,1,2.53
"bulg",60,0.06,0.84,0.05,0.08,1,1,1.61
"bulg",80,0.05,0.89,0.04,0.07,0,1,1.01
"bulg",105,0.04,0.93,0.03,0.06,0,1,0.69
"bulg",135,0.02,0.95,0.02,0.05,0,1,0.46
"haml",5,0.1,0.33,0.06,0.1,1,1,3.53
"haml",20,0.08,0.51,0.06,0.1,1,1,2.93
"haml",40,0.06,0.73,0.06,0.09,1,1,1.94
"haml",60,0.06,0.84,0.05,0.08,1,1,1.24
"haml",80,0.05,0.89,0.04,0.07,0,1,0.78
"haml",105,0.04,0.93,0.03,0.06,0,1,0.78
"haml",135,0.02,0.95,0.02,0.05,0,1,0.78
"hewi",5,0.1,0.33,0.06,0.1,1,1,3.42
"hewi",20,0.08,0.51,0.06,0.1,1,1,2.84
"hewi",40,0.06,0.73,0.06,0.09,1,1,1.88
"hewi",60,0.06,0.84,0.05,0.08,1,1,1.2
"hewi",80,0.05,0.89,0.04,0.07,0,1,0.75
"hewi",105,0.04,0.93,0.03,0.06,0,1,0.51
"hewi",135,0.02,0.95,0.02,0.05,0,1,0.34
"inni",5,0.1,0.33,0.06,0.1,1,1,3.42
"inni",20,0.08,0.51,0.06,0.1,1,1,2.84
"inni",40,0.06,0.73,0.06,0.09,1,1,1.88
"inni",60,0.06,0.84,0.05,0.08,1,1,1.2
"inni",80,0.05,0.89,0.04,0.07,0,1,0.75
"inni",105,0.04,0.93,0.03,0.06,0,1,0.51
"inni",135,0.02,0.95,0.02,0.05,0,1,0.51
"lugg",5,0.1,0.33,0.06,0.1,1,1,1.23
"lugg",20,0.08,0.51,0.06,0.1,1,1,1.02
"lugg",40,0.06,0.73,0.06,0.09,1,1,0.68
"lugg",60,0.06,0.84,0.05,0.08,1,1,0.43
"lugg",80,0.05,0.89,0.04,0.07,0,1,0.27
"lugg",105,0.04,0.93,0.03,0.06,0,1,0.18
"lugg",135,0.02,0.95,0.02,0.05,0,1,0.12
"thor",5,0.1,0.33,0.06,0.1,1,1,2.15
"thor",20,0.08,0.51,0.06,0.1,1,1,1.78
"thor",40,0.06,0.73,0.06,0.09,1,1,1.18
"thor",60,0.06,0.84,0.05,0.08,1,1,0.75
"thor",80,0.05,0.89,0.04,0.07,0,1,0.47
"thor",105,0.04,0.93,0.03,0.06,0,1,0.32
"thor",135,0.02,0.95,0.02,0.05,0,1,0.22
"tolg",5,0.1,0.33,0.06,0.1,1,1,4.44
"tolg",20,0.08,0.51,0.06,0.1,1,1,3.69
"tolg",40,0.06,0.73,0.06,0.09,1,1,2.44
"tolg",60,0.06,0.84,0.05,0.08,1,1,1.55
"tolg",80,0.05,0.89,0.04,0.07,0,1,0.98
"tolg",105,0.04,0.93,0.03,0.06,0,1,0.98
"tolg",135,0.02,0.95,0.02,0.05,0,1,0.98
"toob",5,0.1,0.33,0.06,0.1,1,1,1.98
"toob",20,0.08,0.51,0.06,0.1,1,1,1.64
"toob",40,0.06,0.73,0.06,0.09,1,1,1.09
"toob",60,0.06,0.84,0.05,0.08,1,1,0.69
"toob",80,0.05,0.89,0.04,0.07,0,1,0.44
"toob",105,0.04,0.93,0.03,0.06,0,0,0.3
"toob",135,0.02,0.95,0.02,0.05,0,0,0.2
"tull",5,0.1,0.33,0.06,0.1,1,1,3.5
"tull",20,0.08,0.51,0.06,0.1,1,1,2.9
"tull",40,0.06,0.73,0.06,0.09,1,1,1.92
"tull",60,0.06,0.84,0.05,0.08,1,1,1.22
"tull",80,0.05,0.89,0.04,0.07,0,1,0.77
"tull",105,0.04,0.93,0.03,0.06,0,1,0.52
"tull",135,0.02,0.95,0.02,0.05,0,1,0.35
