"soil_gp","TEXTURE","sc_final","ASC_ORD_1","SUBORD_1","CN","CNred"
"Calen","FSCL","hard","SO","AB",94,35
"Callide","SCL","hard","CH","AB",94,35
"Cameron","FSCL","hard","RU","ER",94,35
"Dunwold","KSL","loose","CH","AC",70,20
"Kinchant, Coarse Sandy Variant","LKS","loose","CH","AD",70,20
"Marian","SCL","hard","CH","AB",94,35
"Pindi","SCL","hard","SO","AC",94,35
"Proserpine","KS","loose","RU","ER",70,20
"Sandiford","SCL","hard","CH","AB",94,35
"Vermont","MC","mulch","VE","AE",74,25
"Victoria Plains","LMC","mulch","VE","AD",74,25
"Wagoora","CL","hard","DE","AA",94,35
