soil_gp,UD,LD,midPnt_cm,Total_prof,PAWCER_BD,BDfield,ADMC_vv,m15bar_vv,m3rdbar_vv,PAWCER_DLL,PAWCER_DUL,SAT,TP,EP,TOC,pHw,Sand_perc,Csand_perc,Fsand_perc,Silt_perc,Clay_perc,Total,Csandr,Fsandr,Sandr,Siltr,Clayr,P50_2000,P2_50,P2,Ptotal,P50_2000r,P2_50r,P2r,ESP,EC,Chloride,PAWCER_PAWC_mm,BDbest,textureClass_AUST,textureClassFull_AUST,NorthcoteID,Ks_rule_mmday,Ks_Shaw_mmday,Ks_PCRbest_mmday,Ks_MinG_mmday,Ks_MinT_mmday,perm_final,SWCON,Ks_to_use,Ks_final,Ks_comment
Calen,0,10,5,21,1.52,1.51,0.02,0.11,0.32,0.15,0.31,0.37,0.43,0.12,1.28,5.8,63,14,42,21,18,102,14,41,62,21,18,44,42,18,104,42,40,17,0,0.05,21,16,1.52,Lo,Loam,3,100,NA,670,237,318,2,0.5,PCR_best,670,
Calen,10,30,20,21,1.61,1.56,0.02,0.13,0.37,0.16,0.27,0.34,0.39,0.12,1.07,6.4,59,13,40,20,22,101,13,40,58,20,22,41,40,22,103,40,39,21,3,0.05,26,22,1.61,Lo,Loam,3,100,NA,565,237,318,2,0.5,PCR_best,565,
Calen,30,50,40,21,1.53,1.56,0.04,0.22,0.46,0.23,0.32,0.38,0.42,0.1,0.71,6.6,45,11,31,18,41,104,11,30,43,17,39,27,33,41,101,27,33,41,8,0.07,33,18,1.53,Cl,Clay,6,100,NA,17,122,47,2,0.3,PCR_best,17,
Calen,50,70,60,21,1.53,1.54,0.04,0.25,0.5,0.25,0.33,0.4,0.42,0.09,0.45,7.1,40,8,30,17,46,103,8,29,39,17,45,26,29,46,101,26,29,46,10,0.09,45,16,1.53,Cl,Clay,6,100,5,11,83,33,2,0.3,Shaw,5,
Calen,70,90,80,21,1.56,1.6,0.04,0.25,0.5,0.25,0.32,0.38,0.41,0.09,0.28,7.6,40,11,31,16,44,100,11,31,40,16,44,26,30,44,100,26,30,44,11,0.13,97,14,1.56,Cl,Clay,6,5,5,9,83,33,2,0.3,Shaw,5,
Calen,90,120,105,21,1.57,1.73,0.03,0.26,0.46,0.26,0.31,0.38,0.41,0.09,0.19,8.2,43,14,31,15,41,99,14,31,43,15,41,29,30,41,100,29,30,41,12,0.16,179,15,1.57,Cl,Clay,6,5,5,10,83,33,2,0.3,Shaw,5,
Calen,120,150,135,21,1.53,1.74,0.03,0.25,0.46,0.24,0.29,0.39,0.42,0.13,0.13,8.4,54,30,25,13,32,99,30,25,55,13,32,39,28,32,99,39,28,32,16,0.33,254,15,1.53,ClLo,Clay loam,4,5,3,425,318,415,2,0.4,Shaw,3,
Callide,0,10,5,9,1.39,NA,0.03,0.18,0.35,0.19,0.37,0.43,0.47,0.1,2.67,7,38,6,33,32,32,102,6,32,37,31,31,16,50,32,98,16,51,33,0,0.11,35,18,1.39,SiClLo,Silty clay loam,4,100,NA,273,122,173,3,0.4,PCR_best,273,
Callide,10,30,20,9,1.43,NA,0.04,0.21,0.43,0.22,0.36,0.42,0.46,0.1,2.22,7.1,33,4,30,28,38,99,4,30,33,28,38,14,44,38,96,15,46,40,2,0.11,32,28,1.43,SiClLo,Silty clay loam,4,100,NA,218,122,173,3,0.3,PCR_best,218,
Callide,30,50,40,9,1.49,NA,0.05,0.24,0.48,0.24,0.35,0.41,0.44,0.09,1.47,7.7,34,4,32,22,42,98,4,33,35,22,43,17,37,42,96,18,39,44,2,0.08,39,22,1.49,Cl,Clay,6,100,NA,18,83,33,3,0.3,PCR_best,18,
Callide,50,70,60,9,1.54,NA,0.05,0.24,0.48,0.24,0.32,0.39,0.42,0.09,0.94,7.9,42,4,37,18,40,100,4,37,42,18,40,24,33,40,97,25,34,41,3,0.11,67,16,1.54,Cl,Clay,6,100,12,12,83,33,3,0.3,PCR_best,12,
Callide,70,90,80,9,1.65,NA,0.06,0.22,0.43,0.22,0.27,0.34,0.38,0.1,0.59,8.2,51,10,40,16,32,99,10,40,52,16,32,34,33,32,99,34,33,32,3,0.15,116,10,1.65,ClLo,Clay loam,4,50,12,391,122,173,3,0.4,PCR_best,391,
Callide,90,120,105,9,1.7,NA,0.02,0.2,0.43,0.18,0.22,0.31,0.36,0.14,0.4,8.4,58,9,43,15,27,100,9,43,58,15,27,41,32,27,100,41,32,27,3,0.2,202,12,1.7,ClLo,Clay loam,4,50,12,511,417,531,3,0.4,PCR_best,511,
Callide,120,150,135,9,1.7,NA,0.02,0.2,0.43,0.18,0.22,0.31,0.36,0.14,0.4,8.4,58,9,43,15,27,100,9,43,58,15,27,41,32,27,100,41,32,27,3,0.2,202,12,1.7,ClLo,Clay loam,4,50,12,511,417,531,3,0.4,PCR_best,511,
Cameron,0,10,5,3,1.39,NA,0.03,0.17,0.36,0.2,0.36,0.41,0.47,0.12,1.99,5.7,59,14,45,22,19,100,14,45,59,22,19,38,43,19,100,38,43,19,0,0.07,37,16,1.39,Lo,Loam,3,100,NA,591,237,318,4,0.5,PCR_best,591,
Cameron,10,30,20,3,1.5,NA,0.03,0.18,0.37,0.2,0.32,0.38,0.43,0.12,1.65,5.4,60,13,47,20,19,99,13,47,61,20,19,38,40,19,97,39,41,20,0,0.04,40,24,1.5,Lo,Loam,3,100,NA,607,237,318,4,0.5,PCR_best,607,
Cameron,30,50,40,3,1.66,NA,0.03,0.16,0.35,0.18,0.26,0.33,0.38,0.12,1.1,5.6,68,23,53,14,18,100,23,53,68,14,18,51,31,18,100,51,31,18,0,0.03,37,16,1.66,Lo,Loam,3,100,NA,769,237,318,4,0.5,PCR_best,769,
Cameron,50,70,60,3,1.7,NA,0.02,0.13,0.29,0.14,0.18,0.31,0.36,0.18,0.7,5.9,74,15,59,8,16,98,15,60,76,8,16,62,20,16,98,63,20,16,0,0.03,27,8,1.7,SaLo,Sandy loam,2,100,31,935,1047,1230,4,0.5,PCR_best,935,
Cameron,70,90,80,3,1.7,NA,0.02,0.1,0.23,0.11,0.14,0.3,0.36,0.22,0.44,6.4,79,16,60,6,15,100,16,60,79,6,15,69,16,15,100,69,16,15,0,0.02,20,6,1.7,SaLo,Sandy loam,2,50,31,1089,2182,2405,4,0.5,PCR_best,1089,
Cameron,90,120,105,3,1.7,NA,0.03,0.16,0.41,0.15,0.19,0.31,0.36,0.17,0.3,6.6,83,12,61,5,12,100,12,61,83,5,12,74,14,12,100,74,14,12,0,0.01,20,12,1.7,SaLo,Sandy loam,2,50,31,1271,849,1016,4,0.5,PCR_best,1271,
Cameron,120,150,135,3,1.7,NA,0.03,0.17,0.42,0.14,0.19,0.31,0.36,0.17,0.2,6.7,78,10,68,8,14,100,10,68,78,8,14,66,20,14,100,66,20,14,18,0.02,29,15,1.7,SaLo,Sandy loam,2,5,3,1075,849,1016,4,0.5,PCR_best,1075,
Dunwold,0,10,5,8,1.6,NA,0.02,0.06,0.17,0.11,0.27,0.33,0.4,0.13,1.34,5.8,83,51,32,8,10,101,50,32,82,8,10,72,18,10,100,72,18,10,0,0.03,20,16,1.6,SaLo,Sandy loam,2,100,NA,1309,318,415,2,0.5,PCR_best,1309,
Dunwold,10,30,20,8,1.7,NA,0.02,0.06,0.16,0.11,0.21,0.3,0.36,0.15,1.11,5.9,82,50,32,8,10,100,50,32,82,8,10,71,19,10,100,71,19,10,0,0.03,20,20,1.7,SaLo,Sandy loam,2,100,NA,1274,537,669,2,0.5,PCR_best,1274,
Dunwold,30,50,40,8,1.7,NA,0.02,0.08,0.17,0.11,0.17,0.3,0.36,0.19,0.74,6.1,80,51,28,8,12,100,51,28,80,8,12,69,19,12,100,69,19,12,0,0.03,20,12,1.7,SaLo,Sandy loam,2,100,NA,1170,1276,1474,2,0.5,PCR_best,1170,
Dunwold,50,70,60,8,1.7,NA,0.03,0.16,0.28,0.17,0.22,0.31,0.36,0.14,0.47,6.1,72,56,15,5,22,99,57,15,73,5,22,63,14,22,99,64,14,22,0,0.03,20,10,1.7,SaClLo,Sandy clay loam,3,100,31,810,417,531,2,0.5,PCR_best,810,
Dunwold,70,90,80,8,1.66,NA,0.03,0.17,0.3,0.18,0.22,0.33,0.37,0.15,0.29,6.4,68,54,14,4,27,99,55,14,69,4,27,59,14,27,100,59,14,27,2,0.03,20,8,1.66,SaClLo,Sandy clay loam,3,50,14,673,537,669,2,0.4,PCR_best,673,
Dunwold,90,120,105,8,1.56,NA,0.03,0.26,0.39,0.26,0.32,0.38,0.41,0.09,0.2,7.1,62,43,19,10,28,100,43,19,62,10,28,47,24,28,99,47,24,28,7,0.02,20,18,1.56,ClLo,Clay loam,4,5,7,562,83,121,2,0.4,Shaw,7,
Dunwold,120,150,135,8,1.56,NA,0.03,0.26,0.39,0.26,0.32,0.38,0.41,0.09,0.2,7.1,62,43,19,10,28,100,43,19,62,10,28,47,24,28,99,47,24,28,7,0.02,20,18,1.56,ClLo,Clay loam,4,5,7,562,83,121,2,0.4,Shaw,7,
"Kinchant, Coarse Sandy Variant",0,10,5,1,1.63,NA,0.01,0.04,0.13,0.1,0.25,0.32,0.38,0.13,0.91,6.2,90,68,22,4,6,100,68,22,90,4,6,83,11,6,100,83,11,6,0,0.02,20,15,1.63,Sa,Sand,1,100,NA,3073,318,556,2,0.7,PCR_best,3073,
"Kinchant, Coarse Sandy Variant",10,30,20,1,1.7,NA,0.01,0.02,0.1,0.07,0.17,0.3,0.36,0.19,0.75,6.4,90,63,27,4,6,100,63,27,90,4,6,83,11,6,100,83,11,6,0,0.01,20,20,1.7,Sa,Sand,1,100,NA,3073,1276,1974,2,0.7,PCR_best,3073,
"Kinchant, Coarse Sandy Variant",30,50,40,1,1.7,NA,0.01,0.03,0.11,0.06,0.11,0.3,0.36,0.24,0.5,6.4,87,60,27,4,9,100,60,27,87,4,9,80,11,9,100,80,11,9,0,0.01,20,10,1.7,LoSa,Loamy sand,3,100,NA,1995,3000,4307,2,0.7,PCR_best,1995,
"Kinchant, Coarse Sandy Variant",50,70,60,1,1.7,NA,0.02,0.09,0.17,0.1,0.14,0.31,0.36,0.22,0.32,5.9,79,58,21,4,18,101,57,21,78,4,18,70,12,18,100,70,12,18,0,0.01,20,8,1.7,SaLo,Sandy loam,2,100,31,1042,2182,2405,2,0.5,PCR_best,1042,
"Kinchant, Coarse Sandy Variant",70,90,80,1,1.7,NA,0.02,0.13,0.22,0.13,0.17,0.32,0.36,0.19,0.2,5.6,71,56,15,3,25,99,57,15,72,3,25,64,11,25,100,64,11,25,0,0.01,20,8,1.7,SaClLo,Sandy clay loam,3,50,31,753,1276,1474,2,0.4,PCR_best,753,
"Kinchant, Coarse Sandy Variant",90,120,105,1,1.7,NA,0.02,0.13,0.22,0.13,0.17,0.32,0.36,0.19,0.2,5.6,71,56,15,3,25,99,57,15,72,3,25,64,11,25,100,64,11,25,0,0.01,20,8,1.7,SaClLo,Sandy clay loam,3,50,31,753,1276,1474,2,0.4,Manual,1,This soil has a hardpan 
"Kinchant, Coarse Sandy Variant",120,150,135,1,1.7,NA,0.02,0.13,0.22,0.13,0.17,0.32,0.36,0.19,0.2,5.6,71,56,15,3,25,99,57,15,72,3,25,64,11,25,100,64,11,25,0,0.01,20,8,1.7,SaClLo,Sandy clay loam,3,50,31,753,1276,1474,2,0.4,Manual,1,
Marian,0,10,5,8,1.41,1.58,0.02,0.16,0.36,0.19,0.35,0.4,0.47,0.12,2.03,5.8,66,20,44,18,17,101,20,44,65,18,17,48,38,17,103,47,37,17,0,0.06,41,16,1.41,Lo,Loam,3,100,NA,738,237,318,2,0.5,PCR_best,738,
Marian,10,30,20,8,1.47,1.59,0.03,0.19,0.4,0.22,0.33,0.39,0.45,0.12,1.69,6,62,16,38,16,22,100,16,38,62,16,22,43,33,22,98,44,34,22,0,0.04,31,22,1.47,Lo,Loam,3,100,NA,614,237,318,2,0.5,PCR_best,614,
Marian,30,50,40,8,1.38,1.56,0.03,0.28,0.45,0.28,0.39,0.44,0.48,0.09,1.12,6.4,46,12,30,13,44,103,12,29,45,13,43,32,27,44,103,31,26,43,2,0.03,22,22,1.38,Cl,Clay,6,100,NA,60,83,33,2,0.3,PCR_best,60,
Marian,50,70,60,8,1.41,1.66,0.04,0.29,0.45,0.29,0.37,0.43,0.47,0.09,0.71,6.8,46,11,34,14,40,100,11,34,46,14,40,31,29,40,100,31,29,40,3,0.04,20,16,1.41,Cl,Clay,6,100,12,45,83,33,2,0.3,PCR_best,45,
Marian,70,90,80,8,1.55,1.77,0.04,0.25,0.46,0.25,0.3,0.37,0.41,0.1,0.45,7,53,10,42,14,34,101,10,42,52,14,34,36,30,34,100,36,30,34,3,0.04,20,10,1.55,Cl,Clay,6,50,12,13,122,47,2,0.4,Ks_rule,50,Using 50 based on Wat Bal checks
Marian,90,120,105,8,1.6,1.81,0.03,0.25,0.49,0.24,0.29,0.36,0.4,0.1,0.3,7.6,54,6,44,15,31,100,6,44,54,15,31,37,31,31,99,37,31,31,4,0.04,20,15,1.6,ClLo,Clay loam,4,50,10,431,122,173,2,0.4,Ks_rule,50,
Marian,120,150,135,8,1.6,1.83,0.03,0.25,0.42,0.24,0.29,0.36,0.39,0.1,0.2,8.4,53,14,39,16,31,100,14,39,53,16,31,34,33,31,98,35,34,32,0,0.13,20,15,1.6,ClLo,Clay loam,4,50,31,419,122,173,2,0.4,Ks_rule,50,
Pindi,0,10,5,4,1.51,NA,0.02,0.11,0.22,0.15,0.3,0.36,0.43,0.13,1.28,6.4,78,40,38,8,13,99,40,38,79,8,13,67,20,13,100,67,20,13,0,0.04,20,15,1.51,SaLo,Sandy loam,2,100,NA,1091,318,415,1,0.5,PCR_best,1091,
Pindi,10,30,20,4,1.61,NA,0.03,0.13,0.23,0.16,0.27,0.34,0.39,0.12,1.07,6.3,70,32,38,10,19,99,32,38,71,10,19,57,24,19,100,57,24,19,1,0.03,20,22,1.61,SaLo,Sandy loam,2,100,NA,801,237,318,1,0.5,PCR_best,801,
Pindi,30,50,40,4,1.39,NA,0.05,0.27,0.41,0.27,0.4,0.46,0.48,0.08,0.71,6.3,39,18,20,8,54,101,18,20,39,8,53,30,17,54,101,30,17,53,15,0.06,50,26,1.39,Cl,Clay,6,100,NA,105,54,22,1,0.3,PCR_best,105,
Pindi,50,70,60,4,1.4,NA,0.05,0.29,0.43,0.29,0.4,0.46,0.47,0.07,0.45,6.8,34,16,18,10,56,100,16,18,34,10,56,26,18,56,100,26,18,56,22,0.07,64,22,1.4,Cl,Clay,6,100,2,75,33,14,1,0.3,PCR_best,75,
Pindi,70,90,80,4,1.42,NA,0.05,0.3,0.46,0.3,0.39,0.45,0.46,0.08,0.28,7.3,30,12,18,15,56,101,12,18,30,15,55,20,25,56,101,20,25,55,29,0.06,73,18,1.42,Cl,Clay,6,1,2,37,54,22,1,0.3,PCR_best,37,
Pindi,90,120,105,4,1.51,NA,0.07,0.28,0.49,0.28,0.34,0.41,0.43,0.09,0.19,5.5,41,25,16,12,47,100,25,16,41,12,47,29,24,47,100,29,24,47,37,0.09,140,18,1.51,Cl,Clay,6,1,1,12,83,33,1,0.3,PCR_best,12,
Pindi,120,150,135,4,1.51,NA,0.07,0.28,0.49,0.28,0.34,0.41,0.43,0.09,0.19,5.5,41,25,16,12,47,100,25,16,41,12,47,29,24,47,100,29,24,47,37,0.09,140,18,1.51,Cl,Clay,6,1,1,12,83,33,1,0.3,PCR_best,12,
Proserpine,0,10,5,3,1.64,NA,0.01,0.04,0.14,0.1,0.24,0.31,0.38,0.14,0.43,6.5,87,51,31,3,5,95,54,33,92,3,5,81,9,5,95,85,9,5,0,0.11,96,14,1.64,Sa,Sand,1,100,NA,3549,417,712,3,0.7,PCR_best,3549,
Proserpine,10,30,20,3,1.69,NA,0.03,0.08,0.24,0.13,0.23,0.3,0.36,0.13,0.36,6.8,88,33,39,3,6,97,34,40,91,3,6,82,9,6,97,85,9,6,0,0.05,23,20,1.69,Sa,Sand,1,100,NA,3073,318,556,3,0.7,PCR_best,3073,
Proserpine,30,50,40,3,1.7,NA,0.03,0.11,0.34,0.13,0.19,0.3,0.36,0.17,0.24,6.4,83,30,39,6,11,100,30,39,83,6,11,73,16,11,100,73,16,11,0,0.05,28,12,1.7,SaLo,Sandy loam,2,100,NA,1290,849,1016,3,0.5,PCR_best,1290,
Proserpine,50,70,60,3,1.7,NA,0.03,0.12,0.38,0.13,0.17,0.3,0.36,0.19,0.15,6.3,81,17,64,7,12,100,17,64,81,7,12,70,18,12,100,70,18,12,0,0.02,20,8,1.7,SaLo,Sandy loam,2,100,31,1203,1276,1474,3,0.5,PCR_best,1203,
Proserpine,70,90,80,3,1.7,NA,0.03,0.09,0.35,0.09,0.12,0.3,0.36,0.24,0.09,6.3,83,20,66,6,11,100,20,66,83,6,11,73,16,11,100,73,16,11,0,0.02,68,6,1.7,SaLo,Sandy loam,2,50,31,1290,3000,3215,3,0.5,PCR_best,1290,
Proserpine,90,120,105,3,1.7,NA,0.03,0.1,0.36,0.09,0.12,0.31,0.36,0.24,0.06,6.7,77,22,64,7,15,99,22,65,78,7,15,67,18,15,100,67,18,15,0,0.02,20,9,1.7,SaLo,Sandy loam,2,50,31,1030,3000,3215,3,0.5,PCR_best,1030,
Proserpine,120,150,135,3,1.7,NA,0.04,0.17,0.44,0.15,0.19,0.31,0.36,0.17,0.04,6.9,68,19,48,14,18,100,19,48,68,14,18,52,30,18,100,52,30,18,3,0.02,23,12,1.7,Lo,Loam,3,50,12,769,849,1016,3,0.5,PCR_best,769,
Sandiford,0,10,5,4,1.52,1.38,0.02,0.11,0.31,0.15,0.31,0.37,0.43,0.12,NA,5.7,65,26,41,16,18,99,26,41,66,16,18,47,34,18,99,47,34,18,1,0.07,37,16,1.52,Lo,Loam,3,100,NA,708,237,318,2,0.5,PCR_best,708,
Sandiford,10,30,20,4,1.63,1.49,0.02,0.12,0.34,0.15,0.26,0.33,0.38,0.12,NA,5.4,62,23,37,16,22,100,23,37,62,16,22,43,34,22,99,43,34,22,4,0.08,40,22,1.63,Lo,Loam,3,100,NA,614,237,318,2,0.5,PCR_best,614,
Sandiford,30,50,40,4,1.45,1.58,0.03,0.25,0.46,0.25,0.37,0.43,0.45,0.08,NA,5.6,42,20,27,11,46,99,20,27,42,11,46,30,23,46,99,30,23,46,7,0.11,117,24,1.45,Cl,Clay,6,100,NA,32,54,22,2,0.3,PCR_best,32,
Sandiford,50,70,60,4,1.45,1.61,0.03,0.27,0.47,0.27,0.37,0.44,0.45,0.08,NA,6.1,41,16,24,12,47,100,16,24,41,12,47,29,25,47,101,29,25,47,10,0.15,162,20,1.45,Cl,Clay,6,100,5,26,54,22,2,0.3,PCR_best,26,
Sandiford,70,90,80,4,1.55,1.58,0.04,0.26,0.47,0.26,0.32,0.39,0.42,0.09,NA,6.8,48,16,31,13,40,101,16,31,48,13,40,34,27,40,101,34,27,40,11,0.14,143,12,1.55,Cl,Clay,6,5,5,11,83,33,2,0.3,PCR_best,11,
Sandiford,90,120,105,4,1.55,1.58,0.04,0.26,0.48,0.26,0.32,0.38,0.42,0.1,NA,7.4,40,11,28,17,41,98,11,29,41,17,42,26,33,41,100,26,33,41,12,0.12,127,18,1.55,Cl,Clay,6,5,5,10,122,47,2,0.3,PCR_best,10,
Sandiford,120,150,135,4,1.59,1.6,0.04,0.26,0.44,0.25,0.3,0.37,0.4,0.11,NA,8.1,46,20,25,19,37,102,20,25,45,19,36,27,36,37,100,27,36,37,9,0.09,85,15,1.59,ClLo,Clay loam,4,5,6,316,173,237,2,0.3,PCR_best,316,
Vermont,0,10,5,14,1.12,NA,0.06,0.3,0.5,0.28,0.49,0.54,0.58,0.09,1.66,7.5,28,7,22,18,42,88,8,25,32,20,48,15,30,42,87,17,34,48,1,0.13,36,21,1.12,Cl,Clay,6,100,NA,296,83,33,2,0.3,PCR_best,296,
Vermont,10,30,20,14,1.19,NA,0.07,0.31,0.53,0.3,0.47,0.53,0.55,0.08,1.38,8,24,6,19,16,50,90,7,21,27,18,56,14,25,50,89,16,28,56,3,0.12,36,34,1.19,Cl,Clay,6,100,NA,131,54,22,2,0.3,PCR_best,131,
Vermont,30,50,40,14,1.34,NA,0.07,0.29,0.55,0.28,0.43,0.49,0.49,0.08,0.91,8.2,24,7,20,16,54,94,7,21,26,17,57,14,28,54,96,15,29,56,5,0.2,52,30,1.34,Cl,Clay,6,100,NA,30,54,22,2,0.3,PCR_best,30,
Vermont,50,70,60,14,1.39,NA,0.07,0.29,0.56,0.29,0.39,0.45,0.47,0.08,0.58,8.5,26,8,20,18,50,94,9,21,28,19,53,14,32,50,96,15,33,52,7,0.28,226,20,1.39,Cl,Clay,6,100,7,18,54,22,2,0.3,PCR_best,18,
Vermont,70,90,80,14,1.36,NA,0.08,0.32,0.59,0.32,0.41,0.47,0.49,0.08,0.36,8.5,32,12,20,19,49,100,12,20,32,19,49,18,33,49,100,18,33,49,9,0.54,322,18,1.36,Cl,Clay,6,5,6,18,54,22,2,0.3,PCR_best,18,
Vermont,90,120,105,14,1.36,NA,0.07,0.33,0.63,0.33,0.4,0.46,0.49,0.09,0.25,8.7,35,14,24,17,44,96,15,25,36,18,46,21,35,44,100,21,35,44,12,0.51,386,21,1.36,Cl,Clay,6,5,5,15,83,33,2,0.3,PCR_best,15,
Vermont,120,150,135,14,1.51,NA,0.08,0.28,0.58,0.29,0.34,0.41,0.43,0.09,0.17,8.9,45,22,22,14,42,101,22,22,45,14,42,31,28,42,101,31,28,42,15,0.47,404,15,1.51,Cl,Clay,6,5,4,8,83,33,2,0.3,PCR_best,8,
Victoria Plains,0,10,5,16,1.23,1.27,0.05,0.26,0.51,0.25,0.46,0.52,0.54,0.08,3.32,6.4,24,6,18,26,54,104,6,17,23,25,52,10,39,54,103,10,38,52,3,0.16,67,21,1.23,Cl,Clay,6,100,NA,106,54,22,2,0.3,PCR_best,106,
Victoria Plains,10,30,20,16,1.28,1.31,0.05,0.28,0.54,0.27,0.44,0.5,0.52,0.08,2.75,6.8,22,6,17,24,54,100,6,17,22,24,54,9,34,54,97,9,35,56,4,0.16,85,34,1.28,Cl,Clay,6,100,NA,57,54,22,2,0.3,PCR_best,57,
Victoria Plains,30,50,40,16,1.33,1.27,0.05,0.29,0.57,0.29,0.42,0.48,0.5,0.08,1.82,7.4,21,6,16,21,54,96,6,17,22,22,56,13,34,54,101,13,34,53,6,0.21,100,26,1.33,Cl,Clay,6,100,NA,29,54,22,2,0.3,PCR_best,29,
Victoria Plains,50,70,60,16,1.33,1.29,0.04,0.32,0.59,0.32,0.42,0.48,0.5,0.08,1.16,7.6,23,7,19,18,53,94,7,20,24,19,56,17,31,53,101,17,31,52,6,0.16,84,20,1.33,Cl,Clay,6,100,8,22,54,22,2,0.3,PCR_best,22,
Victoria Plains,70,90,80,16,1.28,1.36,0.04,0.34,0.61,0.34,0.45,0.52,0.52,0.07,0.73,7.7,25,7,15,18,61,104,7,14,24,17,59,17,29,61,107,16,27,57,7,0.22,161,22,1.28,Cl,Clay,6,5,7,27,33,14,2,0.3,PCR_best,27,
Victoria Plains,90,120,105,16,1.24,1.39,0.04,0.36,0.55,0.37,0.47,0.53,0.53,0.06,0.5,7.8,28,7,16,18,57,103,7,16,27,17,55,19,25,57,101,19,25,56,8,0.27,296,30,1.24,Cl,Clay,6,5,6,68,19,9,2,0.3,Shaw,6,
Victoria Plains,120,150,135,16,1.34,1.52,0.03,0.34,0.46,0.35,0.41,0.47,0.49,0.08,0.33,8,37,9,28,12,51,100,9,28,37,12,51,26,23,51,100,26,23,51,NA,0.26,151,18,1.34,Cl,Clay,6,NA,NA,74,54,22,2,0.3,Shaw,6,
Wagoora,0,10,5,10,1.25,1.32,0.03,0.25,0.41,0.24,0.43,0.49,0.53,0.11,2.89,6,38,12,23,26,38,102,12,23,37,25,37,19,44,38,101,19,44,38,0,0.05,20,19,1.25,ClLo,Clay loam,4,100,NA,250,173,237,2,0.3,PCR_best,250,
Wagoora,10,30,20,10,1.29,1.39,0.05,0.27,0.44,0.27,0.42,0.48,0.51,0.09,2.4,6.2,27,10,17,21,48,96,10,18,28,22,50,18,33,48,99,18,33,48,3,0.03,20,30,1.29,Cl,Clay,6,100,NA,129,83,33,2,0.3,PCR_best,129,
Wagoora,30,50,40,10,1.31,1.4,0.04,0.3,0.47,0.3,0.42,0.48,0.5,0.08,1.59,6.3,24,8,14,19,54,97,8,14,25,20,56,15,29,54,98,15,30,55,5,0.04,24,24,1.31,Cl,Clay,6,100,NA,84,54,22,2,0.3,PCR_best,84,
Wagoora,50,70,60,10,1.35,1.36,0.05,0.31,0.5,0.31,0.41,0.47,0.49,0.08,1.01,6.5,24,6,16,22,52,98,6,16,24,22,53,11,32,52,95,12,34,55,5,0.06,26,20,1.35,Cl,Clay,6,100,9,42,54,22,2,0.3,PCR_best,42,
Wagoora,70,90,80,10,1.39,1.4,0.05,0.31,0.53,0.31,0.39,0.45,0.48,0.08,0.64,7.1,26,4,21,24,50,100,4,21,26,24,50,12,37,50,99,12,37,51,6,0.05,30,16,1.39,Cl,Clay,6,5,8,22,54,22,2,0.3,PCR_best,22,
Wagoora,90,120,105,10,1.29,1.48,0.06,0.35,0.62,0.35,0.42,0.47,0.51,0.1,0.43,7.4,34,4,27,26,42,102,4,26,33,25,41,16,41,42,99,16,41,42,9,0.08,101,21,1.29,Cl,Clay,6,5,6,26,122,47,2,0.3,PCR_best,26,
Wagoora,120,150,135,10,1.31,1.5,0.06,0.35,0.6,0.34,0.4,0.46,0.51,0.1,0.29,7.5,38,8,30,22,38,98,8,31,39,22,39,22,39,38,99,22,39,38,15,0.18,173,18,1.31,Cl,Clay,6,5,4,26,122,47,2,0.3,PCR_best,26,
