"","NAME","LD_A_spc","LD_B_spc","Mid_A_spc","Mid_B_spc","LD_A_site","LD_B_site","Mid_A_site","Mid_B_site","count_sites","LD_A_final","LD_B_final","Mid_A_final","Mid_B_final","data_src"
"1","1ACH1",0.25,0.8,0.125,0.525,0.22,0.8,0.11,0.51,11,0.25,0.8,0.125,0.525,"spc"
"2","1ACH2",0.8,1.6,0.4,1.2,0.725,1.51,0.3625,1.17,14,0.8,1.6,0.4,1.2,"spc"
"3","1ADb",0.79,1.25,0.395,1.02,0.65,1.2,0.325,0.925,1,0.79,1.25,0.395,1.02,"spc"
"4","1ADb-1",0.37,0.89,0.185,0.63,NA,NA,NA,NA,NA,0.37,0.89,0.185,0.63,"spc"
"5","1ADb-2",0.31,0.9,0.155,0.605,0.21,0.9,0.105,0.605,3,0.31,0.9,0.155,0.605,"spc"
"6","1ADb-7",0.11,1.38,0.055,0.745,0.05,1.5,0.025,0.775,1,0.11,1.38,0.055,0.745,"spc"
"7","1ADb-9",0.7,1.6,0.35,1.15,NA,NA,NA,NA,NA,0.7,1.6,0.35,1.15,"spc"
"8","1ADb-Dd",0.2,0.98,0.1,0.59,0.16,1,0.08,0.58,1,0.2,0.98,0.1,0.59,"spc"
"9","1ADd-3",0.11,0.65,0.055,0.38,0.11,1.5,0.055,0.805,1,0.11,0.65,0.055,0.38,"spc"
"10","1ADd-4",0.135,0.95,0.0675,0.5425,0.11,1,0.055,0.555,1,0.135,0.95,0.0675,0.5425,"spc"
"11","1ADd-5",0.31,0.9,0.155,0.605,NA,NA,NA,NA,NA,0.31,0.9,0.155,0.605,"spc"
"12","1ADE1",0.2,1,0.1,0.6,0.2,1.1,0.1,0.765,29,0.2,1,0.1,0.6,"spc"
"13","1ADE2",0.15,0.8,0.075,0.475,0.15,0.8,0.075,0.46,19,0.15,0.8,0.075,0.475,"spc"
"14","1ASO1",0.55,1.5,0.275,1.025,0.43,1.5,0.215,0.95,21,0.55,1.5,0.275,1.025,"spc"
"15","1AUf-7",0.11,0.95,0.055,0.53,NA,NA,NA,NA,NA,0.11,0.95,0.055,0.53,"spc"
"16","1AUg-1",0.1,0.88,0.05,0.49,NA,NA,NA,NA,NA,0.1,0.88,0.05,0.49,"spc"
"17","1AUg-12",0.35,1.33,0.175,0.84,0.1,1.2,0.05,0.65,3,0.35,1.33,0.175,0.84,"spc"
"18","1AUg-13",0.13,1.15,0.065,0.64,0.125,1.15,0.0625,0.6375,2,0.13,1.15,0.065,0.64,"spc"
"19","1AUg-18",0.08,1.2,0.04,0.64,NA,NA,NA,NA,NA,0.08,1.2,0.04,0.64,"spc"
"20","1AUg-2",0.1,1.5,0.05,0.8,0.1,1.5,0.05,0.8,1,0.1,1.5,0.05,0.8,"spc"
"21","1AUg-3",0.1,1.5,0.05,0.8,0.175,1.5,0.0875,0.8375,2,0.1,1.5,0.05,0.8,"spc"
"22","1AUg-5",0.1,0.85,0.05,0.475,NA,NA,NA,NA,NA,0.1,0.85,0.05,0.475,"spc"
"23","1AUg-6",0.25,1.1,0.125,0.675,NA,NA,NA,NA,NA,0.25,1.1,0.125,0.675,"spc"
"24","1AVE1",0.12,1.6,0.06,0.86,0.11,1.6,0.055,0.85,17,0.12,1.6,0.06,0.86,"spc"
"25","1AVE5",0.15,1.51,0.075,0.83,0.15,1.51,0.075,0.83,3,0.15,1.51,0.075,0.83,"spc"
"26","1CHa",0.3,1.4,0.15,0.85,0.18,1.29,0.09,0.72,16,0.3,1.4,0.15,0.85,"spc"
"27","1CHb",0.7,1.3,0.35,1,0.435,1.235,0.2175,0.795,14,0.7,1.3,0.35,1,"spc"
"28","1DEa",0.1,1.3,0.05,0.7,0.15,1.365,0.075,0.8325,23,0.1,1.3,0.05,0.7,"spc"
"29","1KTa",0.9,1.6,0.45,1.25,0.44,1.23,0.22,0.95,9,0.9,1.6,0.45,1.25,"spc"
"30","1SOa",0.15,1.6,0.075,0.875,0.1,1.52,0.05,0.8,30,0.15,1.6,0.075,0.875,"spc"
"31","1SOb",0.2,1.5,0.1,0.85,0.2,1.11,0.1,0.645,27,0.2,1.5,0.1,0.85,"spc"
"32","1SOx",0.15,0.9,0.075,0.525,0.28,1.12,0.14,0.7,1,0.15,0.9,0.075,0.525,"spc"
"33","2ADy",0.66,1.3,0.33,0.98,NA,NA,NA,NA,NA,0.66,1.3,0.33,0.98,"spc"
"34","2AUf-Ug-2",0.65,1.2,0.325,0.925,NA,NA,NA,NA,NA,0.65,1.2,0.325,0.925,"spc"
"35","2AUf-Ug-3",0.01,1.5,0.005,0.755,0.6,1.5,0.3,1.05,1,0.01,1.5,0.005,0.755,"spc"
"36","2AUg-1",0.9,1.5,0.45,1.2,NA,NA,NA,NA,NA,0.9,1.5,0.45,1.2,"spc"
"37","2AUg-10m",1.15,1.5,0.575,1.325,NA,NA,NA,NA,NA,1.15,1.5,0.575,1.325,"spc"
"38","2AUg-11",0.9,1.5,0.45,1.2,NA,NA,NA,NA,NA,0.9,1.5,0.45,1.2,"spc"
"39","2AUg-16",0.7,1.5,0.35,1.1,NA,NA,NA,NA,NA,0.7,1.5,0.35,1.1,"spc"
"40","2AUg-2m",1.2,1.5,0.6,1.35,NA,NA,NA,NA,NA,1.2,1.5,0.6,1.35,"spc"
"41","2AUg-6",0.88,1.5,0.44,1.19,NA,NA,NA,NA,NA,0.88,1.5,0.44,1.19,"spc"
"42","2AUg-9m",0.35,1.5,0.175,0.925,0.2,1.5,0.1,0.85,1,0.35,1.5,0.175,0.925,"spc"
"43","2AUgg-1m",1.18,1.5,0.59,1.34,0.15,1.5,0.075,0.825,2,1.18,1.5,0.59,1.34,"spc"
"44","2AUgg-2m",0.2,1.5,0.1,0.85,0.2,1.5,0.1,0.85,1,0.2,1.5,0.1,0.85,"spc"
"45","2AUgg-3m",0.12,1.5,0.06,0.81,NA,NA,NA,NA,NA,0.12,1.5,0.06,0.81,"spc"
"46","2AUgg-4m",0.4,1.5,0.2,0.95,NA,NA,NA,NA,NA,0.4,1.5,0.2,0.95,"spc"
"47","2VEa",0.09,1.32,0.045,0.705,0.09,1.6,0.045,0.815,9,0.09,1.32,0.045,0.705,"spc"
"48","2VEb",0.1,1.55,0.05,0.825,0.1,1.54,0.05,0.825,52,0.1,1.55,0.05,0.825,"spc"
"49","2VEe",0.05,1.4,0.025,0.725,0.05,1.54,0.025,0.795,11,0.05,1.4,0.025,0.725,"spc"
"50","2VEx",0.1,1.6,0.05,0.85,0.1,1.6,0.05,0.85,53,0.1,1.6,0.05,0.85,"spc"
"51","2VEy",0.05,1.13,0.025,0.59,0.05,1.29,0.025,0.695,17,0.05,1.13,0.025,0.59,"spc"
"52","3ADr-2",0.18,0.45,0.09,0.315,NA,NA,NA,NA,NA,0.18,0.45,0.09,0.315,"spc"
"53","3AGn-1",0.18,1.5,0.09,0.84,NA,NA,NA,NA,NA,0.18,1.5,0.09,0.84,"spc"
"54","3AGn-Dr",0.165,0.59,0.0825,0.3775,NA,NA,NA,NA,NA,0.165,0.59,0.0825,0.3775,"spc"
"55","3AUc-1",0.18,0.35,0.09,0.265,NA,NA,NA,NA,NA,0.18,0.35,0.09,0.265,"spc"
"56","3AUf",0.2,0.65,0.1,0.425,0.2,0.4,0.1,0.3,1,0.2,0.65,0.1,0.425,"spc"
"57","3AUf-Ug-1m",0.1,0.4,0.05,0.25,0.1,0.2,0.05,0.15,1,0.1,0.4,0.05,0.25,"spc"
"58","3AUf-Ug-2m",0.23,1.2,0.115,0.715,0.3,1.5,0.15,0.9,1,0.23,1.2,0.115,0.715,"spc"
"59","3AUf-Ug-3d",0.25,1.5,0.125,0.875,0.25,1.5,0.125,0.875,1,0.25,1.5,0.125,0.875,"spc"
"60","3auf-Ug-4m",0.63,0.85,0.315,0.74,NA,NA,NA,NA,NA,0.63,0.85,0.315,0.74,"spc"
"61","3AUf-Ug-6m",0.1,1.5,0.05,0.8,0.4,1.5,0.2,0.95,1,0.1,1.5,0.05,0.8,"spc"
"62","3AUf-Ug-7m",0.02,1.5,0.01,0.76,NA,NA,NA,NA,NA,0.02,1.5,0.01,0.76,"spc"
"63","3AUf-Ug-8d",0.15,1.5,0.075,0.825,NA,NA,NA,NA,NA,0.15,1.5,0.075,0.825,"spc"
"64","3AUf-Ug-8m",0.05,1.5,0.025,0.775,NA,NA,NA,NA,NA,0.05,1.5,0.025,0.775,"spc"
"65","3AUg-1",0.1,1.2,0.05,0.65,NA,NA,NA,NA,NA,0.1,1.2,0.05,0.65,"spc"
"66","3AUg-2",0.15,1.2,0.075,0.675,0.2,1.2,0.1,0.7,2,0.15,1.2,0.075,0.675,"spc"
"67","3CHx",0.6,1.2,0.3,0.9,0.37,1.44,0.185,0.85,17,0.6,1.2,0.3,0.9,"spc"
"68","3VEa",0.09,1.55,0.045,0.82,0.05,1.54,0.025,0.815,22,0.09,1.55,0.045,0.82,"spc"
"69","3VEb",0.05,1.6,0.025,0.825,0.03,1.6,0.015,0.825,15,0.05,1.6,0.025,0.825,"spc"
"70","3VEc",0.08,1.6,0.04,0.84,0.03,1.6,0.015,0.815,29,0.08,1.6,0.04,0.84,"spc"
"71","3VEw",0.02,1.25,0.01,0.635,0.02,1.09,0.01,0.5525,14,0.02,1.25,0.01,0.635,"spc"
"72","3VEy",0.03,0.6,0.015,0.315,0.1,1.25,0.05,0.67,50,0.03,0.6,0.015,0.315,"spc"
"73","3VEz",0.1,1.2,0.05,0.65,0.03,1.25,0.015,0.675,7,0.1,1.2,0.05,0.65,"spc"
"74","4AUf",0.1,1.2,0.05,0.65,0.1,1.2,0.05,0.65,1,0.1,1.2,0.05,0.65,"spc"
"75","6ADb-1",0.1,1.2,0.05,0.65,0.08,1.05,0.04,0.565,2,0.1,1.2,0.05,0.65,"spc"
"76","6ADy-2",0.13,1.5,0.065,0.815,NA,NA,NA,NA,NA,0.13,1.5,0.065,0.815,"spc"
"77","6ADy-3",0.35,1.5,0.175,0.925,0.31,1.5,0.155,0.905,1,0.35,1.5,0.175,0.925,"spc"
"78","6AUf-3",0.2,1.5,0.1,0.85,NA,NA,NA,NA,NA,0.2,1.5,0.1,0.85,"spc"
"79","6AUg-10",0.13,1.5,0.065,0.815,0.1,1.45,0.05,0.775,2,0.13,1.5,0.065,0.815,"spc"
"80","6AUg-12",0.13,2,0.065,1.065,0.12,1.8,0.06,0.96,5,0.13,2,0.065,1.065,"spc"
"81","6AUg-3",0.2,1.5,0.1,0.85,0.2,1.6,0.1,1.1,3,0.2,1.5,0.1,0.85,"spc"
"82","6AUg-4",0.18,2,0.09,1.09,0.1,1.5,0.05,0.8,1,0.18,2,0.09,1.09,"spc"
"83","6AUg-5",0.23,1.5,0.115,0.865,0.1,1,0.05,0.55,1,0.23,1.5,0.115,0.865,"spc"
"84","6AUg-6",0.23,1.5,0.115,0.865,0.1,1.5,0.05,0.8,1,0.23,1.5,0.115,0.865,"spc"
"85","6AUg-7",0.1,1.5,0.05,0.8,NA,NA,NA,NA,NA,0.1,1.5,0.05,0.8,"spc"
"86","6AUg-8",0.18,1.5,0.09,0.84,0.075,1.5,0.0375,0.7875,2,0.18,1.5,0.09,0.84,"spc"
"87","6AUg-9",0.28,1.5,0.14,0.89,0.55,1.65,0.275,1.1,2,0.28,1.5,0.14,0.89,"spc"
"88","A1",0.9,1.5,0.45,1.2,0.2,0.6,0.1,0.4,2,0.9,1.5,0.45,1.2,"spc"
"89","Amity",0.08,0.83,0.04,0.455,0.1,0.865,0.05,0.525,32,0.08,0.83,0.04,0.455,"spc"
"90","Annandale",0.2,1.35,0.1,0.775,0.25,1.36,0.125,0.83,6,0.2,1.35,0.1,0.775,"spc"
"91","Appaloosa",0.135,1,0.0675,0.5675,0.15,1.5,0.075,0.81,11,0.135,1,0.0675,0.5675,"spc"
"92","Apron",0.35,0.75,0.175,0.55,0.2,0.625,0.1,0.4175,18,0.35,0.75,0.175,0.55,"spc"
"93","Archookoora",0.19,1.1,0.095,0.645,0.15,1.25,0.075,0.72,31,0.19,1.1,0.095,0.645,"spc"
"94","Archookoora Rocky Phase",0.2,1.1,0.1,0.65,NA,NA,NA,NA,NA,0.2,1.1,0.1,0.65,"spc"
"95","Archookoora Saline Phase",0.2,1.1,0.1,0.65,NA,NA,NA,NA,NA,0.2,1.1,0.1,0.65,"spc"
"96","Arcturus",0.04,0.8,0.02,0.42,0.05,0.8,0.025,0.45,70,0.04,0.8,0.02,0.42,"spc"
"97","Aroa",0.1,1,0.05,0.55,0.1,1.2,0.05,0.625,115,0.1,1,0.05,0.55,"spc"
"98","Auburn",0.2,1.6,0.1,0.9,0.2,1.18,0.1,0.7,30,0.2,1.6,0.1,0.9,"spc"
"99","Auburn Red Variant",0.25,1,0.125,0.625,0.25,1.325,0.125,0.855,4,0.25,1,0.125,0.625,"spc"
"100","Avon",0.195,1.35,0.0975,0.7725,0.15,NA,0.075,NA,1,0.195,1.35,0.0975,0.7725,"spc"
"101","B1",0.03,1.5,0.015,0.765,0.1,0.6,0.05,0.37,32,0.03,1.5,0.015,0.765,"spc"
"102","B2",0.03,1.51,0.015,0.77,0.1,1.2,0.05,0.65,36,0.03,1.51,0.015,0.77,"spc"
"103","Banana",0.08,1.2,0.04,0.64,0.04,1.1,0.02,0.565,37,0.08,1.2,0.04,0.64,"spc"
"104","Banban",0.23,1.2,0.115,0.715,0.1,0.8,0.05,0.5,41,0.23,1.2,0.115,0.715,"spc"
"105","Basalt Rock",0.1,NA,0.05,NA,0.12,NA,0.06,NA,1,0.1,NA,0.05,NA,"spc"
"106","Battery",0.1,1,0.05,0.55,0.1,1.5,0.05,0.7725,14,0.1,1,0.05,0.55,"spc"
"107","Bauhinia",0.04,1,0.02,0.52,0.04,0.95,0.02,0.49,7,0.04,1,0.02,0.52,"spc"
"108","Beauaraba",0.06,0.55,0.03,0.305,0.04,0.3,0.02,0.175,84,0.06,0.55,0.03,0.305,"spc"
"109","Beeron",0.325,1.35,0.1625,0.8375,0.25,0.83,0.125,0.55,23,0.325,1.35,0.1625,0.8375,"spc"
"110","Bluff",0.36,0.75,0.18,0.555,0.2,0.91,0.1,0.5925,33,0.36,0.75,0.18,0.555,"spc"
"111","Bogandilla",0.1,1.6,0.05,0.85,0.15,2.9,0.075,1.525,3,0.1,1.6,0.05,0.85,"spc"
"112","Bonwell",0.18,1.5,0.09,0.84,0.13,1.25,0.065,0.725,51,0.18,1.5,0.09,0.84,"spc"
"113","Booie",0.37,NA,0.185,NA,0.2,NA,0.1,NA,1,0.37,NA,0.185,NA,"spc"
"114","Boonenne",0.25,0.7,0.125,0.475,0.25,0.9,0.125,0.59,18,0.25,0.7,0.125,0.475,"spc"
"115","Boston",0.2,1.66,0.1,0.93,0.2,0.7,0.1,0.475,134,0.2,1.66,0.1,0.93,"spc"
"116","Boyne",0.49,1.25,0.245,0.87,0.22,1.18,0.11,0.685,17,0.49,1.25,0.245,0.87,"spc"
"117","Boynewood",0.1,0.65,0.05,0.375,0.12,0.7,0.06,0.425,23,0.1,0.65,0.05,0.375,"spc"
"118","Boynewood Deep Phase",0.2,1.2,0.1,0.7,0.2,1.2,0.1,0.8,5,0.2,1.2,0.1,0.7,"spc"
"119","Boynewood Rocky Phase",0.08,0.6,0.04,0.34,0.125,0.45,0.0625,0.3325,4,0.08,0.6,0.04,0.34,"spc"
"120","Broadmedow",0.4,1.5,0.2,0.95,0.4,1.125,0.2,0.8,22,0.4,1.5,0.2,0.95,"spc"
"121","Bruce",0.04,0.55,0.02,0.295,0.05,0.5,0.025,0.29,64,0.04,0.55,0.02,0.295,"spc"
"122","Buffel",0.2,0.68,0.1,0.44,0.3,0.8,0.15,0.55,9,0.2,0.68,0.1,0.44,"spc"
"123","BUg-1",0.05,0.35,0.025,0.2,NA,NA,NA,NA,NA,0.05,0.35,0.025,0.2,"spc"
"124","BUg-10",0.05,0.85,0.025,0.45,0.15,0.85,0.075,0.5,2,0.05,0.85,0.025,0.45,"spc"
"125","BUg-11",0.05,1.5,0.025,0.775,NA,NA,NA,NA,NA,0.05,1.5,0.025,0.775,"spc"
"126","BUg-17",0.05,1.5,0.025,0.775,NA,NA,NA,NA,NA,0.05,1.5,0.025,0.775,"spc"
"127","BUg-2",0.2,0.9,0.1,0.55,0.2,0.8,0.1,0.5,9,0.2,0.9,0.1,0.55,"spc"
"128","BUg-20",0.2,1.05,0.1,0.625,NA,NA,NA,NA,NA,0.2,1.05,0.1,0.625,"spc"
"129","BUg-3",0.15,0.75,0.075,0.45,0.15,0.7,0.075,0.425,3,0.15,0.75,0.075,0.45,"spc"
"130","BUg-4",0.05,1,0.025,0.525,0.2,1.2,0.1,0.7,1,0.05,1,0.025,0.525,"spc"
"131","BUg-5",0.05,1.5,0.025,0.775,NA,NA,NA,NA,NA,0.05,1.5,0.025,0.775,"spc"
"132","BUg-6",0.05,1.1,0.025,0.575,0.1,1.2,0.05,0.65,1,0.05,1.1,0.025,0.575,"spc"
"133","BUg-7",0.06,1.4,0.03,0.73,NA,NA,NA,NA,NA,0.06,1.4,0.03,0.73,"spc"
"134","BUg-9",0.45,NA,0.225,NA,NA,NA,NA,NA,NA,0.45,NA,0.225,NA,"spc"
"135","BUgg-1m",0.05,1.1,0.025,0.575,NA,NA,NA,NA,NA,0.05,1.1,0.025,0.575,"spc"
"136","BUgg-2",0.1,1.5,0.05,0.8,NA,NA,NA,NA,NA,0.1,1.5,0.05,0.8,"spc"
"137","Bullaroo",0.02,1.25,0.01,0.635,NA,NA,NA,NA,NA,0.02,1.25,0.01,0.635,"spc"
"138","Burdekin",0.33,1.23,0.165,0.78,0.4,1.2,0.2,0.78,67,0.33,1.23,0.165,0.78,"spc"
"139","Burnett",0.3,1.2,0.15,0.75,0.41,1.275,0.205,0.9375,22,0.3,1.2,0.15,0.75,"spc"
"140","Burradoo",0.15,0.9,0.075,0.525,0.1,1.1,0.05,0.6,53,0.15,0.9,0.075,0.525,"spc"
"141","Bushnell",0.15,1.2,0.075,0.675,0.2,1.5,0.1,0.85,27,0.15,1.2,0.075,0.675,"spc"
"142","Byee",0.15,0.98,0.075,0.565,0.1,1.5,0.05,0.8,23,0.15,0.98,0.075,0.565,"spc"
"143","C2",0.03,1.6,0.015,0.815,0.1,1.35,0.05,0.725,2,0.03,1.6,0.015,0.815,"spc"
"144","C3",0.03,1.3,0.015,0.665,0.1,1.2,0.05,0.65,11,0.03,1.3,0.015,0.665,"spc"
"145","C4",0.03,1.5,0.015,0.765,0.1,1.2,0.05,0.65,18,0.03,1.5,0.015,0.765,"spc"
"146","C5",0.03,1.3,0.015,0.665,0.1,1.2,0.05,0.65,15,0.03,1.3,0.015,0.665,"spc"
"147","Cadarga",0.55,1.4,0.275,0.975,0.55,1.4,0.275,0.975,1,0.55,1.4,0.275,0.975,"spc"
"148","Callide",0.33,0.9,0.165,0.615,0.16,0.65,0.08,0.42,77,0.33,0.9,0.165,0.615,"spc"
"149","Cape",0.18,1.8,0.09,0.99,0.28,1,0.14,0.6625,81,0.18,1.8,0.09,0.99,"spc"
"150","Carfax",0.06,1.5,0.03,0.78,0.05,1.325,0.025,0.7175,26,0.06,1.5,0.03,0.78,"spc"
"151","Carraba",0.02,1.25,0.01,0.635,0.1,1.5,0.05,0.8,1,0.02,1.25,0.01,0.635,"spc"
"152","Cattle",0.05,1.5,0.025,0.775,0.02,1.6,0.01,0.815,9,0.05,1.5,0.025,0.775,"spc"
"153","Cheeseboro",0.05,0.21,0.025,0.13,0.07,0.3,0.035,0.21,45,0.05,0.21,0.025,0.13,"spc"
"154","Chelmsford",0.15,1.1,0.075,0.625,0.15,1.35,0.075,0.81,13,0.15,1.1,0.075,0.625,"spc"
"155","Cherbourg",0.3,0.7,0.15,0.5,0.3,1,0.15,0.675,7,0.3,0.7,0.15,0.5,"spc"
"156","Cheshire",0.05,1.25,0.025,0.65,0.1,1.2,0.05,0.65,29,0.05,1.25,0.025,0.65,"spc"
"157","Chessborough",0.25,0.6,0.125,0.425,0.25,0.95,0.125,0.6,5,0.25,0.6,0.125,0.425,"spc"
"158","Chinchilla",0.3,1.6,0.15,0.95,0.3,1.6,0.15,0.95,1,0.3,1.6,0.15,0.95,"spc"
"159","Clematis",0.6,1.35,0.3,0.975,0.15,1.02,0.075,0.6,9,0.6,1.35,0.3,0.975,"spc"
"160","Commissioner",0.19,NA,0.095,NA,0.15,NA,0.075,NA,5,0.19,NA,0.095,NA,"spc"
"161","Consuelo",0.5,NA,0.25,NA,0.04,0.3,0.02,0.17,1,0.5,NA,0.25,NA,"spc"
"162","Coolabunia",0.175,1.35,0.0875,0.7625,0.18,1.2,0.09,0.7,62,0.175,1.35,0.0875,0.7625,"spc"
"163","Cooyar",0.3,1.5,0.15,0.9,0.3,1.1,0.15,0.775,18,0.3,1.5,0.15,0.9,"spc"
"164","Cottonham",0.1,1.05,0.05,0.575,0.055,0.92,0.0275,0.4925,22,0.1,1.05,0.05,0.575,"spc"
"165","Crater",0.1,0.6,0.05,0.35,0.17,0.8,0.085,0.485,1,0.1,0.6,0.05,0.35,"spc"
"166","Crawford",0.35,1.5,0.175,0.925,0.155,1.2,0.0775,0.7125,32,0.35,1.5,0.175,0.925,"spc"
"167","Creek",0.4,1,0.2,0.7,0.35,0.95,0.175,0.66,52,0.4,1,0.2,0.7,"spc"
"168","Cushnie",0.21,1.5,0.105,0.855,0.275,1,0.1375,0.6575,18,0.21,1.5,0.105,0.855,"spc"
"169","D1",0.25,1.5,0.125,0.875,0.3,0.95,0.15,0.65,9,0.25,1.5,0.125,0.875,"spc"
"170","D2",0.25,1.5,0.125,0.875,0.2,0.9,0.1,0.575,41,0.25,1.5,0.125,0.875,"spc"
"171","D3",0.25,1.5,0.125,0.875,0.25,1.2,0.125,0.7,77,0.25,1.5,0.125,0.875,"spc"
"172","Dangore",0.3,1,0.15,0.65,0.27,0.8,0.135,0.55,17,0.3,1,0.15,0.65,"spc"
"173","Davy - CQ",1.3,1.35,0.65,1.325,NA,NA,NA,NA,NA,1.3,1.35,0.65,1.325,"spc"
"174","Derra",0.05,1.575,0.025,0.8125,0.15,1.63,0.075,0.875,5,0.05,1.575,0.025,0.8125,"spc"
"175","Derrick Steep And Broken Phase",0.2,0.9,0.1,0.55,NA,NA,NA,NA,NA,0.2,0.9,0.1,0.55,"spc"
"176","Diamond (Kcm)",0.09,1.14,0.045,0.615,0.05,1.75,0.025,0.9175,40,0.09,1.14,0.045,0.615,"spc"
"177","Diamond (Kcm), Footslope Variant",0.09,0.95,0.045,0.52,0.05,1.725,0.025,0.8925,16,0.09,0.95,0.045,0.52,"spc"
"178","Dickson",0.27,1.05,0.135,0.66,0.2,0.95,0.1,0.575,54,0.27,1.05,0.135,0.66,"spc"
"179","Dickson, Shallow Variant",0.06,0.25,0.03,0.155,0.15,0.4,0.075,0.2625,20,0.06,0.25,0.03,0.155,"spc"
"180","Downfall",0.04,1.5,0.02,0.77,0.1,1.5,0.05,0.8,1,0.04,1.5,0.02,0.77,"spc"
"181","Dunrobin - CQ",0.2,1.5,0.1,0.85,0.17,1.2,0.085,0.675,11,0.2,1.5,0.1,0.85,"spc"
"182","Durong",0.025,1.5,0.0125,0.7625,0.06,1.265,0.03,0.6625,2,0.025,1.5,0.0125,0.7625,"spc"
"183","E1",0.3,1.3,0.15,0.8,0.4,1.175,0.2,0.7875,2,0.3,1.3,0.15,0.8,"spc"
"184","E2",0.3,1.21,0.15,0.755,0.3,1.2,0.15,0.7,14,0.3,1.21,0.15,0.755,"spc"
"185","E3",0.3,1.5,0.15,0.9,0.45,1.2,0.225,0.9,3,0.3,1.5,0.15,0.9,"spc"
"186","Earlsfield",0.07,1.5,0.035,0.785,0.06,1.55,0.03,0.81,174,0.07,1.5,0.035,0.785,"spc"
"187","Eastgate",0.13,1.5,0.065,0.815,0.1,1.5,0.05,0.8,38,0.13,1.5,0.065,0.815,"spc"
"188","Eleanor",0.11,1.6,0.055,0.855,0.1,1.75,0.05,0.92,36,0.11,1.6,0.055,0.855,"spc"
"189","Eleanor, Mottled Phase",0.03,1.6,0.015,0.815,0.1,1.685,0.05,0.8875,16,0.03,1.6,0.015,0.815,"spc"
"190","Fairdale",0.09,0.75,0.045,0.42,0.12,0.95,0.06,0.52,42,0.09,0.75,0.045,0.42,"spc"
"191","Fairview",0.08,1.35,0.04,0.715,0.04,1.04,0.02,0.545,61,0.08,1.35,0.04,0.715,"spc"
"192","Falkner",0.11,0.8,0.055,0.455,0.05,0.85,0.025,0.435,33,0.11,0.8,0.055,0.455,"spc"
"193","Flagstone",0.25,1.35,0.125,0.8,0.2,1.4,0.1,0.825,21,0.25,1.35,0.125,0.8,"spc"
"194","Fletcher",0.18,1.15,0.09,0.665,0.15,1.5,0.075,0.755,13,0.18,1.15,0.09,0.665,"spc"
"195","Foxleigh",0.3,1.5,0.15,0.9,0.32,1.5,0.16,0.875,63,0.3,1.5,0.15,0.9,"spc"
"196","Gainsford",0.2,0.6,0.1,0.4,0.375,1.1,0.1875,0.745,22,0.2,0.6,0.1,0.4,"spc"
"197","Gindie",0.02,1,0.01,0.51,0.2,0.7,0.1,0.5,3,0.02,1,0.01,0.51,"spc"
"198","Glenora",0.04,1.45,0.02,0.745,0.1,1.4,0.05,0.7575,33,0.04,1.45,0.02,0.745,"spc"
"199","Glenrock",0.35,1.2,0.175,0.775,0.25,1.05,0.125,0.675,9,0.35,1.2,0.175,0.775,"spc"
"200","Glenrock Grey Variant",0.15,0.6,0.075,0.375,0.15,NA,0.075,NA,1,0.15,0.6,0.075,0.375,"spc"
"201","Goodger",0.15,1.35,0.075,0.75,0.3,1.375,0.15,0.8,26,0.15,1.35,0.075,0.75,"spc"
"202","Goovigen",0.05,1.5,0.025,0.775,0.04,1.55,0.02,0.8025,14,0.05,1.5,0.025,0.775,"spc"
"203","Gordonbrook",0.21,1,0.105,0.725,0.19,1,0.095,0.64,28,0.21,1,0.105,0.725,"spc"
"204","Graham",0.15,1.5,0.075,0.825,0.1,1.1,0.05,0.6375,32,0.15,1.5,0.075,0.825,"spc"
"205","Grevillea",0.09,1.5,0.045,0.795,0.09,1.55,0.045,0.835,33,0.09,1.5,0.045,0.795,"spc"
"206","Greycliffe",0.06,1.5,0.03,0.78,0.04,1.6,0.02,0.81,163,0.06,1.5,0.03,0.78,"spc"
"207","Greycliffe Melonhole Phase",0.04,1.5,0.02,0.77,0.03,1.56,0.015,0.8,78,0.04,1.5,0.02,0.77,"spc"
"208","Gueena",0.13,1.5,0.065,0.815,0.175,1.4,0.0875,0.8,20,0.13,1.5,0.065,0.815,"spc"
"209","Haly",0.24,1.35,0.12,0.795,0.155,1.2,0.0775,0.7,50,0.24,1.35,0.12,0.795,"spc"
"210","Harris",0.06,1.5,0.03,0.78,0.04,1.55,0.02,0.785,12,0.06,1.5,0.03,0.78,"spc"
"211","Hawkwood",0.4,1.2,0.2,0.8,0.39,0.625,0.195,0.53,4,0.4,1.2,0.2,0.8,"spc"
"212","Hillsdale",0.285,1.2,0.1425,0.7425,0.175,0.925,0.0875,0.5875,16,0.285,1.2,0.1425,0.7425,"spc"
"213","Hodge (BAN)",0.23,0.65,0.115,0.44,0.15,0.675,0.075,0.43,11,0.23,0.65,0.115,0.44,"spc"
"214","Holding",0.05,1.3,0.025,0.675,0.15,1.4,0.075,0.775,48,0.05,1.3,0.025,0.675,"spc"
"215","Hopevale",0.165,1.3,0.0825,0.7325,0.15,1.125,0.075,0.63,11,0.165,1.3,0.0825,0.7325,"spc"
"216","Hunter",0.05,1.5,0.025,0.775,0.1,1.145,0.05,0.6225,2,0.05,1.5,0.025,0.775,"spc"
"217","Iona",0.17,1.5,0.085,0.835,0.155,1.2,0.0775,0.7,28,0.17,1.5,0.085,0.835,"spc"
"218","Jambin",0.08,1.5,0.04,0.79,0.05,1.55,0.025,0.785,35,0.08,1.5,0.04,0.79,"spc"
"219","K1",0.3,1.25,0.15,0.775,0.2,1.2,0.1,0.7,20,0.3,1.25,0.15,0.775,"spc"
"220","K2",0.3,1.25,0.15,0.775,0.25,1.2,0.125,0.7375,16,0.3,1.25,0.15,0.775,"spc"
"221","K3",0.3,1.25,0.15,0.775,0.6,1.2,0.3,0.9,9,0.3,1.25,0.15,0.775,"spc"
"222","Kaber",0.25,1.5,0.125,0.875,0.11,0.95,0.055,0.5375,18,0.25,1.5,0.125,0.875,"spc"
"223","Kaber Red Variant",0.18,1.6,0.09,0.89,0.18,1.6,0.09,0.89,1,0.18,1.6,0.09,0.89,"spc"
"224","Kabra",0.25,0.7,0.125,0.475,0.25,0.8,0.125,0.525,11,0.25,0.7,0.125,0.475,"spc"
"225","Kawl Kawl",0.13,1.5,0.065,0.815,0.08,1.25,0.04,0.65,6,0.13,1.5,0.065,0.815,"spc"
"226","Kenlogan",0.09,0.94,0.045,0.515,0.05,0.825,0.025,0.445,28,0.09,0.94,0.045,0.515,"spc"
"227","Kenmar",0.02,1.3,0.01,0.66,0.07,1.7,0.035,0.9,51,0.02,1.3,0.01,0.66,"spc"
"228","Kilburnie",0.11,1.5,0.055,0.805,0.04,1.55,0.02,0.795,23,0.11,1.5,0.055,0.805,"spc"
"229","Kokutungo",0.33,1.5,0.165,0.915,0.22,1.5,0.11,0.865,190,0.33,1.5,0.165,0.915,"spc"
"230","Kooingal",0.04,1.5,0.02,0.77,0.06,1.5,0.03,0.78,11,0.04,1.5,0.02,0.77,"spc"
"231","Kumbia",0.2,0.9,0.1,0.55,0.15,1,0.075,0.5875,61,0.2,0.9,0.1,0.55,"spc"
"232","Kumbia Rocky Phase",0.2,0.6,0.1,0.4,NA,NA,NA,NA,NA,0.2,0.6,0.1,0.4,"spc"
"233","Kunioon",0.17,1.5,0.085,0.835,0.2,1.1,0.1,0.665,45,0.17,1.5,0.085,0.835,"spc"
"234","Lacon",0.05,1.5,0.025,0.775,0.15,1.32,0.075,0.725,9,0.05,1.5,0.025,0.775,"spc"
"235","Langley-Wdh",0.05,1.5,0.025,0.775,0.05,1.5,0.025,0.81,53,0.05,1.5,0.025,0.775,"spc"
"236","Leitrim",0.05,0.95,0.025,0.5,0.05,0.95,0.025,0.5,1,0.05,0.95,0.025,0.5,"spc"
"237","Lindsay",0.04,1.4,0.02,0.72,0.05,1.5,0.025,0.775,34,0.04,1.4,0.02,0.72,"spc"
"238","Logan",0.3,1.5,0.15,0.9,0.49,1.875,0.245,1.1825,2,0.3,1.5,0.15,0.9,"spc"
"239","Long Peter",0.14,1.2,0.07,0.67,0.2,1.275,0.1,0.7375,4,0.14,1.2,0.07,0.67,"spc"
"240","Luxor",0.6,1.2,0.3,0.9,0.5,1,0.25,0.75,34,0.6,1.2,0.3,0.9,"spc"
"241","Manar",0.11,1.36,0.055,0.735,0.03,1.6,0.015,0.82,30,0.11,1.36,0.055,0.735,"spc"
"242","Maraconda",0.02,1.3,0.01,0.66,0.02,1.5,0.01,0.76,14,0.02,1.3,0.01,0.66,"spc"
"243","Marshlands",0.25,1,0.125,0.625,0.2,1.5,0.1,0.8,5,0.25,1,0.125,0.625,"spc"
"244","Martyr",0.03,1.5,0.015,0.765,0.03,1.5,0.015,0.78,32,0.03,1.5,0.015,0.765,"spc"
"245","May",0.05,0.9,0.025,0.475,0.04,0.9,0.02,0.475,29,0.05,0.9,0.025,0.475,"spc"
"246","May Downs",0.04,1.25,0.02,0.645,0.065,1.3,0.0325,0.675,76,0.04,1.25,0.02,0.645,"spc"
"247","May Shallow Phase",0.05,0.5,0.025,0.275,0.03,0.445,0.015,0.2375,16,0.05,0.5,0.025,0.275,"spc"
"248","Mceuen",0.06,0.4,0.03,0.23,0.11,0.5,0.055,0.305,21,0.06,0.4,0.03,0.23,"spc"
"249","Mceuen Rocky Phase",0.07,0.5,0.035,0.285,NA,NA,NA,NA,NA,0.07,0.5,0.035,0.285,"spc"
"250","Medway",0.2,0.55,0.1,0.375,0.2,0.6,0.1,0.45,7,0.2,0.55,0.1,0.375,"spc"
"251","Melton",0.15,1.5,0.075,0.825,0.12,1.36,0.06,0.735,82,0.15,1.5,0.075,0.825,"spc"
"252","Memerambi",0.16,1.3,0.08,0.73,0.2,1.2,0.1,0.7,122,0.16,1.3,0.08,0.73,"spc"
"253","Midden",0.03,1.4,0.015,0.715,0.05,1.5,0.025,0.8275,58,0.03,1.4,0.015,0.715,"spc"
"254","Midden, Melonhole Phase",0.02,1.5,0.01,0.76,0.02,1.5,0.01,0.86,17,0.02,1.5,0.01,0.76,"spc"
"255","Minnabilla",0.35,NA,0.175,NA,0.45,NA,0.225,NA,1,0.35,NA,0.175,NA,"spc"
"256","Mondure",0.3,1.25,0.15,0.775,0.2,1.175,0.1,0.675,68,0.3,1.25,0.15,0.775,"spc"
"257","Moolayember",0.6,1.35,0.3,0.975,0.23,NA,0.115,NA,1,0.6,1.35,0.3,0.975,"spc"
"258","Moramana",0.09,1.25,0.045,0.67,0.05,1.7,0.025,0.8625,70,0.09,1.25,0.045,0.67,"spc"
"259","Muncon 1.3",0.1,1.3,0.05,0.7,NA,NA,NA,NA,NA,0.1,1.3,0.05,0.7,"spc"
"260","N1",0.3,1.5,0.15,0.9,0.265,1.1,0.1325,0.6875,20,0.3,1.5,0.15,0.9,"spc"
"261","Nail",0.08,1.5,0.04,0.79,0.1,1.5,0.05,0.8,1,0.08,1.5,0.04,0.79,"spc"
"262","Natal",0.1,1.5,0.05,0.8,0.115,1.95,0.0575,1.0325,2,0.1,1.5,0.05,0.8,"spc"
"263","Niagara",0.11,1.2,0.055,0.655,0.1,1.15,0.05,0.63,127,0.11,1.2,0.055,0.655,"spc"
"264","Ninemile",0.06,1.1,0.03,0.58,0.15,0.9,0.075,0.54,3,0.06,1.1,0.03,0.58,"spc"
"265","Nursery",0.13,0.7,0.065,0.415,0.1,0.6,0.05,0.35,17,0.13,0.7,0.065,0.415,"spc"
"266","O'Bil Bil",0.2,0.55,0.1,0.375,0.15,0.6,0.075,0.39,5,0.2,0.55,0.1,0.375,"spc"
"267","Oombabeer",0.16,1.5,0.08,0.83,0.15,1,0.075,0.675,9,0.16,1.5,0.08,0.83,"spc"
"268","P1",0.4,1.1,0.2,0.75,0.35,0.925,0.175,0.6,8,0.4,1.1,0.2,0.75,"spc"
"269","P2",0.25,1.1,0.125,0.675,0.4,1.2,0.2,0.7875,17,0.25,1.1,0.125,0.675,"spc"
"270","Pakington",0.13,1.5,0.065,0.815,0.125,1.6,0.0625,0.8625,2,0.13,1.5,0.065,0.815,"spc"
"271","Palouse",0.205,1.075,0.1025,0.64,0.3,1.2,0.15,0.725,7,0.205,1.075,0.1025,0.64,"spc"
"272","Pearlinga",0.55,1.5,0.275,1.025,0.4,1.6,0.2,1,1,0.55,1.5,0.275,1.025,"spc"
"273","Pegunny",0.095,1.275,0.0475,0.685,0.15,1.5,0.075,0.8,17,0.095,1.275,0.0475,0.685,"spc"
"274","Petrona",0.6,NA,0.3,NA,0.325,0.5,0.1625,0.3,8,0.6,NA,0.3,NA,"spc"
"275","Picardy",0.06,1.6,0.03,0.83,0.06,1.35,0.03,0.71,54,0.06,1.6,0.03,0.83,"spc"
"276","Picardy Surface Seal Phase",0.05,1.2,0.025,0.625,0.04,1.2,0.02,0.62,2,0.05,1.2,0.025,0.625,"spc"
"277","Police Camp",0.2,0.9,0.1,0.55,0.18,0.7,0.09,0.44,47,0.2,0.9,0.1,0.55,"spc"
"278","Powerhouse",0.08,1.5,0.04,0.79,0.06,1.55,0.03,0.805,17,0.08,1.5,0.04,0.79,"spc"
"279","Proston",0.17,1.6,0.085,0.885,0.15,1.2,0.075,0.735,15,0.17,1.6,0.085,0.885,"spc"
"280","R1",0.15,1.2,0.075,0.675,0.2,1.2,0.1,0.7,18,0.15,1.2,0.075,0.675,"spc"
"281","Racetrack",0.2,1.6,0.1,0.9,0.15,1.5,0.075,0.8125,62,0.2,1.6,0.1,0.9,"spc"
"282","Rangeview",0.04,NA,0.02,NA,0.15,0.775,0.075,0.45,50,0.04,NA,0.02,NA,"spc"
"283","Rankin",0.12,1.1,0.06,0.61,0.1,0.9,0.05,0.5,18,0.12,1.1,0.06,0.61,"spc"
"284","Retro",0.225,1.2,0.1125,0.7125,0.2,1.2,0.1,0.7125,42,0.225,1.2,0.1125,0.7125,"spc"
"285","Retro (BAN)",0.25,1.25,0.125,0.75,0.19,1.55,0.095,0.855,121,0.25,1.25,0.125,0.75,"spc"
"286","Riverleigh",0.43,1.5,0.215,0.965,0.25,1.4,0.125,0.865,21,0.43,1.5,0.215,0.965,"spc"
"287","Rolleston",0.04,1.2,0.02,0.62,0.1,1.25,0.05,0.725,58,0.04,1.2,0.02,0.62,"spc"
"288","Roper",0.3,1.3,0.15,0.8,0.3,1.2,0.15,0.725,56,0.3,1.3,0.15,0.8,"spc"
"289","Russell",0.06,0.95,0.03,0.505,0.05,0.75,0.025,0.415,264,0.06,0.95,0.03,0.505,"spc"
"290","Russell, Gilgai Phase",0.11,1.15,0.055,0.63,0.15,1.25,0.075,0.7,11,0.11,1.15,0.055,0.63,"spc"
"291","Russell, Stony Phase",0.05,0.45,0.025,0.25,0.1,0.6,0.05,0.375,17,0.05,0.45,0.025,0.25,"spc"
"292","Sadie",0.07,1.5,0.035,0.785,0.17,1.3,0.085,0.735,8,0.07,1.5,0.035,0.785,"spc"
"293","Santo",0.18,0.85,0.09,0.515,0.11,0.52,0.055,0.3175,106,0.18,0.85,0.09,0.515,"spc"
"294","SDE4",0.2,0.35,0.1,0.275,0.2,0.23,0.1,0.215,7,0.2,0.35,0.1,0.275,"spc"
"295","Shotover",0.2,NA,0.1,NA,0.075,0.5,0.0375,0.35,12,0.2,NA,0.1,NA,"spc"
"296","Solferino",0.06,1.36,0.03,0.71,0.05,1.7,0.025,0.875,33,0.06,1.36,0.03,0.71,"spc"
"297","Spier",0.2,1.3,0.1,0.75,0.23,1.5,0.115,0.8325,48,0.2,1.3,0.1,0.75,"spc"
"298","Springwood",0.25,1.2,0.125,0.725,0.28,0.9,0.14,0.66,17,0.25,1.2,0.125,0.725,"spc"
"299","T1",0.25,1.5,0.125,0.875,0.25,0.9,0.125,0.6125,24,0.25,1.5,0.125,0.875,"spc"
"300","T3",0.25,1.5,0.125,0.875,0.35,1.2,0.175,0.7,37,0.25,1.5,0.125,0.875,"spc"
"301","T4",0.25,1.5,0.125,0.875,0.325,0.95,0.1625,0.65,4,0.25,1.5,0.125,0.875,"spc"
"302","Taabinga",0.15,1.5,0.075,0.825,0.15,0.875,0.075,0.4875,6,0.15,1.5,0.075,0.825,"spc"
"303","Tara",0.12,1.4,0.06,0.76,0.075,4.325,0.0375,2.2375,6,0.12,1.4,0.06,0.76,"spc"
"304","Tarong",0.22,1.1,0.11,0.66,0.25,1.2,0.125,0.765,21,0.22,1.1,0.11,0.66,"spc"
"305","Tarramba",0.16,1.2,0.08,0.68,0.05,1.55,0.025,0.815,173,0.16,1.2,0.08,0.68,"spc"
"306","Taurus",0.2,1.25,0.1,0.725,0.24,0.975,0.12,0.6325,15,0.2,1.25,0.1,0.725,"spc"
"307","TbUg-1",0.05,1.5,0.025,0.775,0.225,1.075,0.1125,0.65,2,0.05,1.5,0.025,0.775,"spc"
"308","TbUg-10",0.95,1.5,0.475,1.225,NA,NA,NA,NA,NA,0.95,1.5,0.475,1.225,"spc"
"309","TbUg-11",0.05,0.95,0.025,0.5,0.2,1.1,0.1,0.65,1,0.05,0.95,0.025,0.5,"spc"
"310","TbUg-12",0.05,1.15,0.025,0.6,NA,NA,NA,NA,NA,0.05,1.15,0.025,0.6,"spc"
"311","TbUg-13",0.05,1.5,0.025,0.775,0.2,1.5,0.1,0.85,1,0.05,1.5,0.025,0.775,"spc"
"312","TbUg-2",0.05,1.5,0.025,0.775,0.2,1.6,0.1,0.9,7,0.05,1.5,0.025,0.775,"spc"
"313","TbUg-4",0.05,1.5,0.025,0.775,0.175,1.5,0.0875,0.8375,2,0.05,1.5,0.025,0.775,"spc"
"314","TbUg-5",0.05,1.5,0.025,0.775,NA,NA,NA,NA,NA,0.05,1.5,0.025,0.775,"spc"
"315","TbUg-6",0.95,1.5,0.475,1.225,0.2,1.5,0.1,0.85,1,0.95,1.5,0.475,1.225,"spc"
"316","TbUg-7",0.05,1.5,0.025,0.775,NA,NA,NA,NA,NA,0.05,1.5,0.025,0.775,"spc"
"317","TbUg-8",0.05,1.5,0.025,0.775,NA,NA,NA,NA,NA,0.05,1.5,0.025,0.775,"spc"
"318","TbUg-9",0.05,1.6,0.025,0.825,NA,NA,NA,NA,NA,0.05,1.6,0.025,0.825,"spc"
"319","Te_El_Kabir",0.15,1.5,0.075,0.825,0.1,1,0.05,0.55,11,0.15,1.5,0.075,0.825,"spc"
"320","Terrace",0.15,0.75,0.075,0.45,0.12,1,0.06,0.56,5,0.15,0.75,0.075,0.45,"spc"
"321","Teviot",0.1,1.25,0.05,0.675,0.1,1.35,0.05,0.75,31,0.1,1.25,0.05,0.675,"spc"
"322","Thalberg",0.35,1.51,0.175,0.93,0.3,1.5,0.15,0.9,24,0.35,1.51,0.175,0.93,"spc"
"323","Thorpe - Dlr",0.1,NA,0.05,NA,0.3,0.95,0.15,0.6,7,0.1,NA,0.05,NA,"spc"
"324","Tingoora",0.1,0.6,0.05,0.35,0.12,1.4,0.06,0.75,17,0.1,0.6,0.05,0.35,"spc"
"325","Tiny",0.05,1.7,0.025,0.875,0.04,1.5,0.02,0.775,49,0.05,1.7,0.025,0.875,"spc"
"326","Todds",0.7,1.5,0.35,1.1,0.675,1.4,0.3375,1.0625,4,0.7,1.5,0.35,1.1,"spc"
"327","Tognolini",0.18,1.4,0.09,0.79,0.1,1.55,0.05,0.825,57,0.18,1.4,0.09,0.79,"spc"
"328","Toondoon",0.35,1.5,0.175,0.925,0.1,0.8,0.05,0.45,1,0.35,1.5,0.175,0.925,"spc"
"329","Tralee",0.03,1.5,0.015,0.765,0.07,1.5,0.035,0.765,51,0.03,1.5,0.015,0.765,"spc"
"330","Tregear",0.32,1.3,0.16,0.81,NA,NA,NA,NA,NA,0.32,1.3,0.16,0.81,"spc"
"331","TsDr-1",0.23,1.5,0.115,0.865,0.25,1.5,0.125,0.875,1,0.23,1.5,0.115,0.865,"spc"
"332","TsDy-1",0.385,1.5,0.1925,0.9425,0.3,1.3,0.15,0.78,4,0.385,1.5,0.1925,0.9425,"spc"
"333","TsDy-6",0.65,1.5,0.325,1.075,NA,NA,NA,NA,NA,0.65,1.5,0.325,1.075,"spc"
"334","TsGn-3",0.23,1.5,0.115,0.865,0.4,1.5,0.2,0.95,1,0.23,1.5,0.115,0.865,"spc"
"335","TsGn-4",0.255,1.29,0.1275,0.7725,0.4,1.2,0.2,0.8,1,0.255,1.29,0.1275,0.7725,"spc"
"336","TsGn-5",0.65,1.04,0.325,0.845,0.45,0.8,0.225,0.625,2,0.65,1.04,0.325,0.845,"spc"
"337","TsGn-6",0.25,0.655,0.125,0.4525,0.35,0.7,0.175,0.525,2,0.25,0.655,0.125,0.4525,"spc"
"338","TsUc-2",0.33,1.5,0.165,0.915,0.5,1.5,0.25,1,1,0.33,1.5,0.165,0.915,"spc"
"339","TsUf-3",0.13,1.5,0.065,0.815,0.07,0.5,0.035,0.285,1,0.13,1.5,0.065,0.815,"spc"
"340","TsUf-6",0.13,1.5,0.065,0.815,0.1,1.5,0.05,0.8,1,0.13,1.5,0.065,0.815,"spc"
"341","TsUg-2",0.02,1.5,0.01,0.76,NA,NA,NA,NA,NA,0.02,1.5,0.01,0.76,"spc"
"342","TsUg-7",0.225,1.5,0.1125,0.8625,0.125,1.5,0.0625,0.8125,10,0.225,1.5,0.1125,0.8625,"spc"
"343","TsUgg-1",0.3,1.5,0.15,0.9,NA,NA,NA,NA,NA,0.3,1.5,0.15,0.9,"spc"
"344","TsUgg-2",0.18,1.5,0.09,0.84,0.2,1.5,0.1,0.85,5,0.18,1.5,0.09,0.84,"spc"
"345","Tureen",0.12,0.37,0.06,0.245,0.22,0.58,0.11,0.4,1,0.12,0.37,0.06,0.245,"spc"
"346","U1",0.3,1.25,0.15,0.775,0.2,1.2,0.1,0.7,25,0.3,1.25,0.15,0.775,"spc"
"347","Ulogie",0.33,1.51,0.165,0.92,0.27,1.53,0.135,0.8675,60,0.33,1.51,0.165,0.92,"spc"
"348","Vermont",0.04,1,0.02,0.52,0.115,1.35,0.0575,0.785,26,0.04,1,0.02,0.52,"spc"
"349","Vicenza",0.11,1.5,0.055,0.805,0.07,1.7,0.035,0.9,95,0.11,1.5,0.055,0.805,"spc"
"350","Violet",0.28,NA,0.14,NA,0.175,0.4,0.0875,0.3,10,0.28,NA,0.14,NA,"spc"
"351","Warrinilla",0.15,0.5,0.075,0.325,0.1,0.5,0.05,0.3,3,0.15,0.5,0.075,0.325,"spc"
"352","Washpool",0.3,1.5,0.15,0.9,0.3,0.85,0.15,0.575,1,0.3,1.5,0.15,0.9,"spc"
"353","Weir",0.165,0.99,0.0825,0.5775,0.15,1.25,0.075,0.7125,18,0.165,0.99,0.0825,0.5775,"spc"
"354","Well",0.06,1.5,0.03,0.78,0.05,1.7,0.025,0.875,30,0.06,1.5,0.03,0.78,"spc"
"355","Well, Footslope Variant",0.06,1.18,0.03,0.62,0.03,1.7,0.015,0.87,16,0.06,1.18,0.03,0.62,"spc"
"356","Well, Sandy Surface Variant",0.11,0.6,0.055,0.355,NA,NA,NA,NA,NA,0.11,0.6,0.055,0.355,"spc"
"357","Wheatlands",0.2,1.24,0.1,0.72,0.175,0.85,0.0875,0.5125,2,0.2,1.24,0.1,0.72,"spc"
"358","Windradene",0.16,0.3,0.08,0.23,0.07,0.3,0.035,0.2,70,0.16,0.3,0.08,0.23,"spc"
"359","Wivenhoe",0.5,1.2,0.25,0.85,0.5,1.2,0.25,0.85,1,0.5,1.2,0.25,0.85,"spc"
"360","Wondai",0.1,1.5,0.05,0.8,0.1,1.215,0.05,0.67,10,0.1,1.5,0.05,0.8,"spc"
"361","Wooroolin",0.27,1,0.135,0.635,0.15,1.2,0.075,0.65,61,0.27,1,0.135,0.635,"spc"
"362","Wyseby",0.25,1.25,0.125,0.75,0.15,1.325,0.075,0.7125,17,0.25,1.25,0.125,0.75,"spc"
"363","X1",0.3,1.5,0.15,0.9,0.2,1.2,0.1,0.7,13,0.3,1.5,0.15,0.9,"spc"
"364","Yackadoo",0.06,0.2,0.03,0.13,0.1,0.3,0.05,0.165,10,0.06,0.2,0.03,0.13,"spc"
"365","1AKA1",NA,NA,NA,NA,0.55,1.3,0.275,0.925,6,0.55,1.3,0.275,0.925,"site"
"366","1ARU1",NA,NA,NA,NA,0.525,0.9,0.2625,0.725,2,0.525,0.9,0.2625,0.725,"site"
"367","1ATE1",NA,NA,NA,NA,0.44,1.6,0.22,0.9925,30,0.44,1.6,0.22,0.9925,"site"
"368","1AUg-4",NA,NA,NA,NA,0.1,1,0.05,0.55,1,0.1,1,0.05,0.55,"site"
"369","1AVE2",NA,NA,NA,NA,0.14,1.58,0.07,0.87,25,0.14,1.58,0.07,0.87,"site"
"370","1AVE3",NA,NA,NA,NA,0.04,0.68,0.02,0.37,3,0.04,0.68,0.02,0.37,"site"
"371","1AVE4",NA,NA,NA,NA,0.1,1.5,0.05,0.805,15,0.1,1.5,0.05,0.805,"site"
"372","1AVE6",NA,NA,NA,NA,0.125,1.56,0.0625,0.85,20,0.125,1.56,0.0625,0.85,"site"
"373","2ADb-1",NA,NA,NA,NA,0.16,1.5,0.08,0.83,1,0.16,1.5,0.08,0.83,"site"
"374","2AUg-3",NA,NA,NA,NA,0.175,1.5,0.0875,0.8375,2,0.175,1.5,0.0875,0.8375,"site"
"375","2AUg-7",NA,NA,NA,NA,0.3,1.5,0.15,0.9,3,0.3,1.5,0.15,0.9,"site"
"376","2AUg-8m",NA,NA,NA,NA,0.25,1.5,0.125,0.875,3,0.25,1.5,0.125,0.875,"site"
"377","2AVE2",NA,NA,NA,NA,0.15,1.52,0.075,0.81,5,0.15,1.52,0.075,0.81,"site"
"378","3ASO1",NA,NA,NA,NA,0.09,1.25,0.045,0.65,5,0.09,1.25,0.045,0.65,"site"
"379","3ASO2",NA,NA,NA,NA,0.21,0.6,0.105,0.4,7,0.21,0.6,0.105,0.4,"site"
"380","3AVE2",NA,NA,NA,NA,0.27,1.515,0.135,0.8925,2,0.27,1.515,0.135,0.8925,"site"
"381","3SOb",NA,NA,NA,NA,0.34,1.6,0.17,0.9575,6,0.34,1.6,0.17,0.9575,"site"
"382","5SOy",NA,NA,NA,NA,0.07,1.21,0.035,0.64,1,0.07,1.21,0.035,0.64,"site"
"383","5VEy",NA,NA,NA,NA,0.1,1.26,0.05,0.68,7,0.1,1.26,0.05,0.68,"site"
"384","6ADb-4",NA,NA,NA,NA,0.11,1.5,0.055,0.805,1,0.11,1.5,0.055,0.805,"site"
"385","Abercorn",NA,NA,NA,NA,0.195,1.525,0.0975,0.86,2,0.195,1.525,0.0975,0.86,"site"
"386","Alluvial Complex - Lower, Cracking Clays",NA,NA,NA,NA,0.1,1.5,0.05,0.825,7,0.1,1.5,0.05,0.825,"site"
"387","Anyarro",NA,NA,NA,NA,0.3,1,0.15,0.8,3,0.3,1,0.15,0.8,"site"
"388","Archookoora Nodular Phase",NA,NA,NA,NA,0.15,1.25,0.075,0.7,2,0.15,1.25,0.075,0.7,"site"
"389","Arnolds",NA,NA,NA,NA,0.8,1.5,0.4,1.125,7,0.8,1.5,0.4,1.125,"site"
"390","Awoonga",NA,NA,NA,NA,0.25,0.9,0.125,0.6,27,0.25,0.9,0.125,0.6,"site"
"391","Balark",NA,NA,NA,NA,0.075,1.335,0.0375,0.705,2,0.075,1.335,0.0375,0.705,"site"
"392","Barrack",NA,NA,NA,NA,0.3,1.15,0.15,0.75,6,0.3,1.15,0.15,0.75,"site"
"393","Beecher",NA,NA,NA,NA,0.25,1,0.125,0.65,29,0.25,1,0.125,0.65,"site"
"394","Belbroughton",NA,NA,NA,NA,0.1,1.5,0.05,0.8,21,0.1,1.5,0.05,0.8,"site"
"395","Belvedere",NA,NA,NA,NA,0.06,3,0.03,1.53,1,0.06,3,0.03,1.53,"site"
"396","Bilboolan",NA,NA,NA,NA,0.1,1.6,0.05,0.85,1,0.1,1.6,0.05,0.85,"site"
"397","Blair",NA,NA,NA,NA,0.1,1.6,0.05,0.85,1,0.1,1.6,0.05,0.85,"site"
"398","Bonnie Crofts",NA,NA,NA,NA,0.09,1.5,0.045,0.79,14,0.09,1.5,0.045,0.79,"site"
"399","Boongary",NA,NA,NA,NA,0.1,1.5,0.05,0.8125,20,0.1,1.5,0.05,0.8125,"site"
"400","Bovekel",NA,NA,NA,NA,0.1,1.5,0.05,0.775,5,0.1,1.5,0.05,0.775,"site"
"401","Boyanda",NA,NA,NA,NA,0.45,1.2,0.225,0.875,5,0.45,1.2,0.225,0.875,"site"
"402","Boyles",NA,NA,NA,NA,0.265,1.2,0.1325,0.725,8,0.265,1.2,0.1325,0.725,"site"
"403","Bulburin",NA,NA,NA,NA,0.18,1.5,0.09,0.8,17,0.18,1.5,0.09,0.8,"site"
"404","Burnett Coarse Sandy Variant",NA,NA,NA,NA,0.3,0.7,0.15,0.5,2,0.3,0.7,0.15,0.5,"site"
"405","Burnett Shallow Phase",NA,NA,NA,NA,0.25,0.925,0.125,0.595,5,0.25,0.925,0.125,0.595,"site"
"406","Bushnell Eroded Phase",NA,NA,NA,NA,0.28,1.2,0.14,0.74,1,0.28,1.2,0.14,0.74,"site"
"407","BVE1",NA,NA,NA,NA,0.12,1.28,0.06,0.715,9,0.12,1.28,0.06,0.715,"site"
"408","Carmine",NA,NA,NA,NA,0.325,1.225,0.1625,0.775,6,0.325,1.225,0.1625,0.775,"site"
"409","Ceduna",NA,NA,NA,NA,0.4,1.4,0.2,0.9,1,0.4,1.4,0.2,0.9,"site"
"410","Ceratodus",NA,NA,NA,NA,0.18,1.5,0.09,0.8575,4,0.18,1.5,0.09,0.8575,"site"
"411","Ceratodus 2",NA,NA,NA,NA,0.2,1.2,0.1,0.7,3,0.2,1.2,0.1,0.7,"site"
"412","Ceratodus 3",NA,NA,NA,NA,0.285,1.64,0.1425,0.9625,2,0.285,1.64,0.1425,0.9625,"site"
"413","Chessborough Rubbly, Shallow And Rocky Phase",NA,NA,NA,NA,0.2,0.62,0.1,0.41,1,0.2,0.62,0.1,0.41,"site"
"414","Colenso",NA,NA,NA,NA,0.16,0.7,0.08,0.43,2,0.16,0.7,0.08,0.43,"site"
"415","Conjuboy",NA,NA,NA,NA,0.12,0.7,0.06,0.45,48,0.12,0.7,0.06,0.45,"site"
"416","Conway (Cqh)",NA,NA,NA,NA,0.28,0.85,0.14,0.575,17,0.28,0.85,0.14,0.575,"site"
"417","Coorooman",NA,NA,NA,NA,0.3,0.6,0.15,0.4825,40,0.3,0.6,0.15,0.4825,"site"
"418","Corduroy",NA,NA,NA,NA,0.25,1.4,0.125,0.8,9,0.25,1.4,0.125,0.8,"site"
"419","CVE1",NA,NA,NA,NA,0.1,1.65,0.05,0.875,3,0.1,1.65,0.05,0.875,"site"
"420","CVE2",NA,NA,NA,NA,0.1,1.55,0.05,0.84,31,0.1,1.55,0.05,0.84,"site"
"421","CVE3",NA,NA,NA,NA,0.1,1.575,0.05,0.8525,10,0.1,1.575,0.05,0.8525,"site"
"422","CVE4",NA,NA,NA,NA,0.1,1.6,0.05,0.845,19,0.1,1.6,0.05,0.845,"site"
"423","CVE5",NA,NA,NA,NA,0.1,1.52,0.05,0.83,25,0.1,1.52,0.05,0.83,"site"
"424","Dale",NA,NA,NA,NA,0.5,1.1,0.25,0.8,2,0.5,1.1,0.25,0.8,"site"
"425","Dalgangal",NA,NA,NA,NA,0.12,1.5,0.06,0.81,1,0.12,1.5,0.06,0.81,"site"
"426","Dalrymple",NA,NA,NA,NA,0.1,0.655,0.05,0.4,117,0.1,0.655,0.05,0.4,"site"
"427","Dargy",NA,NA,NA,NA,0.095,0.8,0.0475,0.4475,2,0.095,0.8,0.0475,0.4475,"site"
"428","Darts",NA,NA,NA,NA,0.3,0.5,0.15,0.4075,34,0.3,0.5,0.15,0.4075,"site"
"429","Degalgil",NA,NA,NA,NA,0.19,0.9,0.095,0.525,30,0.19,0.9,0.095,0.525,"site"
"430","Diglum (CCL)",NA,NA,NA,NA,0.2,1,0.1,0.6,20,0.2,1,0.1,0.6,"site"
"431","Dillan",NA,NA,NA,NA,0.27,0.9,0.135,0.585,3,0.27,0.9,0.135,0.585,"site"
"432","Doonside",NA,NA,NA,NA,0.3,0.9,0.15,0.625,55,0.3,0.9,0.15,0.625,"site"
"433","Dotswood",NA,NA,NA,NA,0.24,0.9,0.12,0.57,68,0.24,0.9,0.12,0.57,"site"
"434","Dove",NA,NA,NA,NA,0.045,1.5,0.0225,0.7725,4,0.045,1.5,0.0225,0.7725,"site"
"435","Drape",NA,NA,NA,NA,0.055,1.125,0.0275,0.65,6,0.055,1.125,0.0275,0.65,"site"
"436","Dunbas Deep Phase",NA,NA,NA,NA,0.1,1.575,0.05,0.8375,4,0.1,1.575,0.05,0.8375,"site"
"437","Eden",NA,NA,NA,NA,0.2,1.2,0.1,0.7,13,0.2,1.2,0.1,0.7,"site"
"438","Egera",NA,NA,NA,NA,0.15,1.65,0.075,0.8625,55,0.15,1.65,0.075,0.8625,"site"
"439","Elizabeth",NA,NA,NA,NA,0.24,1.2,0.12,0.7375,36,0.24,1.2,0.12,0.7375,"site"
"440","Ellis",NA,NA,NA,NA,0.235,1.5,0.1175,0.8625,8,0.235,1.5,0.1175,0.8625,"site"
"441","Fanning River",NA,NA,NA,NA,0.3,1.2,0.15,0.7625,51,0.3,1.2,0.15,0.7625,"site"
"442","Figtree",NA,NA,NA,NA,0.25,1,0.125,0.65,30,0.25,1,0.125,0.65,"site"
"443","Fison",NA,NA,NA,NA,0.3,0.925,0.15,0.635,11,0.3,0.925,0.15,0.635,"site"
"444","Fletcher - Brcl",NA,NA,NA,NA,0.13,1.12,0.065,0.585,3,0.13,1.12,0.065,0.585,"site"
"445","Fourmile",NA,NA,NA,NA,0.35,0.9,0.175,0.6375,10,0.35,0.9,0.175,0.6375,"site"
"446","Fowler",NA,NA,NA,NA,0.3,0.94,0.15,0.62,1,0.3,0.94,0.15,0.62,"site"
"447","Galway",NA,NA,NA,NA,0.175,1.2,0.0875,0.7,18,0.175,1.2,0.0875,0.7,"site"
"448","Gayfield",NA,NA,NA,NA,0.25,0.5,0.125,0.375,11,0.25,0.5,0.125,0.375,"site"
"449","Gracemere",NA,NA,NA,NA,0.1,1.4,0.05,0.775,21,0.1,1.4,0.05,0.775,"site"
"450","Halivale",NA,NA,NA,NA,0.325,0.6,0.1625,0.375,14,0.325,0.6,0.1625,0.375,"site"
"451","Halivale (CCL)",NA,NA,NA,NA,0.35,0.95,0.175,0.675,21,0.35,0.95,0.175,0.675,"site"
"452","Harwood",NA,NA,NA,NA,0.4,1.1,0.2,0.75,7,0.4,1.1,0.2,0.75,"site"
"453","Hilldale",NA,NA,NA,NA,0.25,1.05,0.125,0.67,30,0.25,1.05,0.125,0.67,"site"
"454","Hillgrove",NA,NA,NA,NA,0.1,0.8,0.05,0.44,47,0.1,0.8,0.05,0.44,"site"
"455","Hind",NA,NA,NA,NA,0.05,1.45,0.025,0.74,3,0.05,1.45,0.025,0.74,"site"
"456","Hollywell",NA,NA,NA,NA,0.66,1.5,0.33,1.08,4,0.66,1.5,0.33,1.08,"site"
"457","Hoogly (Ccl)",NA,NA,NA,NA,0.05,1.075,0.025,0.5625,14,0.05,1.075,0.025,0.5625,"site"
"458","IDE1",NA,NA,NA,NA,0.1,0.62,0.05,0.375,10,0.1,0.62,0.05,0.375,"site"
"459","Keppel",NA,NA,NA,NA,0.28,0.75,0.14,0.525,101,0.28,0.75,0.14,0.525,"site"
"460","Krongie",NA,NA,NA,NA,0.1,0.825,0.05,0.46,52,0.1,0.825,0.05,0.46,"site"
"461","Larcom (CCL)",NA,NA,NA,NA,0.105,1.59,0.0525,0.825,40,0.105,1.59,0.0525,0.825,"site"
"462","Lizard",NA,NA,NA,NA,0.28,1.5,0.14,0.85,31,0.28,1.5,0.14,0.85,"site"
"463","Lizard (CCL)",NA,NA,NA,NA,0.225,1,0.1125,0.56,32,0.225,1,0.1125,0.56,"site"
"464","Lorna",NA,NA,NA,NA,0.27,1.1,0.135,0.7,25,0.27,1.1,0.135,0.7,"site"
"465","Magnan",NA,NA,NA,NA,0.3,0.45,0.15,0.325,13,0.3,0.45,0.15,0.325,"site"
"466","Malchi",NA,NA,NA,NA,0.12,1.2,0.06,0.69,25,0.12,1.2,0.06,0.69,"site"
"467","Manoa Red Variant",NA,NA,NA,NA,0.2,1.45,0.1,0.775,9,0.2,1.45,0.1,0.775,"site"
"468","Maryvale",NA,NA,NA,NA,0.12,1.4,0.06,0.815,37,0.12,1.4,0.06,0.815,"site"
"469","MDE1",NA,NA,NA,NA,0.12,0.74,0.06,0.435,16,0.12,0.74,0.06,0.435,"site"
"470","Meilland",NA,NA,NA,NA,0.3,1.15,0.15,0.775,30,0.3,1.15,0.15,0.775,"site"
"471","Mingela",NA,NA,NA,NA,0.2,0.825,0.1,0.4875,20,0.2,0.825,0.1,0.4875,"site"
"472","Monto 4",NA,NA,NA,NA,0.125,1.5,0.0625,0.8125,4,0.125,1.5,0.0625,0.8125,"site"
"473","Moramana, Gilgai Phase",NA,NA,NA,NA,0.05,1.5,0.025,0.7725,36,0.05,1.5,0.025,0.7725,"site"
"474","Muldoon",NA,NA,NA,NA,0.25,0.8,0.125,0.515,37,0.25,0.8,0.125,0.515,"site"
"475","Muldoon (CCL)",NA,NA,NA,NA,0.15,0.6,0.075,0.3775,53,0.15,0.6,0.075,0.3775,"site"
"476","Mulgildie Eroded Phase",NA,NA,NA,NA,0.3,1.4,0.15,0.85,1,0.3,1.4,0.15,0.85,"site"
"477","Mulgildie Snuffy Variant",NA,NA,NA,NA,0.175,0.75,0.0875,0.4625,2,0.175,0.75,0.0875,0.4625,"site"
"478","Myrtlevale",NA,NA,NA,NA,0.1,0.9,0.05,0.505,41,0.1,0.9,0.05,0.505,"site"
"479","Neugildie",NA,NA,NA,NA,0.2,1.6,0.1,0.9,1,0.2,1.6,0.1,0.9,"site"
"480","Neugildie Colluvial, Clayey Variant",NA,NA,NA,NA,0.2,1.2,0.1,0.7,1,0.2,1.2,0.1,0.7,"site"
"481","Nullegai",NA,NA,NA,NA,0.2,1,0.1,0.6,45,0.2,1,0.1,0.6,"site"
"482","Oscar",NA,NA,NA,NA,0.1,1.025,0.05,0.5575,12,0.1,1.025,0.05,0.5575,"site"
"483","Pallamana",NA,NA,NA,NA,0.38,0.7,0.19,0.55,41,0.38,0.7,0.19,0.55,"site"
"484","Pegunny (CCL)",NA,NA,NA,NA,0.1,1.5,0.05,0.8025,21,0.1,1.5,0.05,0.8025,"site"
"485","Pentland",NA,NA,NA,NA,0.165,0.8,0.0825,0.54,115,0.165,0.8,0.0825,0.54,"site"
"486","Powlathanga",NA,NA,NA,NA,0.095,1.5,0.0475,0.795,38,0.095,1.5,0.0475,0.795,"site"
"487","Ramillies",NA,NA,NA,NA,0.12,0.475,0.06,0.35,19,0.12,0.475,0.06,0.35,"site"
"488","Rangeside",NA,NA,NA,NA,0.3,0.85,0.15,0.5875,48,0.3,0.85,0.15,0.5875,"site"
"489","Raven",NA,NA,NA,NA,0.5,1.1,0.25,0.875,3,0.5,1.1,0.25,0.875,"site"
"490","Red Flank",NA,NA,NA,NA,0.19,1.275,0.095,0.75,4,0.19,1.275,0.095,0.75,"site"
"491","Rishton",NA,NA,NA,NA,0.5,0.725,0.25,0.575,95,0.5,0.725,0.25,0.575,"site"
"492","Ronnoc",NA,NA,NA,NA,0.05,0.7,0.025,0.4,179,0.05,0.7,0.025,0.4,"site"
"493","Ruby",NA,NA,NA,NA,0.25,0.8,0.125,0.55,28,0.25,0.8,0.125,0.55,"site"
"494","Sandy",NA,NA,NA,NA,0.65,1.1,0.325,0.875,1,0.65,1.1,0.325,0.875,"site"
"495","SDE2",NA,NA,NA,NA,0.15,1.25,0.075,0.725,9,0.15,1.25,0.075,0.725,"site"
"496","Selina",NA,NA,NA,NA,0.475,0.7,0.2375,0.5875,2,0.475,0.7,0.2375,0.5875,"site"
"497","SSO1",NA,NA,NA,NA,0.2,0.815,0.1,0.4875,22,0.2,0.815,0.1,0.4875,"site"
"498","Stanage",NA,NA,NA,NA,0.525,1.4,0.2625,0.9625,2,0.525,1.4,0.2625,0.9625,"site"
"499","Strathmuir",NA,NA,NA,NA,0.22,0.9,0.11,0.55,47,0.22,0.9,0.11,0.55,"site"
"500","Struan (CCL)",NA,NA,NA,NA,0.3,1.01,0.15,0.655,17,0.3,1.01,0.15,0.655,"site"
"501","Sullivan",NA,NA,NA,NA,0.05,1.3,0.025,0.7,68,0.05,1.3,0.025,0.7,"site"
"502","SVE1",NA,NA,NA,NA,0.1,1.1,0.05,0.6,7,0.1,1.1,0.05,0.6,"site"
"503","Tanby",NA,NA,NA,NA,0.33,0.9,0.165,0.6875,26,0.33,0.9,0.165,0.6875,"site"
"504","Taughboyne",NA,NA,NA,NA,0.135,0.875,0.0675,0.5325,4,0.135,0.875,0.0675,0.5325,"site"
"505","Teralba",NA,NA,NA,NA,0.55,1.2,0.275,0.85,11,0.55,1.2,0.275,0.85,"site"
"506","Threemoon 1",NA,NA,NA,NA,0.11,1.5,0.055,0.805,6,0.11,1.5,0.055,0.805,"site"
"507","UDE1",NA,NA,NA,NA,0.14,0.97,0.07,0.595,5,0.14,0.97,0.07,0.595,"site"
"508","Utchee - Dlr",NA,NA,NA,NA,0.35,1.1,0.175,0.725,4,0.35,1.1,0.175,0.725,"site"
"509","Valetta",NA,NA,NA,NA,0.35,1.1,0.175,0.7375,14,0.35,1.1,0.175,0.7375,"site"
"510","Vermont (CCL)",NA,NA,NA,NA,0.09,1.5,0.045,0.775,10,0.09,1.5,0.045,0.775,"site"
"511","Voewood",NA,NA,NA,NA,0.18,0.9,0.09,0.5375,24,0.18,0.9,0.09,0.5375,"site"
"512","Wangabry",NA,NA,NA,NA,0.28,1.2,0.14,0.7325,13,0.28,1.2,0.14,0.7325,"site"
"513","White",NA,NA,NA,NA,0.15,1.3,0.075,0.725,1,0.15,1.3,0.075,0.725,"site"
"514","Wigton Association",NA,NA,NA,NA,0.225,0.5,0.1125,0.4,2,0.225,0.5,0.1125,0.4,"site"
"515","Witton",NA,NA,NA,NA,0.22,1.4,0.11,0.81,1,0.22,1.4,0.11,0.81,"site"
"516","Yaringa",NA,NA,NA,NA,0.28,1.4,0.14,0.825,27,0.28,1.4,0.14,0.825,"site"
"517","Yarraman",NA,NA,NA,NA,0.11,1.6,0.055,0.915,33,0.11,1.6,0.055,0.915,"site"
"518","Yarrol",NA,NA,NA,NA,0.25,1.5,0.125,0.875,2,0.25,1.5,0.125,0.875,"site"
"519","Yarwun",NA,NA,NA,NA,0.3,1.05,0.15,0.655,19,0.3,1.05,0.15,0.655,"site"
"520","Yeppoon",NA,NA,NA,NA,0.39,1.3,0.195,0.825,32,0.39,1.3,0.195,0.825,"site"
