"","SPC_NO","NAME","UD_A","UD_B","LD_A","LD_B","Mid_A","Mid_B","Area_ha"
"1",2006,"1Dbb",0,0.15,0.15,1.5,0.075,0.825,41
"2",2007,"1Dbb",0,0.15,0.15,1.5,0.075,0.825,41
"3",2011,"1Dda",0,0.13,0.13,1.5,0.065,0.815,19
"4",2012,"1Dda",0,0.13,0.13,1.5,0.065,0.815,19
"5",2013,"1Dda",0,0.13,0.13,1.5,0.065,0.815,19
"6",2016,"1Dya",0,0.08,0.08,1.5,0.04,0.79,30
"7",2017,"1Dya",0,0.08,0.08,1.5,0.04,0.79,30
"8",2024,"1Dyc",0,0.13,0.13,1.5,0.065,0.815,102
"9",2025,"1Dyc",0,0.13,0.13,1.5,0.065,0.815,102
"10",2026,"1Dyc",0,0.13,0.13,1.5,0.065,0.815,102
"11",2029,"1Dyd",0,0.18,0.18,1.15,0.09,0.665,262
"12",2031,"1Uga",0,0.2,0.2,1.5,0.1,0.85,344
"13",2032,"1Uga",0,0.1,0.1,1.5,0.05,0.8,344
"14",2033,"1Uga",0,0.1,0.1,1.5,0.05,0.8,344
"15",2038,"1Ugc",0,0.12,0.12,1.5,0.06,0.81,125
"16",2039,"1Ugc",0,0.12,0.12,1.5,0.06,0.81,125
"17",2042,"1Ugd",0,0.1,0.1,1.5,0.05,0.8,457
"18",2043,"1Ugd",0,0.1,0.1,1.5,0.05,0.8,457
"19",2055,"1Ugf",0,0.23,0.23,1.5,0.115,0.865,39
"20",2058,"1ADb",0,0.79,0.79,1.25,0.395,1.02,469
"21",2059,"1ADb-1",0,0.46,0.46,0.9,0.23,0.68,58
"22",2060,"1ADb-1",0,0.28,0.28,0.88,0.14,0.58,58
"23",2066,"1ADb-7",0,0.11,0.11,1.38,0.055,0.745,142
"24",2068,"1ADb-9",0,0.7,0.7,1.6,0.35,1.15,461
"25",2069,"1ADb-Dd",0,0.2,0.2,0.98,0.1,0.59,321
"26",2072,"1ADd-3",0,0.11,0.11,0.65,0.055,0.38,129
"27",2073,"1ADd-4",0,0.12,0.12,0.8,0.06,0.46,29
"28",2074,"1ADd-4",0,0.15,0.15,1.1,0.075,0.625,29
"29",2075,"1ADd-5",0,0.31,0.31,0.9,0.155,0.605,32
"30",2087,"1AUf-7",0,0.11,0.11,0.95,0.055,0.53,22
"31",2088,"1AUg-1",0,0.1,0.1,0.88,0.05,0.49,295
"32",2091,"1AUg-12",0,0.35,0.35,1.33,0.175,0.84,286
"33",2092,"1AUg-13",0,0.13,0.13,1.15,0.065,0.64,368
"34",2096,"1AUg-18",0,0.08,0.08,1.2,0.04,0.64,68
"35",2097,"1AUg-2",0,0.1,0.1,1.5,0.05,0.8,65
"36",2098,"3auf-Ug-4m",0,0.63,0.63,0.85,0.315,0.74,32
"37",2099,"1AUg-5",0,0.1,0.1,0.85,0.05,0.475,128
"38",2100,"1AUg-6",0,0.25,0.25,1.1,0.125,0.675,10
"39",2104,"1AUg-3",0,0.1,0.1,1.5,0.05,0.8,13
"40",2120,"2Dba",0,0.08,0.08,1.25,0.04,0.665,306
"41",2121,"2Dba",0,0.08,0.08,1.25,0.04,0.665,306
"42",2122,"2Dba",0,0.08,0.08,1.25,0.04,0.665,306
"43",2123,"2Dba",0,0.08,0.08,1.25,0.04,0.665,306
"44",2124,"2Dba",0,0.08,0.08,1.25,0.04,0.665,306
"45",2128,"2Dbb",0,0.16,0.16,1.35,0.08,0.755,767
"46",2129,"2Dbb",0,0.16,0.16,1.35,0.08,0.755,767
"47",2136,"2Dbc",0,0.27,0.27,1.25,0.135,0.76,621
"48",2137,"2Dbc",0,0.28,0.28,1.25,0.14,0.765,621
"49",2145,"2Dbd",0,0.27,0.27,0.85,0.135,0.56,1793
"50",2146,"2Dbd",0,0.28,0.28,0.85,0.14,0.565,1793
"51",2153,"2Dbe",0,0.16,0.16,1.2,0.08,0.68,175
"52",2154,"2Dbe",0,0.16,0.16,1.2,0.08,0.68,175
"53",2161,"2Dda",0,0.09,0.09,1.05,0.045,0.57,512
"54",2162,"2Dda",0,0.1,0.1,1.05,0.05,0.575,512
"55",2167,"2Ddb",0,0.08,0.08,0.82,0.04,0.45,1085
"56",2168,"2Ddb",0,0.09,0.09,0.83,0.045,0.46,1085
"57",2172,"2Ddc",0,0.27,0.27,1.2,0.135,0.735,62
"58",2173,"2Ddc",0,0.28,0.28,1.2,0.14,0.74,62
"59",2176,"2Ddd",0,0.18,0.18,0.75,0.09,0.465,54
"60",2178,"2Dya",0,0.08,0.08,1.2,0.04,0.64,1149
"61",2179,"2Dya",0,0.08,0.08,1.2,0.04,0.64,1149
"62",2185,"2Dyb",0,0.16,0.16,1.05,0.08,0.605,6002
"63",2186,"2Dyb",0,0.16,0.16,1.2,0.08,0.68,6002
"64",2192,"2Dyc",0,0.18,0.18,1.5,0.09,0.84,1473
"65",2193,"2Dyc",0,0.19,0.19,1.5,0.095,0.845,1473
"66",2200,"2Uga",0,0.08,0.08,1.5,0.04,0.79,80
"67",2201,"2Uga",0,0.08,0.08,1.5,0.04,0.79,80
"68",2204,"2Ugb",0,0.08,0.08,0.88,0.04,0.48,20
"69",2205,"2Ugb",0,0.08,0.08,0.88,0.04,0.48,20
"70",2207,"2Ugc",0,0.13,0.13,1.5,0.065,0.815,2468
"71",2208,"2Ugc",0,0.13,0.13,1.5,0.065,0.815,2468
"72",2216,"2Ugd",0,0.18,0.18,1.5,0.09,0.84,8604
"73",2217,"2Ugd",0,0.18,0.18,1.5,0.09,0.84,8604
"74",2220,"2Uge",0,0.15,0.15,1.5,0.075,0.825,9702
"75",2221,"2Uge",0,0.15,0.15,1.5,0.075,0.825,9702
"76",2228,"2Ugf",0,0.13,0.13,1.5,0.065,0.815,688
"77",2229,"2Ugf",0,0.13,0.13,1.5,0.065,0.815,688
"78",2237,"2Ugg",0,0.15,0.15,1.5,0.075,0.825,2183
"79",2238,"2Ugg",0,0.15,0.15,1.5,0.075,0.825,2183
"80",2239,"2Ugg",0,0.15,0.15,1.5,0.075,0.825,2183
"81",2240,"2Ugg",0,0.15,0.15,1.5,0.075,0.825,2183
"82",2245,"2Ugh",0,0.13,0.13,1.5,0.065,0.815,1772
"83",2246,"2Ugh",0,0.13,0.13,1.5,0.065,0.815,1772
"84",2255,"2Ugj",0,0.18,0.18,1.25,0.09,0.715,77
"85",2257,"2Ugk",0,0.09,0.09,1.21,0.045,0.65,1550
"86",2258,"2Ugk",0,0.09,0.09,1.21,0.045,0.65,1550
"87",2277,"2AUf-Ug-2",0,0.65,0.65,1.2,0.325,0.925,22
"88",2279,"2AUf-Ug-3",0,0.01,0.01,1.5,0.005,0.755,68
"89",2281,"2AUg-1",0,0.9,0.9,1.5,0.45,1.2,174
"90",2282,"2AUg-10m",0,1.15,1.15,1.5,0.575,1.325,45
"91",2283,"2AUg-11",0,0.9,0.9,1.5,0.45,1.2,79
"92",2288,"2AUg-2m",0,1.2,1.2,1.5,0.6,1.35,29
"93",2292,"2AUg-6",0,0.88,0.88,1.5,0.44,1.19,65
"94",2296,"2AUg-9m",0,0.35,0.35,1.5,0.175,0.925,74
"95",2303,"2AUgg-2m",0,0.2,0.2,1.5,0.1,0.85,40
"96",2305,"2AUgg-3m",0,0.12,0.12,1.5,0.06,0.81,48
"97",2315,"3Uga",0,0.08,0.08,1.5,0.04,0.79,246
"98",2316,"3Uga",0,0.08,0.08,1.5,0.04,0.79,246
"99",2324,"3Ugc",0,0.15,0.15,1.5,0.075,0.825,12
"100",2325,"3Ugc",0,0.15,0.15,1.5,0.075,0.825,12
"101",2327,"3Ugd",0,0.04,0.04,1.5,0.02,0.77,51
"102",2328,"3Ugd",0,0.05,0.05,1.5,0.025,0.775,51
"103",2331,"3Uge",0,0.13,0.13,1,0.065,0.565,76
"104",2332,"3Uge",0,0.13,0.13,1,0.065,0.565,76
"105",2348,"3Ugk",0,0.13,0.13,1.35,0.065,0.74,33
"106",2355,"3ADr-2",0,0.18,0.18,0.45,0.09,0.315,121
"107",2357,"3AGn-1",0,0.18,0.18,1.5,0.09,0.84,22
"108",2360,"3AGn-Dr",0,0.2,0.2,0.65,0.1,0.425,30
"109",2361,"3AGn-Dr",0,0.13,0.13,0.53,0.065,0.33,30
"110",2362,"3AUc-1",0,0.18,0.18,0.35,0.09,0.265,12
"111",2369,"3AUf-Ug-1m",0,0.1,0.1,0.4,0.05,0.25,56
"112",2371,"3AUf-Ug-2m",0,0.23,0.23,1.2,0.115,0.715,11
"113",2372,"3AUf-Ug-3d",0,0.25,0.25,1.5,0.125,0.875,27
"114",2377,"3AUf-Ug-6m",0,0.1,0.1,1.5,0.05,0.8,77
"115",2379,"3AUf-Ug-7m",0,0.02,0.02,1.5,0.01,0.76,81
"116",2380,"3AUf-Ug-8m",0,0.05,0.05,1.5,0.025,0.775,22
"117",2382,"3AUf-Ug-8d",0,0.15,0.15,1.5,0.075,0.825,75
"118",2383,"3AUg-1",0,0.1,0.1,1.2,0.05,0.65,15
"119",2384,"3AUg-2",0,0.15,0.15,1.2,0.075,0.675,39
"120",2394,"4Dga",0,0.5,0.5,0.93,0.25,0.715,35
"121",2395,"4Dga",0,0.5,0.5,0.93,0.25,0.715,35
"122",2402,"4Dyb",0,0.23,0.23,1.5,0.115,0.865,13
"123",2406,"4Dyd",0,0.67,0.67,1.13,0.335,0.9,23
"124",2407,"4Dyd",0,0.68,0.68,1.13,0.34,0.905,23
"125",2417,"4Dyg",0,0.23,0.23,1.15,0.115,0.69,222
"126",2418,"4Dyg",0,0.23,0.23,1.15,0.115,0.69,222
"127",2428,"4Dyj",0,0.6,0.6,1.3,0.3,0.95,40
"128",2429,"4Dyj",0,0.6,0.6,1.3,0.3,0.95,40
"129",2432,"4Dyk",0,0.67,0.67,1,0.335,0.835,158
"130",2433,"4Dyk",0,0.68,0.68,1,0.34,0.84,158
"131",2439,"4Gnb",0,0.75,0.75,1.5,0.375,1.125,54
"132",2445,"4Ucc",0,0.65,0.65,1.25,0.325,0.95,223
"133",2446,"4Ucc",0,NA,1.25,NA,0.625,NA,223
"134",2456,"4AUf",0,0.1,0.1,1.2,0.05,0.65,63
"135",2461,"5Dra",0,0.23,0.23,0.95,0.115,0.59,1228
"136",2462,"5Dra",0,0.23,0.23,0.95,0.115,0.59,1228
"137",2467,"5Dya",0,0.2,0.2,0.85,0.1,0.525,179
"138",2468,"5Dya",0,0.2,0.2,0.85,0.1,0.525,179
"139",2472,"5Dyb",0,0.3,0.3,1.1,0.15,0.7,60
"140",2473,"5Dyb",0,0.3,0.3,1.1,0.15,0.7,60
"141",2477,"5Dyc",0,0.23,0.23,1.15,0.115,0.69,145
"142",2478,"5Dyc",0,0.23,0.23,1.15,0.115,0.69,145
"143",2486,"5Dye",0,0.23,0.23,1.27,0.115,0.75,55
"144",2487,"5Dye",0,0.23,0.23,1.28,0.115,0.755,55
"145",2492,"5Dyf Shelf",0,0.18,0.18,0.95,0.09,0.565,24
"146",2493,"5Dyf Shelf",0,0.18,0.18,0.95,0.09,0.565,24
"147",2495,"5Uga",0,0.08,0.08,0.85,0.04,0.465,70
"148",2496,"5Uga",0,0.09,0.09,0.85,0.045,0.47,70
"149",2499,"5Ugb",0,0.2,0.2,0.85,0.1,0.525,82
"150",2501,"5Ugc  Depression",0,0.18,0.18,1,0.09,0.59,19
"151",2515,"6Dba",0,0.23,0.23,1.5,0.115,0.865,149
"152",2516,"6Dba",0,0.23,0.23,1.5,0.115,0.865,149
"153",2523,"6Dbb",0,0.35,0.35,1.1,0.175,0.725,1723
"154",2524,"6Dbb",0,0.35,0.35,1.1,0.175,0.725,1723
"155",2530,"6Dbc",0,0.3,0.3,1.2,0.15,0.75,2235
"156",2531,"6Dbc",0,0.3,0.3,1.2,0.15,0.75,2235
"157",2537,"6Dbd",0,0.3,0.3,1.2,0.15,0.75,493
"158",2538,"6Dbd",0,0.3,0.3,1.2,0.15,0.75,493
"159",2544,"6Dbe",0,0.15,0.15,0.63,0.075,0.39,628
"160",2545,"6Dbe",0,0.15,0.15,0.63,0.075,0.39,628
"161",2551,"6Dbf",0,0.3,0.3,1.1,0.15,0.7,2170
"162",2552,"6Dbf",0,0.3,0.3,1.1,0.15,0.7,2170
"163",2555,"6Dbg",0,0.85,0.85,1.5,0.425,1.175,10537
"164",2556,"6Dbg",0,0.85,0.85,1.5,0.425,1.175,10537
"165",2558,"6Dbh",0,0.18,0.18,0.8,0.09,0.49,439
"166",2559,"6Dbh",0,0.18,0.18,0.8,0.09,0.49,439
"167",2561,"6Dbi",0,0.55,0.55,1.5,0.275,1.025,30
"168",2562,"6Dda",0,0.2,0.2,0.9,0.1,0.55,340
"169",2563,"6Dda",0,0.2,0.2,0.9,0.1,0.55,340
"170",2575,"6Dra",0,0.35,0.35,1.5,0.175,0.925,695
"171",2576,"6Dra",0,0.35,0.35,1.5,0.175,0.925,695
"172",2581,"6Drb",0,0.32,0.32,1.5,0.16,0.91,1601
"173",2582,"6Drb",0,0.33,0.33,1.5,0.165,0.915,1601
"174",2587,"6Drc",0,0.35,0.35,1.18,0.175,0.765,10123
"175",2588,"6Drc",0,0.35,0.35,1.18,0.175,0.765,10123
"176",2593,"6Dya",0,0.9,0.9,1.5,0.45,1.2,371
"177",2594,"6Dya",0,0.9,0.9,1.5,0.45,1.2,371
"178",2598,"6Dyb",0,0.45,0.45,1.5,0.225,0.975,2418
"179",2599,"6Dyb",0,0.45,0.45,1.5,0.225,0.975,2418
"180",2607,"6Dyc",0,0.63,0.63,1.2,0.315,0.915,212
"181",2608,"6Dyc",0,0.63,0.63,1.2,0.315,0.915,212
"182",2614,"6Dyd",0,0.3,0.3,1.35,0.15,0.825,5427
"183",2615,"6Dyd",0,0.3,0.3,1.35,0.15,0.825,5427
"184",2622,"6Dye",0,0.55,0.55,1.5,0.275,1.025,1504
"185",2623,"6Dye",0,0.55,0.55,1.5,0.275,1.025,1504
"186",2631,"6Dyf",0,0.38,0.38,1.35,0.19,0.865,51443
"187",2632,"6Dyf",0,0.38,0.38,1.35,0.19,0.865,51443
"188",2639,"6Dyg",0,0.15,0.15,0.95,0.075,0.55,3023
"189",2640,"6Dyg",0,0.15,0.15,0.95,0.075,0.55,3023
"190",2643,"6Dyh",0,0.35,0.35,1.5,0.175,0.925,31
"191",2644,"6Dyh",0,0.35,0.35,1.5,0.175,0.925,31
"192",2649,"6Dyj",0,0.13,0.13,1.25,0.065,0.69,931
"193",2650,"6Dyj",0,0.13,0.13,1.25,0.065,0.69,931
"194",2655,"6Gna",0,0.3,0.3,1.05,0.15,0.675,2271
"195",2656,"6Gna",0,0.3,0.3,1.05,0.15,0.675,2271
"196",2662,"6Gnb",0,0.95,0.95,1.5,0.475,1.225,115
"197",2663,"6Gnb",0,0.95,0.95,1.5,0.475,1.225,115
"198",2666,"6Gnc",0,0.28,0.28,0.85,0.14,0.565,319
"199",2667,"6Gnc",0,0.28,0.28,0.85,0.14,0.565,319
"200",2670,"6Gnd",0,0.85,0.85,1.5,0.425,1.175,3729
"201",2671,"6Gnd",0,0.85,0.85,1.5,0.425,1.175,3729
"202",2674,"6Gne",0,0.38,0.38,1.5,0.19,0.94,73
"203",2676,"6Uca",0,0.2,0.2,0.9,0.1,0.55,107
"204",2677,"6Uca",0,0.2,0.2,0.9,0.1,0.55,107
"205",2684,"6Ucc",0,0.8,0.8,1.5,0.4,1.15,151
"206",2685,"6Ucc",0,0.8,0.8,1.5,0.4,1.15,151
"207",2687,"6Ufa",0,0.2,0.2,1.5,0.1,0.85,78
"208",2688,"6Ufa",0,0.2,0.2,1.5,0.1,0.85,78
"209",2695,"6Ufc",0,0.4,0.4,1.35,0.2,0.875,99
"210",2696,"6Ufc",0,0.4,0.4,1.35,0.2,0.875,99
"211",2699,"6Ufd",0,0.3,0.3,1.1,0.15,0.7,383
"212",2700,"6Ufd",0,0.3,0.3,1.1,0.15,0.7,383
"213",2703,"6Ufe",0,NA,0.18,NA,0.09,NA,86
"214",2705,"6Uga",0,0.13,0.13,1.25,0.065,0.69,26
"215",2706,"6Uga",0,0.13,0.13,1.25,0.065,0.69,26
"216",2711,"6Uma",0,0.48,0.48,0.95,0.24,0.715,2708
"217",2712,"6Uma",0,0.48,0.48,0.95,0.24,0.715,2708
"218",2715,"6Umb",0,0.41,0.41,1.5,0.205,0.955,2677
"219",2716,"6Umb",0,0.41,0.41,1.5,0.205,0.955,2677
"220",2721,"6ADb-1",0,0.1,0.1,1.2,0.05,0.65,180
"221",2729,"6ADr",0,0.26,0.26,1.2,0.13,0.73,18
"222",2731,"6ADy-2",0,0.13,0.13,1.5,0.065,0.815,45
"223",2732,"6ADy-3",0,0.35,0.35,1.5,0.175,0.925,36
"224",2737,"6AUg-9",0,0.28,0.28,1.5,0.14,0.89,159
"225",2739,"6AUf-3",0,0.2,0.2,1.5,0.1,0.85,23
"226",2742,"6AUg-10",0,0.13,0.13,1.5,0.065,0.815,2682
"227",2744,"6AUg-12",0,0.13,0.13,2,0.065,1.065,701
"228",2746,"6AUg-3",0,0.2,0.2,1.5,0.1,0.85,297
"229",2747,"6AUg-4",0,0.18,0.18,2,0.09,1.09,177
"230",2748,"6AUg-5",0,0.23,0.23,1.5,0.115,0.865,353
"231",2749,"6AUg-7",0,0.1,0.1,1.5,0.05,0.8,109
"232",2750,"6AUg-8",0,0.18,0.18,1.5,0.09,0.84,154
"233",2763,"Abbot",0,0.1,0.1,1.5,0.05,0.8,101
"234",2766,"Albert",0,0.4,0.4,1.65,0.2,1.025,250
"235",2769,"Auburn",0,0.2,0.2,1.6,0.1,0.9,12938
"236",2780,"Auburn Red Variant",0,0.25,0.25,1,0.125,0.625,53
"237",2787,"Archookoora",0,0.19,0.19,1.1,0.095,0.645,1706
"238",2788,"Arcturus",0,0.04,0.04,0.8,0.02,0.42,228618
"239",2790,"Aldershot",0,0.23,0.23,0.9,0.115,0.565,321
"240",2791,"Aldershot",0,0.23,0.23,1.2,0.115,0.715,321
"241",2796,"1ADb-2",0,0.31,0.31,0.9,0.155,0.605,154
"242",2800,"Abergowrie",0,0.35,0.35,1.2,0.175,0.775,11193
"243",2803,"Ashgrove",0,0.23,0.23,0.73,0.115,0.48,1074
"244",2811,"Allandale",0,0.28,0.28,0.7,0.14,0.49,117
"245",2812,"Alloway",0,0.93,0.93,1.5,0.465,1.215,25677
"246",2818,"Althaus",0,0.46,0.46,1.2,0.23,0.83,2847
"247",2821,"Allandale, Strongly Sodic Variant",0,0.15,0.15,0.95,0.075,0.55,83
"248",2824,"Alma",0,0.4,0.4,1.2,0.2,0.8,33
"249",2825,"Alma",0,0.2,0.2,1.5,0.1,0.85,33
"250",2826,"Alma",0,0.48,0.48,2.1,0.24,1.29,33
"251",2827,"Alma",0,0.38,0.38,1.5,0.19,0.94,33
"252",2831,"Arnot",0,0.68,0.68,1.25,0.34,0.965,593
"253",2833,"Andergrove",0,0.73,0.73,1.2,0.365,0.965,133
"254",2835,"Annandale",0,0.2,0.2,1.35,0.1,0.775,9387
"255",2837,"Arnot",0,0.58,0.58,1.2,0.29,0.89,593
"256",2844,"Appaloosa",0,0.1,0.1,1.2,0.05,0.65,543
"257",2845,"Appaloosa",0,0.17,0.17,0.8,0.085,0.485,543
"258",2847,"Apron",0,0.35,0.35,0.75,0.175,0.55,221
"259",2854,"Arriga",0,0.3,0.3,1.8,0.15,1.05,312
"260",2856,"Arriga Sandy",0,0.42,0.42,1.5,0.21,0.96,233
"261",2860,"Ashton",0,0.53,0.53,1.2,0.265,0.865,11011
"262",2863,"Aunt",0,0.95,0.95,1.2,0.475,1.075,689
"263",2869,"6AUg-6",0,0.23,0.23,1.5,0.115,0.865,706
"264",2871,"Avon",0,0.12,0.12,1.2,0.06,0.66,12
"265",2872,"Avon",0,0.27,0.27,1.5,0.135,0.885,12
"266",2873,"Avondale",0,0.25,0.25,1.6,0.125,0.925,4493
"267",2877,"Avondale Tenic Variant",0,NA,0.3,NA,0.15,NA,62
"268",2884,"Bluff",0,0.36,0.36,0.75,0.18,0.555,9
"269",2886,"Boston",0,0.2,0.2,1.66,0.1,0.93,187
"270",2888,"Basalt Rock",0,NA,0.1,NA,0.05,NA,17
"271",2889,"Burdekin",0,0.33,0.33,1.23,0.165,0.78,489
"272",2893,"Banyan",0,0.44,0.44,0.9,0.22,0.67,1523
"273",2894,"Banyan",0,0.4,0.4,0.65,0.2,0.525,1523
"274",2895,"Baddow",0,NA,0.15,NA,0.075,NA,24
"275",2898,"Bauhinia",0,0.04,0.04,1,0.02,0.52,77
"276",2903,"Banban",0,0.23,0.23,1.2,0.115,0.715,9
"277",2906,"Balberra",0,0.38,0.38,1.08,0.19,0.73,3438
"278",2907,"Barubbra",0,0.35,0.35,1.5,0.175,0.925,199
"279",2912,"Byabra",0,0.18,0.18,1.2,0.09,0.69,824
"280",2913,"Buchan",0,0.25,0.25,1.2,0.125,0.725,42
"281",2914,"Buchan",0,0.28,0.28,1.5,0.14,0.89,42
"282",2920,"Bucca",0,0.25,0.25,1.35,0.125,0.8,911
"283",2921,"Bucca",0,0.23,0.23,1.11,0.115,0.67,911
"284",2922,"Buchan",0,0.12,0.12,0.75,0.06,0.435,42
"285",2928,"Bidwill",0,0.25,0.25,1.5,0.125,0.875,1889
"286",2934,"Beauaraba",0,0.06,0.06,0.55,0.03,0.305,3
"287",2950,"Bulgun",0,0.4,0.4,0.8,0.2,0.6,7210
"288",2951,"Bulgun",0,0.43,0.43,1.5,0.215,0.965,7210
"289",2954,"Bogandilla",0,0.1,0.1,1.6,0.05,0.85,23
"290",2956,"Bulgun",0,0.27,0.27,1.25,0.135,0.76,7210
"291",2957,"Bungadoo",0,0.58,0.58,0.83,0.29,0.705,54
"292",2958,"Bungadoo",0,0.4,0.4,0.8,0.2,0.6,54
"293",2966,"Beenham",0,0.37,0.37,1.65,0.185,1.01,2
"294",2967,"Benholme",0,0.18,0.18,1.2,0.09,0.69,10832
"295",2970,"Botherm",0,0.31,0.31,1.5,0.155,0.905,102
"296",2971,"Beelbi",0,0.7,0.7,0.95,0.35,0.825,10
"297",2983,"Bingil",0,0.15,0.15,1.8,0.075,0.975,2
"298",2984,"Buckley",0,0.3,0.3,1.1,0.15,0.7,380
"299",2992,"Belmunda",0,0.4,0.4,1,0.2,0.7,636
"300",2994,"Bingil",0,0.15,0.15,2.5,0.075,1.325,2
"301",2996,"Booyal",0,0.25,0.25,0.6,0.125,0.425,44
"302",2999,"Bushnell",0,0.15,0.15,1.2,0.075,0.675,718
"303",3013,"Broadmedow",0,0.4,0.4,1.5,0.2,0.95,7393
"304",3016,"Barron",0,0.13,0.13,1.1,0.065,0.615,460
"305",3017,"Banana",0,0.08,0.08,1.2,0.04,0.64,38
"306",3021,"Boonenne",0,0.2,0.2,0.6,0.1,0.4,166
"307",3022,"Boonenne",0,0.25,0.25,1.5,0.125,0.875,166
"308",3032,"Boonenne",0,0.25,0.25,0.7,0.125,0.475,166
"309",3037,"Booie",0,NA,0.37,NA,0.185,NA,0
"310",3038,"Booloongie",0,0.6,0.6,0.8,0.3,0.7,483
"311",3040,"Boyne",0,0.48,0.48,1,0.24,0.74,1083
"312",3043,"Bauple",0,0.28,0.28,1.35,0.14,0.815,3
"313",3048,"Brosnan",0,0.33,0.33,1.05,0.165,0.69,9214
"314",3050,"Brosnan",0,0.8,0.8,1.5,0.4,1.15,9214
"315",3052,"Brosnan",0,0.26,0.26,2.5,0.13,1.38,9214
"316",3054,"Beeron",0,0.4,0.4,1.2,0.2,0.8,252
"317",3055,"Beeron",0,0.25,0.25,1.5,0.125,0.875,252
"318",3057,"Bingera",0,0.3,0.3,1.5,0.15,0.9,347
"319",3059,"Brae",0,0.25,0.25,1.2,0.125,0.725,898
"320",3064,"Brosnan",0,0.33,0.33,1.8,0.165,1.065,9214
"321",3065,"Bruce",0,0.04,0.04,0.55,0.02,0.295,6169
"322",3069,"Burrum",0,1.55,1.55,2,0.775,1.775,21
"323",3077,"Beeron Rocky Phase",0,0.25,0.25,0.45,0.125,0.35,41
"324",3081,"Basel",0,0.1,0.1,2,0.05,1.05,9
"325",3088,"Bicton",0,0.3,0.3,0.6,0.15,0.45,161
"326",3090,"Bicton",0,0.25,0.25,1,0.125,0.625,161
"327",3091,"Bicton",0,0.14,0.14,1.1,0.07,0.62,161
"328",3095,"Bicton",0,0.16,0.16,0.9,0.08,0.53,161
"329",3098,"Brightley",0,0.04,0.04,1.3,0.02,0.67,15044
"330",3099,"Burnett",0,0.3,0.3,1.2,0.15,0.75,5098
"331",3100,"Butcher",0,0.24,0.24,1.5,0.12,0.87,2938
"332",3101,"Butcher",0,0.43,0.43,1.5,0.215,0.965,2938
"333",3106,"Bulguru",0,0.4,0.4,1.2,0.2,0.8,406
"334",3108,"Buffel",0,0.2,0.2,0.68,0.1,0.44,32
"335",3113,"Bullaroo",0,0.02,0.02,1.25,0.01,0.635,1553
"336",3116,"BUg-1",0,0.05,0.05,0.35,0.025,0.2,11
"337",3117,"BUg-10",0,0.05,0.05,0.85,0.025,0.45,257
"338",3118,"BUg-11",0,0.05,0.05,1.5,0.025,0.775,245
"339",3124,"BUg-17",0,0.05,0.05,1.5,0.025,0.775,490
"340",3126,"BUg-2",0,0.2,0.2,0.85,0.1,0.525,7423
"341",3127,"BUg-2",0,0.2,0.2,0.95,0.1,0.575,7423
"342",3128,"BUg-20",0,0.2,0.2,1.05,0.1,0.625,30
"343",3129,"BUg-3",0,0.15,0.15,0.75,0.075,0.45,404
"344",3130,"BUg-4",0,0.05,0.05,1,0.025,0.525,210
"345",3131,"BUg-5",0,0.05,0.05,1.5,0.025,0.775,84
"346",3132,"BUg-6",0,0.05,0.05,1.1,0.025,0.575,1044
"347",3133,"BUg-7",0,0.06,0.06,1.4,0.03,0.73,191
"348",3135,"BUg-9",0,NA,0.45,NA,0.225,NA,18
"349",3137,"BUgg-1m",0,0.05,0.05,1.1,0.025,0.575,32
"350",3138,"BUgg-2",0,0.1,0.1,1.5,0.05,0.8,216
"351",3152,"Bonavista",0,0.3,0.3,1.2,0.15,0.75,207
"352",3154,"Bluewater",0,0.27,0.27,1.1,0.135,0.685,3498
"353",3155,"Bluewater",0,0.2,0.2,1.2,0.1,0.7,3498
"354",3157,"Bonwell",0,0.18,0.18,1.5,0.09,0.84,1354
"355",3158,"Boynewood",0,0.1,0.1,0.65,0.05,0.375,1615
"356",3161,"Brooweena",0,0.23,0.23,0.53,0.115,0.38,317
"357",3164,"Boynewood Rocky Phase",0,0.08,0.08,0.6,0.04,0.34,57
"358",3167,"Bell",0,0.2,0.2,1.2,0.1,0.7,741
"359",3169,"Bally",0,0.23,0.23,1.35,0.115,0.79,232
"360",3170,"Bally",0,0.43,0.43,1.1,0.215,0.765,232
"361",3173,"Boyne",0,0.5,0.5,1.5,0.25,1,1083
"362",3176,"Breen",0,NA,0.45,NA,0.225,NA,201
"363",3177,"Brooyar",0,0.3,0.3,1.8,0.15,1.05,53
"364",3178,"Byee",0,0.15,0.15,0.98,0.075,0.565,4637
"365",3191,"Creek",0,0.4,0.4,1,0.2,0.7,40
"366",3193,"Cape",0,0.18,0.18,1.8,0.09,0.99,335
"367",3196,"Caley",0,0.25,0.25,0.55,0.125,0.4,9
"368",3199,"Calavos",0,0.6,0.6,1.5,0.3,1.05,123
"369",3208,"Cheeseboro",0,0.05,0.05,0.21,0.025,0.13,2533
"370",3209,"Chessborough",0,0.25,0.25,0.6,0.125,0.425,1351
"371",3220,"Chinchilla",0,0.3,0.3,1.6,0.15,0.95,23
"372",3231,"Callide",0,0.33,0.33,0.9,0.165,0.615,8266
"373",3234,"Childers",0,0.3,0.3,1.5,0.15,0.9,48873
"374",3236,"Condor",0,0.13,0.13,0.57,0.065,0.35,115
"375",3237,"Crawford",0,0.35,0.35,1.5,0.175,0.925,1483
"376",3246,"Cadarga",0,0.55,0.55,1.4,0.275,0.975,212
"377",3250,"Chelmsford",0,0.15,0.15,1.1,0.075,0.625,581
"378",3251,"Corfield",0,0.25,0.25,1.5,0.125,0.875,119
"379",3255,"Cherbourg",0,0.3,0.3,0.7,0.15,0.5,26
"380",3257,"Crossing",0,0.43,0.43,1.5,0.215,0.965,2005
"381",3258,"Catherina",0,0.3,0.3,0.9,0.15,0.6,721
"382",3263,"Cherry Tree",0,0.35,0.35,1.2,0.175,0.775,1911
"383",3266,"Chin",0,0.18,0.18,1.5,0.09,0.84,1650
"384",3269,"Cottonham",0,0.1,0.1,1.05,0.05,0.575,374
"385",3278,"Curlewis",0,0.27,0.27,0.5,0.135,0.385,1028
"386",3280,"Calen",0,0.28,0.28,1.2,0.14,0.74,24740
"387",3286,"Clayton",0,0.63,0.63,1.5,0.315,1.065,6087
"388",3290,"Clematis",0,0.6,0.6,1.35,0.3,0.975,6961
"389",3293,"Cole",0,0.45,0.45,1.8,0.225,1.125,57
"390",3295,"Coolabunia",0,0.05,0.05,1.2,0.025,0.625,12187
"391",3296,"Coolabunia",0,0.3,0.3,1.5,0.15,0.9,12187
"392",3301,"Cudmore",0,0.45,0.45,1.2,0.225,0.825,1134
"393",3302,"Cudmore",0,0.37,0.37,1.5,0.185,0.935,1134
"394",3303,"Cameron",0,0.35,0.35,0.56,0.175,0.455,3122
"395",3309,"Canoe",0,0.18,0.18,1.05,0.09,0.615,1322
"396",3311,"Carrington",0,0.28,0.28,0.73,0.14,0.505,108
"397",3313,"Canoe",0,0.4,0.4,1.2,0.2,0.8,1322
"398",3324,"Coonoon",0,0.2,0.2,1.8,0.1,1,305
"399",3331,"Coom",0,0.27,0.27,1.2,0.135,0.735,21287
"400",3332,"Coom",0,0.17,0.17,1.3,0.085,0.735,21287
"401",3334,"Coom",0,0.2,0.2,2.1,0.1,1.15,21287
"402",3336,"Cobra",0,0.28,0.28,1.8,0.14,1.04,1691
"403",3342,"Consuelo",0,NA,0.5,NA,0.25,NA,5424
"404",3343,"Conway",0,0.3,0.3,1.5,0.15,0.9,399
"405",3344,"Conway",0,0.2,0.2,1.5,0.1,0.85,399
"406",3347,"Copenhagen",0,0.73,0.73,1.23,0.365,0.98,63
"407",3352,"Campbell Plains",0,0.26,0.26,1.6,0.13,0.93,38
"408",3355,"Carew",0,0.04,0.04,1.5,0.02,0.77,14981
"409",3356,"Carmila",0,0.28,0.28,0.78,0.14,0.53,159
"410",3362,"Crater",0,0.1,0.1,0.6,0.05,0.35,17
"411",3369,"Cassidy",0,1.5,1.5,1.95,0.75,1.725,477
"412",3370,"Commissioner",0,NA,0.19,NA,0.095,NA,99
"413",3371,"Cushnie",0,0.21,0.21,1.5,0.105,0.855,24
"414",3373,"Clifton",0,0.25,0.25,1.1,0.125,0.675,5040
"415",3374,"Clifton",0,0.2,0.2,2.1,0.1,1.15,5040
"416",3375,"Cabbage Tree",0,0.43,0.43,1.2,0.215,0.815,25
"417",3376,"Cattle",0,0.05,0.05,1.5,0.025,0.775,31
"418",3380,"Clifton",0,0.33,0.33,0.9,0.165,0.615,5040
"419",3386,"Castleview",0,0.53,0.53,1,0.265,0.765,33
"420",3388,"Cliftonville",0,0.45,0.45,1.2,0.225,0.825,117
"421",3389,"Colvin",0,0.85,0.85,1.3,0.425,1.075,4682
"422",3402,"Cooyar",0,0.3,0.3,1.5,0.15,0.9,78
"423",3418,"Doolbi",0,0.23,0.23,1.5,0.115,0.865,1685
"424",3426,"Daradgee",0,0.27,0.27,1.2,0.135,0.735,28
"425",3447,"Dagun",0,0.3,0.3,1.75,0.15,1.025,20
"426",3449,"Dangore",0,0.3,0.3,1,0.15,0.65,121
"427",3450,"Dingo (Pss)",0,0.2,0.2,1,0.1,0.6,3
"428",3454,"Durong",0,0.02,0.02,1.5,0.01,0.76,164
"429",3455,"Durong",0,0.03,0.03,1.5,0.015,0.765,164
"430",3458,"Dittmer",0,0.35,0.35,0.55,0.175,0.45,46
"431",3461,"Derrick Steep And Broken Phase",0,0.2,0.2,0.9,0.1,0.55,3
"432",3471,"Dayman",0,0.6,0.6,0.9,0.3,0.75,35
"433",3476,"Diamond (Kcm)",0,0.09,0.09,1.14,0.045,0.615,1717
"434",3481,"Diamond (Kcm), Footslope Variant",0,0.09,0.09,0.95,0.045,0.52,331
"435",3482,"Don",0,NA,0.4,NA,0.2,NA,5131
"436",3487,"Drinan",0,0.6,0.6,1.5,0.3,1.05,232
"437",3488,"Dundula",0,0.15,0.15,1.1,0.075,0.625,1126
"438",3491,"Dingo",0,0.2,0.2,1.95,0.1,1.075,32
"439",3493,"Don",0,0.5,0.5,1.1,0.25,0.8,5131
"440",3499,"Derra",0,0.05,0.05,1.65,0.025,0.85,144
"441",3500,"Derra",0,0.05,0.05,1.5,0.025,0.775,144
"442",3502,"Derra (CWL)",0,NA,0.35,NA,0.175,NA,178
"443",3510,"Dickson",0,0.27,0.27,1.05,0.135,0.66,767
"444",3512,"Dickson, Shallow Variant",0,0.06,0.06,0.25,0.03,0.155,898
"445",3513,"Daintree",0,0.38,0.38,2.1,0.19,1.24,382
"446",3515,"Dunstan",0,0.35,0.35,1.8,0.175,1.075,19
"447",3520,"Dunrobin - CQ",0,0.2,0.2,1.5,0.1,0.85,78
"448",3521,"Dunwold",0,0.61,0.61,0.93,0.305,0.77,3931
"449",3522,"Dunwold",0,0.5,0.5,1.05,0.25,0.775,3931
"450",3526,"Dawes",0,0.15,0.15,0.9,0.075,0.525,281
"451",3530,"Dixie",0,0.85,0.85,1.2,0.425,1.025,5
"452",3534,"Dryander",0,0.25,0.25,1.35,0.125,0.8,597
"453",3535,"Dryander",0,0.2,0.2,1.2,0.1,0.7,597
"454",3549,"Eastgate",0,0.13,0.13,1.5,0.065,0.815,5019
"455",3552,"Edgecumbe",0,0.28,0.28,1.11,0.14,0.695,210
"456",3553,"Edgecumbe",0,0.3,0.3,1.04,0.15,0.67,210
"457",3554,"Endeavour",0,0.2,0.2,1.2,0.1,0.7,365
"458",3555,"Emerald",0,0.18,0.18,1.6,0.09,0.89,2271
"459",3556,"Earlsfield",0,0.07,0.07,1.5,0.035,0.785,10959
"460",3578,"Eleanor",0,0.11,0.11,1.6,0.055,0.855,12494
"461",3579,"Eleanor, Mottled Phase",0,0.03,0.03,1.6,0.015,0.815,1526
"462",3580,"Elliot",0,0.3,0.3,1.2,0.15,0.75,137
"463",3581,"Eton",0,0.25,0.25,1.2,0.125,0.725,5959
"464",3592,"Edmonton",0,0.25,0.25,1.2,0.125,0.725,1407
"465",3593,"Edmonton",0,0.13,0.13,2,0.065,1.065,1407
"466",3594,"Etowrie",0,0.26,0.26,1.05,0.13,0.655,2148
"467",3595,"Etowrie",0,0.25,0.25,1.2,0.125,0.725,2148
"468",3596,"Etowrie, Neutral Duplex Variant",0,0.28,0.28,0.9,0.14,0.59,15
"469",3597,"Etowrie (Neutral Variant)",0,0.32,0.32,0.9,0.16,0.61,160
"470",3598,"Eubenangee",0,0.13,0.13,1.6,0.065,0.865,13127
"471",3611,"Fairdale",0,0.09,0.09,0.75,0.045,0.42,1784
"472",3612,"Fairydale",0,0.28,0.28,1,0.14,0.64,3723
"473",3613,"Fairydale",0,0.28,0.28,1,0.14,0.64,3723
"474",3615,"Freddy",0,0.6,0.6,0.95,0.3,0.775,1837
"475",3617,"Feluga",0,0.44,0.44,2.1,0.22,1.27,695
"476",3618,"Feluga",0,0.6,0.6,1.8,0.3,1.2,695
"477",3620,"Farnsfield",0,0.43,0.43,1.5,0.215,0.965,12397
"478",3621,"Farnsfield",0,0.3,0.3,1.5,0.15,0.9,12397
"479",3626,"Finley",0,0.23,0.23,0.8,0.115,0.515,186
"480",3628,"Farleigh",0,0.28,0.28,0.9,0.14,0.59,3480
"481",3629,"Finley",0,0.4,0.4,1.46,0.2,0.93,186
"482",3630,"Fletcher",0,0.18,0.18,1.15,0.09,0.665,95
"483",3632,"Fairymead",0,0.28,0.28,1.5,0.14,0.89,5220
"484",3635,"Fumar",0,0.58,0.58,1.5,0.29,1.04,54
"485",3637,"Falkner",0,0.11,0.11,0.8,0.055,0.455,7496
"486",3638,"Finch Hatton",0,0.25,0.25,1.1,0.125,0.675,1089
"487",3641,"Finch Hatton, Alluvial-Colluvial Variant",0,0.41,0.41,1.1,0.205,0.755,220
"488",3642,"Finch Hatton (Alluvial - Colluvial Variant)",0,0.32,0.32,0.9,0.16,0.61,68
"489",3645,"Foxdale",0,0.25,0.25,0.51,0.125,0.38,412
"490",3646,"Foxdale",0,0.2,0.2,0.7,0.1,0.45,412
"491",3650,"Flagstone",0,0.25,0.25,1.2,0.125,0.725,5468
"492",3651,"Flagstone",0,0.25,0.25,1.5,0.125,0.875,5468
"493",3662,"Flinton",0,0.08,0.08,1.05,0.04,0.565,43
"494",3663,"Flinton",0,0.35,0.35,1.3,0.175,0.825,43
"495",3664,"Fairview",0,0.08,0.08,1.35,0.04,0.715,1416
"496",3666,"Gainsford",0,0.2,0.2,0.6,0.1,0.4,35
"497",3669,"Galmara",0,0.35,0.35,2.1,0.175,1.225,2020
"498",3670,"Galmara",0,0.45,0.45,1.2,0.225,0.825,2020
"499",3671,"Galmara",0,0.26,0.26,1.75,0.13,1.005,2020
"500",3672,"Galmara",0,0.25,0.25,1.2,0.125,0.725,2020
"501",3673,"Galmara",0,0.2,0.2,1.5,0.1,0.85,2020
"502",3674,"Gargett",0,0.48,0.48,0.95,0.24,0.715,3128
"503",3675,"Gargett",0,0.55,0.55,0.85,0.275,0.7,3128
"504",3678,"Gargett, Deep A Horizon Variant",0,0.9,0.9,1.2,0.45,1.05,557
"505",3681,"Gillinbin",0,0.77,0.77,1.2,0.385,0.985,2149
"506",3682,"Gooburrum",0,0.5,0.5,1.5,0.25,1,15249
"507",3683,"Gooburrum",0,0.68,0.68,1.5,0.34,1.09,15249
"508",3686,"Goodbye",0,0.2,0.2,1.5,0.1,0.85,31
"509",3688,"Gordonbrook",0,0.2,0.2,0.75,0.1,0.475,120
"510",3692,"Greycliffe",0,0.06,0.06,1.5,0.03,0.78,1463
"511",3693,"Gander",0,0.4,0.4,1.65,0.2,1.025,29
"512",3697,"Gordonbrook",0,0.45,0.45,1,0.225,0.725,120
"513",3698,"Gordonbrook",0,0.21,0.21,1.5,0.105,0.855,120
"514",3706,"Glengordon",0,0.23,0.23,0.82,0.115,0.525,276
"515",3709,"Goodger",0,0.1,0.1,1.2,0.05,0.65,2942
"516",3710,"Goodger",0,0.2,0.2,1.5,0.1,0.85,2942
"517",3711,"Googarra",0,0.6,0.6,1.2,0.3,0.9,291
"518",3712,"Googarra",0,0.69,0.69,1.21,0.345,0.95,291
"519",3715,"Googarra",0,0.7,0.7,1.2,0.35,0.95,291
"520",3718,"Gahan",0,0.28,0.28,0.7,0.14,0.49,865
"521",3722,"Gillies",0,0.25,0.25,1.25,0.125,0.75,6
"522",3726,"Gillen",0,0.55,0.55,1.5,0.275,1.025,1321
"523",3727,"Gindie",0,0.02,0.02,1,0.01,0.51,4894
"524",3740,"Glenella",0,0.3,0.3,0.93,0.15,0.615,1437
"525",3741,"Glenora",0,0.04,0.04,1.45,0.02,0.745,186031
"526",3750,"Gwynne",0,0.17,0.17,1.27,0.085,0.72,106
"527",3751,"Gigoon",0,0.4,0.4,1.5,0.2,0.95,20
"528",3759,"Goolboo",0,0.4,0.4,1,0.2,0.7,65
"529",3760,"Goolboo",0,0.51,0.51,0.75,0.255,0.63,65
"530",3763,"Goolboo",0,0.3,0.3,0.98,0.15,0.64,65
"531",3765,"Goorganga",0,0.15,0.15,1.4,0.075,0.775,481
"532",3769,"Glenroc",0,0.35,0.35,1.5,0.175,0.925,305
"533",3771,"Glenrock",0,0.35,0.35,1.2,0.175,0.775,2467
"534",3774,"Graham",0,0.15,0.15,1.5,0.075,0.825,11
"535",3775,"Granville",0,0.18,0.18,1.5,0.09,0.84,1364
"536",3776,"Granville",0,0.18,0.18,1.5,0.09,0.84,1364
"537",3778,"Grevillea",0,0.09,0.09,1.5,0.045,0.795,1228
"538",3781,"Glenrock Grey Variant",0,0.15,0.15,0.6,0.075,0.375,27
"539",3787,"Gibson - Bab",0,0.35,0.35,1.5,0.175,0.925,1019
"540",3793,"Garradunga",0,0.3,0.3,1.5,0.15,0.9,2211
"541",3795,"Gumlu",0,0.25,0.25,1.5,0.125,0.875,108
"542",3798,"Gueena",0,0.13,0.13,1.5,0.065,0.815,3118
"543",3800,"Givelda",0,0.23,0.23,0.88,0.115,0.555,315
"544",3803,"Goovigen",0,0.05,0.05,1.5,0.025,0.775,22
"545",3806,"Gunnawarra",0,0.28,0.28,1.33,0.14,0.805,58
"546",3808,"Gowrie - Tab",0,0.25,0.25,1.3,0.125,0.775,58
"547",3812,"Gutchy",0,0.3,0.3,1.35,0.15,0.825,26
"548",3820,"Habana",0,0.3,0.3,0.95,0.15,0.625,1221
"549",3822,"Herbert",0,0.65,0.65,1.2,0.325,0.925,12956
"550",3824,"Highbury",0,0.25,0.25,0.7,0.125,0.475,2
"551",3832,"Hillsdale",0,0.35,0.35,0.9,0.175,0.625,114
"552",3833,"Hillsdale",0,0.22,0.22,1.5,0.11,0.86,114
"553",3835,"Hodge (BAN)",0,0.23,0.23,0.65,0.115,0.44,568
"554",3840,"Hewitt",0,0.45,0.45,2.1,0.225,1.275,4027
"555",3842,"Hewitt",0,0.25,0.25,0.78,0.125,0.515,4027
"556",3843,"Hewitt",0,0.25,0.25,0.78,0.125,0.515,4027
"557",3845,"Hewitt",0,0.25,0.25,1,0.125,0.625,4027
"558",3852,"Hawkins",0,NA,0.13,NA,0.065,NA,301
"559",3854,"Hinkler",0,0.25,0.25,1.5,0.125,0.875,648
"560",3855,"Haly",0,0.3,0.3,1.2,0.15,0.75,2103
"561",3856,"Haly",0,0.18,0.18,1.5,0.09,0.84,2103
"562",3857,"Hamleigh",0,0.23,0.23,1.2,0.115,0.715,17469
"563",3865,"Hannan",0,NA,0.45,NA,0.225,NA,1275
"564",3868,"Holloway",0,0.35,0.35,1.05,0.175,0.7,489
"565",3869,"Holloway",0,0.4,0.4,1.2,0.2,0.8,489
"566",3871,"Holloway",0,0.32,0.32,1.2,0.16,0.76,489
"567",3878,"Harris",0,0.06,0.06,1.5,0.03,0.78,34
"568",3882,"Hillsborough",0,0.36,0.36,1.51,0.18,0.935,661
"569",3885,"Howes",0,0.23,0.23,1.5,0.115,0.865,4188
"570",3890,"Hector (PCS)",0,0.5,0.5,1,0.25,0.75,121
"571",3899,"Hull",0,0.35,0.35,0.65,0.175,0.5,336
"572",3900,"Hull",0,0.2,0.2,0.47,0.1,0.335,336
"573",3902,"Hull",0,0.38,0.38,0.9,0.19,0.64,336
"574",3904,"Hull",0,0.5,0.5,1.15,0.25,0.825,336
"575",3905,"Hunter",0,0.05,0.05,1.5,0.025,0.775,114
"576",3906,"Hillview",0,0.28,0.28,2.1,0.14,1.19,2474
"577",3909,"Hillview",0,0.3,0.3,1.2,0.15,0.75,2474
"578",3910,"Hopevale",0,0.15,0.15,1.2,0.075,0.675,2451
"579",3911,"Hopevale",0,0.18,0.18,1.4,0.09,0.79,2451
"580",3912,"Hillview Fine Variant",0,0.25,0.25,2.1,0.125,1.175,130
"581",3914,"Hawkwood",0,0.4,0.4,1.2,0.2,0.8,71
"582",3915,"Hawkwood",0,0.4,0.4,1.2,0.2,0.8,71
"583",3917,"Huxley",0,0.11,0.11,2,0.055,1.055,6
"584",3922,"Ilbilbie",0,0.4,0.4,0.9,0.2,0.65,8583
"585",3927,"Inverdon",0,0.38,0.38,0.55,0.19,0.465,2993
"586",3931,"Ingham",0,0.38,0.38,1,0.19,0.69,4612
"587",3932,"Inlet",0,0.22,0.22,1.64,0.11,0.93,1301
"588",3933,"Innisfail",0,0.35,0.35,1.2,0.175,0.775,49098
"589",3934,"Innisfail",0,0.16,0.16,1.27,0.08,0.715,49098
"590",3936,"Innisfail",0,0.29,0.29,1.4,0.145,0.845,49098
"591",3937,"Innisfail",0,0.29,0.29,1.2,0.145,0.745,49098
"592",3940,"Innisfail",0,0.33,0.33,1.2,0.165,0.765,49098
"593",3941,"Iona",0,0.17,0.17,1.5,0.085,0.835,44
"594",3945,"Isis",0,0.7,0.7,1.5,0.35,1.1,9887
"595",3946,"Isis",0,0.5,0.5,1.5,0.25,1,9887
"596",3953,"Jambin",0,0.08,0.08,1.5,0.04,0.79,1048
"597",3962,"Julian",0,0.31,0.31,0.75,0.155,0.53,25
"598",3965,"Jumper",0,0.3,0.3,0.96,0.15,0.63,891
"599",3972,"Japoon",0,0.35,0.35,0.6,0.175,0.475,123
"600",3973,"Japoon",0,NA,0.23,NA,0.115,NA,123
"601",3974,"Japoon",0,0.31,0.31,0.78,0.155,0.545,123
"602",3977,"Japoon",0,0.21,0.21,0.55,0.105,0.38,123
"603",3978,"Jumpo",0,0.4,0.4,0.95,0.2,0.675,219
"604",3979,"Jarra",0,0.31,0.31,1.5,0.155,0.905,3194
"605",3981,"Jaro",0,0.15,0.15,1.5,0.075,0.825,296
"606",3982,"Jarra",0,0.52,0.52,1.65,0.26,1.085,3194
"607",3989,"Kaygaroo",0,1.05,1.05,2.1,0.525,1.575,192
"608",3993,"Kaber",0,0.25,0.25,1.5,0.125,0.875,1318
"609",3994,"Kailla",0,0.35,0.35,0.8,0.175,0.575,92
"610",3996,"Kaban",0,0.14,0.14,1.5,0.07,0.82,8872
"611",3997,"Kaban",0,0.13,0.13,1.23,0.065,0.68,8872
"612",3999,"Kilburnie",0,0.11,0.11,1.5,0.055,0.805,349
"613",4004,"Kumbia",0,0.2,0.2,0.9,0.1,0.55,8111
"614",4008,"Kinchant",0,0.5,0.5,1.1,0.25,0.8,2087
"615",4010,"Kinchant, Coarse Sandy Variant",0,0.6,0.6,1.05,0.3,0.825,3066
"616",4024,"Kalah",0,0.75,0.75,1.5,0.375,1.125,3692
"617",4028,"Kimberley",0,0.25,0.25,0.9,0.125,0.575,45
"618",4029,"Kimberley",0,0.13,0.13,0.8,0.065,0.465,45
"619",4031,"Kimberley",0,0.15,0.15,1,0.075,0.575,45
"620",4033,"Kingjack",0,0.15,0.15,1,0.075,0.575,479
"621",4034,"Kawl Kawl",0,0.13,0.13,1.5,0.065,0.815,22
"622",4036,"Kailla",0,0.45,0.45,1,0.225,0.725,92
"623",4038,"Karloo",0,0.3,0.3,1.2,0.15,0.75,8746
"624",4040,"Kenlogan",0,0.09,0.09,0.94,0.045,0.515,329
"625",4042,"Kolbore",0,0.55,0.55,1.5,0.275,1.025,378
"626",4046,"Kiama",0,0.53,0.53,1.13,0.265,0.83,12
"627",4047,"Kirrama",0,0.2,0.2,0.4,0.1,0.3,346
"628",4048,"Kirrama",0,0.58,0.58,2.1,0.29,1.34,346
"629",4050,"Kirrama",0,0.43,0.43,2,0.215,1.215,346
"630",4051,"Koumala",0,0.38,0.38,1.2,0.19,0.79,814
"631",4056,"Kinkuna",0,0.53,0.53,0.73,0.265,0.63,1765
"632",4064,"Kungurri",0,0.2,0.2,1,0.1,0.6,34
"633",4065,"Kunioon",0,0.17,0.17,1.5,0.085,0.835,734
"634",4067,"Kolan",0,0.2,0.2,2,0.1,1.1,2599
"635",4068,"Kolan",0,NA,0.1,NA,0.05,NA,2599
"636",4069,"Kolan",0,0.3,0.3,1.5,0.15,0.9,2599
"637",4070,"Kolan",0,0.3,0.3,1,0.15,0.65,2599
"638",4072,"Koolachu",0,0.3,0.3,1.1,0.15,0.7,3350
"639",4076,"Kepnock",0,0.45,0.45,1.5,0.225,0.975,36020
"640",4081,"Kunipipi",0,0.25,0.25,1.2,0.125,0.725,50
"641",4096,"Kaber",0,0.25,0.25,1.5,0.125,0.875,1318
"642",4100,"Kooringa",0,0.53,0.53,0.83,0.265,0.68,80
"643",4104,"Kokutungo",0,0.33,0.33,1.5,0.165,0.915,1149
"644",4105,"Kurrimine",0,0.55,0.55,1.05,0.275,0.8,908
"645",4107,"Kurrimine",0,0.55,0.55,1.8,0.275,1.175,908
"646",4109,"Kuttabul",0,0.27,0.27,0.95,0.135,0.61,3042
"647",4110,"Kuttabul, Alluvial-Colluvial Variant",0,0.33,0.33,0.86,0.165,0.595,3138
"648",4111,"Kowari",0,0.35,0.35,0.46,0.175,0.405,195
"649",4112,"Kowari",0,0.4,0.4,0.75,0.2,0.575,195
"650",4125,"Logcamp",0,0.12,0.12,1.5,0.06,0.81,289
"651",4126,"Lacon",0,0.05,0.05,1.5,0.025,0.775,87
"652",4128,"Lascelles",0,0.75,0.75,1.6,0.375,1.175,116
"653",4129,"Lucy",0,0.26,0.26,1.05,0.13,0.655,1199
"654",4135,"Leadingham",0,0.42,0.42,1.5,0.21,0.96,43
"655",4140,"Lee",0,0.25,0.25,0.85,0.125,0.55,805
"656",4142,"Lee",0,0.45,0.45,1.2,0.225,0.825,805
"657",4149,"Leach",0,0.18,0.18,1.2,0.09,0.69,2407
"658",4150,"Leichhardt",0,NA,0.32,NA,0.16,NA,232
"659",4151,"Liverpool",0,0.28,0.28,0.6,0.14,0.44,13151
"660",4152,"Liverpool",0,0.1,0.1,0.6,0.05,0.35,13151
"661",4153,"Liverpool",0,0.36,0.36,0.65,0.18,0.505,13151
"662",4154,"Liverpool",0,0.28,0.28,1.3,0.14,0.79,13151
"663",4155,"Liverpool",0,0.28,0.28,0.85,0.14,0.565,13151
"664",4156,"Liverpool",0,0.23,0.23,0.8,0.115,0.515,13151
"665",4169,"Lannercost",0,0.28,0.28,1.2,0.14,0.74,4189
"666",4179,"Lillypool",0,0.4,0.4,1.55,0.2,0.975,231
"667",4180,"Long Peter",0,0.14,0.14,1.2,0.07,0.67,393
"668",4187,"Louisa",0,0.32,0.32,1.03,0.16,0.675,330
"669",4188,"Littabella",0,0.7,0.7,1.5,0.35,1.1,150
"670",4192,"Luce",0,0.13,0.13,1.5,0.065,0.815,5
"671",4194,"Lugger",0,0.58,0.58,1.43,0.29,1.005,7892
"672",4196,"Lugger",0,0.4,0.4,1.5,0.2,0.95,7892
"673",4197,"Luce",0,0.1,0.1,0.7,0.05,0.4,5
"674",4198,"Lugger",0,0.22,0.22,0.8,0.11,0.51,7892
"675",4199,"Lugger",0,0.58,0.58,1.2,0.29,0.89,7892
"676",4208,"Luxor",0,0.6,0.6,1.2,0.3,0.9,3210
"677",4224,"Maria",0,0.54,0.54,0.9,0.27,0.72,1289
"678",4226,"Maria",0,0.54,0.54,1.2,0.27,0.87,1289
"679",4232,"Marian",0,0.38,0.38,1.05,0.19,0.715,21473
"680",4234,"Marian, Yellow B Horizon Variant",0,0.33,0.33,1.2,0.165,0.765,3056
"681",4238,"Malbon",0,0.45,0.45,1.2,0.225,0.825,4665
"682",4239,"Malbon",0,0.29,0.29,1.1,0.145,0.695,4665
"683",4241,"Mullaburra",0,0.35,0.35,1.5,0.175,0.925,586
"684",4242,"Malbon",0,0.3,0.3,1.04,0.15,0.67,4665
"685",4243,"Minnabilla",0,NA,0.25,NA,0.125,NA,63
"686",4244,"Minnabilla",0,NA,0.45,NA,0.225,NA,63
"687",4245,"Morganbury",0,0.39,0.39,0.95,0.195,0.67,1769
"688",4246,"Morecambe",0,0.22,0.22,1.5,0.11,0.86,313
"689",4248,"Maraconda",0,0.02,0.02,1.3,0.01,0.66,263
"690",4262,"Maiden",0,0.68,0.68,1.5,0.34,1.09,31
"691",4264,"Mandam",0,0.45,0.45,0.7,0.225,0.575,175
"692",4266,"May Downs",0,0.04,0.04,1.25,0.02,0.645,338049
"693",4268,"Meadowvale",0,0.65,0.65,1.5,0.325,1.075,7604
"694",4272,"Midden",0,0.03,0.03,1.4,0.015,0.715,40
"695",4273,"Mondure",0,0.35,0.35,1,0.175,0.675,2242
"696",4274,"Mondure",0,0.25,0.25,1.5,0.125,0.875,2242
"697",4275,"Monsildale",0,0.23,0.23,1.15,0.115,0.69,12
"698",4281,"Midden, Melonhole Phase",0,0.02,0.02,1.5,0.01,0.76,90
"699",4288,"Mentmore",0,0.33,0.33,0.8,0.165,0.565,1011
"700",4290,"Mentmore, Sandy Loam Variant",0,0.2,0.2,0.85,0.1,0.525,250
"701",4293,"Moffat",0,0.3,0.3,1.2,0.15,0.75,75
"702",4294,"Morgan",0,0.1,0.1,1.12,0.05,0.61,24
"703",4298,"Morgan",0,0.2,0.2,1.5,0.1,0.85,24
"704",4301,"Mungar",0,0.43,0.43,1.5,0.215,0.965,536
"705",4311,"Mahogany",0,0.9,0.9,1.5,0.45,1.2,9993
"706",4312,"Mahogany",0,0.9,0.9,1.5,0.45,1.2,9993
"707",4313,"Mahogany",0,0.93,0.93,1.5,0.465,1.215,9993
"708",4315,"Midgenoo",0,0.23,0.23,0.8,0.115,0.515,124
"709",4316,"Midgenoo",0,0.3,0.3,1.65,0.15,0.975,124
"710",4318,"Midgenoo",0,0.3,0.3,1.2,0.15,0.75,124
"711",4320,"Mirani",0,0.48,0.48,0.95,0.24,0.715,7488
"712",4324,"Macknade",0,NA,0.25,NA,0.125,NA,8068
"713",4327,"Miskin",0,0.48,0.48,0.95,0.24,0.715,155
"714",4328,"Marshlands",0,0.25,0.25,1,0.125,0.625,2094
"715",4329,"Molonga",0,0.18,0.18,1.2,0.09,0.69,6058
"716",4334,"Moorland",0,0.38,0.38,1.35,0.19,0.865,404
"717",4335,"Mulei",0,0.42,0.42,1.2,0.21,0.81,180
"718",4336,"Mulligan",0,0.53,0.53,1.6,0.265,1.065,1490
"719",4338,"Mulligan Shallow Phase",0,0.55,0.55,1.05,0.275,0.8,9
"720",4340,"Mossman",0,0.48,0.48,1.15,0.24,0.815,15058
"721",4342,"Mossman",0,0.3,0.3,2.1,0.15,1.2,15058
"722",4344,"Memerambi",0,0.1,0.1,1.1,0.05,0.6,24679
"723",4345,"Memerambi",0,0.22,0.22,1.5,0.11,0.86,24679
"724",4347,"Moramana",0,0.09,0.09,1.25,0.045,0.67,7799
"725",4348,"Mossman",0,0.35,0.35,1,0.175,0.675,15058
"726",4352,"Maalan",0,0.15,0.15,1.43,0.075,0.79,702
"727",4353,"Manar",0,0.11,0.11,1.36,0.055,0.735,2860
"728",4354,"Manor",0,0.23,0.23,1.2,0.115,0.715,4380
"729",4357,"Mceuen",0,0.05,0.05,0.3,0.025,0.175,2711
"730",4358,"Mceuen",0,0.07,0.07,0.5,0.035,0.285,2711
"731",4359,"Monsildale",0,NA,0.2,NA,0.1,NA,12
"732",4360,"Munbura",0,0.43,0.43,1.1,0.215,0.765,1182
"733",4363,"Marlow",0,0.25,0.25,0.85,0.125,0.55,50
"734",4364,"Moolayember",0,0.6,0.6,1.35,0.3,0.975,924
"735",4370,"Mapala",0,0.3,0.3,1.35,0.15,0.825,8
"736",4372,"Moore Park",0,0.4,0.4,1.5,0.2,0.95,482
"737",4373,"Murphy",0,0.72,0.72,1.6,0.36,1.16,3354
"738",4376,"Maroondan",0,0.11,0.11,0.63,0.055,0.37,4707
"739",4377,"Maroondan",0,0.11,0.11,0.63,0.055,0.37,4707
"740",4378,"Martin",0,0.23,0.23,0.8,0.115,0.515,444
"741",4388,"Millstream",0,0.07,0.07,1.15,0.035,0.61,60
"742",4389,"Millstream",0,0.15,0.15,0.8,0.075,0.475,60
"743",4390,"Mission",0,0.25,0.25,1.05,0.125,0.65,3099
"744",4391,"Mission",0,0.45,0.45,1.8,0.225,1.125,3099
"745",4394,"Moosie",0,0.4,0.4,1.5,0.2,0.95,21
"746",4397,"Mission",0,0.16,0.16,1,0.08,0.58,3099
"747",4400,"Martyr",0,0.03,0.03,1.5,0.015,0.765,2033
"748",4401,"Masterton",0,0.5,0.5,0.62,0.25,0.56,250
"749",4402,"Melton",0,0.15,0.15,1.5,0.075,0.825,5237
"750",4417,"Mundoo",0,0.3,0.3,2.5,0.15,1.4,69943
"751",4420,"Murray",0,NA,0.56,NA,0.28,NA,933
"752",4421,"Murray",0,NA,0.45,NA,0.225,NA,933
"753",4426,"Marwood",0,0.45,0.45,0.7,0.225,0.575,656
"754",4427,"Marwood",0,0.46,0.46,0.7,0.23,0.58,656
"755",4429,"Midway",0,0.35,0.35,1.2,0.175,0.775,1206
"756",4434,"Mary",0,0.18,0.18,1.5,0.09,0.84,1532
"757",4435,"Mary",0,0.18,0.18,1.3,0.09,0.74,1532
"758",4436,"Mary",0,0.35,0.35,1.81,0.175,1.08,1532
"759",4437,"Myrtle",0,0.16,0.16,1.6,0.08,0.88,1147
"760",4438,"Myrtle",0,0.08,0.08,1.44,0.04,0.76,1147
"761",4450,"Nabilla",0,0.38,0.38,0.9,0.19,0.64,3177
"762",4459,"Nobby",0,0.2,0.2,0.6,0.1,0.4,34
"763",4460,"Narcotic",0,0.5,0.5,1.75,0.25,1.125,1682
"764",4462,"Nind",0,0.5,0.5,1.5,0.25,1,173
"765",4469,"Needep",0,0.28,0.28,0.65,0.14,0.465,121
"766",4472,"Needep",0,0.35,0.35,0.9,0.175,0.625,121
"767",4475,"Niagara",0,0.11,0.11,1.2,0.055,0.655,7228
"768",4482,"Newell",0,0.5,0.5,1.8,0.25,1.15,2671
"769",4483,"Nilotica",0,0.43,0.43,0.72,0.215,0.575,216
"770",4484,"Nail",0,0.08,0.08,1.5,0.04,0.79,28
"771",4487,"Nullinga",0,0.3,0.3,1.27,0.15,0.785,446
"772",4497,"Nicotine",0,1.05,1.05,2.4,0.525,1.725,382
"773",4500,"Nicotine Yellow",0,0.87,0.87,1.5,0.435,1.185,445
"774",4501,"Narpi",0,0.23,0.23,1.1,0.115,0.665,4547
"775",4510,"Netherdale",0,0.23,0.23,0.8,0.115,0.515,597
"776",4512,"Nursery",0,0.13,0.13,0.7,0.065,0.415,41
"777",4513,"Nessvale",0,0.35,0.35,1.5,0.175,0.925,452
"778",4514,"Norville",0,0.25,0.25,0.85,0.125,0.55,43
"779",4515,"Nanyeta",0,0.35,0.35,1.5,0.175,0.925,87
"780",4516,"Nyleta",NA,0.35,NA,1.45,NA,0.9,76
"781",4518,"O'Bil Bil",0,0.2,0.2,0.55,0.1,0.375,12
"782",4525,"Oakwood",0,0.58,0.58,1.5,0.29,1.04,19330
"783",4526,"Oakwood",0,0.58,0.58,1.5,0.29,1.04,19330
"784",4531,"Orient",0,0.16,0.16,0.75,0.08,0.455,55
"785",4535,"Ossa",0,0.45,0.45,1.05,0.225,0.75,6842
"786",4537,"Ossa, Cobbly Variant",0,0.45,0.45,0.8,0.225,0.625,210
"787",4538,"Ossa (Cobbly Variant)",0,0.21,0.21,0.58,0.105,0.395,101
"788",4539,"Otoo",0,0.75,0.75,1.5,0.375,1.125,10098
"789",4549,"Owanyilla",0,0.18,0.18,1.5,0.09,0.84,33
"790",4565,"Palmyra",0,0.45,0.45,0.68,0.225,0.565,581
"791",4572,"Pinnacle - Cq",0,0.18,0.18,1.2,0.09,0.69,193
"792",4574,"Police Camp",0,0.2,0.2,0.9,0.1,0.55,22
"793",4586,"Pennsfield",0,0.25,0.25,0.98,0.125,0.615,1729
"794",4587,"Pegunny",0,0.04,0.04,1.05,0.02,0.545,441
"795",4588,"Pegunny",0,0.15,0.15,1.5,0.075,0.825,441
"796",4589,"Pin Gin",0,0.28,0.28,1.2,0.14,0.74,34396
"797",4590,"Pin Gin",0,0.15,0.15,2.1,0.075,1.125,34396
"798",4592,"Pin Gin",0,0.35,0.35,1.65,0.175,1,34396
"799",4594,"Pin Gin",0,0.15,0.15,3,0.075,1.575,34396
"800",4597,"Prendergast",0,0.38,0.38,1.2,0.19,0.79,157
"801",4600,"Powerhouse",0,0.08,0.08,1.5,0.04,0.79,336
"802",4601,"Pindi",0,0.28,0.28,0.91,0.14,0.595,5096
"803",4603,"Price",0,0.75,0.75,1.3,0.375,1.025,164
"804",4606,"Pakington",0,0.13,0.13,1.5,0.065,0.815,7
"805",4608,"Palm",0,0.26,0.26,0.9,0.13,0.58,3993
"806",4611,"Palouse",0,0.2,0.2,1.05,0.1,0.625,318
"807",4612,"Palouse",0,0.21,0.21,1.1,0.105,0.655,318
"808",4613,"Pearlinga",0,0.55,0.55,1.5,0.275,1.025,56
"809",4614,"Pluto",0,0.43,0.43,1.1,0.215,0.765,84
"810",4615,"Pluto",0,0.2,0.2,0.85,0.1,0.525,84
"811",4617,"Poplar",0,0.33,0.33,2,0.165,1.165,38
"812",4619,"Penman",0,0.3,0.3,1.5,0.15,0.9,153
"813",4622,"Pioneer",0,0.45,0.45,1,0.225,0.725,8027
"814",4623,"Pioneer",0,0.65,0.65,1,0.325,0.825,8027
"815",4624,"Pioneer, Red B Horizon Variant",0,0.36,0.36,1.5,0.18,0.93,1352
"816",4625,"Ponzo",0,0.3,0.3,0.8,0.15,0.55,335
"817",4626,"Proserpine",0,0.33,0.33,0.74,0.165,0.535,2102
"818",4628,"Peep",0,0.3,0.3,1.5,0.15,0.9,2042
"819",4634,"Pring",0,0.2,0.2,0.85,0.1,0.525,93
"820",4635,"Prior",0,0.25,0.25,1.05,0.125,0.65,2140
"821",4636,"Prior",0,0.3,0.3,0.85,0.15,0.575,2140
"822",4637,"Prior",0,0.38,0.38,0.86,0.19,0.62,2140
"823",4640,"Prior",0,0.35,0.35,1.25,0.175,0.8,2140
"824",4644,"Peterson",0,0.15,0.15,1.5,0.075,0.825,114
"825",4645,"Porter",0,0.2,0.2,0.85,0.1,0.525,497
"826",4647,"Petrona",0,NA,0.6,NA,0.3,NA,98
"827",4649,"Porter",0,0.33,0.33,1.2,0.165,0.765,497
"828",4652,"Proston",0,0.17,0.17,1.6,0.085,0.885,80
"829",4660,"Qunaba",0,0.45,0.45,1.5,0.225,0.975,43
"830",4663,"Quincan",0,0.13,0.13,1.05,0.065,0.59,15
"831",4664,"Quart",0,0.7,0.7,1.5,0.35,1.1,18227
"832",4677,"Ramleh",0,0.3,0.3,1.2,0.15,0.75,2042
"833",4678,"Ramleh",0,0.3,0.3,1.5,0.15,0.9,2042
"834",4679,"Ramleh",0,0.2,0.2,1.5,0.1,0.85,2042
"835",4680,"Rubyanna",0,0.2,0.2,1.5,0.1,0.85,456
"836",4688,"Robur",0,0.7,0.7,1.5,0.35,1.1,4019
"837",4697,"Roundback Level Phase",0,0.27,0.27,1.5,0.135,0.885,253
"838",4702,"Rudd",0,0.3,0.3,1.5,0.15,0.9,392
"839",4703,"Redbank",0,0.23,0.23,1.5,0.115,0.865,477
"840",4712,"Rungoo",0,0.55,0.55,1.45,0.275,1,1094
"841",4717,"Rungoo",0,0.58,0.58,1.2,0.29,0.89,1094
"842",4719,"Rankin",0,0.12,0.12,1.1,0.06,0.61,463
"843",4722,"Riverleigh",0,0.5,0.5,1.5,0.25,1,193
"844",4725,"Russell",0,0.06,0.06,0.95,0.03,0.505,70850
"845",4726,"Russell, Stony Phase",0,0.05,0.05,0.45,0.025,0.25,146
"846",4729,"Russell, Gilgai Phase",0,0.11,0.11,1.15,0.055,0.63,612
"847",4730,"Ram",0,0.4,0.4,1.7,0.2,1.05,164
"848",4739,"Rolleston",0,0.04,0.04,1.2,0.02,0.62,11767
"849",4740,"Royston",0,0.23,0.23,1.2,0.115,0.715,386
"850",4742,"Ripple",0,0.5,0.5,1.2,0.25,0.85,830
"851",4746,"Retro",0,0.15,0.15,1.2,0.075,0.675,253
"852",4747,"Retro (BAN)",0,0.25,0.25,1.25,0.125,0.75,1968
"853",4748,"Retro",0,0.3,0.3,1.2,0.15,0.75,253
"854",4749,"Rothchild",0,0.93,0.93,1.5,0.465,1.215,788
"855",4750,"Rothchild",0,0.85,0.85,1.5,0.425,1.175,788
"856",4753,"Riordanvale",0,0.1,0.1,0.65,0.05,0.375,150
"857",4757,"Ray",0,0.45,0.45,1.7,0.225,1.075,419
"858",4769,"Sandiford",0,0.33,0.33,0.95,0.165,0.64,19067
"859",4770,"Sandiford",0,0.3,0.3,1.6,0.15,0.95,19067
"860",4772,"Sandiford (Silty Topsoil Variant)",0,0.45,0.45,1.66,0.225,1.055,219
"861",4774,"Shurback",0,0.4,0.4,0.7,0.2,0.55,44
"862",4784,"Saddle",0,0.45,0.45,1.2,0.225,0.825,232
"863",4785,"Sadie",0,0.07,0.07,1.5,0.035,0.785,202
"864",4789,"Strathdickie",0,0.35,0.35,0.8,0.175,0.575,268
"865",4791,"Silkwood Brown A Horizon Variant",0,0.38,0.38,1.05,0.19,0.715,106
"866",4792,"Seaforth",0,0.33,0.33,1.2,0.165,0.765,472
"867",4796,"Seaforth, Dark B Horizon Variant",0,0.35,0.35,0.98,0.175,0.665,55
"868",4797,"Seaforth, Yellow B Horizon Variant",0,0.25,0.25,1.2,0.125,0.725,35
"869",4800,"Sugarbag",0,0.23,0.23,1.4,0.115,0.815,52
"870",4801,"Silent Grove",0,0.04,0.04,1.2,0.02,0.62,1781
"871",4805,"Shotover",0,NA,0.2,NA,0.1,NA,279
"872",4807,"Silkwood",0,0.6,0.6,1.7,0.3,1.15,1320
"873",4809,"Silkwood",0,0.6,0.6,1.4,0.3,1,1320
"874",4810,"Samourgassi",0,NA,0.3,NA,0.15,NA,186
"875",4811,"Silkwood",0,0.13,0.13,1.2,0.065,0.665,1320
"876",4815,"Slater",0,0.21,0.21,1.35,0.105,0.78,5792
"877",4823,"Sugarmill",0,0.3,0.3,0.65,0.15,0.475,2374
"878",4827,"Santo",0,0.18,0.18,0.85,0.09,0.515,25
"879",4829,"Severin - Tab",0,0.35,0.35,1.25,0.175,0.8,58
"880",4830,"Solferino",0,0.06,0.06,1.36,0.03,0.71,1118
"881",4831,"Stone",0,0.38,0.38,1.2,0.19,0.79,152
"882",4833,"Sunter",0,0.6,0.6,0.9,0.3,0.75,41
"883",4842,"Spanos",0,0.35,0.35,1.35,0.175,0.85,2034
"884",4843,"Spanos",0,0.61,0.61,1.4,0.305,1.005,2034
"885",4844,"Spanos",0,0.4,0.4,2.1,0.2,1.25,2034
"886",4845,"Spanos",0,0.4,0.4,1.2,0.2,0.8,2034
"887",4848,"Septimus",0,0.4,0.4,1.1,0.2,0.75,23
"888",4850,"Spanos",0,0.32,0.32,1.65,0.16,0.985,2034
"889",4853,"Spier",0,0.2,0.2,1.3,0.1,0.75,84
"890",4854,"Springs",0,0.28,0.28,2.68,0.14,1.48,53
"891",4855,"Springwood",0,0.25,0.25,1.2,0.125,0.725,4269
"892",4871,"St Helens",0,0.4,0.4,0.86,0.2,0.63,4163
"893",4879,"Sunnyside",0,0.2,0.2,1.2,0.1,0.7,15931
"894",4880,"Sunnyside",0,0.32,0.32,1.2,0.16,0.76,15931
"895",4881,"Sunnyside",0,0.25,0.25,1.6,0.125,0.925,15931
"896",4885,"Summerville",0,0.55,0.55,1.5,0.275,1.025,156
"897",4887,"Seaview",0,0.2,0.2,0.53,0.1,0.365,922
"898",4897,"Sylvia",0,0.28,0.28,1.3,0.14,0.79,2
"899",4909,"Thorpe - Dlr",0,NA,0.1,NA,0.05,NA,13
"900",4911,"Tawalla",0,0.33,0.33,0.72,0.165,0.525,72
"901",4912,"Tawalla",0,0.38,0.38,1,0.19,0.69,72
"902",4913,"Tawalla",0,0.38,0.38,1,0.19,0.69,72
"903",4916,"Tannalo",0,0.5,0.5,0.93,0.25,0.715,1085
"904",4919,"Taurus",0,0.2,0.2,1.25,0.1,0.725,1350
"905",4921,"Tiaro",0,0.21,0.21,0.7,0.105,0.455,77
"906",4922,"Tiaro",0,0.3,0.3,1.4,0.15,0.85,77
"907",4926,"Tirrabella",0,0.3,0.3,1.5,0.15,0.9,2295
"908",4927,"Taabinga",0,0.15,0.15,1.5,0.075,0.825,4570
"909",4928,"Tabletop",0,0.2,0.2,1.3,0.1,0.75,8
"910",4931,"Thalberg",0,0.35,0.35,1.51,0.175,0.93,30
"911",4932,"Timbrell",0,0.3,0.3,1.3,0.15,0.8,130
"912",4934,"Toobanna",0,0.55,0.55,0.6,0.275,0.575,32161
"913",4938,"TbUg-1",0,0.05,0.05,1.5,0.025,0.775,222
"914",4939,"TbUg-10",0,0.95,0.95,1.5,0.475,1.225,70
"915",4940,"TbUg-11",0,0.05,0.05,0.95,0.025,0.5,155
"916",4941,"TbUg-12",0,0.05,0.05,1.15,0.025,0.6,174
"917",4942,"TbUg-13",0,0.05,0.05,1.5,0.025,0.775,172
"918",4946,"TbUg-2",0,0.05,0.05,1.5,0.025,0.775,1199
"919",4948,"TbUg-4",0,0.05,0.05,1.5,0.025,0.775,330
"920",4949,"TbUg-5",0,0.05,0.05,1.5,0.025,0.775,15
"921",4950,"TbUg-6",0,0.95,0.95,1.5,0.475,1.225,197
"922",4951,"TbUg-7",0,0.05,0.05,1.5,0.025,0.775,160
"923",4952,"TbUg-8",0,0.05,0.05,1.5,0.025,0.775,58
"924",4953,"TbUg-9",0,0.05,0.05,1.6,0.025,0.825,49
"925",4954,"Terrace",0,0.15,0.15,0.75,0.075,0.45,137
"926",4958,"Teddington",0,0.23,0.23,1.5,0.115,0.865,452
"927",4959,"Toondoon",0,0.35,0.35,1.5,0.175,0.925,101
"928",4960,"Te_El_Kabir",0,0.15,0.15,1.5,0.075,0.825,16
"929",4961,"Telegraph",0,0.25,0.25,1.6,0.125,0.925,3669
"930",4962,"Tingoora",0,0.1,0.1,0.6,0.05,0.35,534
"931",4966,"Thorpe",0,0.3,0.3,1.05,0.15,0.675,20536
"932",4967,"Thorpe",0,0.29,0.29,1.3,0.145,0.795,20536
"933",4968,"Thorpe",0,0.42,0.42,1.35,0.21,0.885,20536
"934",4969,"Thorpe",0,0.2,0.2,1.2,0.1,0.7,20536
"935",4970,"Thorpe",0,0.43,0.43,1.2,0.215,0.815,20536
"936",4973,"Theodolite",0,0.38,0.38,0.5,0.19,0.44,122
"937",4974,"Theodolite",0,0.38,0.38,0.5,0.19,0.44,122
"938",4979,"Thorpe",0,0.25,0.25,1,0.125,0.625,20536
"939",4980,"Thorpe",0,0.28,0.28,1.2,0.14,0.74,20536
"940",4988,"Timara",0,0.28,0.28,1.1,0.14,0.69,5268
"941",4989,"Timara",0,0.29,0.29,1.1,0.145,0.695,5268
"942",4991,"Timara",0,0.21,0.21,0.9,0.105,0.555,5268
"943",4992,"Tailing",0,0.15,0.15,1.65,0.075,0.9,631
"944",4995,"Timara",0,0.14,0.14,0.68,0.07,0.41,5268
"945",4996,"Tinana",0,0.18,0.18,0.65,0.09,0.415,21
"946",5006,"Tinkle",0,0.9,0.9,1.4,0.45,1.15,47
"947",5009,"Tedlands",0,0.38,0.38,1.07,0.19,0.725,4271
"948",5011,"Tenmile",0,0.1,0.1,1.3,0.05,0.7,224
"949",5026,"Tandora",0,0.15,0.15,1.5,0.075,0.825,164
"950",5028,"Tognolini",0,0.18,0.18,1.4,0.09,0.79,1427
"951",5029,"Tureen",0,0.12,0.12,0.37,0.06,0.245,309
"952",5030,"Turnor",0,0.33,0.33,1.2,0.165,0.765,1469
"953",5031,"Tolga",0,0.2,0.2,1.7,0.1,0.95,193191
"954",5032,"Tolga",0,0.19,0.19,1.65,0.095,0.92,193191
"955",5037,"Turpad",0,NA,1.2,NA,0.6,NA,194
"956",5038,"Turpin",0,0.38,0.38,1.5,0.19,0.94,1793
"957",5043,"Tranters",0,0.18,0.18,1.2,0.09,0.69,117
"958",5044,"Tarong",0,0.22,0.22,1.1,0.11,0.66,862
"959",5045,"Tarramba",0,0.16,0.16,1.2,0.08,0.68,14647
"960",5047,"Tirroan",0,0.38,0.38,1.5,0.19,0.94,1489
"961",5050,"Tirroan",0,0.38,0.38,1.5,0.19,0.94,1489
"962",5052,"Trebonne",0,0.43,0.43,0.85,0.215,0.64,5098
"963",5053,"Tregear",0,0.32,0.32,1.3,0.16,0.81,64
"964",5056,"Tirroan Rocky Phase",0,NA,0.3,NA,0.15,NA,45
"965",5057,"Trebonne Sandy Phase",0,0.43,0.43,0.85,0.215,0.64,69
"966",5070,"TsDr-2",0,0.28,0.28,0.65,0.14,0.465,133
"967",5072,"TsDy-1",0,0.46,0.46,1.5,0.23,0.98,270
"968",5073,"TsDy-1",0,0.31,0.31,1.5,0.155,0.905,270
"969",5081,"TsDy-6",0,0.65,0.65,1.5,0.325,1.075,100
"970",5091,"TsGn-3",0,0.23,0.23,1.5,0.115,0.865,58
"971",5092,"TsGn-4",0,0.23,0.23,1.4,0.115,0.815,152
"972",5093,"TsGn-5",0,0.7,0.7,1.03,0.35,0.865,250
"973",5094,"TsGn-5",0,0.6,0.6,1.05,0.3,0.825,250
"974",5095,"TsGn-6",0,0.25,0.25,0.68,0.125,0.465,43
"975",5096,"TsGn-6",0,0.25,0.25,0.63,0.125,0.44,43
"976",5099,"TsGn-4",0,0.28,0.28,1.18,0.14,0.73,152
"977",5102,"TsUc-2",0,0.33,0.33,1.5,0.165,0.915,149
"978",5106,"TsUf-3",0,0.13,0.13,1.5,0.065,0.815,52
"979",5108,"TsUf-6",0,0.13,0.13,1.5,0.065,0.815,50
"980",5113,"TsUg-7",0,0.25,0.25,1.5,0.125,0.875,1952
"981",5114,"TsUg-7",0,0.2,0.2,1.5,0.1,0.85,1952
"982",5117,"TsUgg-1",0,0.3,0.3,1.5,0.15,0.9,60
"983",5118,"TsUgg-2",0,0.18,0.18,1.5,0.09,0.84,123
"984",5122,"Tabletop",0,0.06,0.06,1.5,0.03,0.78,8
"985",5123,"Tantitha",0,0.3,0.3,1.5,0.15,0.9,459
"986",5128,"Tully",0,0.6,0.6,1.2,0.3,0.9,69891
"987",5130,"Tully",0,0.38,0.38,2,0.19,1.19,69891
"988",5131,"Tully",0,0.38,0.38,1.6,0.19,0.99,69891
"989",5132,"Tully",0,0.15,0.15,1.2,0.075,0.675,69891
"990",5136,"Teviot",0,0.1,0.1,1.25,0.05,0.675,32611
"991",5147,"Tyson",0,0.33,0.33,2.1,0.165,1.215,1659
"992",5149,"Tyson",0,0.13,0.13,1.2,0.065,0.665,1659
"993",5151,"Tyson",0,0.2,0.2,2.1,0.1,1.15,1659
"994",5159,"Uruba",0,0.23,0.23,1,0.115,0.615,1876
"995",5160,"Uruba",0,0.25,0.25,0.55,0.125,0.4,1876
"996",5161,"Uruba, Alluvial-Colluvial Variant",0,0.3,0.3,1,0.15,0.65,420
"997",5166,"Uncle",0,0.6,0.6,1.35,0.3,0.975,118
"998",5169,"Ulogie",0,0.33,0.33,1.51,0.165,0.92,50
"999",5173,"Uramo",0,0.55,0.55,0.8,0.275,0.675,28
"1000",5176,"Umala - Tab",0,0.3,0.3,1.5,0.15,0.9,36
"1001",5178,"Urannah",0,NA,0.5,NA,0.25,NA,472
"1002",5179,"Up River",0,0.28,0.28,1.69,0.14,0.985,342
"1003",5180,"Utchee",0,0.25,0.25,2.1,0.125,1.175,1160
"1004",5182,"Utchee",0,0.38,0.38,3,0.19,1.69,1160
"1005",5184,"Utchee",0,0.6,0.6,2.5,0.3,1.55,1160
"1006",5185,"Utchee",0,0.25,0.25,1.4,0.125,0.825,1160
"1007",5187,"Vicenza",0,0.11,0.11,1.5,0.055,0.805,22749
"1008",5190,"Victoria Plains",0,0.08,0.08,1.2,0.04,0.64,12667
"1009",5191,"Victoria Plains",0,0.3,0.3,1.8,0.15,1.05,12667
"1010",5193,"Virgil",0,0.29,0.29,1.08,0.145,0.685,7523
"1011",5194,"Virgil",0,0.3,0.3,1.08,0.15,0.69,7523
"1012",5195,"Virgil",0,0.25,0.25,2.1,0.125,1.175,7523
"1013",5196,"Virgil",0,0.3,0.3,2.8,0.15,1.55,7523
"1014",5198,"Violet",0,NA,0.28,NA,0.14,NA,98
"1015",5199,"Vermont",0,0.04,0.04,1,0.02,0.52,147608
"1016",5214,"Wandarra",0,0.71,0.71,1.26,0.355,0.985,141
"1017",5220,"Woober",0,0.25,0.25,1.5,0.125,0.875,761
"1018",5221,"Woober",0,0.25,0.25,1.5,0.125,0.875,761
"1019",5232,"Windradene",0,0.16,0.16,0.3,0.08,0.23,1637
"1020",5233,"Wondai",0,0.1,0.1,1.5,0.05,0.8,869
"1021",5236,"Weatherby",0,0.45,0.45,0.95,0.225,0.7,5
"1022",5240,"Weir",0,0.13,0.13,0.83,0.065,0.48,3132
"1023",5243,"Whitfield",0,0.3,0.3,0.85,0.15,0.575,741
"1024",5244,"Whitfield",0,0.3,0.3,0.95,0.15,0.625,741
"1025",5245,"Winfield",0,1,1,1.5,0.5,1.25,723
"1026",5246,"Winfield",0.04,NA,0.1,NA,0.07,NA,723
"1027",5249,"Wongabel",0,0.38,0.38,1.05,0.19,0.715,1
"1028",5250,"Wygong",0,0.03,0.03,0.92,0.015,0.475,16
"1029",5251,"Wagoora",0,0.23,0.23,1.2,0.115,0.715,4316
"1030",5256,"Woongarra",0,0.25,0.25,1.5,0.125,0.875,42448
"1031",5258,"Wagoora, Basic Parent Material Variant",0,0.25,0.25,1.2,0.125,0.725,1144
"1032",5260,"Whelan",0,NA,0.28,NA,0.14,NA,14
"1033",5261,"Whelan",0,0.26,0.26,0.44,0.13,0.35,14
"1034",5262,"Weithew",0,0.07,0.07,1.5,0.035,0.785,91
"1035",5264,"Wheatlands",0,0.2,0.2,1.2,0.1,0.7,92
"1036",5265,"Wheatlands",0,0.2,0.2,1.28,0.1,0.74,92
"1037",5266,"Whiptail",0,0.31,0.31,0.8,0.155,0.555,2317
"1038",5274,"Windermere",0,0.18,0.18,1.5,0.09,0.84,291
"1039",5277,"Walkamin",0,0.16,0.16,1.35,0.08,0.755,3702
"1040",5279,"Walkamin",0,0.65,0.65,1.8,0.325,1.225,3702
"1041",5280,"Walker - Mhb",0,0.15,0.15,1.2,0.075,0.675,579
"1042",5281,"Walker - Mhb",0,0.15,0.15,1.2,0.075,0.675,579
"1043",5283,"Woodleigh",0,0.1,0.1,0.8,0.05,0.45,25
"1044",5285,"Walla",0,0.17,0.17,1.5,0.085,0.835,3995
"1045",5287,"Well",0,0.06,0.06,1.5,0.03,0.78,405
"1046",5291,"Well, Footslope Variant",0,0.06,0.06,1.18,0.03,0.62,652
"1047",5292,"Well, Sandy Surface Variant",0,0.11,0.11,0.6,0.055,0.355,95
"1048",5293,"Warrami",0,NA,0.19,NA,0.095,NA,4842
"1049",5294,"Warrami",0,NA,0.41,NA,0.205,NA,4842
"1050",5296,"Wallum",0,0.38,0.38,0.58,0.19,0.48,591
"1051",5308,"Woco",0,0.43,0.43,1.5,0.215,0.965,349
"1052",5312,"Wollingford",0,0.28,0.28,1.05,0.14,0.665,3462
"1053",5313,"Wollingford",0,0.3,0.3,0.8,0.15,0.55,3462
"1054",5316,"Wollingford, Intrusive Parent Material Variant",0,0.25,0.25,1.2,0.125,0.725,113
"1055",5317,"Wollingford, Yellow B Horizon Variant",0,0.25,0.25,1.1,0.125,0.675,409
"1056",5318,"Washpool",0,0.3,0.3,1.5,0.15,0.9,76
"1057",5321,"Wagoora",0,0.15,0.15,1.6,0.075,0.875,4316
"1058",5326,"Woolmer",0,0.4,0.4,1.5,0.2,0.95,1164
"1059",5330,"Wooroolin",0,0.27,0.27,1,0.135,0.635,2618
"1060",5332,"Walsch",0,0.18,0.18,0.68,0.09,0.43,537
"1061",5333,"Walsh",0,0.5,0.5,1.35,0.25,0.925,865
"1062",5339,"Watalgan",0,0.24,0.24,1.5,0.12,0.87,7572
"1063",5340,"Watalgan",0,0.3,0.3,1.2,0.15,0.75,7572
"1064",5346,"Wathana Heavier-Textured Var",0,0.32,0.32,1.5,0.16,0.91,23
"1065",5351,"Wivenhoe",0,0.5,0.5,1.2,0.25,0.85,660
"1066",5356,"Whymere",0,0.7,0.7,1.5,0.35,1.1,317
"1067",5358,"Wyseby",0,0.25,0.25,1.25,0.125,0.75,202
"1068",5368,"Yackadoo",0,0.06,0.06,0.2,0.03,0.13,127
"1069",5385,"Yuruga",0,0.28,0.28,1.2,0.14,0.74,15947
"1070",7534,"1CHa",0,0.3,0.3,1.4,0.15,0.85,32
"1071",7535,"1CHb",0,0.7,0.7,1.3,0.35,1,314
"1072",7537,"1DEa",0,0.1,0.1,1.3,0.05,0.7,155
"1073",7539,"1KTa",0,0.9,0.9,1.6,0.45,1.25,324
"1074",7540,"1SOa",0,0.15,0.15,1.6,0.075,0.875,112
"1075",7541,"1SOb",0,0.2,0.2,1.5,0.1,0.85,215
"1076",7548,"2VEa",0,0.09,0.09,1.32,0.045,0.705,203
"1077",7549,"2VEb",0,0.1,0.1,1.55,0.05,0.825,173
"1078",7552,"2VEe",0,0.05,0.05,1.4,0.025,0.725,57
"1079",7553,"2VEx",0,0.1,0.1,1.6,0.05,0.85,2599
"1080",7554,"2VEy",0,0.05,0.05,1.13,0.025,0.59,365
"1081",7556,"3CHx",0,0.6,0.6,1.2,0.3,0.9,191
"1082",7564,"3VEa",0,0.09,0.09,1.55,0.045,0.82,91
"1083",7565,"3VEb",0,0.05,0.05,1.6,0.025,0.825,108
"1084",7566,"3VEc",0,0.08,0.08,1.6,0.04,0.84,387
"1085",7567,"3VEw",0,0.02,0.02,1.25,0.01,0.635,35
"1086",7569,"3VEy",0,0.03,0.03,0.6,0.015,0.315,4107
"1087",7570,"3VEz",0,0.1,0.1,1.2,0.05,0.65,346
"1088",7615,"Oombabeer",0,0.16,0.16,1.5,0.08,0.83,130
"1089",7621,"Althaus (Zed)",0,NA,4,NA,2,NA,421
"1090",7629,"Black",0,NA,0.2,NA,0.1,NA,1980
"1091",7637,"Clemant",0,NA,0.1,NA,0.05,NA,19
"1092",7638,"Carinya",0,0.5,0.5,1.5,0.25,1,62
"1093",7654,"Granite",0,NA,0.1,NA,0.05,NA,6
"1094",7659,"Hillview (Zed)",0,0.2,0.2,1,0.1,0.6,19
"1095",7660,"Hervey",0,0.25,0.25,1.5,0.125,0.875,8
"1096",7676,"Manton",0,NA,0.1,NA,0.05,NA,177
"1097",7686,"Purono",0,NA,0.05,NA,0.025,NA,325
"1098",7689,"Ross",0,NA,0.15,NA,0.075,NA,191
"1099",7691,"Scrubby (Zed)",0,NA,0.2,NA,0.1,NA,669
"1100",7692,"Stockyard (Zed)",0,NA,0.1,NA,0.05,NA,303
"1101",7693,"Sachs",0,NA,0.04,NA,0.02,NA,62
"1102",7697,"Stanley",0,NA,0.03,NA,0.015,NA,457
"1103",7707,"Yileena",0,0.3,0.3,1.5,0.15,0.9,283
"1104",7740,"Krongie",0,0.15,0.15,1.3,0.075,0.725,74807
"1105",7852,"Voewood",0,0.3,0.3,1.3,0.15,0.8,52
"1106",7859,"Kabra",0,0.25,0.25,0.7,0.125,0.475,16
"1107",7879,"Todds",0,0.7,0.7,1.5,0.35,1.1,23
"1108",7901,"Muldoon",0,0.1,0.1,0.6,0.05,0.35,28
"1109",7974,"Adeline",0,0.13,0.13,1.2,0.065,0.665,43
"1110",7976,"Battery",0,0.1,0.1,1,0.05,0.55,2859
"1111",7984,"Burradoo",0,0.15,0.15,0.9,0.075,0.525,59
"1112",7986,"Carfax",0,0.06,0.06,1.5,0.03,0.78,2002
"1113",7990,"Emoh",0,0.25,0.25,0.5,0.125,0.375,12
"1114",7992,"Foxleigh",0,0.3,0.3,1.5,0.15,0.9,2
"1115",7999,"Honeycomb",0,0.12,0.12,1,0.06,0.56,22
"1116",8004,"Kirkcaldy",0,0.1,0.1,1.5,0.05,0.8,76
"1117",8005,"Knockane",0,0.08,0.08,1.5,0.04,0.79,97
"1118",8006,"Langley-Wdh",0,0.05,0.05,1.5,0.025,0.775,4603
"1119",8007,"Leitrim",0,0.05,0.05,0.95,0.025,0.5,51
"1120",8008,"Lindsay",0,0.04,0.04,1.4,0.02,0.72,828
"1121",8009,"May",0,0.05,0.05,0.9,0.025,0.475,5213
"1122",8010,"May Shallow Phase",0,0.05,0.05,0.5,0.025,0.275,172
"1123",8018,"Ninemile",0,0.06,0.06,1.1,0.03,0.58,102
"1124",8019,"Norwich",0,0.04,0.04,1.5,0.02,0.77,218
"1125",8021,"Picardy",0,0.06,0.06,1.6,0.03,0.83,8865
"1126",8022,"Picardy Surface Seal Phase",0,0.05,0.05,1.2,0.025,0.625,5810
"1127",8026,"Racetrack",0,0.2,0.2,1.6,0.1,0.9,18
"1128",8031,"Roper",0,0.3,0.3,1.3,0.15,0.8,11
"1129",8032,"Stateschool",0,0.2,0.2,1.1,0.1,0.65,135
"1130",8033,"Stephens",0,0.04,0.04,1,0.02,0.52,66
"1131",8036,"Tiny",0,0.05,0.05,1.7,0.025,0.875,133
"1132",8037,"Tralee",0,0.03,0.03,1.5,0.015,0.765,150
"1133",8038,"Turon",0,0.02,0.02,1.5,0.01,0.76,21
"1134",8039,"Warwick",0,0.03,0.03,1.6,0.015,0.815,65
"1135",8119,"1ADE1",0,0.2,0.2,1,0.1,0.6,884
"1136",8120,"1ACH1",0,0.25,0.25,0.8,0.125,0.525,730
"1137",8121,"1ACH2",0,0.8,0.8,1.6,0.4,1.2,379
"1138",8122,"1ASO1",0,0.55,0.55,1.5,0.275,1.025,44
"1139",8123,"1AVE1",0,0.12,0.12,1.6,0.06,0.86,6809
"1140",8127,"1AVE5",0,0.15,0.15,1.51,0.075,0.83,46
"1141",8131,"1ADE2",0,0.15,0.15,0.8,0.075,0.475,132
"1142",8451,"Artillery",0,0.25,0.25,0.75,0.125,0.5,28
"1143",8506,"Dalrymple (MAJCK)",0,0.15,0.15,1.2,0.075,0.675,3
"1144",8802,"Cobra Gravelly Phase",0,0.28,0.28,1.8,0.14,1.04,433
"1145",8808,"Emerald Coarse Sandy Phase",0,0.2,0.2,1.6,0.1,0.9,39
"1146",8810,"Feluga Red Variant",0,0.39,0.39,2.1,0.195,1.245,438
"1147",8819,"Mulligan Gravelly Phase",0,0.3,0.3,1.6,0.15,0.95,28
"1148",8822,"Murphy Pan Phase",0,0.8,0.8,0.85,0.4,0.825,397
"1149",8824,"Nullinga Shallow Phase",0,0.3,0.3,1,0.15,0.65,204
"1150",8831,"Ray Rocky Phase",0,0.45,0.45,1.7,0.225,1.075,9
"1151",8836,"Tolga Rocky Phase",0,0.19,0.19,1.65,0.095,0.92,779
"1152",8837,"Uncle Shallow Phase",0,0.4,0.4,0.8,0.2,0.6,74
"1153",8840,"Walkamin Grey Variant",0,0.16,0.16,1.35,0.08,0.755,88
"1154",8841,"Walkamin Rocky Phase",0,0.65,0.65,1.8,0.325,1.225,481
"1155",8845,"Walsh Coarse Sandy Phase",0,0.5,0.5,1.35,0.25,0.925,69
"1156",8850,"Garrett",0,0.2,0.2,1.55,0.1,0.875,12
"1157",8851,"Eversleigh",0,0.19,0.19,1.5,0.095,0.845,346
"1158",8854,"Haden",0,0.35,0.35,1.5,0.175,0.925,45
"1159",8856,"Dudgeon",0,0.28,0.28,1.25,0.14,0.765,31
"1160",8857,"Perry",0,0.25,0.25,1.5,0.125,0.875,310
"1161",8858,"Berris",0,0.3,0.3,0.75,0.15,0.525,86
"1162",8861,"Witton, vertic variant",0,0.1,0.1,1.5,0.05,0.8,13
"1163",8926,"2UggW",0,0.15,0.15,1.5,0.075,0.825,72
"1164",9219,"PLDR",0,NA,0.35,NA,0.175,NA,45
"1165",9231,"REDR",0,0.2,0.2,1,0.1,0.6,71
"1166",9300,"Black",0,0.3,0.3,1.3,0.15,0.8,1980
"1167",9303,"Clemant",0,0.7,0.7,1.3,0.35,1,19
"1168",9314,"Granite",0,0.3,0.3,1.4,0.15,0.85,6
"1169",9322,"Sachs",0,0.04,0.04,2.5,0.02,1.27,62
"1170",9388,"Kairi",0,0.35,0.35,1.5,0.175,0.925,295
"1171",9390,"Pope",0,0.28,0.28,1.5,0.14,0.89,69
"1172",9391,"Drysdale",0,0.28,0.28,1.5,0.14,0.89,112
"1173",9514,"SDE4",0,0.2,0.2,0.35,0.1,0.275,8
"1174",9519,"Greycliffe Melonhole Phase",0,0.04,0.04,1.5,0.02,0.77,1115
"1175",9522,"Aroa",0,0.1,0.1,1,0.05,0.55,5576
"1176",9523,"Holding",0,0.05,0.05,1.3,0.025,0.675,2748
"1177",9524,"Kenmar",0,0.02,0.02,1.3,0.01,0.66,3855
"1178",9568,"Carbeen",0,0.2,0.2,1.05,0.1,0.625,11
"1179",9708,"Sister",0,0.3,0.3,0.7,0.15,0.5,0
"1180",9820,"Mareeba 1",0,0.18,0.18,3.8,0.09,1.99,13
"1181",9877,"Monsildale",0,0.2,0.2,1.2,0.1,0.7,12
"1182",9906,"Avondale Yellow Variant",0,0.3,0.3,1.5,0.15,0.9,47
"1183",9917,"Theodolite Saline Phase",0,0.38,0.38,0.5,0.19,0.44,136
"1184",9980,"Weithew",0,0.07,0.07,1.5,0.035,0.785,91
"1185",9988,"Winfield",0,NA,1.6,NA,0.8,NA,723
"1186",10278,"Archookoora Rocky Phase",0,0.2,0.2,1.1,0.1,0.65,68
"1187",10280,"Archookoora Saline Phase",0,0.2,0.2,1.1,0.1,0.65,0
"1188",10295,"Kumbia Rocky Phase",0,0.2,0.2,0.6,0.1,0.4,47
"1189",10297,"Kaber Red Variant",0,0.18,0.18,1.6,0.09,0.89,15
"1190",10301,"Mceuen Rocky Phase",0,0.07,0.07,0.5,0.035,0.285,25
