"","NAME","LD_A_spc","LD_B_spc","Mid_A_spc","Mid_B_spc","LD_A_site","LD_B_site","Mid_A_site","Mid_B_site","count_sites","LD_A_final","LD_B_final","Mid_A_final","Mid_B_final","data_src"
"1","1ACH1",0.25,0.8,0.125,0.525,0.22,0.8,0.11,0.51,11,0.25,0.8,0.125,0.525,"spc"
"2","1ACH2",0.8,1.6,0.4,1.2,0.725,1.51,0.3625,1.17,14,0.8,1.6,0.4,1.2,"spc"
"3","1ADb",0.79,1.25,0.395,1.02,0.65,1.2,0.325,0.925,1,0.79,1.25,0.395,1.02,"spc"
"4","1ADb-1",0.37,0.89,0.185,0.63,NA,NA,NA,NA,NA,0.37,0.89,0.185,0.63,"spc"
"5","1ADb-2",0.31,0.9,0.155,0.605,0.21,0.9,0.105,0.605,3,0.31,0.9,0.155,0.605,"spc"
"6","1ADb-7",0.11,1.38,0.055,0.745,0.05,1.5,0.025,0.775,1,0.11,1.38,0.055,0.745,"spc"
"7","1ADb-9",0.7,1.6,0.35,1.15,NA,NA,NA,NA,NA,0.7,1.6,0.35,1.15,"spc"
"8","1ADb-Dd",0.2,0.98,0.1,0.59,0.16,1,0.08,0.58,1,0.2,0.98,0.1,0.59,"spc"
"9","1ADd-3",0.11,0.65,0.055,0.38,0.11,1.5,0.055,0.805,1,0.11,0.65,0.055,0.38,"spc"
"10","1ADd-4",0.135,0.95,0.0675,0.5425,0.11,0.8,0.055,0.475,3,0.135,0.95,0.0675,0.5425,"spc"
"11","1ADd-5",0.31,0.9,0.155,0.605,NA,NA,NA,NA,NA,0.31,0.9,0.155,0.605,"spc"
"12","1ADE1",0.2,1,0.1,0.6,0.2,1.1,0.1,0.765,29,0.2,1,0.1,0.6,"spc"
"13","1ADE2",0.15,0.8,0.075,0.475,0.15,0.8,0.075,0.46,19,0.15,0.8,0.075,0.475,"spc"
"14","1ASO1",0.55,1.5,0.275,1.025,0.43,1.5,0.215,0.95,21,0.55,1.5,0.275,1.025,"spc"
"15","1AUf-7",0.11,0.95,0.055,0.53,NA,NA,NA,NA,NA,0.11,0.95,0.055,0.53,"spc"
"16","1AUg-1",0.1,0.88,0.05,0.49,NA,NA,NA,NA,NA,0.1,0.88,0.05,0.49,"spc"
"17","1AUg-12",0.35,1.33,0.175,0.84,0.1,1.2,0.05,0.65,3,0.35,1.33,0.175,0.84,"spc"
"18","1AUg-13",0.13,1.15,0.065,0.64,0.125,1.15,0.0625,0.6375,2,0.13,1.15,0.065,0.64,"spc"
"19","1AUg-18",0.08,1.2,0.04,0.64,NA,NA,NA,NA,NA,0.08,1.2,0.04,0.64,"spc"
"20","1AUg-2",0.1,1.5,0.05,0.8,0.1,1.5,0.05,0.8,1,0.1,1.5,0.05,0.8,"spc"
"21","1AUg-3",0.1,1.5,0.05,0.8,0.175,1.5,0.0875,0.8375,2,0.1,1.5,0.05,0.8,"spc"
"22","1AUg-5",0.1,0.85,0.05,0.475,NA,NA,NA,NA,NA,0.1,0.85,0.05,0.475,"spc"
"23","1AUg-6",0.25,1.1,0.125,0.675,NA,NA,NA,NA,NA,0.25,1.1,0.125,0.675,"spc"
"24","1AVE1",0.12,1.6,0.06,0.86,0.11,1.6,0.055,0.85,17,0.12,1.6,0.06,0.86,"spc"
"25","1AVE5",0.15,1.51,0.075,0.83,0.15,1.51,0.075,0.83,3,0.15,1.51,0.075,0.83,"spc"
"26","1CHa",0.3,1.4,0.15,0.85,0.18,1.29,0.09,0.72,16,0.3,1.4,0.15,0.85,"spc"
"27","1CHb",0.7,1.3,0.35,1,0.435,1.235,0.2175,0.795,14,0.7,1.3,0.35,1,"spc"
"28","1Dbb",0.15,1.5,0.075,0.825,0.135,1.125,0.0675,0.635,6,0.15,1.5,0.075,0.825,"spc"
"29","1Dda",0.13,1.5,0.065,0.815,0.13,1.2,0.065,0.65,75,0.13,1.5,0.065,0.815,"spc"
"30","1DEa",0.1,1.3,0.05,0.7,0.15,1.365,0.075,0.8325,23,0.1,1.3,0.05,0.7,"spc"
"31","1Dya",0.08,1.5,0.04,0.79,0.08,1.46,0.04,0.7625,22,0.08,1.5,0.04,0.79,"spc"
"32","1Dyc",0.13,1.5,0.065,0.815,0.11,1.3,0.055,0.7025,178,0.13,1.5,0.065,0.815,"spc"
"33","1Dyd",0.18,1.15,0.09,0.665,0.18,1.4,0.09,0.81,55,0.18,1.15,0.09,0.665,"spc"
"34","1KTa",0.9,1.6,0.45,1.25,0.44,1.23,0.22,0.95,9,0.9,1.6,0.45,1.25,"spc"
"35","1SOa",0.15,1.6,0.075,0.875,0.1,1.52,0.05,0.8,30,0.15,1.6,0.075,0.875,"spc"
"36","1SOb",0.2,1.5,0.1,0.85,0.2,1.11,0.1,0.645,27,0.2,1.5,0.1,0.85,"spc"
"37","1Uga",0.1,1.5,0.05,0.8,0.1,1.465,0.05,0.7775,234,0.1,1.5,0.05,0.8,"spc"
"38","1Ugc",0.12,1.5,0.06,0.81,0.1,1.3,0.05,0.7,69,0.12,1.5,0.06,0.81,"spc"
"39","1Ugd",0.1,1.5,0.05,0.8,0.1,1.4,0.05,0.775,125,0.1,1.5,0.05,0.8,"spc"
"40","1Ugf",0.23,1.5,0.115,0.865,0.12,1.25,0.06,0.7,99,0.23,1.5,0.115,0.865,"spc"
"41","2AUf-Ug-2",0.65,1.2,0.325,0.925,NA,NA,NA,NA,NA,0.65,1.2,0.325,0.925,"spc"
"42","2AUf-Ug-3",0.01,1.5,0.005,0.755,0.6,1.5,0.3,1.05,1,0.01,1.5,0.005,0.755,"spc"
"43","2AUg-1",0.9,1.5,0.45,1.2,NA,NA,NA,NA,NA,0.9,1.5,0.45,1.2,"spc"
"44","2AUg-10m",1.15,1.5,0.575,1.325,NA,NA,NA,NA,NA,1.15,1.5,0.575,1.325,"spc"
"45","2AUg-11",0.9,1.5,0.45,1.2,NA,NA,NA,NA,NA,0.9,1.5,0.45,1.2,"spc"
"46","2AUg-2m",1.2,1.5,0.6,1.35,NA,NA,NA,NA,NA,1.2,1.5,0.6,1.35,"spc"
"47","2AUg-6",0.88,1.5,0.44,1.19,NA,NA,NA,NA,NA,0.88,1.5,0.44,1.19,"spc"
"48","2AUg-9m",0.35,1.5,0.175,0.925,0.2,1.5,0.1,0.85,1,0.35,1.5,0.175,0.925,"spc"
"49","2AUgg-2m",0.2,1.5,0.1,0.85,0.2,1.5,0.1,0.85,1,0.2,1.5,0.1,0.85,"spc"
"50","2AUgg-3m",0.12,1.5,0.06,0.81,NA,NA,NA,NA,NA,0.12,1.5,0.06,0.81,"spc"
"51","2Dba",0.08,1.25,0.04,0.665,0.09,0.9,0.045,0.5,146,0.08,1.25,0.04,0.665,"spc"
"52","2Dbb",0.16,1.35,0.08,0.755,0.18,0.9,0.09,0.55,233,0.16,1.35,0.08,0.755,"spc"
"53","2Dbc",0.275,1.25,0.1375,0.7625,0.3,1.1,0.15,0.675,106,0.275,1.25,0.1375,0.7625,"spc"
"54","2Dbd",0.275,0.85,0.1375,0.5625,0.25,0.95,0.125,0.61,242,0.275,0.85,0.1375,0.5625,"spc"
"55","2Dbe",0.16,1.2,0.08,0.68,0.18,1.05,0.09,0.625,53,0.16,1.2,0.08,0.68,"spc"
"56","2Dda",0.095,1.05,0.0475,0.5725,0.1,0.7,0.05,0.3975,114,0.095,1.05,0.0475,0.5725,"spc"
"57","2Ddb",0.085,0.825,0.0425,0.455,0.1,0.8,0.05,0.45,338,0.085,0.825,0.0425,0.455,"spc"
"58","2Ddc",0.275,1.2,0.1375,0.7375,0.2,0.88,0.1,0.555,19,0.275,1.2,0.1375,0.7375,"spc"
"59","2Ddd",0.18,0.75,0.09,0.465,0.15,0.75,0.075,0.435,17,0.18,0.75,0.09,0.465,"spc"
"60","2Dya",0.08,1.2,0.04,0.64,0.1,0.95,0.05,0.525,225,0.08,1.2,0.04,0.64,"spc"
"61","2Dyb",0.16,1.125,0.08,0.6425,0.16,0.85,0.08,0.5,946,0.16,1.125,0.08,0.6425,"spc"
"62","2Dyc",0.185,1.5,0.0925,0.8425,0.18,1.2,0.09,0.7,128,0.185,1.5,0.0925,0.8425,"spc"
"63","2Uga",0.08,1.5,0.04,0.79,0.08,1.15,0.04,0.6125,29,0.08,1.5,0.04,0.79,"spc"
"64","2Ugb",0.08,0.88,0.04,0.48,0.1,1.5,0.05,0.8,5,0.08,0.88,0.04,0.48,"spc"
"65","2Ugc",0.13,1.5,0.065,0.815,0.12,1.5,0.06,0.8,325,0.13,1.5,0.065,0.815,"spc"
"66","2Ugd",0.18,1.5,0.09,0.84,0.17,1.25,0.085,0.7,644,0.18,1.5,0.09,0.84,"spc"
"67","2Uge",0.15,1.5,0.075,0.825,0.1,1.2,0.05,0.65,1096,0.15,1.5,0.075,0.825,"spc"
"68","2Ugf",0.13,1.5,0.065,0.815,0.1,1.5,0.05,0.825,137,0.13,1.5,0.065,0.815,"spc"
"69","2Ugg",0.15,1.5,0.075,0.825,0.1,1.3,0.05,0.7,355,0.15,1.5,0.075,0.825,"spc"
"70","2UggW",0.15,1.5,0.075,0.825,0.15,1.5,0.075,0.825,8,0.15,1.5,0.075,0.825,"spc"
"71","2Ugh",0.13,1.5,0.065,0.815,0.1,1.2,0.05,0.6625,220,0.13,1.5,0.065,0.815,"spc"
"72","2Ugj",0.18,1.25,0.09,0.715,0.2,1.025,0.1,0.6,26,0.18,1.25,0.09,0.715,"spc"
"73","2Ugk",0.09,1.21,0.045,0.65,0.1,1.25,0.05,0.675,193,0.09,1.21,0.045,0.65,"spc"
"74","2VEa",0.09,1.32,0.045,0.705,0.09,1.6,0.045,0.815,9,0.09,1.32,0.045,0.705,"spc"
"75","2VEb",0.1,1.55,0.05,0.825,0.1,1.54,0.05,0.825,52,0.1,1.55,0.05,0.825,"spc"
"76","2VEe",0.05,1.4,0.025,0.725,0.05,1.54,0.025,0.795,11,0.05,1.4,0.025,0.725,"spc"
"77","2VEx",0.1,1.6,0.05,0.85,0.1,1.6,0.05,0.85,53,0.1,1.6,0.05,0.85,"spc"
"78","2VEy",0.05,1.13,0.025,0.59,0.05,1.29,0.025,0.695,17,0.05,1.13,0.025,0.59,"spc"
"79","3ADr-2",0.18,0.45,0.09,0.315,NA,NA,NA,NA,NA,0.18,0.45,0.09,0.315,"spc"
"80","3AGn-1",0.18,1.5,0.09,0.84,NA,NA,NA,NA,NA,0.18,1.5,0.09,0.84,"spc"
"81","3AGn-Dr",0.165,0.59,0.0825,0.3775,NA,NA,NA,NA,NA,0.165,0.59,0.0825,0.3775,"spc"
"82","3AUc-1",0.18,0.35,0.09,0.265,NA,NA,NA,NA,NA,0.18,0.35,0.09,0.265,"spc"
"83","3AUf-Ug-1m",0.1,0.4,0.05,0.25,0.1,0.2,0.05,0.15,1,0.1,0.4,0.05,0.25,"spc"
"84","3AUf-Ug-2m",0.23,1.2,0.115,0.715,0.3,1.5,0.15,0.9,1,0.23,1.2,0.115,0.715,"spc"
"85","3AUf-Ug-3d",0.25,1.5,0.125,0.875,0.25,1.5,0.125,0.875,1,0.25,1.5,0.125,0.875,"spc"
"86","3auf-Ug-4m",0.63,0.85,0.315,0.74,NA,NA,NA,NA,NA,0.63,0.85,0.315,0.74,"spc"
"87","3AUf-Ug-6m",0.1,1.5,0.05,0.8,0.4,1.5,0.2,0.95,1,0.1,1.5,0.05,0.8,"spc"
"88","3AUf-Ug-7m",0.02,1.5,0.01,0.76,NA,NA,NA,NA,NA,0.02,1.5,0.01,0.76,"spc"
"89","3AUf-Ug-8d",0.15,1.5,0.075,0.825,NA,NA,NA,NA,NA,0.15,1.5,0.075,0.825,"spc"
"90","3AUf-Ug-8m",0.05,1.5,0.025,0.775,NA,NA,NA,NA,NA,0.05,1.5,0.025,0.775,"spc"
"91","3AUg-1",0.1,1.2,0.05,0.65,NA,NA,NA,NA,NA,0.1,1.2,0.05,0.65,"spc"
"92","3AUg-2",0.15,1.2,0.075,0.675,0.2,1.2,0.1,0.7,2,0.15,1.2,0.075,0.675,"spc"
"93","3CHx",0.6,1.2,0.3,0.9,0.37,1.44,0.185,0.85,17,0.6,1.2,0.3,0.9,"spc"
"94","3Uga",0.08,1.5,0.04,0.79,0.1,1.5,0.05,0.8,79,0.08,1.5,0.04,0.79,"spc"
"95","3Ugc",0.15,1.5,0.075,0.825,0.1,1.55,0.05,0.8425,10,0.15,1.5,0.075,0.825,"spc"
"96","3Ugd",0.045,1.5,0.0225,0.7725,0.09,1.525,0.045,0.825,48,0.045,1.5,0.0225,0.7725,"spc"
"97","3Uge",0.13,1,0.065,0.565,0.1,1.3,0.05,0.695,50,0.13,1,0.065,0.565,"spc"
"98","3Ugk",0.13,1.35,0.065,0.74,0.1,1.2,0.05,0.65,18,0.13,1.35,0.065,0.74,"spc"
"99","3VEa",0.09,1.55,0.045,0.82,0.05,1.54,0.025,0.815,22,0.09,1.55,0.045,0.82,"spc"
"100","3VEb",0.05,1.6,0.025,0.825,0.03,1.6,0.015,0.825,15,0.05,1.6,0.025,0.825,"spc"
"101","3VEc",0.08,1.6,0.04,0.84,0.03,1.6,0.015,0.815,29,0.08,1.6,0.04,0.84,"spc"
"102","3VEw",0.02,1.25,0.01,0.635,0.02,1.09,0.01,0.5525,14,0.02,1.25,0.01,0.635,"spc"
"103","3VEy",0.03,0.6,0.015,0.315,0.1,1.25,0.05,0.67,50,0.03,0.6,0.015,0.315,"spc"
"104","3VEz",0.1,1.2,0.05,0.65,0.03,1.25,0.015,0.675,7,0.1,1.2,0.05,0.65,"spc"
"105","4AUf",0.1,1.2,0.05,0.65,0.1,1.2,0.05,0.65,1,0.1,1.2,0.05,0.65,"spc"
"106","4Dga",0.5,0.93,0.25,0.715,0.5,0.9,0.25,0.7,25,0.5,0.93,0.25,0.715,"spc"
"107","4Dyb",0.23,1.5,0.115,0.865,0.25,1.5,0.125,0.9,5,0.23,1.5,0.115,0.865,"spc"
"108","4Dyd",0.675,1.13,0.3375,0.9025,0.42,1.1,0.21,0.75,17,0.675,1.13,0.3375,0.9025,"spc"
"109","4Dyg",0.23,1.15,0.115,0.69,0.22,1.1,0.11,0.625,69,0.23,1.15,0.115,0.69,"spc"
"110","4Dyj",0.6,1.3,0.3,0.95,0.45,1.15,0.225,0.7875,10,0.6,1.3,0.3,0.95,"spc"
"111","4Dyk",0.675,1,0.3375,0.8375,0.475,1.15,0.2375,0.7875,12,0.675,1,0.3375,0.8375,"spc"
"112","4Gnb",0.75,1.5,0.375,1.125,0.8,1.15,0.4,0.975,11,0.75,1.5,0.375,1.125,"spc"
"113","4Ucc",0.95,1.25,0.475,0.95,0.9,1.2,0.45,1.05,25,0.95,1.25,0.475,0.95,"spc"
"114","5Dra",0.23,0.95,0.115,0.59,0.2,0.95,0.1,0.575,300,0.23,0.95,0.115,0.59,"spc"
"115","5Dya",0.2,0.85,0.1,0.525,0.22,1.15,0.11,0.675,86,0.2,0.85,0.1,0.525,"spc"
"116","5Dyb",0.3,1.1,0.15,0.7,0.2,1.1,0.1,0.65,102,0.3,1.1,0.15,0.7,"spc"
"117","5Dyc",0.23,1.15,0.115,0.69,0.21,1.05,0.105,0.64,202,0.23,1.15,0.115,0.69,"spc"
"118","5Dye",0.23,1.275,0.115,0.7525,0.28,1.15,0.14,0.7,57,0.23,1.275,0.115,0.7525,"spc"
"119","5Dyf Shelf",0.18,0.95,0.09,0.565,0.2,1.05,0.1,0.635,27,0.18,0.95,0.09,0.565,"spc"
"120","5Uga",0.085,0.85,0.0425,0.4675,0.1,0.9,0.05,0.51,100,0.085,0.85,0.0425,0.4675,"spc"
"121","5Ugb",0.2,0.85,0.1,0.525,0.12,0.95,0.06,0.555,72,0.2,0.85,0.1,0.525,"spc"
"122","5Ugc  Depression",0.18,1,0.09,0.59,0.18,1.05,0.09,0.6,21,0.18,1,0.09,0.59,"spc"
"123","6ADb-1",0.1,1.2,0.05,0.65,0.08,1.05,0.04,0.565,2,0.1,1.2,0.05,0.65,"spc"
"124","6ADr",0.26,1.2,0.13,0.73,0.1,1.5,0.05,0.8,1,0.26,1.2,0.13,0.73,"spc"
"125","6ADy-2",0.13,1.5,0.065,0.815,NA,NA,NA,NA,NA,0.13,1.5,0.065,0.815,"spc"
"126","6ADy-3",0.35,1.5,0.175,0.925,0.31,1.5,0.155,0.905,1,0.35,1.5,0.175,0.925,"spc"
"127","6AUf-3",0.2,1.5,0.1,0.85,NA,NA,NA,NA,NA,0.2,1.5,0.1,0.85,"spc"
"128","6AUg-10",0.13,1.5,0.065,0.815,0.1,1.45,0.05,0.775,2,0.13,1.5,0.065,0.815,"spc"
"129","6AUg-12",0.13,2,0.065,1.065,0.12,1.8,0.06,0.96,5,0.13,2,0.065,1.065,"spc"
"130","6AUg-3",0.2,1.5,0.1,0.85,0.2,1.6,0.1,1.1,3,0.2,1.5,0.1,0.85,"spc"
"131","6AUg-4",0.18,2,0.09,1.09,0.1,1.5,0.05,0.8,1,0.18,2,0.09,1.09,"spc"
"132","6AUg-5",0.23,1.5,0.115,0.865,0.1,1,0.05,0.55,1,0.23,1.5,0.115,0.865,"spc"
"133","6AUg-6",0.23,1.5,0.115,0.865,0.1,1.5,0.05,0.8,1,0.23,1.5,0.115,0.865,"spc"
"134","6AUg-7",0.1,1.5,0.05,0.8,NA,NA,NA,NA,NA,0.1,1.5,0.05,0.8,"spc"
"135","6AUg-8",0.18,1.5,0.09,0.84,0.075,1.5,0.0375,0.7875,2,0.18,1.5,0.09,0.84,"spc"
"136","6AUg-9",0.28,1.5,0.14,0.89,0.55,1.65,0.275,1.1,2,0.28,1.5,0.14,0.89,"spc"
"137","6Dba",0.23,1.5,0.115,0.865,0.22,0.865,0.11,0.55,114,0.23,1.5,0.115,0.865,"spc"
"138","6Dbb",0.35,1.1,0.175,0.725,0.3,1,0.15,0.655,90,0.35,1.1,0.175,0.725,"spc"
"139","6Dbc",0.3,1.2,0.15,0.75,0.25,0.75,0.125,0.5,195,0.3,1.2,0.15,0.75,"spc"
"140","6Dbd",0.3,1.2,0.15,0.75,0.25,0.9,0.125,0.575,126,0.3,1.2,0.15,0.75,"spc"
"141","6Dbe",0.15,0.63,0.075,0.39,0.2,0.7,0.1,0.45,87,0.15,0.63,0.075,0.39,"spc"
"142","6Dbf",0.3,1.1,0.15,0.7,0.28,0.85,0.14,0.575,89,0.3,1.1,0.15,0.7,"spc"
"143","6Dbg",0.85,1.5,0.425,1.175,0.775,1.2,0.3875,1.0375,4,0.85,1.5,0.425,1.175,"spc"
"144","6Dbh",0.18,0.8,0.09,0.49,0.15,0.85,0.075,0.475,92,0.18,0.8,0.09,0.49,"spc"
"145","6Dbi",0.55,1.5,0.275,1.025,0.6,1.1,0.3,0.85,1,0.55,1.5,0.275,1.025,"spc"
"146","6Dda",0.2,0.9,0.1,0.55,0.195,0.8,0.0975,0.5,172,0.2,0.9,0.1,0.55,"spc"
"147","6Dra",0.35,1.5,0.175,0.925,0.35,1.3,0.175,0.8375,46,0.35,1.5,0.175,0.925,"spc"
"148","6Drb",0.325,1.5,0.1625,0.9125,0.3,1.2,0.15,0.75,167,0.325,1.5,0.1625,0.9125,"spc"
"149","6Drc",0.35,1.18,0.175,0.765,0.28,1.1,0.14,0.695,162,0.35,1.18,0.175,0.765,"spc"
"150","6Dya",0.9,1.5,0.45,1.2,0.9,1.5,0.45,1.1625,64,0.9,1.5,0.45,1.2,"spc"
"151","6Dyb",0.45,1.5,0.225,0.975,0.4,1,0.2,0.75,118,0.45,1.5,0.225,0.975,"spc"
"152","6Dyc",0.63,1.2,0.315,0.915,0.55,0.905,0.275,0.7625,25,0.63,1.2,0.315,0.915,"spc"
"153","6Dyd",0.3,1.35,0.15,0.825,0.3,0.92,0.15,0.625,140,0.3,1.35,0.15,0.825,"spc"
"154","6Dye",0.55,1.5,0.275,1.025,0.38,1,0.19,0.7,68,0.55,1.5,0.275,1.025,"spc"
"155","6Dyf",0.38,1.35,0.19,0.865,0.3,0.9,0.15,0.61,426,0.38,1.35,0.19,0.865,"spc"
"156","6Dyg",0.15,0.95,0.075,0.55,0.19,0.85,0.095,0.51,497,0.15,0.95,0.075,0.55,"spc"
"157","6Dyh",0.35,1.5,0.175,0.925,0.25,0.8,0.125,0.56,29,0.35,1.5,0.175,0.925,"spc"
"158","6Dyj",0.13,1.25,0.065,0.69,0.1,0.75,0.05,0.43,141,0.13,1.25,0.065,0.69,"spc"
"159","6Gna",0.3,1.05,0.15,0.675,0.22,0.7,0.11,0.475,102,0.3,1.05,0.15,0.675,"spc"
"160","6Gnb",0.95,1.5,0.475,1.225,0.7,1.5,0.35,1.1,26,0.95,1.5,0.475,1.225,"spc"
"161","6Gnc",0.28,0.85,0.14,0.565,0.3,0.75,0.15,0.5125,18,0.28,0.85,0.14,0.565,"spc"
"162","6Gnd",0.85,1.5,0.425,1.175,0.4,0.925,0.2,0.7,48,0.85,1.5,0.425,1.175,"spc"
"163","6Gne",0.38,1.5,0.19,0.94,0.32,1.05,0.16,0.7,31,0.38,1.5,0.19,0.94,"spc"
"164","6Uca",0.2,0.9,0.1,0.55,0.2,1.025,0.1,0.6375,20,0.2,0.9,0.1,0.55,"spc"
"165","6Ucc",0.8,1.5,0.4,1.15,0.5,1.35,0.25,0.925,76,0.8,1.5,0.4,1.15,"spc"
"166","6Ufa",0.2,1.5,0.1,0.85,0.15,0.9,0.075,0.5375,61,0.2,1.5,0.1,0.85,"spc"
"167","6Ufc",0.4,1.35,0.2,0.875,0.29,1.05,0.145,0.6825,36,0.4,1.35,0.2,0.875,"spc"
"168","6Ufd",0.3,1.1,0.15,0.7,0.2,0.7,0.1,0.45,66,0.3,1.1,0.15,0.7,"spc"
"169","6Ufe",0.18,NA,0.09,NA,0.15,0.4,0.075,0.275,35,0.18,NA,0.09,NA,"spc"
"170","6Uga",0.13,1.25,0.065,0.69,0.12,0.875,0.06,0.525,133,0.13,1.25,0.065,0.69,"spc"
"171","6Uma",0.48,0.95,0.24,0.715,0.3,0.9,0.15,0.6,128,0.48,0.95,0.24,0.715,"spc"
"172","6Umb",0.41,1.5,0.205,0.955,0.3,1.3,0.15,0.825,73,0.41,1.5,0.205,0.955,"spc"
"173","Abbot",0.1,1.5,0.05,0.8,0.11,1.545,0.055,0.865,6,0.1,1.5,0.05,0.8,"spc"
"174","Abergowrie",0.35,1.2,0.175,0.775,0.35,1.2,0.175,0.775,24,0.35,1.2,0.175,0.775,"spc"
"175","Adeline",0.13,1.2,0.065,0.665,0.15,0.975,0.075,0.62,37,0.13,1.2,0.065,0.665,"spc"
"176","Albert",0.4,1.65,0.2,1.025,0.155,1.635,0.0775,0.875,20,0.4,1.65,0.2,1.025,"spc"
"177","Aldershot",0.23,1.05,0.115,0.64,0.35,1.5,0.175,0.935,61,0.23,1.05,0.115,0.64,"spc"
"178","Allandale",0.28,0.7,0.14,0.49,0.15,0.95,0.075,0.55,1,0.28,0.7,0.14,0.49,"spc"
"179","Allandale, Strongly Sodic Variant",0.15,0.95,0.075,0.55,0.295,1.2,0.1475,0.7475,2,0.15,0.95,0.075,0.55,"spc"
"180","Alloway",0.93,1.5,0.465,1.215,0.7,1.3,0.35,1,203,0.93,1.5,0.465,1.215,"spc"
"181","Alma",0.39,1.5,0.195,0.895,0.45,1.35,0.225,0.925,10,0.39,1.5,0.195,0.895,"spc"
"182","Althaus",0.46,1.2,0.23,0.83,0.4,1.2,0.2,0.775,17,0.46,1.2,0.23,0.83,"spc"
"183","Althaus (Zed)",4,NA,2,NA,0.2,1.075,0.1,0.6375,12,4,NA,2,NA,"spc"
"184","Andergrove",0.73,1.2,0.365,0.965,0.25,0.84,0.125,0.575,30,0.73,1.2,0.365,0.965,"spc"
"185","Annandale",0.2,1.35,0.1,0.775,0.25,1.36,0.125,0.83,6,0.2,1.35,0.1,0.775,"spc"
"186","Appaloosa",0.135,1,0.0675,0.5675,0.14,1.45,0.07,0.7875,12,0.135,1,0.0675,0.5675,"spc"
"187","Apron",0.35,0.75,0.175,0.55,0.2,0.625,0.1,0.4175,18,0.35,0.75,0.175,0.55,"spc"
"188","Archookoora",0.19,1.1,0.095,0.645,0.15,1.25,0.075,0.72,31,0.19,1.1,0.095,0.645,"spc"
"189","Archookoora Rocky Phase",0.2,1.1,0.1,0.65,NA,NA,NA,NA,NA,0.2,1.1,0.1,0.65,"spc"
"190","Archookoora Saline Phase",0.2,1.1,0.1,0.65,NA,NA,NA,NA,NA,0.2,1.1,0.1,0.65,"spc"
"191","Arcturus",0.04,0.8,0.02,0.42,0.06,0.8,0.03,0.45,93,0.04,0.8,0.02,0.42,"spc"
"192","Arnot",0.63,1.225,0.315,0.9275,0.6,1,0.3,0.75,16,0.63,1.225,0.315,0.9275,"spc"
"193","Aroa",0.1,1,0.05,0.55,0.1,1.2,0.05,0.625,115,0.1,1,0.05,0.55,"spc"
"194","Arriga",0.3,1.8,0.15,1.05,0.24,1.3,0.12,0.8,9,0.3,1.8,0.15,1.05,"spc"
"195","Arriga Sandy",0.42,1.5,0.21,0.96,NA,NA,NA,NA,NA,0.42,1.5,0.21,0.96,"spc"
"196","Artillery",0.25,0.75,0.125,0.5,0.25,0.75,0.125,0.5,1,0.25,0.75,0.125,0.5,"spc"
"197","Ashgrove",0.23,0.73,0.115,0.48,0.25,1,0.125,0.625,51,0.23,0.73,0.115,0.48,"spc"
"198","Ashton",0.53,1.2,0.265,0.865,0.35,0.8,0.175,0.575,14,0.53,1.2,0.265,0.865,"spc"
"199","Auburn",0.2,1.6,0.1,0.9,0.25,1.35,0.125,0.8,179,0.2,1.6,0.1,0.9,"spc"
"200","Auburn Red Variant",0.25,1,0.125,0.625,0.3,1.4,0.15,0.825,13,0.25,1,0.125,0.625,"spc"
"201","Aunt",0.95,1.2,0.475,1.075,NA,NA,NA,NA,NA,0.95,1.2,0.475,1.075,"spc"
"202","Avon",0.195,1.35,0.0975,0.7725,0.135,1.2,0.0675,0.66,2,0.195,1.35,0.0975,0.7725,"spc"
"203","Avondale",0.25,1.6,0.125,0.925,0.27,0.95,0.135,0.625,281,0.25,1.6,0.125,0.925,"spc"
"204","Avondale Tenic Variant",0.3,NA,0.15,NA,0.4,NA,0.2,NA,3,0.3,NA,0.15,NA,"spc"
"205","Avondale Yellow Variant",0.3,1.5,0.15,0.9,NA,NA,NA,NA,NA,0.3,1.5,0.15,0.9,"spc"
"206","Baddow",0.15,NA,0.075,NA,0.25,1.2,0.125,0.9,52,0.15,NA,0.075,NA,"spc"
"207","Balberra",0.38,1.08,0.19,0.73,0.265,0.885,0.1325,0.5625,32,0.38,1.08,0.19,0.73,"spc"
"208","Bally",0.33,1.225,0.165,0.7775,0.2,1.3,0.1,0.75,33,0.33,1.225,0.165,0.7775,"spc"
"209","Banana",0.08,1.2,0.04,0.64,0.04,1.1,0.02,0.565,37,0.08,1.2,0.04,0.64,"spc"
"210","Banban",0.23,1.2,0.115,0.715,0.1,0.8,0.05,0.5,41,0.23,1.2,0.115,0.715,"spc"
"211","Banyan",0.42,0.775,0.21,0.5975,0.25,1,0.125,0.65,31,0.42,0.775,0.21,0.5975,"spc"
"212","Barron",0.13,1.1,0.065,0.615,0.2,0.905,0.1,0.55,26,0.13,1.1,0.065,0.615,"spc"
"213","Barubbra",0.35,1.5,0.175,0.925,0.4,1.5,0.2,0.9625,23,0.35,1.5,0.175,0.925,"spc"
"214","Basalt Rock",0.1,NA,0.05,NA,0.12,NA,0.06,NA,1,0.1,NA,0.05,NA,"spc"
"215","Basel",0.1,2,0.05,1.05,0.15,1.5,0.075,0.8275,225,0.1,2,0.05,1.05,"spc"
"216","Battery",0.1,1,0.05,0.55,0.1,1.5,0.05,0.7725,14,0.1,1,0.05,0.55,"spc"
"217","Bauhinia",0.04,1,0.02,0.52,0.04,0.95,0.02,0.49,7,0.04,1,0.02,0.52,"spc"
"218","Bauple",0.28,1.35,0.14,0.815,0.25,1.09,0.125,0.67,4,0.28,1.35,0.14,0.815,"spc"
"219","Beauaraba",0.06,0.55,0.03,0.305,0.04,0.3,0.02,0.17,107,0.06,0.55,0.03,0.305,"spc"
"220","Beelbi",0.7,0.95,0.35,0.825,0.575,1.1,0.2875,0.75,8,0.7,0.95,0.35,0.825,"spc"
"221","Beenham",0.37,1.65,0.185,1.01,0.295,1.25,0.1475,0.7625,8,0.37,1.65,0.185,1.01,"spc"
"222","Beeron",0.325,1.35,0.1625,0.8375,0.25,0.83,0.125,0.55,23,0.325,1.35,0.1625,0.8375,"spc"
"223","Beeron Rocky Phase",0.25,0.45,0.125,0.35,0.18,0.55,0.09,0.4,7,0.25,0.45,0.125,0.35,"spc"
"224","Bell",0.2,1.2,0.1,0.7,0.4,1.2,0.2,0.75,65,0.2,1.2,0.1,0.7,"spc"
"225","Belmunda",0.4,1,0.2,0.7,0.3,1.18,0.15,0.745,50,0.4,1,0.2,0.7,"spc"
"226","Benholme",0.18,1.2,0.09,0.69,0.19,1.495,0.095,0.8125,179,0.18,1.2,0.09,0.69,"spc"
"227","Berris",0.3,0.75,0.15,0.525,0.3,0.85,0.15,0.575,7,0.3,0.75,0.15,0.525,"spc"
"228","Bicton",0.205,0.95,0.1025,0.575,0.25,1.1,0.125,0.675,60,0.205,0.95,0.1025,0.575,"spc"
"229","Bidwill",0.25,1.5,0.125,0.875,0.25,1.45,0.125,0.8625,24,0.25,1.5,0.125,0.875,"spc"
"230","Bingera",0.3,1.5,0.15,0.9,0.3,1.4,0.15,0.8,8,0.3,1.5,0.15,0.9,"spc"
"231","Bingil",0.15,2.15,0.075,1.15,0.2,1.2,0.1,0.7,26,0.15,2.15,0.075,1.15,"spc"
"232","Black",0.25,1.3,0.125,0.8,0.35,1,0.175,0.68,12,0.25,1.3,0.125,0.8,"spc"
"233","Bluewater",0.235,1.15,0.1175,0.6925,0.25,0.9,0.125,0.545,19,0.235,1.15,0.1175,0.6925,"spc"
"234","Bluff",0.36,0.75,0.18,0.555,0.2,0.91,0.1,0.5925,33,0.36,0.75,0.18,0.555,"spc"
"235","Bogandilla",0.1,1.6,0.05,0.85,0.15,2.9,0.075,1.525,3,0.1,1.6,0.05,0.85,"spc"
"236","Bonavista",0.3,1.2,0.15,0.75,0.285,1.41,0.1425,0.8425,8,0.3,1.2,0.15,0.75,"spc"
"237","Bonwell",0.18,1.5,0.09,0.84,0.13,1.25,0.065,0.725,51,0.18,1.5,0.09,0.84,"spc"
"238","Booie",0.37,NA,0.185,NA,0.2,NA,0.1,NA,1,0.37,NA,0.185,NA,"spc"
"239","Booloongie",0.6,0.8,0.3,0.7,0.4,0.65,0.2,0.575,19,0.6,0.8,0.3,0.7,"spc"
"240","Boonenne",0.25,0.7,0.125,0.475,0.25,0.9,0.125,0.59,18,0.25,0.7,0.125,0.475,"spc"
"241","Booyal",0.25,0.6,0.125,0.425,0.2,0.9,0.1,0.62,17,0.25,0.6,0.125,0.425,"spc"
"242","Boston",0.2,1.66,0.1,0.93,0.2,0.7,0.1,0.475,133,0.2,1.66,0.1,0.93,"spc"
"243","Botherm",0.31,1.5,0.155,0.905,0.35,0.85,0.175,0.5825,4,0.31,1.5,0.155,0.905,"spc"
"244","Boyne",0.49,1.25,0.245,0.87,0.31,1.1,0.155,0.725,30,0.49,1.25,0.245,0.87,"spc"
"245","Boynewood",0.1,0.65,0.05,0.375,0.12,0.65,0.06,0.425,31,0.1,0.65,0.05,0.375,"spc"
"246","Boynewood Rocky Phase",0.08,0.6,0.04,0.34,0.125,0.45,0.0625,0.3325,4,0.08,0.6,0.04,0.34,"spc"
"247","Brae",0.25,1.2,0.125,0.725,0.225,1.01,0.125,0.675,13,0.25,1.2,0.125,0.725,"spc"
"248","Breen",0.45,NA,0.225,NA,0.35,0.55,0.175,0.4,20,0.45,NA,0.225,NA,"spc"
"249","Brightley",0.04,1.3,0.02,0.67,0.15,1.1,0.075,0.655,17,0.04,1.3,0.02,0.67,"spc"
"250","Broadmedow",0.4,1.5,0.2,0.95,0.4,1.125,0.2,0.8,24,0.4,1.5,0.2,0.95,"spc"
"251","Brooweena",0.23,0.53,0.115,0.38,0.23,0.7,0.115,0.475,121,0.23,0.53,0.115,0.38,"spc"
"252","Brooyar",0.3,1.8,0.15,1.05,0.225,1.35,0.1125,0.825,52,0.3,1.8,0.15,1.05,"spc"
"253","Brosnan",0.33,1.65,0.165,1.1075,0.35,1.2,0.175,0.775,46,0.33,1.65,0.165,1.1075,"spc"
"254","Bruce",0.04,0.55,0.02,0.295,0.05,0.5,0.025,0.275,70,0.04,0.55,0.02,0.295,"spc"
"255","Bucca",0.24,1.23,0.12,0.735,0.22,1.04,0.11,0.65,52,0.24,1.23,0.12,0.735,"spc"
"256","Buchan",0.25,1.2,0.125,0.725,0.275,1.025,0.15,0.65,4,0.25,1.2,0.125,0.725,"spc"
"257","Buckley",0.3,1.1,0.15,0.7,0.185,0.81,0.0925,0.5025,18,0.3,1.1,0.15,0.7,"spc"
"258","Buffel",0.2,0.68,0.1,0.44,0.3,0.8,0.15,0.55,9,0.2,0.68,0.1,0.44,"spc"
"259","BUg-1",0.05,0.35,0.025,0.2,NA,NA,NA,NA,NA,0.05,0.35,0.025,0.2,"spc"
"260","BUg-10",0.05,0.85,0.025,0.45,0.15,0.85,0.075,0.5,2,0.05,0.85,0.025,0.45,"spc"
"261","BUg-11",0.05,1.5,0.025,0.775,NA,NA,NA,NA,NA,0.05,1.5,0.025,0.775,"spc"
"262","BUg-17",0.05,1.5,0.025,0.775,NA,NA,NA,NA,NA,0.05,1.5,0.025,0.775,"spc"
"263","BUg-2",0.2,0.9,0.1,0.55,0.2,0.8,0.1,0.5,9,0.2,0.9,0.1,0.55,"spc"
"264","BUg-20",0.2,1.05,0.1,0.625,NA,NA,NA,NA,NA,0.2,1.05,0.1,0.625,"spc"
"265","BUg-3",0.15,0.75,0.075,0.45,0.15,0.7,0.075,0.425,3,0.15,0.75,0.075,0.45,"spc"
"266","BUg-4",0.05,1,0.025,0.525,0.2,1.2,0.1,0.7,1,0.05,1,0.025,0.525,"spc"
"267","BUg-5",0.05,1.5,0.025,0.775,NA,NA,NA,NA,NA,0.05,1.5,0.025,0.775,"spc"
"268","BUg-6",0.05,1.1,0.025,0.575,0.1,1.2,0.05,0.65,1,0.05,1.1,0.025,0.575,"spc"
"269","BUg-7",0.06,1.4,0.03,0.73,NA,NA,NA,NA,NA,0.06,1.4,0.03,0.73,"spc"
"270","BUg-9",0.45,NA,0.225,NA,NA,NA,NA,NA,NA,0.45,NA,0.225,NA,"spc"
"271","BUgg-1m",0.05,1.1,0.025,0.575,NA,NA,NA,NA,NA,0.05,1.1,0.025,0.575,"spc"
"272","BUgg-2",0.1,1.5,0.05,0.8,NA,NA,NA,NA,NA,0.1,1.5,0.05,0.8,"spc"
"273","Bulgun",0.4,1.25,0.2,0.76,0.38,1.2,0.19,0.805,57,0.4,1.25,0.2,0.76,"spc"
"274","Bulguru",0.4,1.2,0.2,0.8,0.3,1.2,0.15,0.725,7,0.4,1.2,0.2,0.8,"spc"
"275","Bullaroo",0.02,1.25,0.01,0.635,NA,NA,NA,NA,NA,0.02,1.25,0.01,0.635,"spc"
"276","Bungadoo",0.49,0.815,0.245,0.6525,0.2,0.6,0.1,0.415,43,0.49,0.815,0.245,0.6525,"spc"
"277","Burdekin",0.33,1.23,0.165,0.78,0.4,1.2,0.2,0.78,67,0.33,1.23,0.165,0.78,"spc"
"278","Burnett",0.3,1.2,0.15,0.75,0.3,0.85,0.15,0.6,89,0.3,1.2,0.15,0.75,"spc"
"279","Burradoo",0.15,0.9,0.075,0.525,0.1,1.1,0.05,0.6,53,0.15,0.9,0.075,0.525,"spc"
"280","Burrum",1.55,2,0.775,1.775,0.85,1.25,0.425,1.05,16,1.55,2,0.775,1.775,"spc"
"281","Bushnell",0.15,1.2,0.075,0.675,0.2,1.5,0.1,0.85,27,0.15,1.2,0.075,0.675,"spc"
"282","Butcher",0.335,1.5,0.1675,0.9175,0.3,1.4,0.15,0.845,84,0.335,1.5,0.1675,0.9175,"spc"
"283","Byabra",0.18,1.2,0.09,0.69,0.25,1.2,0.125,0.725,9,0.18,1.2,0.09,0.69,"spc"
"284","Byee",0.15,0.98,0.075,0.565,0.1,1.5,0.05,0.8,24,0.15,0.98,0.075,0.565,"spc"
"285","Cabbage Tree",0.43,1.2,0.215,0.815,0.25,1.2,0.125,0.725,11,0.43,1.2,0.215,0.815,"spc"
"286","Cadarga",0.55,1.4,0.275,0.975,0.55,1.4,0.275,0.975,1,0.55,1.4,0.275,0.975,"spc"
"287","Calavos",0.6,1.5,0.3,1.05,0.35,1.2,0.175,0.8625,12,0.6,1.5,0.3,1.05,"spc"
"288","Calen",0.28,1.2,0.14,0.74,0.26,1.3,0.13,0.755,143,0.28,1.2,0.14,0.74,"spc"
"289","Caley",0.25,0.55,0.125,0.4,0.25,0.45,0.125,0.36,24,0.25,0.55,0.125,0.4,"spc"
"290","Callide",0.33,0.9,0.165,0.615,0.16,0.65,0.08,0.42,77,0.33,0.9,0.165,0.615,"spc"
"291","Cameron",0.35,0.56,0.175,0.455,0.3,0.7,0.15,0.5,54,0.35,0.56,0.175,0.455,"spc"
"292","Campbell Plains",0.26,1.6,0.13,0.93,0.16,1.4,0.08,0.8,19,0.26,1.6,0.13,0.93,"spc"
"293","Canoe",0.29,1.125,0.145,0.7075,0.29,0.9,0.145,0.6,60,0.29,1.125,0.145,0.7075,"spc"
"294","Cape",0.18,1.8,0.09,0.99,0.27,1,0.135,0.675,90,0.18,1.8,0.09,0.99,"spc"
"295","Carbeen",0.2,1.05,0.1,0.625,NA,NA,NA,NA,NA,0.2,1.05,0.1,0.625,"spc"
"296","Carew",0.04,1.5,0.02,0.77,0.175,1.5,0.0875,0.8175,8,0.04,1.5,0.02,0.77,"spc"
"297","Carfax",0.06,1.5,0.03,0.78,0.05,1.325,0.025,0.7175,26,0.06,1.5,0.03,0.78,"spc"
"298","Carinya",0.5,1.5,0.25,1,0.2,1.2,0.1,0.7,1,0.5,1.5,0.25,1,"spc"
"299","Carmila",0.28,0.78,0.14,0.53,0.18,0.92,0.09,0.56,50,0.28,0.78,0.14,0.53,"spc"
"300","Carrington",0.28,0.73,0.14,0.505,0.355,1.04,0.1775,0.71,10,0.28,0.73,0.14,0.505,"spc"
"301","Cassidy",1.5,1.95,0.75,1.725,0.95,1.5,0.475,1.35,15,1.5,1.95,0.75,1.725,"spc"
"302","Castleview",0.53,1,0.265,0.765,0.6,1,0.3,0.8,1,0.53,1,0.265,0.765,"spc"
"303","Catherina",0.3,0.9,0.15,0.6,0.3,0.965,0.15,0.6325,10,0.3,0.9,0.15,0.6,"spc"
"304","Cattle",0.05,1.5,0.025,0.775,0.02,1.6,0.01,0.815,9,0.05,1.5,0.025,0.775,"spc"
"305","Cheeseboro",0.05,0.21,0.025,0.13,0.07,0.3,0.035,0.21,45,0.05,0.21,0.025,0.13,"spc"
"306","Chelmsford",0.15,1.1,0.075,0.625,0.15,1.35,0.075,0.81,13,0.15,1.1,0.075,0.625,"spc"
"307","Cherbourg",0.3,0.7,0.15,0.5,0.3,1,0.15,0.675,7,0.3,0.7,0.15,0.5,"spc"
"308","Cherry Tree",0.35,1.2,0.175,0.775,0.4,1.2,0.2,0.8,29,0.35,1.2,0.175,0.775,"spc"
"309","Chessborough",0.25,0.6,0.125,0.425,0.25,0.95,0.125,0.6,5,0.25,0.6,0.125,0.425,"spc"
"310","Childers",0.3,1.5,0.15,0.9,0.25,1.5,0.125,0.85,44,0.3,1.5,0.15,0.9,"spc"
"311","Chin",0.18,1.5,0.09,0.84,0.245,0.85,0.1225,0.575,17,0.18,1.5,0.09,0.84,"spc"
"312","Chinchilla",0.3,1.6,0.15,0.95,0.3,1.6,0.15,0.95,1,0.3,1.6,0.15,0.95,"spc"
"313","Clayton",0.63,1.5,0.315,1.065,0.5,1.3,0.25,0.875,147,0.63,1.5,0.315,1.065,"spc"
"314","Clemant",0.4,1.3,0.2,1,0.4,1,0.2,0.7,10,0.4,1.3,0.2,1,"spc"
"315","Clematis",0.6,1.35,0.3,0.975,0.15,1.01,0.075,0.5875,10,0.6,1.35,0.3,0.975,"spc"
"316","Clifton",0.25,1.1,0.125,0.675,0.35,1.2,0.175,0.75,24,0.25,1.1,0.125,0.675,"spc"
"317","Cliftonville",0.45,1.2,0.225,0.825,0.375,1.2,0.1875,0.76,30,0.45,1.2,0.225,0.825,"spc"
"318","Cobra",0.28,1.8,0.14,1.04,0.375,1.35,0.1875,0.85,4,0.28,1.8,0.14,1.04,"spc"
"319","Cobra Gravelly Phase",0.28,1.8,0.14,1.04,NA,NA,NA,NA,NA,0.28,1.8,0.14,1.04,"spc"
"320","Cole",0.45,1.8,0.225,1.125,0.25,1.5,0.125,0.9,62,0.45,1.8,0.225,1.125,"spc"
"321","Colvin",0.85,1.3,0.425,1.075,0.85,1.3,0.425,1.0875,40,0.85,1.3,0.425,1.075,"spc"
"322","Commissioner",0.19,NA,0.095,NA,0.15,NA,0.075,NA,5,0.19,NA,0.095,NA,"spc"
"323","Condor",0.13,0.57,0.065,0.35,0.24,0.7,0.12,0.45,73,0.13,0.57,0.065,0.35,"spc"
"324","Consuelo",0.5,NA,0.25,NA,0.04,0.3,0.02,0.17,1,0.5,NA,0.25,NA,"spc"
"325","Conway",0.25,1.5,0.125,0.875,0.2,1.54,0.1,0.895,7,0.25,1.5,0.125,0.875,"spc"
"326","Coolabunia",0.175,1.35,0.0875,0.7625,0.18,1.2,0.09,0.7,62,0.175,1.35,0.0875,0.7625,"spc"
"327","Coom",0.2,1.3,0.1,0.735,0.3,1.2,0.15,0.725,190,0.2,1.3,0.1,0.735,"spc"
"328","Coonoon",0.2,1.8,0.1,1,0.25,1.6,0.125,0.925,55,0.2,1.8,0.1,1,"spc"
"329","Cooyar",0.3,1.5,0.15,0.9,0.3,1.1,0.15,0.775,18,0.3,1.5,0.15,0.9,"spc"
"330","Copenhagen",0.73,1.23,0.365,0.98,0.35,1.3,0.175,0.875,18,0.73,1.23,0.365,0.98,"spc"
"331","Corfield",0.25,1.5,0.125,0.875,0.15,0.6,0.075,0.4,23,0.25,1.5,0.125,0.875,"spc"
"332","Cottonham",0.1,1.05,0.05,0.575,0.055,0.92,0.0275,0.4925,22,0.1,1.05,0.05,0.575,"spc"
"333","Crater",0.1,0.6,0.05,0.35,0.17,0.8,0.085,0.485,1,0.1,0.6,0.05,0.35,"spc"
"334","Crawford",0.35,1.5,0.175,0.925,0.155,1.2,0.0775,0.7125,32,0.35,1.5,0.175,0.925,"spc"
"335","Creek",0.4,1,0.2,0.7,0.35,0.95,0.175,0.66,52,0.4,1,0.2,0.7,"spc"
"336","Crossing",0.43,1.5,0.215,0.965,0.45,1.1,0.225,0.8375,31,0.43,1.5,0.215,0.965,"spc"
"337","Cudmore",0.41,1.35,0.205,0.88,0.45,1.2,0.225,0.8,11,0.41,1.35,0.205,0.88,"spc"
"338","Curlewis",0.27,0.5,0.135,0.385,0.2,0.7,0.1,0.45,1,0.27,0.5,0.135,0.385,"spc"
"339","Cushnie",0.21,1.5,0.105,0.855,0.275,1,0.1375,0.6575,18,0.21,1.5,0.105,0.855,"spc"
"340","Dagun",0.3,1.75,0.15,1.025,0.2,1.5,0.1,0.9,9,0.3,1.75,0.15,1.025,"spc"
"341","Daintree",0.38,2.1,0.19,1.24,0.33,0.7,0.165,0.575,3,0.38,2.1,0.19,1.24,"spc"
"342","Dalrymple (MAJCK)",0.15,1.2,0.075,0.675,0.22,1.2,0.11,0.71,1,0.15,1.2,0.075,0.675,"spc"
"343","Dangore",0.3,1,0.15,0.65,0.27,0.8,0.135,0.55,17,0.3,1,0.15,0.65,"spc"
"344","Daradgee",0.27,1.2,0.135,0.735,NA,NA,NA,NA,NA,0.27,1.2,0.135,0.735,"spc"
"345","Dawes",0.15,0.9,0.075,0.525,0.05,0.75,0.025,0.3925,6,0.15,0.9,0.075,0.525,"spc"
"346","Dayman",0.6,0.9,0.3,0.75,0.4,1.2,0.2,0.775,9,0.6,0.9,0.3,0.75,"spc"
"347","Derra",0.05,1.575,0.025,0.8125,0.15,1.63,0.075,0.875,5,0.05,1.575,0.025,0.8125,"spc"
"348","Derra (CWL)",0.35,NA,0.175,NA,0.3,0.85,0.15,0.6125,15,0.35,NA,0.175,NA,"spc"
"349","Derrick Steep And Broken Phase",0.2,0.9,0.1,0.55,NA,NA,NA,NA,NA,0.2,0.9,0.1,0.55,"spc"
"350","Diamond (Kcm)",0.09,1.14,0.045,0.615,0.05,1.75,0.025,0.9175,40,0.09,1.14,0.045,0.615,"spc"
"351","Diamond (Kcm), Footslope Variant",0.09,0.95,0.045,0.52,0.05,1.725,0.025,0.8925,16,0.09,0.95,0.045,0.52,"spc"
"352","Dickson",0.27,1.05,0.135,0.66,0.2,0.95,0.1,0.575,54,0.27,1.05,0.135,0.66,"spc"
"353","Dickson, Shallow Variant",0.06,0.25,0.03,0.155,0.135,0.4,0.0675,0.25,22,0.06,0.25,0.03,0.155,"spc"
"354","Dingo",0.2,1.95,0.1,1.075,0.12,1.8,0.06,0.96,2,0.2,1.95,0.1,1.075,"spc"
"355","Dingo (Pss)",0.2,1,0.1,0.6,0.35,0.95,0.175,0.68,21,0.2,1,0.1,0.6,"spc"
"356","Dittmer",0.35,0.55,0.175,0.45,0.22,0.405,0.11,0.33,89,0.35,0.55,0.175,0.45,"spc"
"357","Dixie",0.85,1.2,0.425,1.025,0.6,1,0.3,0.7875,26,0.85,1.2,0.425,1.025,"spc"
"358","Don",0.45,1.1,0.225,0.8,0.28,1.3,0.14,0.825,9,0.45,1.1,0.225,0.8,"spc"
"359","Doolbi",0.23,1.5,0.115,0.865,0.3,1.2,0.15,0.7,16,0.23,1.5,0.115,0.865,"spc"
"360","Drinan",0.6,1.5,0.3,1.05,0.4,1.4,0.2,0.825,5,0.6,1.5,0.3,1.05,"spc"
"361","Dryander",0.225,1.275,0.1125,0.75,0.22,1.415,0.11,0.835,82,0.225,1.275,0.1125,0.75,"spc"
"362","Drysdale",0.28,1.5,0.14,0.89,0.325,1.5,0.1625,0.9,12,0.28,1.5,0.14,0.89,"spc"
"363","Dudgeon",0.28,1.25,0.14,0.765,0.28,1.55,0.14,0.905,5,0.28,1.25,0.14,0.765,"spc"
"364","Dundula",0.15,1.1,0.075,0.625,0.2,1.35,0.1,0.77,35,0.15,1.1,0.075,0.625,"spc"
"365","Dunrobin - CQ",0.2,1.5,0.1,0.85,0.16,1.2,0.08,0.675,12,0.2,1.5,0.1,0.85,"spc"
"366","Dunstan",0.35,1.8,0.175,1.075,0.25,1.375,0.125,0.8,30,0.35,1.8,0.175,1.075,"spc"
"367","Dunwold",0.555,0.99,0.2775,0.7725,0.26,0.75,0.13,0.5,43,0.555,0.99,0.2775,0.7725,"spc"
"368","Durong",0.025,1.5,0.0125,0.7625,0.1,1.5,0.05,0.775,3,0.025,1.5,0.0125,0.7625,"spc"
"369","Earlsfield",0.07,1.5,0.035,0.785,0.06,1.55,0.03,0.81,174,0.07,1.5,0.035,0.785,"spc"
"370","Eastgate",0.13,1.5,0.065,0.815,0.1,1.5,0.05,0.8,38,0.13,1.5,0.065,0.815,"spc"
"371","Edgecumbe",0.29,1.075,0.145,0.6825,0.29,1.1,0.145,0.67,14,0.29,1.075,0.145,0.6825,"spc"
"372","Edmonton",0.19,1.6,0.095,0.895,0.3,1,0.15,0.65,9,0.19,1.6,0.095,0.895,"spc"
"373","Eleanor",0.11,1.6,0.055,0.855,0.1,1.75,0.05,0.92,36,0.11,1.6,0.055,0.855,"spc"
"374","Eleanor, Mottled Phase",0.03,1.6,0.015,0.815,0.1,1.685,0.05,0.8875,16,0.03,1.6,0.015,0.815,"spc"
"375","Elliot",0.3,1.2,0.15,0.75,0.3,1.2,0.15,0.7125,14,0.3,1.2,0.15,0.75,"spc"
"376","Emerald",0.18,1.6,0.09,0.89,0.25,1.5,0.125,0.875,1,0.18,1.6,0.09,0.89,"spc"
"377","Emerald Coarse Sandy Phase",0.2,1.6,0.1,0.9,NA,NA,NA,NA,NA,0.2,1.6,0.1,0.9,"spc"
"378","Emoh",0.25,0.5,0.125,0.375,0.25,1.2,0.125,0.745,19,0.25,0.5,0.125,0.375,"spc"
"379","Endeavour",0.2,1.2,0.1,0.7,0.145,1.1,0.0725,0.63,6,0.2,1.2,0.1,0.7,"spc"
"380","Eton",0.25,1.2,0.125,0.725,0.22,1.5,0.11,0.865,141,0.25,1.2,0.125,0.725,"spc"
"381","Etowrie",0.255,1.125,0.1275,0.69,0.22,1.155,0.11,0.69,120,0.255,1.125,0.1275,0.69,"spc"
"382","Etowrie (Neutral Variant)",0.32,0.9,0.16,0.61,0.29,0.85,0.145,0.565,23,0.32,0.9,0.16,0.61,"spc"
"383","Etowrie, Neutral Duplex Variant",0.28,0.9,0.14,0.59,0.3,1.3,0.15,0.8,7,0.28,0.9,0.14,0.59,"spc"
"384","Eubenangee",0.13,1.6,0.065,0.865,0.25,1.2,0.125,0.75,15,0.13,1.6,0.065,0.865,"spc"
"385","Eversleigh",0.19,1.5,0.095,0.845,0.2,1.53,0.1,0.885,11,0.19,1.5,0.095,0.845,"spc"
"386","Fairdale",0.09,0.75,0.045,0.42,0.12,0.95,0.06,0.52,42,0.09,0.75,0.045,0.42,"spc"
"387","Fairview",0.08,1.35,0.04,0.715,0.04,1.04,0.02,0.545,61,0.08,1.35,0.04,0.715,"spc"
"388","Fairydale",0.28,1,0.14,0.64,0.3,0.95,0.15,0.625,51,0.28,1,0.14,0.64,"spc"
"389","Fairymead",0.28,1.5,0.14,0.89,0.3,1.4,0.15,0.8,56,0.28,1.5,0.14,0.89,"spc"
"390","Falkner",0.11,0.8,0.055,0.455,0.05,0.85,0.025,0.435,33,0.11,0.8,0.055,0.455,"spc"
"391","Farleigh",0.28,0.9,0.14,0.59,0.25,0.8,0.125,0.525,3,0.28,0.9,0.14,0.59,"spc"
"392","Farnsfield",0.365,1.5,0.1825,0.9325,0.4,1.45,0.2,0.95,151,0.365,1.5,0.1825,0.9325,"spc"
"393","Feluga",0.52,1.95,0.26,1.235,0.375,1.2,0.1875,0.7875,36,0.52,1.95,0.26,1.235,"spc"
"394","Feluga Red Variant",0.39,2.1,0.195,1.245,0.3,2,0.15,1.15,1,0.39,2.1,0.195,1.245,"spc"
"395","Finch Hatton",0.25,1.1,0.125,0.675,0.2,1.145,0.1,0.6625,69,0.25,1.1,0.125,0.675,"spc"
"396","Finch Hatton (Alluvial - Colluvial Variant)",0.32,0.9,0.16,0.61,0.22,1.55,0.11,0.855,13,0.32,0.9,0.16,0.61,"spc"
"397","Finch Hatton, Alluvial-Colluvial Variant",0.41,1.1,0.205,0.755,0.5,1.3,0.25,0.875,5,0.41,1.1,0.205,0.755,"spc"
"398","Finley",0.315,1.13,0.1575,0.7225,0.2,0.99,0.1,0.59,60,0.315,1.13,0.1575,0.7225,"spc"
"399","Flagstone",0.25,1.35,0.125,0.8,0.25,1.2,0.125,0.745,122,0.25,1.35,0.125,0.8,"spc"
"400","Fletcher",0.18,1.15,0.09,0.665,0.15,1.5,0.075,0.755,13,0.18,1.15,0.09,0.665,"spc"
"401","Flinton",0.215,1.175,0.1075,0.695,0.165,0.64,0.0825,0.44,14,0.215,1.175,0.1075,0.695,"spc"
"402","Foxdale",0.225,0.605,0.1125,0.415,0.23,0.82,0.115,0.52,25,0.225,0.605,0.1125,0.415,"spc"
"403","Foxleigh",0.3,1.5,0.15,0.9,0.32,1.5,0.16,0.875,63,0.3,1.5,0.15,0.9,"spc"
"404","Freddy",0.6,0.95,0.3,0.775,0.4,0.95,0.2,0.675,61,0.6,0.95,0.3,0.775,"spc"
"405","Fumar",0.58,1.5,0.29,1.04,NA,NA,NA,NA,NA,0.58,1.5,0.29,1.04,"spc"
"406","Gahan",0.28,0.7,0.14,0.49,0.25,0.6,0.125,0.4375,41,0.28,0.7,0.14,0.49,"spc"
"407","Gainsford",0.2,0.6,0.1,0.4,0.375,1.1,0.1875,0.745,22,0.2,0.6,0.1,0.4,"spc"
"408","Galmara",0.26,1.5,0.13,0.85,0.25,1.2,0.125,0.7,170,0.26,1.5,0.13,0.85,"spc"
"409","Gander",0.4,1.65,0.2,1.025,0.285,1,0.1425,0.6375,46,0.4,1.65,0.2,1.025,"spc"
"410","Gargett",0.515,0.9,0.2575,0.7075,0.31,0.95,0.155,0.67,45,0.515,0.9,0.2575,0.7075,"spc"
"411","Gargett, Deep A Horizon Variant",0.9,1.2,0.45,1.05,0.9,1.4,0.45,1.15,1,0.9,1.2,0.45,1.05,"spc"
"412","Garradunga",0.3,1.5,0.15,0.9,0.25,1.2,0.125,0.7375,6,0.3,1.5,0.15,0.9,"spc"
"413","Garrett",0.2,1.55,0.1,0.875,0.225,1.625,0.1125,0.925,2,0.2,1.55,0.1,0.875,"spc"
"414","Gibson - Bab",0.35,1.5,0.175,0.925,0.35,1.4,0.175,0.9,13,0.35,1.5,0.175,0.925,"spc"
"415","Gigoon",0.4,1.5,0.2,0.95,0.385,0.85,0.1925,0.64,54,0.4,1.5,0.2,0.95,"spc"
"416","Gillen",0.55,1.5,0.275,1.025,0.4,1.2,0.2,0.85,13,0.55,1.5,0.275,1.025,"spc"
"417","Gillies",0.25,1.25,0.125,0.75,0.27,1.22,0.135,0.85,10,0.25,1.25,0.125,0.75,"spc"
"418","Gillinbin",0.77,1.2,0.385,0.985,0.7,1.2,0.35,0.925,26,0.77,1.2,0.385,0.985,"spc"
"419","Gindie",0.02,1,0.01,0.51,0.2,0.7,0.1,0.5,3,0.02,1,0.01,0.51,"spc"
"420","Givelda",0.23,0.88,0.115,0.555,0.24,1,0.12,0.61,91,0.23,0.88,0.115,0.555,"spc"
"421","Glenella",0.3,0.93,0.15,0.615,0.35,1.4,0.175,0.8,11,0.3,0.93,0.15,0.615,"spc"
"422","Glengordon",0.23,0.82,0.115,0.525,0.275,0.685,0.1375,0.465,12,0.23,0.82,0.115,0.525,"spc"
"423","Glenora",0.04,1.45,0.02,0.745,0.1,1.4,0.05,0.7575,33,0.04,1.45,0.02,0.745,"spc"
"424","Glenroc",0.35,1.5,0.175,0.925,0.17,0.8,0.085,0.51,17,0.35,1.5,0.175,0.925,"spc"
"425","Glenrock",0.35,1.2,0.175,0.775,0.25,1.1,0.125,0.7,10,0.35,1.2,0.175,0.775,"spc"
"426","Glenrock Grey Variant",0.15,0.6,0.075,0.375,0.15,NA,0.075,NA,1,0.15,0.6,0.075,0.375,"spc"
"427","Gooburrum",0.59,1.5,0.295,1.0025,0.4,1.45,0.2,0.925,141,0.59,1.5,0.295,1.0025,"spc"
"428","Goodbye",0.2,1.5,0.1,0.85,0.19,1.425,0.095,0.7725,14,0.2,1.5,0.1,0.85,"spc"
"429","Goodger",0.15,1.35,0.075,0.75,0.3,1.35,0.15,0.8,27,0.15,1.35,0.075,0.75,"spc"
"430","Googarra",0.69,1.2,0.345,0.95,0.42,0.7,0.21,0.56,3,0.69,1.2,0.345,0.95,"spc"
"431","Goolboo",0.4,0.98,0.2,0.64,0.225,0.7,0.1125,0.4,16,0.4,0.98,0.2,0.64,"spc"
"432","Goorganga",0.15,1.4,0.075,0.775,0.26,1.4,0.1325,0.8225,70,0.15,1.4,0.075,0.775,"spc"
"433","Goovigen",0.05,1.5,0.025,0.775,0.04,1.55,0.02,0.8025,14,0.05,1.5,0.025,0.775,"spc"
"434","Gordonbrook",0.21,1,0.105,0.725,0.2,0.975,0.1,0.6225,29,0.21,1,0.105,0.725,"spc"
"435","Gowrie - Tab",0.25,1.3,0.125,0.775,0.28,1.3,0.14,0.8,13,0.25,1.3,0.125,0.775,"spc"
"436","Graham",0.15,1.5,0.075,0.825,0.1,1.1,0.05,0.6375,32,0.15,1.5,0.075,0.825,"spc"
"437","Granite",0.2,1.4,0.1,0.85,0.3,0.9,0.15,0.64,5,0.2,1.4,0.1,0.85,"spc"
"438","Granville",0.18,1.5,0.09,0.84,0.2,1.4,0.1,0.8,45,0.18,1.5,0.09,0.84,"spc"
"439","Grevillea",0.09,1.5,0.045,0.795,0.09,1.55,0.045,0.835,33,0.09,1.5,0.045,0.795,"spc"
"440","Greycliffe",0.06,1.5,0.03,0.78,0.04,1.6,0.02,0.81,163,0.06,1.5,0.03,0.78,"spc"
"441","Greycliffe Melonhole Phase",0.04,1.5,0.02,0.77,0.03,1.56,0.015,0.8,78,0.04,1.5,0.02,0.77,"spc"
"442","Gueena",0.13,1.5,0.065,0.815,0.175,1.4,0.0875,0.8,20,0.13,1.5,0.065,0.815,"spc"
"443","Gumlu",0.25,1.5,0.125,0.875,0.35,1.5,0.175,0.925,1,0.25,1.5,0.125,0.875,"spc"
"444","Gunnawarra",0.28,1.33,0.14,0.805,0.32,0.9,0.16,0.64,51,0.28,1.33,0.14,0.805,"spc"
"445","Gutchy",0.3,1.35,0.15,0.825,0.2,1.52,0.1,0.81,7,0.3,1.35,0.15,0.825,"spc"
"446","Gwynne",0.17,1.27,0.085,0.72,0.23,1.4,0.115,0.87,14,0.17,1.27,0.085,0.72,"spc"
"447","Habana",0.3,0.95,0.15,0.625,0.2,0.825,0.1,0.5025,100,0.3,0.95,0.15,0.625,"spc"
"448","Haden",0.35,1.5,0.175,0.925,0.355,1.675,0.1775,1.0225,4,0.35,1.5,0.175,0.925,"spc"
"449","Haly",0.24,1.35,0.12,0.795,0.155,1.2,0.0775,0.7,50,0.24,1.35,0.12,0.795,"spc"
"450","Hamleigh",0.23,1.2,0.115,0.715,0.2,1.2,0.1,0.675,30,0.23,1.2,0.115,0.715,"spc"
"451","Hannan",0.45,NA,0.225,NA,0.45,1.2,0.225,0.7625,57,0.45,NA,0.225,NA,"spc"
"452","Harris",0.06,1.5,0.03,0.78,0.04,1.55,0.02,0.785,12,0.06,1.5,0.03,0.78,"spc"
"453","Hawkins",0.13,NA,0.065,NA,0.225,0.15,0.1125,0.075,3,0.13,NA,0.065,NA,"spc"
"454","Hawkwood",0.4,1.2,0.2,0.8,0.39,0.625,0.195,0.53,4,0.4,1.2,0.2,0.8,"spc"
"455","Hector (PCS)",0.5,1,0.25,0.75,0.35,1,0.175,0.675,69,0.5,1,0.25,0.75,"spc"
"456","Herbert",0.65,1.2,0.325,0.925,0.3,1.2,0.15,0.7625,22,0.65,1.2,0.325,0.925,"spc"
"457","Hervey",0.25,1.5,0.125,0.875,NA,NA,NA,NA,NA,0.25,1.5,0.125,0.875,"spc"
"458","Hewitt",0.25,0.89,0.125,0.57,0.28,1.2,0.15,0.725,74,0.25,0.89,0.125,0.57,"spc"
"459","Highbury",0.25,0.7,0.125,0.475,0.25,0.7,0.125,0.5,18,0.25,0.7,0.125,0.475,"spc"
"460","Hillsborough",0.36,1.51,0.18,0.935,0.23,1.365,0.1175,0.7925,58,0.36,1.51,0.18,0.935,"spc"
"461","Hillsdale",0.285,1.2,0.1425,0.7425,0.2,0.95,0.1,0.615,17,0.285,1.2,0.1425,0.7425,"spc"
"462","Hillview",0.29,1.65,0.145,0.97,0.25,1.2,0.125,0.725,29,0.29,1.65,0.145,0.97,"spc"
"463","Hillview (Zed)",0.2,1,0.1,0.6,0.25,1.5,0.125,0.875,1,0.2,1,0.1,0.6,"spc"
"464","Hillview Fine Variant",0.25,2.1,0.125,1.175,0.25,0.95,0.125,0.625,16,0.25,2.1,0.125,1.175,"spc"
"465","Hinkler",0.25,1.5,0.125,0.875,0.25,1.525,0.125,0.8875,6,0.25,1.5,0.125,0.875,"spc"
"466","Hodge (BAN)",0.23,0.65,0.115,0.44,0.15,0.675,0.075,0.43,11,0.23,0.65,0.115,0.44,"spc"
"467","Holding",0.05,1.3,0.025,0.675,0.15,1.4,0.075,0.775,48,0.05,1.3,0.025,0.675,"spc"
"468","Holloway",0.35,1.2,0.175,0.76,0.325,1.05,0.1625,0.7,4,0.35,1.2,0.175,0.76,"spc"
"469","Honeycomb",0.12,1,0.06,0.56,0.12,1.5,0.06,0.77,39,0.12,1,0.06,0.56,"spc"
"470","Hopevale",0.165,1.3,0.0825,0.7325,0.15,1.05,0.075,0.585,12,0.165,1.3,0.0825,0.7325,"spc"
"471","Howes",0.23,1.5,0.115,0.865,0.3,1.5,0.15,0.9,11,0.23,1.5,0.115,0.865,"spc"
"472","Hull",0.365,0.775,0.1825,0.57,0.425,0.95,0.2125,0.7,12,0.365,0.775,0.1825,0.57,"spc"
"473","Hunter",0.05,1.5,0.025,0.775,0.1,1.145,0.05,0.6225,2,0.05,1.5,0.025,0.775,"spc"
"474","Huxley",0.11,2,0.055,1.055,0.2,1.48,0.1,0.8075,9,0.11,2,0.055,1.055,"spc"
"475","Ilbilbie",0.4,0.9,0.2,0.65,0.4,0.95,0.2,0.7,43,0.4,0.9,0.2,0.65,"spc"
"476","Ingham",0.38,1,0.19,0.69,0.33,1.05,0.165,0.725,17,0.38,1,0.19,0.69,"spc"
"477","Inlet",0.22,1.64,0.11,0.93,0.26,1.22,0.13,0.74,2,0.22,1.64,0.11,0.93,"spc"
"478","Innisfail",0.29,1.2,0.145,0.765,0.3,1.2,0.15,0.725,85,0.29,1.2,0.145,0.765,"spc"
"479","Inverdon",0.38,0.55,0.19,0.465,0.5,0.7,0.25,0.6,1,0.38,0.55,0.19,0.465,"spc"
"480","Iona",0.17,1.5,0.085,0.835,0.155,1.2,0.0775,0.7,28,0.17,1.5,0.085,0.835,"spc"
"481","Isis",0.6,1.5,0.3,1.05,0.65,1.4,0.325,1,266,0.6,1.5,0.3,1.05,"spc"
"482","Jambin",0.08,1.5,0.04,0.79,0.05,1.55,0.025,0.785,35,0.08,1.5,0.04,0.79,"spc"
"483","Japoon",0.27,0.6,0.135,0.475,0.15,0.775,0.075,0.475,5,0.27,0.6,0.135,0.475,"spc"
"484","Jaro",0.15,1.5,0.075,0.825,0.21,1.35,0.105,0.8,38,0.15,1.5,0.075,0.825,"spc"
"485","Jarra",0.415,1.575,0.2075,0.995,0.45,1.5,0.225,0.975,5,0.415,1.575,0.2075,0.995,"spc"
"486","Julian",0.31,0.75,0.155,0.53,0.19,0.45,0.095,0.325,38,0.31,0.75,0.155,0.53,"spc"
"487","Jumper",0.3,0.96,0.15,0.63,0.25,0.9,0.125,0.59,52,0.3,0.96,0.15,0.63,"spc"
"488","Jumpo",0.4,0.95,0.2,0.675,0.26,1.1,0.13,0.73,14,0.4,0.95,0.2,0.675,"spc"
"489","Kaban",0.135,1.365,0.0675,0.75,0.155,1.25,0.0775,0.755,46,0.135,1.365,0.0675,0.75,"spc"
"490","Kaber",0.25,1.5,0.125,0.875,0.12,0.9,0.06,0.55,19,0.25,1.5,0.125,0.875,"spc"
"491","Kaber Red Variant",0.18,1.6,0.09,0.89,0.18,1.6,0.09,0.89,1,0.18,1.6,0.09,0.89,"spc"
"492","Kabra",0.25,0.7,0.125,0.475,0.25,0.8,0.125,0.525,11,0.25,0.7,0.125,0.475,"spc"
"493","Kailla",0.4,0.9,0.2,0.65,0.16,0.8,0.08,0.505,5,0.4,0.9,0.2,0.65,"spc"
"494","Kairi",0.35,1.5,0.175,0.925,0.3,1.5,0.15,0.9,22,0.35,1.5,0.175,0.925,"spc"
"495","Kalah",0.75,1.5,0.375,1.125,0.5,1.35,0.25,0.925,151,0.75,1.5,0.375,1.125,"spc"
"496","Karloo",0.3,1.2,0.15,0.75,0.25,1.2,0.125,0.725,67,0.3,1.2,0.15,0.75,"spc"
"497","Kawl Kawl",0.13,1.5,0.065,0.815,0.08,1.25,0.04,0.65,6,0.13,1.5,0.065,0.815,"spc"
"498","Kaygaroo",1.05,2.1,0.525,1.575,0.6,1.25,0.3,0.8625,6,1.05,2.1,0.525,1.575,"spc"
"499","Kenlogan",0.09,0.94,0.045,0.515,0.05,0.825,0.025,0.445,28,0.09,0.94,0.045,0.515,"spc"
"500","Kenmar",0.02,1.3,0.01,0.66,0.07,1.7,0.035,0.9,51,0.02,1.3,0.01,0.66,"spc"
"501","Kepnock",0.45,1.5,0.225,0.975,0.4,1.3,0.2,0.875,387,0.45,1.5,0.225,0.975,"spc"
"502","Kiama",0.53,1.13,0.265,0.83,0.4,0.7,0.2,0.535,22,0.53,1.13,0.265,0.83,"spc"
"503","Kilburnie",0.11,1.5,0.055,0.805,0.04,1.55,0.02,0.795,23,0.11,1.5,0.055,0.805,"spc"
"504","Kimberley",0.15,0.9,0.075,0.575,0.275,1,0.1375,0.625,13,0.15,0.9,0.075,0.575,"spc"
"505","Kinchant",0.5,1.1,0.25,0.8,0.425,1.3,0.2125,0.8625,2,0.5,1.1,0.25,0.8,"spc"
"506","Kinchant, Coarse Sandy Variant",0.6,1.05,0.3,0.825,0.6,0.85,0.3,0.725,1,0.6,1.05,0.3,0.825,"spc"
"507","Kingjack",0.15,1,0.075,0.575,0.24,0.85,0.12,0.55,16,0.15,1,0.075,0.575,"spc"
"508","Kinkuna",0.53,0.73,0.265,0.63,0.55,0.9,0.275,0.725,124,0.53,0.73,0.265,0.63,"spc"
"509","Kirkcaldy",0.1,1.5,0.05,0.8,0.04,1.325,0.02,0.6775,16,0.1,1.5,0.05,0.8,"spc"
"510","Kirrama",0.43,2,0.215,1.215,0.55,1.8,0.275,1.1875,4,0.43,2,0.215,1.215,"spc"
"511","Knockane",0.08,1.5,0.04,0.79,0.1,1.5,0.05,0.8,13,0.08,1.5,0.04,0.79,"spc"
"512","Kokutungo",0.33,1.5,0.165,0.915,0.22,1.5,0.11,0.865,190,0.33,1.5,0.165,0.915,"spc"
"513","Kolan",0.25,1.5,0.125,0.9,0.22,1,0.11,0.645,350,0.25,1.5,0.125,0.9,"spc"
"514","Kolbore",0.55,1.5,0.275,1.025,0.55,1,0.275,0.79,82,0.55,1.5,0.275,1.025,"spc"
"515","Koolachu",0.3,1.1,0.15,0.7,0.27,0.95,0.135,0.6375,149,0.3,1.1,0.15,0.7,"spc"
"516","Kooringa",0.53,0.83,0.265,0.68,0.45,1.13,0.225,0.965,7,0.53,0.83,0.265,0.68,"spc"
"517","Koumala",0.38,1.2,0.19,0.79,0.4,1.1,0.2,0.75,19,0.38,1.2,0.19,0.79,"spc"
"518","Kowari",0.375,0.605,0.1875,0.49,0.21,0.65,0.105,0.415,23,0.375,0.605,0.1875,0.49,"spc"
"519","Krongie",0.15,1.3,0.075,0.725,0.1,0.9,0.05,0.5,66,0.15,1.3,0.075,0.725,"spc"
"520","Kumbia",0.2,0.9,0.1,0.55,0.15,1,0.075,0.5875,61,0.2,0.9,0.1,0.55,"spc"
"521","Kumbia Rocky Phase",0.2,0.6,0.1,0.4,NA,NA,NA,NA,NA,0.2,0.6,0.1,0.4,"spc"
"522","Kungurri",0.2,1,0.1,0.6,0.25,1.2,0.125,0.725,1,0.2,1,0.1,0.6,"spc"
"523","Kunioon",0.17,1.5,0.085,0.835,0.2,1.1,0.1,0.665,45,0.17,1.5,0.085,0.835,"spc"
"524","Kunipipi",0.25,1.2,0.125,0.725,0.22,1.2,0.11,0.745,5,0.25,1.2,0.125,0.725,"spc"
"525","Kurrimine",0.55,1.425,0.275,0.9875,0.5,1.2,0.25,0.775,13,0.55,1.425,0.275,0.9875,"spc"
"526","Kuttabul",0.27,0.95,0.135,0.61,0.3,0.9,0.15,0.625,15,0.27,0.95,0.135,0.61,"spc"
"527","Kuttabul, Alluvial-Colluvial Variant",0.33,0.86,0.165,0.595,0.25,1.2,0.125,0.725,1,0.33,0.86,0.165,0.595,"spc"
"528","Lacon",0.05,1.5,0.025,0.775,0.15,1.32,0.075,0.725,9,0.05,1.5,0.025,0.775,"spc"
"529","Langley-Wdh",0.05,1.5,0.025,0.775,0.05,1.5,0.025,0.81,53,0.05,1.5,0.025,0.775,"spc"
"530","Lannercost",0.28,1.2,0.14,0.74,0.3,1.2,0.15,0.725,20,0.28,1.2,0.14,0.74,"spc"
"531","Lascelles",0.75,1.6,0.375,1.175,0.27,1.515,0.135,0.895,28,0.75,1.6,0.375,1.175,"spc"
"532","Leach",0.18,1.2,0.09,0.69,0.15,1.2,0.075,0.675,9,0.18,1.2,0.09,0.69,"spc"
"533","Leadingham",0.42,1.5,0.21,0.96,0.35,1.2,0.175,0.775,11,0.42,1.5,0.21,0.96,"spc"
"534","Lee",0.35,1.025,0.175,0.6875,0.235,0.8,0.1175,0.525,18,0.35,1.025,0.175,0.6875,"spc"
"535","Leichhardt",0.32,NA,0.16,NA,0.35,0.8,0.175,0.5,28,0.32,NA,0.16,NA,"spc"
"536","Leitrim",0.05,0.95,0.025,0.5,0.05,0.95,0.025,0.5,1,0.05,0.95,0.025,0.5,"spc"
"537","Lillypool",0.4,1.55,0.2,0.975,0.275,1.4,0.1375,0.8275,14,0.4,1.55,0.2,0.975,"spc"
"538","Lindsay",0.04,1.4,0.02,0.72,0.05,1.5,0.025,0.775,34,0.04,1.4,0.02,0.72,"spc"
"539","Littabella",0.7,1.5,0.35,1.1,0.55,1.275,0.275,0.9325,41,0.7,1.5,0.35,1.1,"spc"
"540","Liverpool",0.28,0.725,0.14,0.51,0.25,0.6,0.125,0.45,122,0.28,0.725,0.14,0.51,"spc"
"541","Logcamp",0.12,1.5,0.06,0.81,0.19,1,0.095,0.61,19,0.12,1.5,0.06,0.81,"spc"
"542","Long Peter",0.14,1.2,0.07,0.67,0.2,1.275,0.1,0.7375,4,0.14,1.2,0.07,0.67,"spc"
"543","Louisa",0.32,1.03,0.16,0.675,0.3,1.05,0.15,0.7,44,0.32,1.03,0.16,0.675,"spc"
"544","Luce",0.115,1.1,0.0575,0.6075,0.09,1.065,0.045,0.56,4,0.115,1.1,0.0575,0.6075,"spc"
"545","Lucy",0.26,1.05,0.13,0.655,0.35,0.8,0.175,0.6,19,0.26,1.05,0.13,0.655,"spc"
"546","Lugger",0.49,1.315,0.245,0.92,0.4,1.2,0.2,0.8,48,0.49,1.315,0.245,0.92,"spc"
"547","Luxor",0.6,1.2,0.3,0.9,0.45,0.95,0.225,0.7,60,0.6,1.2,0.3,0.9,"spc"
"548","Maalan",0.15,1.43,0.075,0.79,0.16,1.59,0.08,0.86,255,0.15,1.43,0.075,0.79,"spc"
"549","Macknade",0.25,NA,0.125,NA,0.3,0.45,0.15,0.35,22,0.25,NA,0.125,NA,"spc"
"550","Mahogany",0.9,1.5,0.45,1.2,0.85,1.4,0.425,1.1,101,0.9,1.5,0.45,1.2,"spc"
"551","Maiden",0.68,1.5,0.34,1.09,0.8,1.5,0.4,1.15,1,0.68,1.5,0.34,1.09,"spc"
"552","Malbon",0.3,1.1,0.15,0.695,0.255,1.2,0.1275,0.7925,14,0.3,1.1,0.15,0.695,"spc"
"553","Manar",0.11,1.36,0.055,0.735,0.03,1.6,0.015,0.82,30,0.11,1.36,0.055,0.735,"spc"
"554","Mandam",0.45,0.7,0.225,0.575,0.25,0.825,0.125,0.5875,8,0.45,0.7,0.225,0.575,"spc"
"555","Manor",0.23,1.2,0.115,0.715,0.2,1.2,0.1,0.7,21,0.23,1.2,0.115,0.715,"spc"
"556","Manton",0.1,NA,0.05,NA,0.18,1.1,0.09,0.64,2,0.1,NA,0.05,NA,"spc"
"557","Mapala",0.3,1.35,0.15,0.825,0.26,1.4,0.13,0.815,15,0.3,1.35,0.15,0.825,"spc"
"558","Maraconda",0.02,1.3,0.01,0.66,0.02,1.5,0.01,0.76,14,0.02,1.3,0.01,0.66,"spc"
"559","Mareeba 1",0.18,3.8,0.09,1.99,0.18,2.29,0.09,1.235,1,0.18,3.8,0.09,1.99,"spc"
"560","Maria",0.54,1.05,0.27,0.795,0.425,1.2,0.2125,0.7875,34,0.54,1.05,0.27,0.795,"spc"
"561","Marian",0.38,1.05,0.19,0.715,0.28,1.2,0.14,0.7425,72,0.38,1.05,0.19,0.715,"spc"
"562","Marian, Yellow B Horizon Variant",0.33,1.2,0.165,0.765,0.27,0.9,0.135,0.585,1,0.33,1.2,0.165,0.765,"spc"
"563","Marlow",0.25,0.85,0.125,0.55,0.21,0.81,0.105,0.4875,18,0.25,0.85,0.125,0.55,"spc"
"564","Maroondan",0.11,0.63,0.055,0.37,0.12,0.7,0.06,0.41,44,0.11,0.63,0.055,0.37,"spc"
"565","Marshlands",0.25,1,0.125,0.625,0.2,1.5,0.1,0.8,5,0.25,1,0.125,0.625,"spc"
"566","Martin",0.23,0.8,0.115,0.515,0.295,1.425,0.1475,0.875,10,0.23,0.8,0.115,0.515,"spc"
"567","Martyr",0.03,1.5,0.015,0.765,0.03,1.5,0.015,0.78,32,0.03,1.5,0.015,0.765,"spc"
"568","Marwood",0.455,0.7,0.2275,0.5775,0.65,1.05,0.325,0.7,17,0.455,0.7,0.2275,0.5775,"spc"
"569","Mary",0.18,1.5,0.09,0.84,0.25,1.55,0.125,0.9,272,0.18,1.5,0.09,0.84,"spc"
"570","Masterton",0.5,0.62,0.25,0.56,0.3,0.9,0.15,0.6,1,0.5,0.62,0.25,0.56,"spc"
"571","May",0.05,0.9,0.025,0.475,0.04,0.9,0.02,0.475,29,0.05,0.9,0.025,0.475,"spc"
"572","May Downs",0.04,1.25,0.02,0.645,0.07,1.25,0.035,0.67,82,0.04,1.25,0.02,0.645,"spc"
"573","May Shallow Phase",0.05,0.5,0.025,0.275,0.03,0.445,0.015,0.2375,16,0.05,0.5,0.025,0.275,"spc"
"574","Mceuen",0.06,0.4,0.03,0.23,0.11,0.5,0.055,0.305,21,0.06,0.4,0.03,0.23,"spc"
"575","Mceuen Rocky Phase",0.07,0.5,0.035,0.285,NA,NA,NA,NA,NA,0.07,0.5,0.035,0.285,"spc"
"576","Meadowvale",0.65,1.5,0.325,1.075,0.7,1.4,0.35,1.05,236,0.65,1.5,0.325,1.075,"spc"
"577","Melton",0.15,1.5,0.075,0.825,0.12,1.36,0.06,0.735,82,0.15,1.5,0.075,0.825,"spc"
"578","Memerambi",0.16,1.3,0.08,0.73,0.2,1.2,0.1,0.7,122,0.16,1.3,0.08,0.73,"spc"
"579","Mentmore",0.33,0.8,0.165,0.565,0.25,0.9,0.125,0.575,19,0.33,0.8,0.165,0.565,"spc"
"580","Mentmore, Sandy Loam Variant",0.2,0.85,0.1,0.525,NA,NA,NA,NA,NA,0.2,0.85,0.1,0.525,"spc"
"581","Midden",0.03,1.4,0.015,0.715,0.05,1.5,0.025,0.8275,58,0.03,1.4,0.015,0.715,"spc"
"582","Midden, Melonhole Phase",0.02,1.5,0.01,0.76,0.02,1.5,0.01,0.86,17,0.02,1.5,0.01,0.76,"spc"
"583","Midgenoo",0.3,1.2,0.15,0.75,0.175,1.2,0.0875,0.6875,4,0.3,1.2,0.15,0.75,"spc"
"584","Midway",0.35,1.2,0.175,0.775,0.35,1.2,0.175,0.775,9,0.35,1.2,0.175,0.775,"spc"
"585","Millstream",0.11,0.975,0.055,0.5425,0.14,0.75,0.07,0.415,33,0.11,0.975,0.055,0.5425,"spc"
"586","Minnabilla",0.35,NA,0.175,NA,0.2,0.215,0.1,0.1625,20,0.35,NA,0.175,NA,"spc"
"587","Mirani",0.48,0.95,0.24,0.715,0.42,1.175,0.21,0.7775,16,0.48,0.95,0.24,0.715,"spc"
"588","Miskin",0.48,0.95,0.24,0.715,0.4,0.8,0.2,0.6,1,0.48,0.95,0.24,0.715,"spc"
"589","Mission",0.25,1.05,0.125,0.65,0.25,1.2,0.125,0.7,101,0.25,1.05,0.125,0.65,"spc"
"590","Moffat",0.3,1.2,0.15,0.75,0.25,1.1,0.125,0.7125,8,0.3,1.2,0.15,0.75,"spc"
"591","Molonga",0.18,1.2,0.09,0.69,0.2,1.15,0.1,0.6625,18,0.18,1.2,0.09,0.69,"spc"
"592","Mondure",0.3,1.25,0.15,0.775,0.2,1.15,0.1,0.675,69,0.3,1.25,0.15,0.775,"spc"
"593","Monsildale",0.2,1.175,0.1,0.695,0.2,1.2,0.1,0.69,196,0.2,1.175,0.1,0.695,"spc"
"594","Moolayember",0.6,1.35,0.3,0.975,0.23,NA,0.115,NA,1,0.6,1.35,0.3,0.975,"spc"
"595","Moore Park",0.4,1.5,0.2,0.95,0.425,1.275,0.2125,0.85,22,0.4,1.5,0.2,0.95,"spc"
"596","Moorland",0.38,1.35,0.19,0.865,0.41,1.3,0.205,0.855,18,0.38,1.35,0.19,0.865,"spc"
"597","Moosie",0.4,1.5,0.2,0.95,0.22,0.85,0.11,0.585,10,0.4,1.5,0.2,0.95,"spc"
"598","Moramana",0.09,1.25,0.045,0.67,0.05,1.7,0.025,0.8625,70,0.09,1.25,0.045,0.67,"spc"
"599","Morecambe",0.22,1.5,0.11,0.86,0.26,0.9,0.13,0.645,80,0.22,1.5,0.11,0.86,"spc"
"600","Morgan",0.15,1.31,0.075,0.73,0.2,0.95,0.1,0.575,7,0.15,1.31,0.075,0.73,"spc"
"601","Morganbury",0.39,0.95,0.195,0.67,0.275,1.25,0.1375,0.825,7,0.39,0.95,0.195,0.67,"spc"
"602","Mossman",0.35,1.15,0.175,0.815,0.3,1.2,0.15,0.75,11,0.35,1.15,0.175,0.815,"spc"
"603","Muldoon",0.1,0.6,0.05,0.35,0.2,0.695,0.1,0.4425,60,0.1,0.6,0.05,0.35,"spc"
"604","Mulei",0.42,1.2,0.21,0.81,0.35,0.9,0.175,0.65,5,0.42,1.2,0.21,0.81,"spc"
"605","Mullaburra",0.35,1.5,0.175,0.925,0.26,1.065,0.13,0.705,16,0.35,1.5,0.175,0.925,"spc"
"606","Mulligan",0.53,1.6,0.265,1.065,0.35,1,0.175,0.725,37,0.53,1.6,0.265,1.065,"spc"
"607","Mulligan Gravelly Phase",0.3,1.6,0.15,0.95,0.25,1.2,0.125,0.74,5,0.3,1.6,0.15,0.95,"spc"
"608","Mulligan Shallow Phase",0.55,1.05,0.275,0.8,0.375,0.675,0.1875,0.525,2,0.55,1.05,0.275,0.8,"spc"
"609","Munbura",0.43,1.1,0.215,0.765,0.22,1.2,0.11,0.775,3,0.43,1.1,0.215,0.765,"spc"
"610","Mundoo",0.3,2.5,0.15,1.4,0.3,1.2,0.15,0.75,31,0.3,2.5,0.15,1.4,"spc"
"611","Mungar",0.43,1.5,0.215,0.965,0.25,1.5,0.125,0.86,75,0.43,1.5,0.215,0.965,"spc"
"612","Murphy",0.72,1.6,0.36,1.16,0.6,1.1,0.3,0.85,7,0.72,1.6,0.36,1.16,"spc"
"613","Murphy Pan Phase",0.8,0.85,0.4,0.825,0.35,0.75,0.175,0.525,3,0.8,0.85,0.4,0.825,"spc"
"614","Murray",0.505,NA,0.2525,NA,0.235,0.575,0.1175,0.375,28,0.505,NA,0.2525,NA,"spc"
"615","Myrtle",0.12,1.52,0.06,0.82,0.21,1.5,0.1075,0.8275,18,0.12,1.52,0.06,0.82,"spc"
"616","Nabilla",0.38,0.9,0.19,0.64,0.31,1.11,0.155,0.755,25,0.38,0.9,0.19,0.64,"spc"
"617","Nail",0.08,1.5,0.04,0.79,0.1,1.5,0.05,0.8,1,0.08,1.5,0.04,0.79,"spc"
"618","Nanyeta",0.35,1.5,0.175,0.925,0.35,0.87,0.175,0.6,84,0.35,1.5,0.175,0.925,"spc"
"619","Narcotic",0.5,1.75,0.25,1.265,0.38,1.7,0.19,1.04,1,0.5,1.75,0.25,1.265,"spc"
"620","Narpi",0.23,1.1,0.115,0.665,0.24,0.91,0.12,0.6,85,0.23,1.1,0.115,0.665,"spc"
"621","Needep",0.315,0.775,0.1575,0.545,0.35,0.85,0.175,0.5875,5,0.315,0.775,0.1575,0.545,"spc"
"622","Nessvale",0.35,1.5,0.175,0.925,0.3,1.31,0.15,0.8,4,0.35,1.5,0.175,0.925,"spc"
"623","Netherdale",0.23,0.8,0.115,0.515,0.12,0.4,0.06,0.26,3,0.23,0.8,0.115,0.515,"spc"
"624","Newell",0.5,1.8,0.25,1.15,0.36,1.15,0.18,0.775,6,0.5,1.8,0.25,1.15,"spc"
"625","Niagara",0.11,1.2,0.055,0.655,0.1,1.15,0.05,0.63,127,0.11,1.2,0.055,0.655,"spc"
"626","Nicotine",1.05,2.4,0.525,1.725,1.1,1.5,0.55,1.3,1,1.05,2.4,0.525,1.725,"spc"
"627","Nicotine Yellow",0.87,1.5,0.435,1.185,0.65,1.2,0.325,0.925,2,0.87,1.5,0.435,1.185,"spc"
"628","Nilotica",0.43,0.72,0.215,0.575,0.29,1.135,0.145,0.6875,3,0.43,0.72,0.215,0.575,"spc"
"629","Nind",0.5,1.5,0.25,1,0.615,1.05,0.3075,0.9075,4,0.5,1.5,0.25,1,"spc"
"630","Ninemile",0.06,1.1,0.03,0.58,0.15,0.9,0.075,0.54,3,0.06,1.1,0.03,0.58,"spc"
"631","Nobby",0.2,0.6,0.1,0.4,0.1,0.525,0.05,0.3375,6,0.2,0.6,0.1,0.4,"spc"
"632","Norville",0.25,0.85,0.125,0.55,0.25,1.3,0.125,0.775,5,0.25,0.85,0.125,0.55,"spc"
"633","Norwich",0.04,1.5,0.02,0.77,0.04,1.5,0.02,0.77,17,0.04,1.5,0.02,0.77,"spc"
"634","Nullinga",0.3,1.27,0.15,0.785,0.29,1.4,0.145,0.84,5,0.3,1.27,0.15,0.785,"spc"
"635","Nullinga Shallow Phase",0.3,1,0.15,0.65,NA,NA,NA,NA,NA,0.3,1,0.15,0.65,"spc"
"636","Nursery",0.13,0.7,0.065,0.415,0.1,0.6,0.05,0.35,17,0.13,0.7,0.065,0.415,"spc"
"637","Nyleta",NA,1.45,NA,0.9,NA,NA,NA,NA,NA,NA,NA,NA,NA,"site"
"638","O'Bil Bil",0.2,0.55,0.1,0.375,0.15,0.6,0.075,0.39,5,0.2,0.55,0.1,0.375,"spc"
"639","Oakwood",0.58,1.5,0.29,1.04,0.3,1.5,0.15,0.875,91,0.58,1.5,0.29,1.04,"spc"
"640","Oombabeer",0.16,1.5,0.08,0.83,0.15,1,0.075,0.675,9,0.16,1.5,0.08,0.83,"spc"
"641","Orient",0.16,0.75,0.08,0.455,0.15,0.75,0.075,0.425,7,0.16,0.75,0.08,0.455,"spc"
"642","Ossa",0.45,1.05,0.225,0.75,0.4,0.905,0.2,0.665,32,0.45,1.05,0.225,0.75,"spc"
"643","Ossa (Cobbly Variant)",0.21,0.58,0.105,0.395,0.235,0.65,0.1175,0.455,58,0.21,0.58,0.105,0.395,"spc"
"644","Ossa, Cobbly Variant",0.45,0.8,0.225,0.625,0.15,0.8,0.075,0.475,1,0.45,0.8,0.225,0.625,"spc"
"645","Otoo",0.75,1.5,0.375,1.125,0.45,1.5,0.225,0.975,95,0.75,1.5,0.375,1.125,"spc"
"646","Owanyilla",0.18,1.5,0.09,0.84,0.215,0.835,0.1075,0.5375,44,0.18,1.5,0.09,0.84,"spc"
"647","Pakington",0.13,1.5,0.065,0.815,0.125,1.6,0.0625,0.8625,2,0.13,1.5,0.065,0.815,"spc"
"648","Palm",0.26,0.9,0.13,0.58,0.35,1.05,0.175,0.7,15,0.26,0.9,0.13,0.58,"spc"
"649","Palmyra",0.45,0.68,0.225,0.565,0.21,0.585,0.105,0.385,14,0.45,0.68,0.225,0.565,"spc"
"650","Palouse",0.205,1.075,0.1025,0.64,0.3,1.2,0.15,0.725,7,0.205,1.075,0.1025,0.64,"spc"
"651","Pearlinga",0.55,1.5,0.275,1.025,0.4,1.6,0.2,1,1,0.55,1.5,0.275,1.025,"spc"
"652","Peep",0.3,1.5,0.15,0.9,0.35,1.315,0.175,0.86,142,0.3,1.5,0.15,0.9,"spc"
"653","Pegunny",0.095,1.275,0.0475,0.685,0.15,1.5,0.075,0.8,17,0.095,1.275,0.0475,0.685,"spc"
"654","Penman",0.3,1.5,0.15,0.9,0.3,1.2,0.15,0.71,21,0.3,1.5,0.15,0.9,"spc"
"655","Pennsfield",0.25,0.98,0.125,0.615,0.18,1,0.09,0.6,15,0.25,0.98,0.125,0.615,"spc"
"656","Perry",0.25,1.5,0.125,0.875,0.29,1.55,0.145,0.9,9,0.25,1.5,0.125,0.875,"spc"
"657","Peterson",0.15,1.5,0.075,0.825,0.25,1.3,0.125,0.7175,13,0.15,1.5,0.075,0.825,"spc"
"658","Petrona",0.6,NA,0.3,NA,0.35,0.5,0.175,0.3,11,0.6,NA,0.3,NA,"spc"
"659","Picardy",0.06,1.6,0.03,0.83,0.06,1.35,0.03,0.71,54,0.06,1.6,0.03,0.83,"spc"
"660","Picardy Surface Seal Phase",0.05,1.2,0.025,0.625,0.04,1.2,0.02,0.62,2,0.05,1.2,0.025,0.625,"spc"
"661","Pin Gin",0.215,1.875,0.1075,1.0625,0.2,1.45,0.1,0.815,525,0.215,1.875,0.1075,1.0625,"spc"
"662","Pindi",0.28,0.91,0.14,0.595,0.3,0.9,0.15,0.6,29,0.28,0.91,0.14,0.595,"spc"
"663","Pinnacle - Cq",0.18,1.2,0.09,0.69,0.2,1.4,0.1,0.8,3,0.18,1.2,0.09,0.69,"spc"
"664","Pioneer",0.55,1,0.275,0.775,0.28,1.28,0.14,0.805,46,0.55,1,0.275,0.775,"spc"
"665","Pioneer, Red B Horizon Variant",0.36,1.5,0.18,0.93,0.45,1.45,0.225,0.95,2,0.36,1.5,0.18,0.93,"spc"
"666","PLDR",0.35,NA,0.175,NA,NA,NA,NA,NA,NA,0.35,NA,0.175,NA,"spc"
"667","Pluto",0.315,0.975,0.1575,0.645,0.25,1.08,0.125,0.655,19,0.315,0.975,0.1575,0.645,"spc"
"668","Police Camp",0.2,0.9,0.1,0.55,0.18,0.7,0.09,0.44,47,0.2,0.9,0.1,0.55,"spc"
"669","Ponzo",0.3,0.8,0.15,0.55,0.3,1.2,0.15,0.75,5,0.3,0.8,0.15,0.55,"spc"
"670","Pope",0.28,1.5,0.14,0.89,0.4,1.5,0.2,0.9375,18,0.28,1.5,0.14,0.89,"spc"
"671","Poplar",0.33,2,0.165,1.165,0.29,1.6,0.145,1,5,0.33,2,0.165,1.165,"spc"
"672","Porter",0.265,1.025,0.1325,0.645,0.275,1.2,0.1375,0.725,18,0.265,1.025,0.1325,0.645,"spc"
"673","Powerhouse",0.08,1.5,0.04,0.79,0.06,1.55,0.03,0.805,17,0.08,1.5,0.04,0.79,"spc"
"674","Prendergast",0.38,1.2,0.19,0.79,0.4,1.2,0.2,0.8,9,0.38,1.2,0.19,0.79,"spc"
"675","Price",0.75,1.3,0.375,1.025,0.75,0.925,0.375,0.7625,5,0.75,1.3,0.375,1.025,"spc"
"676","Pring",0.2,0.85,0.1,0.525,0.1,1.095,0.05,0.5925,10,0.2,0.85,0.1,0.525,"spc"
"677","Prior",0.325,0.955,0.1625,0.635,0.335,1.03,0.1675,0.675,16,0.325,0.955,0.1625,0.635,"spc"
"678","Proserpine",0.33,0.74,0.165,0.535,0.27,0.73,0.135,0.4825,48,0.33,0.74,0.165,0.535,"spc"
"679","Proston",0.17,1.6,0.085,0.885,0.15,1.2,0.075,0.735,15,0.17,1.6,0.085,0.885,"spc"
"680","Purono",0.05,NA,0.025,NA,0.21,1.2,0.105,0.7,25,0.05,NA,0.025,NA,"spc"
"681","Quart",0.7,1.5,0.35,1.1,0.6,1.4,0.3,0.975,112,0.7,1.5,0.35,1.1,"spc"
"682","Quincan",0.13,1.05,0.065,0.59,0.19,1.4,0.095,0.795,4,0.13,1.05,0.065,0.59,"spc"
"683","Qunaba",0.45,1.5,0.225,0.975,0.425,0.8,0.2125,0.6125,16,0.45,1.5,0.225,0.975,"spc"
"684","Racetrack",0.2,1.6,0.1,0.9,0.15,1.5,0.075,0.8125,62,0.2,1.6,0.1,0.9,"spc"
"685","Ram",0.4,1.7,0.2,1.05,0.3,0.9,0.15,0.605,38,0.4,1.7,0.2,1.05,"spc"
"686","Ramleh",0.3,1.5,0.15,0.85,0.275,1.2,0.1375,0.725,38,0.3,1.5,0.15,0.85,"spc"
"687","Rankin",0.12,1.1,0.06,0.61,0.1,0.9,0.05,0.5,21,0.12,1.1,0.06,0.61,"spc"
"688","Ray",0.45,1.7,0.225,1.075,0.3,1,0.15,0.65,1,0.45,1.7,0.225,1.075,"spc"
"689","Ray Rocky Phase",0.45,1.7,0.225,1.075,NA,NA,NA,NA,NA,0.45,1.7,0.225,1.075,"spc"
"690","Redbank",0.23,1.5,0.115,0.865,0.18,0.8,0.09,0.49,3,0.23,1.5,0.115,0.865,"spc"
"691","REDR",0.2,1,0.1,0.6,NA,NA,NA,NA,NA,0.2,1,0.1,0.6,"spc"
"692","Retro",0.225,1.2,0.1125,0.7125,0.2,1.2,0.1,0.695,44,0.225,1.2,0.1125,0.7125,"spc"
"693","Retro (BAN)",0.25,1.25,0.125,0.75,0.19,1.55,0.095,0.855,121,0.25,1.25,0.125,0.75,"spc"
"694","Riordanvale",0.1,0.65,0.05,0.375,0.22,1,0.11,0.6225,44,0.1,0.65,0.05,0.375,"spc"
"695","Ripple",0.5,1.2,0.25,0.85,0.4,1.2,0.2,0.8,11,0.5,1.2,0.25,0.85,"spc"
"696","Riverleigh",0.43,1.5,0.215,0.965,0.22,1.4,0.11,0.865,25,0.43,1.5,0.215,0.965,"spc"
"697","Robur",0.7,1.5,0.35,1.1,0.68,1.3,0.34,1,318,0.7,1.5,0.35,1.1,"spc"
"698","Rolleston",0.04,1.2,0.02,0.62,0.1,1.25,0.05,0.725,58,0.04,1.2,0.02,0.62,"spc"
"699","Roper",0.3,1.3,0.15,0.8,0.3,1.2,0.15,0.725,56,0.3,1.3,0.15,0.8,"spc"
"700","Ross",0.15,NA,0.075,NA,0.45,0.8,0.225,0.625,2,0.15,NA,0.075,NA,"spc"
"701","Rothchild",0.89,1.5,0.445,1.195,0.8,1.35,0.4,1.075,39,0.89,1.5,0.445,1.195,"spc"
"702","Roundback Level Phase",0.27,1.5,0.135,0.885,NA,NA,NA,NA,NA,0.27,1.5,0.135,0.885,"spc"
"703","Royston",0.23,1.2,0.115,0.715,0.225,0.68,0.1125,0.4775,6,0.23,1.2,0.115,0.715,"spc"
"704","Rubyanna",0.2,1.5,0.1,0.85,0.15,1.35,0.075,0.775,43,0.2,1.5,0.1,0.85,"spc"
"705","Rudd",0.3,1.5,0.15,0.9,0.29,0.9,0.145,0.625,53,0.3,1.5,0.15,0.9,"spc"
"706","Rungoo",0.565,1.325,0.2825,0.945,0.4,1.2,0.2,0.8,21,0.565,1.325,0.2825,0.945,"spc"
"707","Russell",0.06,0.95,0.03,0.505,0.05,0.75,0.025,0.415,264,0.06,0.95,0.03,0.505,"spc"
"708","Russell, Gilgai Phase",0.11,1.15,0.055,0.63,0.15,1.25,0.075,0.7,11,0.11,1.15,0.055,0.63,"spc"
"709","Russell, Stony Phase",0.05,0.45,0.025,0.25,0.1,0.6,0.05,0.375,17,0.05,0.45,0.025,0.25,"spc"
"710","Sachs",0.04,2.5,0.02,1.27,0.07,1.2,0.035,0.6175,12,0.04,2.5,0.02,1.27,"spc"
"711","Saddle",0.45,1.2,0.225,0.825,0.4,1,0.2,0.725,14,0.45,1.2,0.225,0.825,"spc"
"712","Sadie",0.07,1.5,0.035,0.785,0.17,1.3,0.085,0.735,8,0.07,1.5,0.035,0.785,"spc"
"713","Samourgassi",0.3,NA,0.15,NA,0.25,0.455,0.125,0.35,33,0.3,NA,0.15,NA,"spc"
"714","Sandiford",0.315,1.275,0.1575,0.795,0.26,1.3,0.13,0.775,45,0.315,1.275,0.1575,0.795,"spc"
"715","Sandiford (Silty Topsoil Variant)",0.45,1.66,0.225,1.055,0.35,1.56,0.175,0.9325,8,0.45,1.66,0.225,1.055,"spc"
"716","Santo",0.18,0.85,0.09,0.515,0.11,0.52,0.055,0.3175,106,0.18,0.85,0.09,0.515,"spc"
"717","Scrubby (Zed)",0.2,NA,0.1,NA,0.35,1.1,0.175,0.625,9,0.2,NA,0.1,NA,"spc"
"718","SDE4",0.2,0.35,0.1,0.275,0.2,0.23,0.1,0.215,7,0.2,0.35,0.1,0.275,"spc"
"719","Seaforth",0.33,1.2,0.165,0.765,0.35,0.88,0.175,0.6275,14,0.33,1.2,0.165,0.765,"spc"
"720","Seaforth, Dark B Horizon Variant",0.35,0.98,0.175,0.665,NA,NA,NA,NA,NA,0.35,0.98,0.175,0.665,"spc"
"721","Seaforth, Yellow B Horizon Variant",0.25,1.2,0.125,0.725,NA,NA,NA,NA,NA,0.25,1.2,0.125,0.725,"spc"
"722","Seaview",0.2,0.53,0.1,0.365,0.15,0.55,0.075,0.35,79,0.2,0.53,0.1,0.365,"spc"
"723","Septimus",0.4,1.1,0.2,0.75,0.32,0.71,0.16,0.505,27,0.4,1.1,0.2,0.75,"spc"
"724","Severin - Tab",0.35,1.25,0.175,0.8,0.295,1.335,0.1475,0.85,22,0.35,1.25,0.175,0.8,"spc"
"725","Shotover",0.2,NA,0.1,NA,0.1,0.45,0.05,0.285,20,0.2,NA,0.1,NA,"spc"
"726","Shurback",0.4,0.7,0.2,0.55,0.4,0.7,0.2,0.55,1,0.4,0.7,0.2,0.55,"spc"
"727","Silent Grove",0.04,1.2,0.02,0.62,0.2,1.02,0.1,0.61,57,0.04,1.2,0.02,0.62,"spc"
"728","Silkwood",0.6,1.4,0.3,1,0.4,1.2,0.2,0.8125,18,0.6,1.4,0.3,1,"spc"
"729","Silkwood Brown A Horizon Variant",0.38,1.05,0.19,0.715,0.3,1.2,0.15,0.75,4,0.38,1.05,0.19,0.715,"spc"
"730","Sister",0.3,0.7,0.15,0.5,0.165,0.5,0.0825,0.395,22,0.3,0.7,0.15,0.5,"spc"
"731","Slater",0.21,1.35,0.105,0.78,0.25,1.45,0.125,0.8325,66,0.21,1.35,0.105,0.78,"spc"
"732","Solferino",0.06,1.36,0.03,0.71,0.05,1.7,0.025,0.875,33,0.06,1.36,0.03,0.71,"spc"
"733","Spanos",0.4,1.4,0.2,0.985,0.375,1.2,0.1875,0.775,32,0.4,1.4,0.2,0.985,"spc"
"734","Spier",0.2,1.3,0.1,0.75,0.23,1.5,0.115,0.8325,48,0.2,1.3,0.1,0.75,"spc"
"735","Springs",0.28,2.68,0.14,1.48,0.25,0.9,0.125,0.575,5,0.28,2.68,0.14,1.48,"spc"
"736","Springwood",0.25,1.2,0.125,0.725,0.28,0.9,0.14,0.66,17,0.25,1.2,0.125,0.725,"spc"
"737","St Helens",0.4,0.86,0.2,0.63,0.29,0.915,0.145,0.6075,60,0.4,0.86,0.2,0.63,"spc"
"738","Stanley",0.03,NA,0.015,NA,0.25,1.3,0.125,0.755,5,0.03,NA,0.015,NA,"spc"
"739","Stateschool",0.2,1.1,0.1,0.65,0.13,1.3,0.065,0.7,88,0.2,1.1,0.1,0.65,"spc"
"740","Stephens",0.04,1,0.02,0.52,0.1,1.2,0.05,0.675,16,0.04,1,0.02,0.52,"spc"
"741","Stockyard (Zed)",0.1,NA,0.05,NA,0.3,1.25,0.15,0.81,11,0.1,NA,0.05,NA,"spc"
"742","Stone",0.38,1.2,0.19,0.79,0.3,1.2,0.15,0.75,3,0.38,1.2,0.19,0.79,"spc"
"743","Strathdickie",0.35,0.8,0.175,0.575,0.28,1.17,0.14,0.7,10,0.35,0.8,0.175,0.575,"spc"
"744","Sugarbag",0.23,1.4,0.115,0.815,0.335,0.93,0.1675,0.675,88,0.23,1.4,0.115,0.815,"spc"
"745","Sugarmill",0.3,0.65,0.15,0.475,0.3,0.75,0.15,0.525,36,0.3,0.65,0.15,0.475,"spc"
"746","Summerville",0.55,1.5,0.275,1.025,0.55,NA,0.275,NA,7,0.55,1.5,0.275,1.025,"spc"
"747","Sunnyside",0.25,1.2,0.125,0.76,0.25,1.35,0.125,0.805,109,0.25,1.2,0.125,0.76,"spc"
"748","Sunter",0.6,0.9,0.3,0.75,0.285,0.93,0.1425,0.67,6,0.6,0.9,0.3,0.75,"spc"
"749","Sylvia",0.28,1.3,0.14,0.79,0.41,1.21,0.205,0.81,20,0.28,1.3,0.14,0.79,"spc"
"750","Taabinga",0.15,1.5,0.075,0.825,0.15,0.875,0.075,0.4875,6,0.15,1.5,0.075,0.825,"spc"
"751","Tabletop",0.13,1.4,0.065,0.765,0.21,1.4,0.105,0.8025,5,0.13,1.4,0.065,0.765,"spc"
"752","Tailing",0.15,1.65,0.075,0.9,0.18,1.6,0.09,0.895,27,0.15,1.65,0.075,0.9,"spc"
"753","Tandora",0.15,1.5,0.075,0.825,0.21,1.375,0.105,0.75,50,0.15,1.5,0.075,0.825,"spc"
"754","Tannalo",0.5,0.93,0.25,0.715,0.22,1.28,0.11,0.745,49,0.5,0.93,0.25,0.715,"spc"
"755","Tantitha",0.3,1.5,0.15,0.9,0.4,1.575,0.2,0.9875,10,0.3,1.5,0.15,0.9,"spc"
"756","Tarong",0.22,1.1,0.11,0.66,0.25,1.2,0.125,0.765,21,0.22,1.1,0.11,0.66,"spc"
"757","Tarramba",0.16,1.2,0.08,0.68,0.05,1.55,0.025,0.815,173,0.16,1.2,0.08,0.68,"spc"
"758","Taurus",0.2,1.25,0.1,0.725,0.22,0.9,0.11,0.5825,23,0.2,1.25,0.1,0.725,"spc"
"759","Tawalla",0.38,1,0.19,0.69,0.5,1.4,0.25,0.95,1,0.38,1,0.19,0.69,"spc"
"760","TbUg-1",0.05,1.5,0.025,0.775,0.225,1.075,0.1125,0.65,2,0.05,1.5,0.025,0.775,"spc"
"761","TbUg-10",0.95,1.5,0.475,1.225,NA,NA,NA,NA,NA,0.95,1.5,0.475,1.225,"spc"
"762","TbUg-11",0.05,0.95,0.025,0.5,0.2,1.1,0.1,0.65,1,0.05,0.95,0.025,0.5,"spc"
"763","TbUg-12",0.05,1.15,0.025,0.6,NA,NA,NA,NA,NA,0.05,1.15,0.025,0.6,"spc"
"764","TbUg-13",0.05,1.5,0.025,0.775,0.2,1.5,0.1,0.85,1,0.05,1.5,0.025,0.775,"spc"
"765","TbUg-2",0.05,1.5,0.025,0.775,0.2,1.6,0.1,0.9,7,0.05,1.5,0.025,0.775,"spc"
"766","TbUg-4",0.05,1.5,0.025,0.775,0.175,1.5,0.0875,0.8375,2,0.05,1.5,0.025,0.775,"spc"
"767","TbUg-5",0.05,1.5,0.025,0.775,NA,NA,NA,NA,NA,0.05,1.5,0.025,0.775,"spc"
"768","TbUg-6",0.95,1.5,0.475,1.225,0.2,1.5,0.1,0.85,1,0.95,1.5,0.475,1.225,"spc"
"769","TbUg-7",0.05,1.5,0.025,0.775,NA,NA,NA,NA,NA,0.05,1.5,0.025,0.775,"spc"
"770","TbUg-8",0.05,1.5,0.025,0.775,NA,NA,NA,NA,NA,0.05,1.5,0.025,0.775,"spc"
"771","TbUg-9",0.05,1.6,0.025,0.825,NA,NA,NA,NA,NA,0.05,1.6,0.025,0.825,"spc"
"772","Te_El_Kabir",0.15,1.5,0.075,0.825,0.1,1,0.05,0.55,11,0.15,1.5,0.075,0.825,"spc"
"773","Teddington",0.23,1.5,0.115,0.865,0.28,1.3,0.14,0.79,5,0.23,1.5,0.115,0.865,"spc"
"774","Tedlands",0.38,1.07,0.19,0.725,0.4,1.2,0.2,0.8,45,0.38,1.07,0.19,0.725,"spc"
"775","Telegraph",0.25,1.6,0.125,0.925,0.25,1.225,0.125,0.75,44,0.25,1.6,0.125,0.925,"spc"
"776","Tenmile",0.1,1.3,0.05,0.7,0.19,1.025,0.095,0.635,42,0.1,1.3,0.05,0.7,"spc"
"777","Terrace",0.15,0.75,0.075,0.45,0.12,1,0.06,0.56,5,0.15,0.75,0.075,0.45,"spc"
"778","Teviot",0.1,1.25,0.05,0.675,0.1,1.14,0.05,0.63,62,0.1,1.25,0.05,0.675,"spc"
"779","Thalberg",0.35,1.51,0.175,0.93,0.3,1.5,0.15,0.9,24,0.35,1.51,0.175,0.93,"spc"
"780","Theodolite",0.38,0.5,0.19,0.44,0.42,0.65,0.21,0.515,48,0.38,0.5,0.19,0.44,"spc"
"781","Theodolite Saline Phase",0.38,0.5,0.19,0.44,NA,NA,NA,NA,NA,0.38,0.5,0.19,0.44,"spc"
"782","Thorpe",0.29,1.2,0.145,0.74,0.3,1,0.15,0.625,126,0.29,1.2,0.145,0.74,"spc"
"783","Thorpe - Dlr",0.1,NA,0.05,NA,0.3,0.95,0.15,0.6,7,0.1,NA,0.05,NA,"spc"
"784","Tiaro",0.255,1.05,0.1275,0.6525,0.2,0.7,0.1,0.475,66,0.255,1.05,0.1275,0.6525,"spc"
"785","Timara",0.245,1,0.1225,0.6225,0.25,1.2,0.125,0.75,63,0.245,1,0.1225,0.6225,"spc"
"786","Timbrell",0.3,1.3,0.15,0.8,0.205,1.5,0.1025,0.8575,30,0.3,1.3,0.15,0.8,"spc"
"787","Tinana",0.18,0.65,0.09,0.415,0.175,1.2,0.0875,0.675,4,0.18,0.65,0.09,0.415,"spc"
"788","Tingoora",0.1,0.6,0.05,0.35,0.11,1.4,0.055,0.7425,18,0.1,0.6,0.05,0.35,"spc"
"789","Tinkle",0.9,1.4,0.45,1.15,0.75,1.2,0.375,0.955,7,0.9,1.4,0.45,1.15,"spc"
"790","Tiny",0.05,1.7,0.025,0.875,0.04,1.5,0.02,0.775,49,0.05,1.7,0.025,0.875,"spc"
"791","Tirrabella",0.3,1.5,0.15,0.9,0.2,1.2,0.1,0.7475,58,0.3,1.5,0.15,0.9,"spc"
"792","Tirroan",0.38,1.5,0.19,0.94,0.4,0.95,0.2,0.71,183,0.38,1.5,0.19,0.94,"spc"
"793","Tirroan Rocky Phase",0.3,NA,0.15,NA,0.3,0.3,0.15,0.25,5,0.3,NA,0.15,NA,"spc"
"794","Todds",0.7,1.5,0.35,1.1,0.675,1.4,0.3375,1.0625,4,0.7,1.5,0.35,1.1,"spc"
"795","Tognolini",0.18,1.4,0.09,0.79,0.1,1.55,0.05,0.825,57,0.18,1.4,0.09,0.79,"spc"
"796","Tolga",0.195,1.675,0.0975,0.935,0.3,1.45,0.15,0.875,245,0.195,1.675,0.0975,0.935,"spc"
"797","Tolga Rocky Phase",0.19,1.65,0.095,0.92,NA,NA,NA,NA,NA,0.19,1.65,0.095,0.92,"spc"
"798","Toobanna",0.55,0.6,0.275,0.575,0.4,1,0.2,0.7,31,0.55,0.6,0.275,0.575,"spc"
"799","Toondoon",0.35,1.5,0.175,0.925,0.1,0.8,0.05,0.45,1,0.35,1.5,0.175,0.925,"spc"
"800","Tralee",0.03,1.5,0.015,0.765,0.07,1.5,0.035,0.765,51,0.03,1.5,0.015,0.765,"spc"
"801","Tranters",0.18,1.2,0.09,0.69,0.2,1.39,0.1,0.82,19,0.18,1.2,0.09,0.69,"spc"
"802","Trebonne",0.43,0.85,0.215,0.64,0.35,1.2,0.175,0.8,18,0.43,0.85,0.215,0.64,"spc"
"803","Trebonne Sandy Phase",0.43,0.85,0.215,0.64,NA,NA,NA,NA,NA,0.43,0.85,0.215,0.64,"spc"
"804","Tregear",0.32,1.3,0.16,0.81,NA,NA,NA,NA,NA,0.32,1.3,0.16,0.81,"spc"
"805","TsDr-2",0.28,0.65,0.14,0.465,NA,NA,NA,NA,NA,0.28,0.65,0.14,0.465,"spc"
"806","TsDy-1",0.385,1.5,0.1925,0.9425,0.3,0.95,0.15,0.625,14,0.385,1.5,0.1925,0.9425,"spc"
"807","TsDy-6",0.65,1.5,0.325,1.075,NA,NA,NA,NA,NA,0.65,1.5,0.325,1.075,"spc"
"808","TsGn-3",0.23,1.5,0.115,0.865,0.3,1.5,0.15,0.9,7,0.23,1.5,0.115,0.865,"spc"
"809","TsGn-4",0.255,1.29,0.1275,0.7725,0.25,1.2,0.125,0.7,11,0.255,1.29,0.1275,0.7725,"spc"
"810","TsGn-5",0.65,1.04,0.325,0.845,0.25,0.95,0.125,0.625,12,0.65,1.04,0.325,0.845,"spc"
"811","TsGn-6",0.25,0.655,0.125,0.4525,0.2,0.65,0.1,0.4375,9,0.25,0.655,0.125,0.4525,"spc"
"812","TsUc-2",0.33,1.5,0.165,0.915,0.5,1.5,0.25,1,1,0.33,1.5,0.165,0.915,"spc"
"813","TsUf-3",0.13,1.5,0.065,0.815,0.07,0.5,0.035,0.285,1,0.13,1.5,0.065,0.815,"spc"
"814","TsUf-6",0.13,1.5,0.065,0.815,0.1,1.5,0.05,0.8,1,0.13,1.5,0.065,0.815,"spc"
"815","TsUg-7",0.225,1.5,0.1125,0.8625,0.1,1.5,0.05,0.77,25,0.225,1.5,0.1125,0.8625,"spc"
"816","TsUgg-1",0.3,1.5,0.15,0.9,NA,NA,NA,NA,NA,0.3,1.5,0.15,0.9,"spc"
"817","TsUgg-2",0.18,1.5,0.09,0.84,0.2,1.5,0.1,0.85,5,0.18,1.5,0.09,0.84,"spc"
"818","Tully",0.38,1.4,0.19,0.945,0.25,1.2,0.125,0.725,238,0.38,1.4,0.19,0.945,"spc"
"819","Tureen",0.12,0.37,0.06,0.245,0.22,0.58,0.11,0.4,1,0.12,0.37,0.06,0.245,"spc"
"820","Turnor",0.33,1.2,0.165,0.765,0.3,1.2,0.15,0.75,23,0.33,1.2,0.165,0.765,"spc"
"821","Turon",0.02,1.5,0.01,0.76,0.035,1.5,0.0175,0.77,38,0.02,1.5,0.01,0.76,"spc"
"822","Turpad",1.2,NA,0.6,NA,0.8,1.05,0.4,0.8,15,1.2,NA,0.6,NA,"spc"
"823","Turpin",0.38,1.5,0.19,0.94,0.35,1,0.175,0.7,142,0.38,1.5,0.19,0.94,"spc"
"824","Tyson",0.2,2.1,0.1,1.15,0.25,1.2,0.125,0.7125,35,0.2,2.1,0.1,1.15,"spc"
"825","Ulogie",0.33,1.51,0.165,0.92,0.27,1.53,0.135,0.8675,60,0.33,1.51,0.165,0.92,"spc"
"826","Umala - Tab",0.3,1.5,0.15,0.9,0.23,1.4,0.115,0.82,36,0.3,1.5,0.15,0.9,"spc"
"827","Uncle",0.6,1.35,0.3,0.975,NA,NA,NA,NA,NA,0.6,1.35,0.3,0.975,"spc"
"828","Uncle Shallow Phase",0.4,0.8,0.2,0.6,NA,NA,NA,NA,NA,0.4,0.8,0.2,0.6,"spc"
"829","Up River",0.28,1.69,0.14,0.985,0.3,0.88,0.15,0.63,21,0.28,1.69,0.14,0.985,"spc"
"830","Uramo",0.55,0.8,0.275,0.675,0.415,0.79,0.2075,0.615,18,0.55,0.8,0.275,0.675,"spc"
"831","Urannah",0.5,NA,0.25,NA,0.325,0.7,0.1625,0.55,16,0.5,NA,0.25,NA,"spc"
"832","Uruba",0.24,0.775,0.12,0.5075,0.22,0.9,0.11,0.56,83,0.24,0.775,0.12,0.5075,"spc"
"833","Uruba, Alluvial-Colluvial Variant",0.3,1,0.15,0.65,NA,NA,NA,NA,NA,0.3,1,0.15,0.65,"spc"
"834","Utchee",0.315,2.3,0.1575,1.3625,0.275,1.5,0.1375,0.875,118,0.315,2.3,0.1575,1.3625,"spc"
"835","Vermont",0.04,1,0.02,0.52,0.1,1.35,0.05,0.785,30,0.04,1,0.02,0.52,"spc"
"836","Vicenza",0.11,1.5,0.055,0.805,0.07,1.7,0.035,0.9,95,0.11,1.5,0.055,0.805,"spc"
"837","Victoria Plains",0.19,1.5,0.095,0.845,0.2,1.45,0.1,0.795,79,0.19,1.5,0.095,0.845,"spc"
"838","Violet",0.28,NA,0.14,NA,0.175,0.4,0.0875,0.3,10,0.28,NA,0.14,NA,"spc"
"839","Virgil",0.295,1.59,0.1475,0.9325,0.25,1.1,0.125,0.7125,15,0.295,1.59,0.1475,0.9325,"spc"
"840","Voewood",0.3,1.3,0.15,0.8,0.18,0.9,0.09,0.5375,24,0.3,1.3,0.15,0.8,"spc"
"841","Wagoora",0.19,1.4,0.095,0.795,0.25,1.15,0.125,0.71,154,0.19,1.4,0.095,0.795,"spc"
"842","Wagoora, Basic Parent Material Variant",0.25,1.2,0.125,0.725,0.26,1.4,0.13,0.83,6,0.25,1.2,0.125,0.725,"spc"
"843","Walkamin",0.405,1.575,0.2025,0.99,0.25,1.4,0.125,0.75,13,0.405,1.575,0.2025,0.99,"spc"
"844","Walkamin Grey Variant",0.16,1.35,0.08,0.755,0.2,1,0.1,0.55,5,0.16,1.35,0.08,0.755,"spc"
"845","Walkamin Rocky Phase",0.65,1.8,0.325,1.225,NA,NA,NA,NA,NA,0.65,1.8,0.325,1.225,"spc"
"846","Walker - Mhb",0.15,1.2,0.075,0.675,0.2,1.225,0.1,0.6875,12,0.15,1.2,0.075,0.675,"spc"
"847","Walla",0.17,1.5,0.085,0.835,0.18,1.45,0.09,0.81,83,0.17,1.5,0.085,0.835,"spc"
"848","Wallum",0.38,0.58,0.19,0.48,0.4,0.75,0.2,0.575,37,0.38,0.58,0.19,0.48,"spc"
"849","Walsch",0.18,0.68,0.09,0.43,0.12,0.55,0.06,0.335,1,0.18,0.68,0.09,0.43,"spc"
"850","Walsh",0.5,1.35,0.25,0.925,0.25,1.1,0.125,0.675,5,0.5,1.35,0.25,0.925,"spc"
"851","Walsh Coarse Sandy Phase",0.5,1.35,0.25,0.925,NA,NA,NA,NA,NA,0.5,1.35,0.25,0.925,"spc"
"852","Wandarra",0.71,1.26,0.355,0.985,0.29,1.5,0.145,0.905,11,0.71,1.26,0.355,0.985,"spc"
"853","Warrami",0.3,NA,0.15,NA,0.13,0.625,0.065,0.4125,7,0.3,NA,0.15,NA,"spc"
"854","Warwick",0.03,1.6,0.015,0.815,0.05,1.5,0.025,0.795,78,0.03,1.6,0.015,0.815,"spc"
"855","Washpool",0.3,1.5,0.15,0.9,0.3,0.85,0.15,0.575,1,0.3,1.5,0.15,0.9,"spc"
"856","Watalgan",0.27,1.35,0.135,0.81,0.3,1.2,0.15,0.75,161,0.27,1.35,0.135,0.81,"spc"
"857","Wathana Heavier-Textured Var",0.32,1.5,0.16,0.91,NA,NA,NA,NA,NA,0.32,1.5,0.16,0.91,"spc"
"858","Weatherby",0.45,0.95,0.225,0.7,0.28,0.9,0.14,0.655,15,0.45,0.95,0.225,0.7,"spc"
"859","Weir",0.13,0.83,0.065,0.48,0.15,1.2,0.075,0.675,19,0.13,0.83,0.065,0.48,"spc"
"860","Weithew",0.07,1.5,0.035,0.785,0.2,1.5,0.1,0.8825,20,0.07,1.5,0.035,0.785,"spc"
"861","Well",0.06,1.5,0.03,0.78,0.05,1.7,0.025,0.875,30,0.06,1.5,0.03,0.78,"spc"
"862","Well, Footslope Variant",0.06,1.18,0.03,0.62,0.03,1.7,0.015,0.87,16,0.06,1.18,0.03,0.62,"spc"
"863","Well, Sandy Surface Variant",0.11,0.6,0.055,0.355,NA,NA,NA,NA,NA,0.11,0.6,0.055,0.355,"spc"
"864","Wheatlands",0.2,1.24,0.1,0.72,0.155,0.95,0.0775,0.55,4,0.2,1.24,0.1,0.72,"spc"
"865","Whelan",0.27,0.44,0.135,0.35,0.21,0.45,0.105,0.36,24,0.27,0.44,0.135,0.35,"spc"
"866","Whiptail",0.31,0.8,0.155,0.555,0.25,0.81,0.125,0.535,93,0.31,0.8,0.155,0.555,"spc"
"867","Whitfield",0.3,0.9,0.15,0.6,0.2,0.825,0.1,0.5125,12,0.3,0.9,0.15,0.6,"spc"
"868","Whymere",0.7,1.5,0.35,1.1,0.575,1.525,0.2875,1.075,6,0.7,1.5,0.35,1.1,"spc"
"869","Windermere",0.18,1.5,0.09,0.84,0.2,1,0.1,0.6125,52,0.18,1.5,0.09,0.84,"spc"
"870","Windradene",0.16,0.3,0.08,0.23,0.07,0.3,0.035,0.2,70,0.16,0.3,0.08,0.23,"spc"
"871","Winfield",1,1.5,0.5,1.25,0.925,1.225,0.4625,1,58,1,1.5,0.5,1.25,"spc"
"872","Witton, vertic variant",0.1,1.5,0.05,0.8,0.1,0.7,0.05,0.4,1,0.1,1.5,0.05,0.8,"spc"
"873","Wivenhoe",0.5,1.2,0.25,0.85,0.5,1.2,0.25,0.85,1,0.5,1.2,0.25,0.85,"spc"
"874","Woco",0.43,1.5,0.215,0.965,0.3,1.2,0.15,0.725,87,0.43,1.5,0.215,0.965,"spc"
"875","Wollingford",0.29,0.925,0.145,0.6075,0.275,1.4,0.1375,0.8225,50,0.29,0.925,0.145,0.6075,"spc"
"876","Wollingford, Intrusive Parent Material Variant",0.25,1.2,0.125,0.725,NA,NA,NA,NA,NA,0.25,1.2,0.125,0.725,"spc"
"877","Wollingford, Yellow B Horizon Variant",0.25,1.1,0.125,0.675,NA,NA,NA,NA,NA,0.25,1.1,0.125,0.675,"spc"
"878","Wondai",0.1,1.5,0.05,0.8,0.1,1.215,0.05,0.67,10,0.1,1.5,0.05,0.8,"spc"
"879","Wongabel",0.38,1.05,0.19,0.715,0.325,0.7,0.1625,0.585,20,0.38,1.05,0.19,0.715,"spc"
"880","Woober",0.25,1.5,0.125,0.875,0.28,1.375,0.14,0.8,139,0.25,1.5,0.125,0.875,"spc"
"881","Woodleigh",0.1,0.8,0.05,0.45,0.1,1.04,0.05,0.56,10,0.1,0.8,0.05,0.45,"spc"
"882","Woolmer",0.4,1.5,0.2,0.95,0.45,1.35,0.225,0.9,67,0.4,1.5,0.2,0.95,"spc"
"883","Woongarra",0.25,1.5,0.125,0.875,0.25,1.425,0.125,0.85,57,0.25,1.5,0.125,0.875,"spc"
"884","Wooroolin",0.27,1,0.135,0.635,0.15,1.2,0.075,0.65,61,0.27,1,0.135,0.635,"spc"
"885","Wygong",0.03,0.92,0.015,0.475,0.11,0.94,0.055,0.5375,4,0.03,0.92,0.015,0.475,"spc"
"886","Wyseby",0.25,1.25,0.125,0.75,0.15,1.325,0.075,0.7125,17,0.25,1.25,0.125,0.75,"spc"
"887","Yackadoo",0.06,0.2,0.03,0.13,0.1,0.3,0.05,0.165,10,0.06,0.2,0.03,0.13,"spc"
"888","Yileena",0.3,1.5,0.15,0.9,NA,NA,NA,NA,NA,0.3,1.5,0.15,0.9,"spc"
"889","Yuruga",0.28,1.2,0.14,0.74,0.3,1.2,0.15,0.75,19,0.28,1.2,0.14,0.74,"spc"
"890","1AKA1",NA,NA,NA,NA,0.55,1.3,0.275,0.925,6,0.55,1.3,0.275,0.925,"site"
"891","1ARU1",NA,NA,NA,NA,0.525,0.9,0.2625,0.725,2,0.525,0.9,0.2625,0.725,"site"
"892","1ATE1",NA,NA,NA,NA,0.44,1.6,0.22,0.9925,30,0.44,1.6,0.22,0.9925,"site"
"893","1ATE3",NA,NA,NA,NA,0.35,NA,0.175,NA,3,0.35,NA,0.175,NA,"site"
"894","1AUg-4",NA,NA,NA,NA,0.1,1,0.05,0.55,1,0.1,1,0.05,0.55,"site"
"895","1AVE2",NA,NA,NA,NA,0.14,1.58,0.07,0.87,25,0.14,1.58,0.07,0.87,"site"
"896","1AVE3",NA,NA,NA,NA,0.04,0.68,0.02,0.37,3,0.04,0.68,0.02,0.37,"site"
"897","1AVE4",NA,NA,NA,NA,0.1,1.5,0.05,0.805,15,0.1,1.5,0.05,0.805,"site"
"898","1AVE6",NA,NA,NA,NA,0.125,1.56,0.0625,0.85,20,0.125,1.56,0.0625,0.85,"site"
"899","1Dda3",NA,NA,NA,NA,0.22,1.475,0.11,0.85,14,0.22,1.475,0.11,0.85,"site"
"900","1Uga1",NA,NA,NA,NA,0.1,1.15,0.05,0.625,9,0.1,1.15,0.05,0.625,"site"
"901","2ADb-1",NA,NA,NA,NA,0.16,1.5,0.08,0.83,1,0.16,1.5,0.08,0.83,"site"
"902","2AUg-3",NA,NA,NA,NA,0.175,1.5,0.0875,0.8375,2,0.175,1.5,0.0875,0.8375,"site"
"903","2AUg-7",NA,NA,NA,NA,0.3,1.5,0.15,0.9,3,0.3,1.5,0.15,0.9,"site"
"904","2AUg-8m",NA,NA,NA,NA,0.25,1.5,0.125,0.875,3,0.25,1.5,0.125,0.875,"site"
"905","2AVE2",NA,NA,NA,NA,0.135,1.515,0.0675,0.81,6,0.135,1.515,0.0675,0.81,"site"
"906","2Dba5",NA,NA,NA,NA,0.1,1.2,0.05,0.65,2,0.1,1.2,0.05,0.65,"site"
"907","2Dbb2",NA,NA,NA,NA,0.18,0.75,0.09,0.46,17,0.18,0.75,0.09,0.46,"site"
"908","2Dda2",NA,NA,NA,NA,0.105,0.615,0.0525,0.3575,20,0.105,0.615,0.0525,0.3575,"site"
"909","2Ddb2",NA,NA,NA,NA,0.085,0.84,0.0425,0.46,6,0.085,0.84,0.0425,0.46,"site"
"910","2Dya2",NA,NA,NA,NA,0.1,0.7,0.05,0.405,10,0.1,0.7,0.05,0.405,"site"
"911","2Dya3",NA,NA,NA,NA,0.1,1.1,0.05,0.5775,22,0.1,1.1,0.05,0.5775,"site"
"912","2Dyb2",NA,NA,NA,NA,0.16,0.62,0.08,0.39,58,0.16,0.62,0.08,0.39,"site"
"913","2Dyc2",NA,NA,NA,NA,0.2,1.1,0.1,0.65,5,0.2,1.1,0.1,0.65,"site"
"914","2Dyc3",NA,NA,NA,NA,0.1,1.45,0.05,0.795,22,0.1,1.45,0.05,0.795,"site"
"915","2UgcW",NA,NA,NA,NA,0.15,1.55,0.075,0.85,37,0.15,1.55,0.075,0.85,"site"
"916","2Ugd1",NA,NA,NA,NA,0.065,1,0.0325,0.5325,2,0.065,1,0.0325,0.5325,"site"
"917","2ugd2",NA,NA,NA,NA,0.12,1.1,0.06,0.625,17,0.12,1.1,0.06,0.625,"site"
"918","2Ugd5",NA,NA,NA,NA,0.15,1.5,0.075,0.8,26,0.15,1.5,0.075,0.8,"site"
"919","2UgdW",NA,NA,NA,NA,0.1,1.65,0.05,0.89,15,0.1,1.65,0.05,0.89,"site"
"920","2Uge2",NA,NA,NA,NA,0.1,1,0.05,0.54,31,0.1,1,0.05,0.54,"site"
"921","2Uge7",NA,NA,NA,NA,0.1,0.9,0.05,0.5,1,0.1,0.9,0.05,0.5,"site"
"922","2UgeS",NA,NA,NA,NA,0.2,0.625,0.1,0.4125,2,0.2,0.625,0.1,0.4125,"site"
"923","2UgfE",NA,NA,NA,NA,0.15,1.4,0.075,0.775,1,0.15,1.4,0.075,0.775,"site"
"924","2UgfW",NA,NA,NA,NA,0.1,1.65,0.05,0.885,25,0.1,1.65,0.05,0.885,"site"
"925","2Ugg5",NA,NA,NA,NA,0.12,1.25,0.06,0.725,5,0.12,1.25,0.06,0.725,"site"
"926","2Ugk2",NA,NA,NA,NA,0.1,0.9,0.05,0.505,8,0.1,0.9,0.05,0.505,"site"
"927","3ASO1",NA,NA,NA,NA,0.09,1.25,0.045,0.65,5,0.09,1.25,0.045,0.65,"site"
"928","3ASO2",NA,NA,NA,NA,0.21,0.6,0.105,0.4,7,0.21,0.6,0.105,0.4,"site"
"929","3AVE1",NA,NA,NA,NA,0.1,1.08,0.05,0.59,1,0.1,1.08,0.05,0.59,"site"
"930","3AVE2",NA,NA,NA,NA,0.27,1.515,0.135,0.8925,2,0.27,1.515,0.135,0.8925,"site"
"931","3SOb",NA,NA,NA,NA,0.34,1.6,0.17,0.9575,6,0.34,1.6,0.17,0.9575,"site"
"932","3Ug",NA,NA,NA,NA,0.1,1.5,0.05,0.8,1,0.1,1.5,0.05,0.8,"site"
"933","4Dyd3",NA,NA,NA,NA,0.36,0.95,0.18,0.7125,22,0.36,0.95,0.18,0.7125,"site"
"934","5Dra3",NA,NA,NA,NA,0.18,0.88,0.09,0.55,29,0.18,0.88,0.09,0.55,"site"
"935","5SOy",NA,NA,NA,NA,0.07,1.21,0.035,0.64,1,0.07,1.21,0.035,0.64,"site"
"936","5UgaS",NA,NA,NA,NA,0.2,1.55,0.1,0.875,2,0.2,1.55,0.1,0.875,"site"
"937","5VEy",NA,NA,NA,NA,0.1,1.26,0.05,0.68,7,0.1,1.26,0.05,0.68,"site"
"938","6ADb-4",NA,NA,NA,NA,0.11,1.5,0.055,0.805,1,0.11,1.5,0.055,0.805,"site"
"939","6Db",NA,NA,NA,NA,0.26,0.7,0.13,0.45,7,0.26,0.7,0.13,0.45,"site"
"940","6Dbb2",NA,NA,NA,NA,0.25,0.75,0.125,0.5,11,0.25,0.75,0.125,0.5,"site"
"941","6Dbc2",NA,NA,NA,NA,0.22,0.65,0.11,0.45,43,0.22,0.65,0.11,0.45,"site"
"942","6Dbe2",NA,NA,NA,NA,0.18,0.55,0.09,0.36,13,0.18,0.55,0.09,0.36,"site"
"943","6Dbh2",NA,NA,NA,NA,0.145,0.665,0.0725,0.3925,4,0.145,0.665,0.0725,0.3925,"site"
"944","6Dy",NA,NA,NA,NA,0.27,0.65,0.135,0.46,1,0.27,0.65,0.135,0.46,"site"
"945","6Dya5",NA,NA,NA,NA,0.5,1.55,0.25,1.3,3,0.5,1.55,0.25,1.3,"site"
"946","6Dyc2",NA,NA,NA,NA,0.5,1.2,0.25,0.825,5,0.5,1.2,0.25,0.825,"site"
"947","6Dyd2",NA,NA,NA,NA,0.285,0.8,0.1425,0.55,32,0.285,0.8,0.1425,0.55,"site"
"948","6Dyd7",NA,NA,NA,NA,0.25,1.15,0.125,0.7,4,0.25,1.15,0.125,0.7,"site"
"949","6Dye3",NA,NA,NA,NA,0.2,1.175,0.1,0.695,16,0.2,1.175,0.1,0.695,"site"
"950","6Dyf2",NA,NA,NA,NA,0.25,0.9,0.125,0.575,86,0.25,0.9,0.125,0.575,"site"
"951","6Dyf3",NA,NA,NA,NA,0.2,1.05,0.1,0.625,78,0.2,1.05,0.1,0.625,"site"
"952","6Dyg4",NA,NA,NA,NA,0.25,0.56,0.125,0.4075,4,0.25,0.56,0.125,0.4075,"site"
"953","6E",NA,NA,NA,NA,0.35,NA,0.175,NA,1,0.35,NA,0.175,NA,"site"
"954","6Gn",NA,NA,NA,NA,0.3,0.9,0.15,0.6,1,0.3,0.9,0.15,0.6,"site"
"955","6UfdA",NA,NA,NA,NA,0.3,0.95,0.15,0.6,3,0.3,0.95,0.15,0.6,"site"
"956","6Uma2",NA,NA,NA,NA,0.3,0.7,0.15,0.5,33,0.3,0.7,0.15,0.5,"site"
"957","6UmbC",NA,NA,NA,NA,0.4,1.1,0.2,0.75,3,0.4,1.1,0.2,0.75,"site"
"958","Abercorn",NA,NA,NA,NA,0.2,1.2,0.1,0.675,47,0.2,1.2,0.1,0.675,"site"
"959","Abergowrie Sandy Phase",NA,NA,NA,NA,0.35,1.2,0.175,0.775,2,0.35,1.2,0.175,0.775,"site"
"960","Alice",NA,NA,NA,NA,0.2,0.9,0.1,0.665,3,0.2,0.9,0.1,0.665,"site"
"961","Alluvial Complex - Lower, Cracking Clays",NA,NA,NA,NA,0.1,1.5,0.05,0.825,7,0.1,1.5,0.05,0.825,"site"
"962","Andergrove (Alkaline Variant)",NA,NA,NA,NA,0.165,0.41,0.0825,0.265,4,0.165,0.41,0.0825,0.265,"site"
"963","Andergrove Water Table Variant",NA,NA,NA,NA,0.7,2.55,0.35,1.625,2,0.7,2.55,0.35,1.625,"site"
"964","Andromache",NA,NA,NA,NA,0.3,0.81,0.15,0.5075,34,0.3,0.81,0.15,0.5075,"site"
"965","Anyarro",NA,NA,NA,NA,0.2,0.75,0.1,0.475,33,0.2,0.75,0.1,0.475,"site"
"966","Archookoora Nodular Phase",NA,NA,NA,NA,0.15,1.25,0.075,0.7,2,0.15,1.25,0.075,0.7,"site"
"967","Arnolds",NA,NA,NA,NA,0.8,1.5,0.4,1.125,7,0.8,1.5,0.4,1.125,"site"
"968","Arnot Dark Phase",NA,NA,NA,NA,0.54,1.1,0.27,0.805,6,0.54,1.1,0.27,0.805,"site"
"969","Awoonga",NA,NA,NA,NA,0.25,0.9,0.125,0.6,27,0.25,0.9,0.125,0.6,"site"
"970","Ayreesta",NA,NA,NA,NA,0.19,1.325,0.095,0.6825,8,0.19,1.325,0.095,0.6825,"site"
"971","Babinda",NA,NA,NA,NA,0.2,1.5,0.1,1.35,11,0.2,1.5,0.1,1.35,"site"
"972","Balark",NA,NA,NA,NA,0.075,1.335,0.0375,0.705,2,0.075,1.335,0.0375,0.705,"site"
"973","Bambave A Horizon Variant",NA,NA,NA,NA,0.35,1.1,0.175,0.625,7,0.35,1.1,0.175,0.625,"site"
"974","Barrack",NA,NA,NA,NA,0.3,1.15,0.15,0.75,6,0.3,1.15,0.15,0.75,"site"
"975","Barrunga With Erosion (1ugae)",NA,NA,NA,NA,0.1,1.7,0.05,0.9,1,0.1,1.7,0.05,0.9,"site"
"976","BDba",NA,NA,NA,NA,0.3,0.95,0.15,0.675,15,0.3,0.95,0.15,0.675,"site"
"977","Beecher",NA,NA,NA,NA,0.25,1,0.125,0.65,29,0.25,1,0.125,0.65,"site"
"978","Bells",NA,NA,NA,NA,0.2,0.5,0.1,0.4,5,0.2,0.5,0.1,0.4,"site"
"979","Belvedere",NA,NA,NA,NA,0.12,1.25,0.06,0.71,15,0.12,1.25,0.06,0.71,"site"
"980","Bently",NA,NA,NA,NA,0.35,1.38,0.175,0.865,1,0.35,1.38,0.175,0.865,"site"
"981","BGna",NA,NA,NA,NA,0.4,0.95,0.2,0.6875,17,0.4,0.95,0.2,0.6875,"site"
"982","BGnb",NA,NA,NA,NA,0.3,0.8,0.15,0.535,17,0.3,0.8,0.15,0.535,"site"
"983","BGnb2",NA,NA,NA,NA,0.215,0.6,0.1075,0.4075,2,0.215,0.6,0.1075,0.4075,"site"
"984","BGnc",NA,NA,NA,NA,0.235,0.85,0.1175,0.575,22,0.235,0.85,0.1175,0.575,"site"
"985","Bidwill Rocky Phase",NA,NA,NA,NA,0.15,1.28,0.075,0.715,1,0.15,1.28,0.075,0.715,"site"
"986","Bilboolan",NA,NA,NA,NA,0.135,1.45,0.0675,0.805,14,0.135,1.45,0.0675,0.805,"site"
"987","Blackburn",NA,NA,NA,NA,0.18,1.6,0.09,0.87,50,0.18,1.6,0.09,0.87,"site"
"988","Blackburn Shallow Phase",NA,NA,NA,NA,0.18,0.9,0.09,0.5,7,0.18,0.9,0.09,0.5,"site"
"989","Blair",NA,NA,NA,NA,0.1,1.6,0.05,0.85,1,0.1,1.6,0.05,0.85,"site"
"990","Bluewater (Zed)",NA,NA,NA,NA,0.2,1.42,0.1,0.81,1,0.2,1.42,0.1,0.81,"site"
"991","Bonnie Crofts",NA,NA,NA,NA,0.1,1.5,0.05,0.79,16,0.1,1.5,0.05,0.79,"site"
"992","Boongary",NA,NA,NA,NA,0.1,1.5,0.05,0.8125,20,0.1,1.5,0.05,0.8125,"site"
"993","Bovekel",NA,NA,NA,NA,0.1,1.5,0.05,0.775,5,0.1,1.5,0.05,0.775,"site"
"994","Boyanda",NA,NA,NA,NA,0.45,1.2,0.225,0.875,5,0.45,1.2,0.225,0.875,"site"
"995","Boyles",NA,NA,NA,NA,0.265,1.2,0.1325,0.725,8,0.265,1.2,0.1325,0.725,"site"
"996","Bubbler",NA,NA,NA,NA,0.14,0.4,0.07,0.29,28,0.14,0.4,0.07,0.29,"site"
"997","BUca",NA,NA,NA,NA,0.3,1.1,0.15,0.775,33,0.3,1.1,0.15,0.775,"site"
"998","BUcb",NA,NA,NA,NA,0.525,1.15,0.2625,0.825,24,0.525,1.15,0.2625,0.825,"site"
"999","Bucca Red Variant",NA,NA,NA,NA,0.29,0.865,0.145,0.5775,2,0.29,0.865,0.145,0.5775,"site"
"1000","BUfa",NA,NA,NA,NA,0.25,0.75,0.125,0.525,82,0.25,0.75,0.125,0.525,"site"
"1001","BUfb",NA,NA,NA,NA,0.3,0.8,0.15,0.575,113,0.3,0.8,0.15,0.575,"site"
"1002","BUfc",NA,NA,NA,NA,0.3,1.2,0.15,0.775,196,0.3,1.2,0.15,0.775,"site"
"1003","BUfd",NA,NA,NA,NA,0.25,0.55,0.125,0.355,34,0.25,0.55,0.125,0.355,"site"
"1004","BUfe",NA,NA,NA,NA,0.25,0.95,0.125,0.6,63,0.25,0.95,0.125,0.6,"site"
"1005","BUga",NA,NA,NA,NA,0.25,1.35,0.125,0.805,26,0.25,1.35,0.125,0.805,"site"
"1006","Bullhead",NA,NA,NA,NA,0.2,1.415,0.1,0.795,41,0.2,1.415,0.1,0.795,"site"
"1007","Bullhead Shallow Phase",NA,NA,NA,NA,0.24,1.035,0.12,0.6575,6,0.24,1.035,0.12,0.6575,"site"
"1008","BUma",NA,NA,NA,NA,0.25,0.45,0.125,0.325,44,0.25,0.45,0.125,0.325,"site"
"1009","BUmb",NA,NA,NA,NA,0.3,0.8,0.15,0.575,63,0.3,0.8,0.15,0.575,"site"
"1010","BUmb2",NA,NA,NA,NA,0.225,0.65,0.1125,0.4375,2,0.225,0.65,0.1125,0.4375,"site"
"1011","BUmd",NA,NA,NA,NA,0.275,1.5,0.1375,0.875,28,0.275,1.5,0.1375,0.875,"site"
"1012","Burdekin Buried Soils Or D Horizons Vary",NA,NA,NA,NA,0.3,0.7,0.15,0.5,58,0.3,0.7,0.15,0.5,"site"
"1013","Burnett Coarse Sandy Variant",NA,NA,NA,NA,0.3,0.7,0.15,0.5,2,0.3,0.7,0.15,0.5,"site"
"1014","Burnett Shallow Phase",NA,NA,NA,NA,0.25,0.925,0.125,0.595,5,0.25,0.925,0.125,0.595,"site"
"1015","Bushnell Eroded Phase",NA,NA,NA,NA,0.28,1.2,0.14,0.74,1,0.28,1.2,0.14,0.74,"site"
"1016","Butcher Sandy Variant",NA,NA,NA,NA,0.5,1.35,0.25,0.875,9,0.5,1.35,0.25,0.875,"site"
"1017","BVE1",NA,NA,NA,NA,0.12,1.28,0.06,0.715,9,0.12,1.28,0.06,0.715,"site"
"1018","Cameron (Gleyed Subsoil Phase)",NA,NA,NA,NA,0.29,0.89,0.145,0.59,3,0.29,0.89,0.145,0.59,"site"
"1019","CDba",NA,NA,NA,NA,0.4,1.125,0.2,0.7875,20,0.4,1.125,0.2,0.7875,"site"
"1020","CDbb",NA,NA,NA,NA,0.25,1.1,0.125,0.66,9,0.25,1.1,0.125,0.66,"site"
"1021","CDE4",NA,NA,NA,NA,0.18,1.51,0.09,0.805,5,0.18,1.51,0.09,0.805,"site"
"1022","CDra",NA,NA,NA,NA,0.5,0.95,0.25,0.7,5,0.5,0.95,0.25,0.7,"site"
"1023","Ceduna",NA,NA,NA,NA,0.4,1.4,0.2,0.9,1,0.4,1.4,0.2,0.9,"site"
"1024","Ceratodus",NA,NA,NA,NA,0.15,1.2,0.075,0.7,41,0.15,1.2,0.075,0.7,"site"
"1025","Chessborough Rubbly, Shallow And Rocky Phase",NA,NA,NA,NA,0.2,0.62,0.1,0.41,1,0.2,0.62,0.1,0.41,"site"
"1026","Clemant - red subsoil horizons",NA,NA,NA,NA,0.3,1.4,0.15,0.85,1,0.3,1.4,0.15,0.85,"site"
"1027","Cobbleton",NA,NA,NA,NA,0.175,0.4,0.0875,0.325,4,0.175,0.4,0.0875,0.325,"site"
"1028","Colenso",NA,NA,NA,NA,0.16,0.7,0.08,0.43,2,0.16,0.7,0.08,0.43,"site"
"1029","Conway (Cqh)",NA,NA,NA,NA,0.28,0.85,0.14,0.575,17,0.28,0.85,0.14,0.575,"site"
"1030","Coorooman",NA,NA,NA,NA,0.3,0.6,0.15,0.49,41,0.3,0.6,0.15,0.49,"site"
"1031","Corduroy",NA,NA,NA,NA,0.25,1.4,0.125,0.8,9,0.25,1.4,0.125,0.8,"site"
"1032","Corea",NA,NA,NA,NA,0.3,0.7,0.15,0.55,98,0.3,0.7,0.15,0.55,"site"
"1033","Crystalbrook",NA,NA,NA,NA,0.215,1.14,0.1075,0.6425,8,0.215,1.14,0.1075,0.6425,"site"
"1034","CSO2",NA,NA,NA,NA,0.15,1.175,0.075,0.7225,12,0.15,1.175,0.075,0.7225,"site"
"1035","CUca",NA,NA,NA,NA,0.6,1.325,0.3,0.9625,7,0.6,1.325,0.3,0.9625,"site"
"1036","CUfa",NA,NA,NA,NA,0.4,0.85,0.2,0.65,30,0.4,0.85,0.2,0.65,"site"
"1037","CUfb",NA,NA,NA,NA,0.45,1.4,0.225,0.9,19,0.45,1.4,0.225,0.9,"site"
"1038","CUfc",NA,NA,NA,NA,0.35,1.025,0.175,0.695,27,0.35,1.025,0.175,0.695,"site"
"1039","CUma",NA,NA,NA,NA,0.275,1,0.1375,0.6375,4,0.275,1,0.1375,0.6375,"site"
"1040","CUma2",NA,NA,NA,NA,0.3,NA,0.15,NA,1,0.3,NA,0.15,NA,"site"
"1041","CUmb",NA,NA,NA,NA,0.32,1,0.16,0.66,7,0.32,1,0.16,0.66,"site"
"1042","CVE1",NA,NA,NA,NA,0.1,1.65,0.05,0.875,3,0.1,1.65,0.05,0.875,"site"
"1043","CVE2",NA,NA,NA,NA,0.1,1.55,0.05,0.84,31,0.1,1.55,0.05,0.84,"site"
"1044","CVE3",NA,NA,NA,NA,0.1,1.575,0.05,0.8525,10,0.1,1.575,0.05,0.8525,"site"
"1045","CVE4",NA,NA,NA,NA,0.1,1.6,0.05,0.845,19,0.1,1.6,0.05,0.845,"site"
"1046","CVE5",NA,NA,NA,NA,0.1,1.52,0.05,0.83,25,0.1,1.52,0.05,0.83,"site"
"1047","Dale",NA,NA,NA,NA,0.5,1.1,0.25,0.8,2,0.5,1.1,0.25,0.8,"site"
"1048","Dalgangal",NA,NA,NA,NA,0.12,1.4,0.06,0.805,8,0.12,1.4,0.06,0.805,"site"
"1049","Dalrymple",NA,NA,NA,NA,0.12,0.66,0.06,0.405,120,0.12,0.66,0.06,0.405,"site"
"1050","Dargy",NA,NA,NA,NA,0.095,0.8,0.0475,0.4475,2,0.095,0.8,0.0475,0.4475,"site"
"1051","Darts",NA,NA,NA,NA,0.3,0.5,0.15,0.4075,34,0.3,0.5,0.15,0.4075,"site"
"1052","Dillan",NA,NA,NA,NA,0.27,0.9,0.135,0.585,3,0.27,0.9,0.135,0.585,"site"
"1053","Doonside",NA,NA,NA,NA,0.3,0.9,0.15,0.625,55,0.3,0.9,0.15,0.625,"site"
"1054","Dotswood",NA,NA,NA,NA,0.25,0.9,0.125,0.565,81,0.25,0.9,0.125,0.565,"site"
"1055","Dove",NA,NA,NA,NA,0.045,1.5,0.0225,0.7725,4,0.045,1.5,0.0225,0.7725,"site"
"1056","Dunbas Deep Phase",NA,NA,NA,NA,0.1,1.575,0.05,0.8375,4,0.1,1.575,0.05,0.8375,"site"
"1057","Eden",NA,NA,NA,NA,0.2,1.2,0.1,0.7,13,0.2,1.2,0.1,0.7,"site"
"1058","Egera",NA,NA,NA,NA,0.15,1.65,0.075,0.8725,57,0.15,1.65,0.075,0.8725,"site"
"1059","Elizabeth",NA,NA,NA,NA,0.24,1.2,0.12,0.7375,36,0.24,1.2,0.12,0.7375,"site"
"1060","Ellis",NA,NA,NA,NA,0.235,1.5,0.1175,0.8625,8,0.235,1.5,0.1175,0.8625,"site"
"1061","Fanning River",NA,NA,NA,NA,0.3,1.2,0.15,0.7625,51,0.3,1.2,0.15,0.7625,"site"
"1062","Farencer Buried Soils Or D Horizons Vary",NA,NA,NA,NA,0.22,0.55,0.11,0.4,107,0.22,0.55,0.11,0.4,"site"
"1063","Farnsfield Sandy Variant",NA,NA,NA,NA,0.45,1.75,0.225,1.1,3,0.45,1.75,0.225,1.1,"site"
"1064","Fison",NA,NA,NA,NA,0.3,0.925,0.15,0.635,11,0.3,0.925,0.15,0.635,"site"
"1065","Flanders",NA,NA,NA,NA,0.88,1.3,0.44,1.09,11,0.88,1.3,0.44,1.09,"site"
"1066","Fletcher - Brcl",NA,NA,NA,NA,0.13,1.12,0.065,0.585,3,0.13,1.12,0.065,0.585,"site"
"1067","Fourmile",NA,NA,NA,NA,0.35,0.9,0.175,0.6375,10,0.35,0.9,0.175,0.6375,"site"
"1068","Fowler",NA,NA,NA,NA,0.3,0.94,0.15,0.62,1,0.3,0.94,0.15,0.62,"site"
"1069","Galway",NA,NA,NA,NA,0.175,1.2,0.0875,0.7,18,0.175,1.2,0.0875,0.7,"site"
"1070","Gayfield",NA,NA,NA,NA,0.25,0.5,0.125,0.375,11,0.25,0.5,0.125,0.375,"site"
"1071","Gillian",NA,NA,NA,NA,0.05,1.25,0.025,0.685,8,0.05,1.25,0.025,0.685,"site"
"1072","Glen Isla",NA,NA,NA,NA,0.245,0.885,0.1225,0.555,20,0.245,0.885,0.1225,0.555,"site"
"1073","Glenalder Buried Soils Or D Horizons Vary",NA,NA,NA,NA,0.265,0.65,0.1325,0.465,58,0.265,0.65,0.1325,0.465,"site"
"1074","Gooburrum Mottled Variant",NA,NA,NA,NA,0.6,1.475,0.3,1.05,20,0.6,1.475,0.3,1.05,"site"
"1075","Goodbye (MAJCK)",NA,NA,NA,NA,0.16,1.1,0.08,0.645,6,0.16,1.1,0.08,0.645,"site"
"1076","Gracemere",NA,NA,NA,NA,0.1,1.4,0.05,0.775,21,0.1,1.4,0.05,0.775,"site"
"1077","Halivale",NA,NA,NA,NA,0.325,0.6,0.1625,0.375,14,0.325,0.6,0.1625,0.375,"site"
"1078","Harwood",NA,NA,NA,NA,0.4,1.1,0.2,0.75,7,0.4,1.1,0.2,0.75,"site"
"1079","Healy",NA,NA,NA,NA,0.22,1.5,0.11,0.86,1,0.22,1.5,0.11,0.86,"site"
"1080","Hillgrove",NA,NA,NA,NA,0.1,0.8,0.05,0.44,47,0.1,0.8,0.05,0.44,"site"
"1081","Hind",NA,NA,NA,NA,0.05,1.45,0.025,0.74,3,0.05,1.45,0.025,0.74,"site"
"1082","Homestead",NA,NA,NA,NA,0.21,1.575,0.105,0.8925,2,0.21,1.575,0.105,0.8925,"site"
"1083","IDE1",NA,NA,NA,NA,0.1,0.62,0.05,0.375,10,0.1,0.62,0.05,0.375,"site"
"1084","Isis Rocky Phase",NA,NA,NA,NA,0.4,0.655,0.2,0.595,16,0.4,0.655,0.2,0.595,"site"
"1085","Jarvisfield",NA,NA,NA,NA,0.365,0.9,0.1825,0.6075,10,0.365,0.9,0.1825,0.6075,"site"
"1086","Jedda",NA,NA,NA,NA,0.05,1.5,0.025,0.775,3,0.05,1.5,0.025,0.775,"site"
"1087","Johnson",NA,NA,NA,NA,0.205,NA,0.1025,NA,8,0.205,NA,0.1025,NA,"site"
"1088","Kelona A Horizon Variant",NA,NA,NA,NA,0.25,1.05,0.125,0.65,71,0.25,1.05,0.125,0.65,"site"
"1089","Kelona Buried Soils Or D Horizons Vary",NA,NA,NA,NA,0.2,0.78,0.1,0.475,133,0.2,0.78,0.1,0.475,"site"
"1090","Keppel",NA,NA,NA,NA,0.28,0.75,0.14,0.525,101,0.28,0.75,0.14,0.525,"site"
"1091","Koberinga Mottled Phase (3uga9)",NA,NA,NA,NA,0.1,1.6,0.05,0.85,62,0.1,1.6,0.05,0.85,"site"
"1092","Koberinga Pebbly Phase (3uga8)",NA,NA,NA,NA,0.1,1.55,0.05,0.825,62,0.1,1.55,0.05,0.825,"site"
"1093","Koberinga Pebbly Phase (3uge8)",NA,NA,NA,NA,0.1,1.28,0.05,0.695,40,0.1,1.28,0.05,0.695,"site"
"1094","Koberinga Shallow Variant",NA,NA,NA,NA,0.1,1.12,0.05,0.61,7,0.1,1.12,0.05,0.61,"site"
"1095","Kolan Red Variant",NA,NA,NA,NA,0.25,0.95,0.125,0.62,45,0.25,0.95,0.125,0.62,"site"
"1096","Kolan Rocky Phase",NA,NA,NA,NA,0.185,0.56,0.0925,0.35,8,0.185,0.56,0.0925,0.35,"site"
"1097","Koolachu (Saline Variant)",NA,NA,NA,NA,0.39,1.5,0.195,0.945,1,0.39,1.5,0.195,0.945,"site"
"1098","Kulburn",NA,NA,NA,NA,0.165,1.405,0.0825,0.785,2,0.165,1.405,0.0825,0.785,"site"
"1099","Lancer Buried Soils Or D Horizons Vary (6drb2)",NA,NA,NA,NA,0.3,0.8,0.15,0.55,60,0.3,0.8,0.15,0.55,"site"
"1100","Lascelles (Alkaline Variant)",NA,NA,NA,NA,0.29,1.6,0.145,0.925,3,0.29,1.6,0.145,0.925,"site"
"1101","Laura",NA,NA,NA,NA,0.18,1.41,0.09,0.81,41,0.18,1.41,0.09,0.81,"site"
"1102","Lily",NA,NA,NA,NA,0.43,1.43,0.215,0.995,24,0.43,1.43,0.215,0.995,"site"
"1103","Limeview",NA,NA,NA,NA,0.12,1.025,0.06,0.5925,6,0.12,1.025,0.06,0.5925,"site"
"1104","Lingilor",NA,NA,NA,NA,0.12,1.5,0.06,0.8,79,0.12,1.5,0.06,0.8,"site"
"1105","Lizard",NA,NA,NA,NA,0.28,1.5,0.14,0.85,31,0.28,1.5,0.14,0.85,"site"
"1106","Lorna",NA,NA,NA,NA,0.27,1.1,0.135,0.7,25,0.27,1.1,0.135,0.7,"site"
"1107","Magnan",NA,NA,NA,NA,0.3,0.45,0.15,0.325,13,0.3,0.45,0.15,0.325,"site"
"1108","Maidavale",NA,NA,NA,NA,0.175,0.5,0.0875,0.3375,10,0.175,0.5,0.0875,0.3375,"site"
"1109","Malchi",NA,NA,NA,NA,0.12,1.2,0.06,0.69,25,0.12,1.2,0.06,0.69,"site"
"1110","Manoa Red Variant",NA,NA,NA,NA,0.2,1.45,0.1,0.775,9,0.2,1.45,0.1,0.775,"site"
"1111","Mary Dark Variant",NA,NA,NA,NA,0.25,1.5,0.125,0.865,25,0.25,1.5,0.125,0.865,"site"
"1112","Maryvale",NA,NA,NA,NA,0.12,1.4,0.06,0.815,37,0.12,1.4,0.06,0.815,"site"
"1113","MDE1",NA,NA,NA,NA,0.12,0.74,0.06,0.435,16,0.12,0.74,0.06,0.435,"site"
"1114","Meilland",NA,NA,NA,NA,0.3,1.15,0.15,0.775,30,0.3,1.15,0.15,0.775,"site"
"1115","Military",NA,NA,NA,NA,0.33,1.15,0.165,0.74,2,0.33,1.15,0.165,0.74,"site"
"1116","Mingela",NA,NA,NA,NA,0.2,0.825,0.1,0.4875,20,0.2,0.825,0.1,0.4875,"site"
"1117","Mirriwinni",NA,NA,NA,NA,0.38,1.3,0.19,0.725,7,0.38,1.3,0.19,0.725,"site"
"1118","Miskin Buried Soils Or D Horizons Vary",NA,NA,NA,NA,0.35,0.72,0.175,0.55,11,0.35,0.72,0.175,0.55,"site"
"1119","Miva",NA,NA,NA,NA,0.2,1.55,0.1,0.885,11,0.2,1.55,0.1,0.885,"site"
"1120","Moosie (MAJCK)",NA,NA,NA,NA,0.21,1.1,0.105,0.625,7,0.21,1.1,0.105,0.625,"site"
"1121","Moramana, Gilgai Phase",NA,NA,NA,NA,0.05,1.5,0.025,0.7725,36,0.05,1.5,0.025,0.7725,"site"
"1122","MUca",NA,NA,NA,NA,0.3,1.2,0.15,0.95,8,0.3,1.2,0.15,0.95,"site"
"1123","MUcb",NA,NA,NA,NA,0.55,1.475,0.275,1.0125,2,0.55,1.475,0.275,1.0125,"site"
"1124","Mulgildie Eroded Phase",NA,NA,NA,NA,0.3,1.4,0.15,0.85,1,0.3,1.4,0.15,0.85,"site"
"1125","Mulgildie Snuffy Variant",NA,NA,NA,NA,0.175,0.75,0.0875,0.4625,2,0.175,0.75,0.0875,0.4625,"site"
"1126","Myrtlevale",NA,NA,NA,NA,0.1,0.9,0.05,0.505,41,0.1,0.9,0.05,0.505,"site"
"1127","Neerdie",NA,NA,NA,NA,0.25,1.15,0.125,0.675,27,0.25,1.15,0.125,0.675,"site"
"1128","Neugildie Colluvial, Clayey Variant",NA,NA,NA,NA,0.2,1.2,0.1,0.7,1,0.2,1.2,0.1,0.7,"site"
"1129","Normanby",NA,NA,NA,NA,0.12,1.3,0.06,0.7,25,0.12,1.3,0.06,0.7,"site"
"1130","Obi",NA,NA,NA,NA,0.2,1.45,0.1,0.75,3,0.2,1.45,0.1,0.75,"site"
"1131","Otoo Sandy Variant",NA,NA,NA,NA,0.6,1.4,0.3,0.95,5,0.6,1.4,0.3,0.95,"site"
"1132","Pattel",NA,NA,NA,NA,0.3,0.6,0.15,0.45,1,0.3,0.6,0.15,0.45,"site"
"1133","Peep Sandy Variant",NA,NA,NA,NA,0.75,1.6,0.375,1.175,1,0.75,1.6,0.375,1.175,"site"
"1134","Pennsfield (Shallow Variant)",NA,NA,NA,NA,0.14,0.945,0.07,0.5425,2,0.14,0.945,0.07,0.5425,"site"
"1135","Pentland",NA,NA,NA,NA,0.18,0.85,0.09,0.55,119,0.18,0.85,0.09,0.55,"site"
"1136","Powlathanga",NA,NA,NA,NA,0.1,1.5,0.05,0.805,42,0.1,1.5,0.05,0.805,"site"
"1137","Preston",NA,NA,NA,NA,0.24,0.68,0.12,0.505,8,0.24,0.68,0.12,0.505,"site"
"1138","Rangeside",NA,NA,NA,NA,0.3,0.8,0.15,0.575,49,0.3,0.8,0.15,0.575,"site"
"1139","Raven",NA,NA,NA,NA,0.5,1.1,0.25,0.875,3,0.5,1.1,0.25,0.875,"site"
"1140","RDya",NA,NA,NA,NA,0.155,1.3,0.0775,0.7425,52,0.155,1.3,0.0775,0.7425,"site"
"1141","Red Flank",NA,NA,NA,NA,0.19,1.275,0.095,0.75,4,0.19,1.275,0.095,0.75,"site"
"1142","Rishton",NA,NA,NA,NA,0.5,0.725,0.25,0.575,95,0.5,0.725,0.25,0.575,"site"
"1143","Ronnoc",NA,NA,NA,NA,0.05,0.7,0.025,0.4,179,0.05,0.7,0.025,0.4,"site"
"1144","Rosslyn",NA,NA,NA,NA,0.32,0.6,0.16,0.5,29,0.32,0.6,0.16,0.5,"site"
"1145","Ruby",NA,NA,NA,NA,0.25,0.8,0.125,0.55,28,0.25,0.8,0.125,0.55,"site"
"1146","RUfe",NA,NA,NA,NA,0.2,1.025,0.1,0.6125,30,0.2,1.025,0.1,0.6125,"site"
"1147","RUff",NA,NA,NA,NA,0.18,1.45,0.09,0.7675,22,0.18,1.45,0.09,0.7675,"site"
"1148","RUga",NA,NA,NA,NA,0.12,1.325,0.06,0.7425,8,0.12,1.325,0.06,0.7425,"site"
"1149","Rugb",NA,NA,NA,NA,0.15,1.5,0.075,0.8175,88,0.15,1.5,0.075,0.8175,"site"
"1150","RUgbS",NA,NA,NA,NA,0.2,1.5,0.1,0.9,17,0.2,1.5,0.1,0.9,"site"
"1151","RUgc",NA,NA,NA,NA,0.15,0.85,0.075,0.5,59,0.15,0.85,0.075,0.5,"site"
"1152","RUgcS",NA,NA,NA,NA,0.25,1.1,0.125,0.61,2,0.25,1.1,0.125,0.61,"site"
"1153","RUgd",NA,NA,NA,NA,0.2,1.425,0.1,0.81,72,0.2,1.425,0.1,0.81,"site"
"1154","Sandalwood",NA,NA,NA,NA,0.1,1.5,0.0525,0.8,8,0.1,1.5,0.0525,0.8,"site"
"1155","Sandy",NA,NA,NA,NA,0.65,1.1,0.325,0.875,1,0.65,1.1,0.325,0.875,"site"
"1156","SDE1",NA,NA,NA,NA,0.115,0.7,0.0575,0.4175,8,0.115,0.7,0.0575,0.4175,"site"
"1157","SDE2",NA,NA,NA,NA,0.15,1.25,0.075,0.725,9,0.15,1.25,0.075,0.725,"site"
"1158","Spanos Heavy Variant",NA,NA,NA,NA,0.3,1.5,0.15,0.9,3,0.3,1.5,0.15,0.9,"site"
"1159","SSO1",NA,NA,NA,NA,0.2,0.815,0.1,0.4875,22,0.2,0.815,0.1,0.4875,"site"
"1160","Stanage",NA,NA,NA,NA,0.525,1.4,0.2625,0.9625,2,0.525,1.4,0.2625,0.9625,"site"
"1161","Stockyard loam",NA,NA,NA,NA,0.22,1.125,0.11,0.6725,18,0.22,1.125,0.11,0.6725,"site"
"1162","Sugarmill Acid Variant",NA,NA,NA,NA,0.2,0.75,0.1,0.475,1,0.2,0.75,0.1,0.475,"site"
"1163","Sugarmill Gravelly Variant",NA,NA,NA,NA,0.32,0.7,0.16,0.525,5,0.32,0.7,0.16,0.525,"site"
"1164","Sullivan",NA,NA,NA,NA,0.05,1.3,0.025,0.7,68,0.05,1.3,0.025,0.7,"site"
"1165","SVE1",NA,NA,NA,NA,0.1,1.1,0.05,0.6,7,0.1,1.1,0.05,0.6,"site"
"1166","Tanby",NA,NA,NA,NA,0.33,0.9,0.165,0.675,27,0.33,0.9,0.165,0.675,"site"
"1167","Taughboyne",NA,NA,NA,NA,0.135,0.875,0.0675,0.5325,4,0.135,0.875,0.0675,0.5325,"site"
"1168","Teralba",NA,NA,NA,NA,0.55,1.2,0.275,0.85,11,0.55,1.2,0.275,0.85,"site"
"1169","Thompson - Mrc",NA,NA,NA,NA,0.3,1.6,0.15,0.925,117,0.3,1.6,0.15,0.925,"site"
"1170","Thorpe Fine Variant",NA,NA,NA,NA,0.19,0.9,0.095,0.55,4,0.19,0.9,0.095,0.55,"site"
"1171","Tirroan Non-Sodic Variant",NA,NA,NA,NA,0.42,0.9,0.21,0.8,7,0.42,0.9,0.21,0.8,"site"
"1172","UDE1",NA,NA,NA,NA,0.14,0.97,0.07,0.595,5,0.14,0.97,0.07,0.595,"site"
"1173","Uruba Alluvial-Colluvial Variant",NA,NA,NA,NA,0.475,1.5,0.2375,0.9875,2,0.475,1.5,0.2375,0.9875,"site"
"1174","Utchee - Dlr",NA,NA,NA,NA,0.35,1.1,0.175,0.725,4,0.35,1.1,0.175,0.725,"site"
"1175","Valetta",NA,NA,NA,NA,0.35,1.1,0.175,0.7375,14,0.35,1.1,0.175,0.7375,"site"
"1176","Walkamin Sandy Phase",NA,NA,NA,NA,0.42,1.6,0.21,1.01,1,0.42,1.6,0.21,1.01,"site"
"1177","Walker (Majck)",NA,NA,NA,NA,0.3,1,0.15,0.625,3,0.3,1,0.15,0.625,"site"
"1178","Watalgan Mottled Variant",NA,NA,NA,NA,0.28,1.35,0.14,0.875,21,0.28,1.35,0.14,0.875,"site"
"1179","White",NA,NA,NA,NA,0.15,1.3,0.075,0.725,1,0.15,1.3,0.075,0.725,"site"
"1180","Wigton Association",NA,NA,NA,NA,0.225,0.5,0.1125,0.4,2,0.225,0.5,0.1125,0.4,"site"
"1181","Witton",NA,NA,NA,NA,0.22,1.4,0.11,0.81,1,0.22,1.4,0.11,0.81,"site"
"1182","Yandaran",NA,NA,NA,NA,0.95,1.6,0.475,1.275,54,0.95,1.6,0.475,1.275,"site"
"1183","Yaringa",NA,NA,NA,NA,0.28,1.4,0.14,0.825,27,0.28,1.4,0.14,0.825,"site"
"1184","Yarraman",NA,NA,NA,NA,0.11,1.6,0.055,0.915,33,0.11,1.6,0.055,0.915,"site"
"1185","Yarrol",NA,NA,NA,NA,0.275,1.4,0.1375,0.825,22,0.275,1.4,0.1375,0.825,"site"
"1186","Yeppoon",NA,NA,NA,NA,0.39,1.3,0.195,0.825,32,0.39,1.3,0.195,0.825,"site"
"1187","YEPR",NA,NA,NA,NA,0.35,0.8,0.175,0.575,1,0.35,0.8,0.175,0.575,"site"
