"NAME","Cl","ESP"
"1ADb-7",70,NA
"1ADb-Dd",110,NA
"1ADd-3",125,NA
"1ADd-4",40,NA
"1AUg-13",55,85
"1AVE4",60,NA
"1SOb",55,NA
"2ADb-1",95,NA
"2AUf-Ug-3",65,75
"2AUg-3",75,NA
"2AUg-7",90,NA
"2AUg-8m",45,NA
"2AUg-9m",40,120
"2AUgg-1m",65,75
"2AUgg-2m",40,100
"2VEx",115,NA
"2VEy",105,80
"3AUf-Ug-2m",55,NA
"3AUf-Ug-3d",115,NA
"3AUf-Ug-6m",50,120
"3AUg-2",125,NA
"3VEa",55,75
"3VEb",40,50
"3VEw",45,100
"3VEy",75,NA
"4AUf",40,45
"5SOy",75,NA
"6ADb-1",50,40
"6ADb-4",NA,40
"6ADy-3",NA,120
"6AUg-10",55,NA
"6AUg-12",80,NA
"6AUg-3",55,NA
"6AUg-4",75,NA
"6AUg-8",55,NA
"6AUg-9",60,NA
"Abercorn",55,40
"Auburn",75,65
"Awoonga",85,40
"Banban",95,NA
"Battery",70,120
"Beeron",NA,40
"Belvedere",45,NA
"Bilboolan",NA,40
"Blair",50,75
"Bogandilla",NA,40
"Boonenne",NA,40
"Broadmedow",NA,60
"Burradoo",NA,120
"Bushnell",80,50
"C3",90,90
"Carraba",120,NA
"Cattle",80,NA
"Ceratodus 3",NA,50
"Cheshire",NA,70
"CVE1",105,NA
"CVE3",50,40
"CVE4",45,135
"CVE5",45,90
"D3",NA,65
"Dalgangal",60,105
"Dalrymple",NA,60
"Derra",NA,65
"Diamond (Kcm)",70,85
"Diamond (Kcm), Footslope Variant",70,NA
"Dove",50,40
"Downfall",NA,40
"Earlsfield",NA,110
"Eastgate",NA,55
"Egera",60,65
"Eleanor",115,NA
"Eleanor, Mottled Phase",90,80
"Fairview",45,50
"Fison",NA,65
"Fowler",NA,40
"Foxleigh",NA,55
"Goovigen",NA,40
"Gracemere",40,NA
"Grevillea",40,45
"Greycliffe",70,45
"Greycliffe Melonhole Phase",60,70
"Harris",115,NA
"Hind",40,40
"Hoogly (Ccl)",40,40
"Kawl Kawl",40,NA
"Kenlogan",95,NA
"Kenmar",75,65
"Keppel",NA,50
"Kokutungo",NA,80
"Kooingal",40,40
"Krongie",120,NA
"Lacon",NA,115
"Langley-Wdh",70,NA
"Larcom (CCL)",75,50
"Lindsay",40,115
"Lorna",55,NA
"Malchi",55,NA
"Manar",90,NA
"Manoa Red Variant",NA,45
"Maraconda",40,NA
"Marshlands",105,40
"Martyr",105,NA
"Midden",120,NA
"Mondure",NA,70
"Moramana",120,NA
"Nail",NA,100
"Nullegai",60,40
"Oombabeer",NA,85
"Pakington",NA,105
"Palouse",75,50
"Pearlinga",NA,80
"Pegunny",140,40
"Pegunny (CCL)",55,45
"Picardy",100,NA
"Powerhouse",70,60
"Powlathanga",60,40
"Racetrack",NA,40
"Rankin",40,NA
"Retro",NA,95
"Retro (BAN)",100,80
"Rolleston",90,130
"Solferino",50,40
"Springwood",NA,95
"SSO1",65,40
"Strathmuir",50,40
"T3",NA,70
"T4",NA,75
"Tara",60,NA
"Tarong",NA,65
"Tarramba",NA,60
"Taurus",NA,75
"TbUg-2",95,NA
"TbUg-6",75,NA
"Teviot",65,90
"Thalberg",NA,125
"Threemoon 1",65,NA
"Tiny",60,75
"Toondoon",NA,40
"Tralee",40,45
"TsDy-1",NA,70
"TsUf-3",55,40
"TsUf-6",90,50
"TsUg-7",60,80
"TsUgg-2",80,65
"Ulogie",NA,40
"Vermont",140,NA
"Vicenza",100,NA
"Voewood",NA,70
"Well",105,NA
"Well, Footslope Variant",40,NA
"Wivenhoe",NA,85
"Wyseby",55,NA
"X1",40,NA
"Yaringa",110,NA
"Yarraman",80,NA
"Yarrol",40,55
