"NAME","CAR85_90"
"1ACH1",0.48
"1ADb",0.44
"1ADb-2",0.51
"1ADb-7",0.56
"1ADb-Dd",0.45
"1ADd-3",0.51
"1ADd-4",0.53
"1ADE1",0.59
"1ADE2",0.27
"1AKA1",0.43
"1ARU1",0.01
"1ATE1",0.01
"1AUg-12",0.61
"1AUg-13",0.62
"1AUg-2",0.84
"1AUg-3",0.99
"1AUg-4",0.45
"1AVE1",0.6
"1AVE2",0.67
"1AVE4",0.64
"1AVE6",0.62
"1CHa",0.57
"1CHb",0.06
"1DEa",0.52
"1KTa",0.05
"1SOa",0.57
"1SOb",0.59
"2ADb-1",0.59
"2AUf-Ug-3",0.48
"2AUg-3",0.7
"2AUg-7",0.83
"2AUg-8m",0.64
"2AUg-9m",0.52
"2AUgg-1m",0.62
"2AUgg-2m",0.52
"2AVE2",0.8
"2VEa",0.62
"2VEb",0.62
"2VEe",0.55
"2VEx",0.7
"2VEy",0.77
"3ASO2",0.52
"3AUf",NA
"3AUf-Ug-1m",NA
"3AUf-Ug-2m",0.69
"3AUf-Ug-3d",0.61
"3AUf-Ug-6m",0.51
"3AUg-2",0.65
"3CHx",0.35
"3SOb",0.33
"3VEa",0.49
"3VEb",0.72
"3VEc",0.57
"3VEw",0.54
"3VEy",0.47
"3VEz",0.62
"4AUf",0.59
"6ADb-1",0.64
"6ADb-4",0.68
"6ADy-3",0.56
"6AUg-10",0.6
"6AUg-12",0.68
"6AUg-3",0.67
"6AUg-4",0.48
"6AUg-5",0.68
"6AUg-6",0.65
"6AUg-8",0.61
"6AUg-9",0.63
"A1",0.12
"Abercorn",0.57
"Amity",1
"Annandale",0.08
"Anyarro",0.07
"Apron",0.45
"Archookoora",0.31
"Arcturus",1.02
"Aroa",0.99
"Auburn",0.5
"Awoonga",0.62
"B1",0.49
"B2",0.74
"Banana",0.82
"Banban",0.76
"Battery",0.53
"Bauhinia",0.74
"Beeron",NA
"Belbroughton",0.83
"Belvedere",0.52
"Bilboolan",0.7
"Blair",0.72
"Bluff",NA
"Bogandilla",0.57
"Bonnie Crofts",0.58
"Bonwell",0.47
"Boonenne",0.4
"Bovekel",0.98
"Boyanda",0.01
"Boyles",NA
"Boyne",0.26
"Boynewood",NA
"Boynewood Deep Phase",0.76
"Broadmedow",0.4
"Bruce",1
"Buffel",0.84
"BUg-10",1.12
"BUg-2",1.1
"BUg-3",NA
"BUg-4",0.95
"BUg-6",1.06
"Bulburin",0.07
"Burdekin",0.01
"Burnett",0.05
"Burnett Coarse Sandy Variant",0.34
"Burradoo",0.57
"Bushnell",0.34
"BVE1",0.9
"Byee",0.83
"C2",0.77
"C3",0.6
"C4",0.62
"C5",0.53
"Cadarga",0.07
"Callide",0.74
"Cape",0.55
"Carfax",1.11
"Carraba",0.23
"Cattle",0.82
"Ceratodus",0.54
"Ceratodus 3",0.57
"Chelmsford",0.23
"Cheshire",0.68
"Chessborough",0.16
"Chinchilla",0.01
"Clematis",0.89
"Conjuboy",0.26
"Conway (Cqh)",0.21
"Coolabunia",0.12
"Coorooman",NA
"Corduroy",0.63
"Cottonham",NA
"Creek",0.52
"Cushnie",0.49
"CVE1",0.58
"CVE3",0.58
"CVE4",0.32
"CVE5",0.59
"D1",NA
"D2",0.46
"D3",0.54
"Dale",NA
"Dalgangal",0.5
"Dalrymple",0.23
"Darts",NA
"Degalgil",0.51
"Derra",0.46
"Diamond (Kcm)",0.95
"Diamond (Kcm), Footslope Variant",0.9
"Dickson",0.17
"Diglum (CCL)",0.53
"Doonside",0.2
"Dotswood",0.32
"Dove",0.72
"Downfall",0.7
"Dunrobin - CQ",0.08
"Durong",0.63
"E2",0.08
"E3",0.11
"Earlsfield",0.72
"Eastgate",0.74
"Eden",0.4
"Egera",0.58
"Eleanor",0.98
"Eleanor, Mottled Phase",0.95
"Elizabeth",0.09
"Ellis",0.24
"Fairdale",1.07
"Fairview",0.55
"Falkner",1.03
"Fanning River",0.39
"Figtree",0.32
"Fison",0.37
"Flagstone",0.68
"Fletcher",0.87
"Fletcher - Brcl",NA
"Fowler",0.39
"Foxleigh",0.45
"Galway",0.44
"Gindie",NA
"Glenora",1.04
"Glenrock",NA
"Goodger",0.12
"Goovigen",0.56
"Gordonbrook",0.09
"Graham",1.01
"Grevillea",0.61
"Greycliffe",0.47
"Greycliffe Melonhole Phase",0.46
"Gueena",0.67
"Halivale (CCL)",0.01
"Haly",0.11
"Harris",NA
"Harwood",0.54
"Hawkwood",NA
"Hilldale",0.4
"Hillgrove",0.21
"Hind",0.78
"Hodge (BAN)",0.01
"Holding",0.99
"Hoogly (Ccl)",0.44
"Hopevale",0.01
"IDE1",NA
"Iona",1.02
"Jambin",0.65
"K1",0.09
"K2",0.18
"K3",0.25
"Kaber",0.78
"Kawl Kawl",0.39
"Kenlogan",NA
"Kenmar",0.58
"Keppel",NA
"Kilburnie",0.64
"Kokutungo",0.34
"Kooingal",0.55
"Krongie",0.88
"Kumbia",0.13
"Lacon",0.42
"Langley-Wdh",0.67
"Larcom (CCL)",0.53
"Lindsay",0.95
"Lizard",0.06
"Lizard (CCL)",0.09
"Lorna",NA
"Luxor",0.26
"Manar",0.71
"Manoa Red Variant",0.52
"Maraconda",0.64
"Marshlands",0.22
"Martyr",0.81
"Maryvale",0.55
"May",1.2
"May Downs",1.05
"May Shallow Phase",NA
"Mceuen",NA
"Medway",NA
"Meilland",0.01
"Melton",0.74
"Memerambi",0.1
"Midden",0.95
"Mondure",0.22
"Monto 4",0.75
"Moramana",0.88
"Moramana, Gilgai Phase",1.05
"Muldoon",0.29
"Muldoon (CCL)",NA
"Myrtlevale",NA
"N1",0.59
"Nail",0.42
"Niagara",0.83
"Nullegai",0.45
"Nursery",NA
"O'Bil Bil",NA
"Oombabeer",0.56
"Oscar",0.89
"P1",NA
"P2",0.21
"Pakington",0.41
"Palouse",0.47
"Pearlinga",0.4
"Pegunny",0.59
"Pegunny (CCL)",0.47
"Pentland",0.08
"Petrona",NA
"Picardy",0.94
"Picardy Surface Seal Phase",0.77
"Police Camp",NA
"Powerhouse",0.52
"Powlathanga",0.62
"R1",0.49
"Racetrack",0.49
"Ramillies",0.85
"Rankin",0.77
"Raven",0.01
"Red Flank",0.01
"Retro",0.52
"Retro (BAN)",0.74
"Riverleigh",0.45
"Rolleston",0.68
"Ronnoc",0.73
"Roper",0.6
"Ruby",0.16
"Russell",0.01
"Santo",NA
"Selina",0.01
"Shotover",NA
"Solferino",0.76
"Spier",0.14
"Springwood",0.39
"SSO1",0.34
"Strathmuir",0.48
"Sullivan",0.65
"T1",0.5
"T3",0.28
"T4",0.33
"Tanby",0.11
"Tarong",0.15
"Tarramba",0.63
"Taurus",0.5
"TbUg-1",1.15
"TbUg-11",0.88
"TbUg-13",0.54
"TbUg-2",0.91
"TbUg-4",0.9
"TbUg-6",0.66
"Te_El_Kabir",0.86
"Teviot",0.73
"Thalberg",0.16
"Threemoon 1",0.74
"Tiny",0.67
"Tognolini",0.66
"Toondoon",NA
"Tralee",0.54
"TsDr-1",0.55
"TsDy-1",0.46
"TsGn-3",0.18
"TsGn-4",0.23
"TsGn-5",0.28
"TsGn-6",0.28
"TsUc-2",0.18
"TsUf-3",0.45
"TsUf-6",0.69
"TsUg-7",0.51
"TsUgg-2",0.59
"Tureen",NA
"U1",0.15
"Ulogie",0.35
"Valetta",0.01
"Vermont",0.85
"Vermont (CCL)",0.75
"Vicenza",0.67
"Voewood",0.48
"Wangabry",0.39
"Warrinilla",0.77
"Weir",0.74
"Well",0.72
"Well, Footslope Variant",0.58
"Wheatlands",0.43
"White",0.12
"Windradene",NA
"Witton",0.2
"Wivenhoe",0.24
"Wooroolin",0.17
"Wyseby",0.59
"X1",0.21
"Yaringa",0.62
"Yarraman",NA
"Yarrol",0.61
