"NAME","VALUE","data_src"
"1ACH1",29,"lab"
"1ADb",37,"lab"
"1ADb-2",38,"lab"
"1ADb-7",33,"lab"
"1ADb-Dd",42,"lab"
"1ADd-3",38,"lab"
"1ADd-4",35,"lab"
"1ADE1",26,"lab"
"1ADE2",11,"lab"
"1AKA1",16,"lab"
"1ARU1",12,"lab"
"1ATE1",10,"lab"
"1AUg-12",60,"lab"
"1AUg-13",49,"lab"
"1AUg-2",65,"lab"
"1AUg-3",74.5,"lab"
"1AUg-4",52,"lab"
"1AVE1",73,"lab"
"1AVE2",59,"lab"
"1AVE4",70,"lab"
"1AVE6",46,"lab"
"1CHa",33,"lab"
"1CHb",15,"lab"
"1Dbb",36,"lab"
"1DEa",42,"lab"
"1Dyd",40,"lab"
"1KTa",10,"lab"
"1SOa",36,"lab"
"1SOb",32,"lab"
"1Ug",47.5,"lab"
"1Uga",49,"lab"
"1Ugd",59.5,"lab"
"1Ugf",47,"lab"
"2ADb-1",40,"lab"
"2AUf-Ug-3",50,"lab"
"2AUg-3",57,"lab"
"2AUg-7",56,"lab"
"2AUg-8m",52,"lab"
"2AUg-9m",49,"lab"
"2AUgg-1m",56,"lab"
"2AUgg-2m",58,"lab"
"2AVE2",68,"lab"
"2Dba",34.5,"lab"
"2Dbb",51,"lab"
"2Dbc",35,"lab"
"2Dbd",44,"lab"
"2Dda",37,"lab"
"2Dda2",28.5,"lab"
"2Ddb",41.5,"lab"
"2Dya",52,"lab"
"2Dyb",47,"lab"
"2Dyc",50.5,"lab"
"2Uga",63,"lab"
"2Ugc",60,"lab"
"2UgcW",60,"lab"
"2Ugd",51,"lab"
"2ugd2",50.5,"lab"
"2Uge",52,"lab"
"2Ugf",69.5,"lab"
"2Ugg",66,"lab"
"2Ugh",56,"lab"
"2Ugk",56.5,"lab"
"2VEa",37,"lab"
"2VEb",64,"lab"
"2VEe",77,"lab"
"2VEx",65,"lab"
"2VEy",83,"lab"
"3ASO2",29,"lab"
"3AUf-Ug-2m",48,"lab"
"3AUf-Ug-3d",56,"lab"
"3AUf-Ug-6m",51,"lab"
"3AUg-2",62,"lab"
"3CHx",37,"lab"
"3SOb",36,"lab"
"3Uge",67,"lab"
"3VEa",64,"lab"
"3VEb",44,"lab"
"3VEc",56,"lab"
"3VEw",57,"lab"
"3VEy",51,"lab"
"3VEz",37.5,"lab"
"4AUf",45,"lab"
"4Dyb",27,"lab"
"4Dyd",25,"lab"
"4Dyj",37,"lab"
"4Gnb",31,"lab"
"4Ucc",7,"lab"
"5Dra",30.5,"lab"
"5Dya",56,"lab"
"5Dyc",37,"lab"
"5Dye",33,"lab"
"5Uga",19,"lab"
"5Ugb",27,"lab"
"5Ugc  Depression",29,"lab"
"6ADb-1",33,"lab"
"6ADb-4",34,"lab"
"6ADy-3",29,"lab"
"6AUg-10",54.5,"lab"
"6AUg-12",57,"lab"
"6AUg-3",59,"lab"
"6AUg-4",67,"lab"
"6AUg-5",58,"lab"
"6AUg-6",55,"lab"
"6AUg-8",58,"lab"
"6AUg-9",56,"lab"
"6Db",23,"lab"
"6Dba",37,"lab"
"6Dbb",39.5,"lab"
"6Dbc",18,"lab"
"6Dbd",16,"lab"
"6Dbe",21,"lab"
"6Dbf",30,"lab"
"6Dbg",22,"lab"
"6Dbh",37,"lab"
"6Dda",37,"lab"
"6Dra",43,"lab"
"6Drb",45,"lab"
"6Drc",43.5,"lab"
"6Dya",8,"lab"
"6Dyb",33,"lab"
"6Dyc",48,"lab"
"6Dyd",46,"lab"
"6Dye",40,"lab"
"6Dyf",49.5,"lab"
"6Dyf2",31,"lab"
"6Dyg",41.5,"lab"
"6Dyj",35,"lab"
"6Gn",18,"lab"
"6Gnb",16,"lab"
"6Gnc",44,"lab"
"6Gnd",7,"lab"
"6Ucc",8,"lab"
"6Uma",16,"lab"
"6Umb",26,"lab"
"Abercorn",48.5,"lab"
"Abergowrie",35.5,"lab"
"Abergowrie Sandy Phase",14,"lab"
"Albert",40.5,"lab"
"Aldershot",23.5,"lab"
"Allandale",41,"lab"
"Allandale, Strongly Sodic Variant",36,"lab"
"Alloway",33,"lab"
"Alma",33,"lab"
"Althaus",20,"lab"
"Amity",65,"lab"
"Andergrove",4,"lab"
"Andergrove Water Table Variant",1,"lab"
"Anyarro",15,"lab"
"Apron",38,"lab"
"Archookoora",70,"lab"
"Arnot",10.5,"lab"
"Aroa",68.5,"lab"
"Arriga",59,"lab"
"Ashgrove",50,"lab"
"Ashton",18.5,"lab"
"Auburn",33,"lab"
"Avondale",49,"lab"
"Awoonga",40,"lab"
"Babinda",26,"lab"
"Baddow",12,"lab"
"Balberra",39,"lab"
"Bally",72,"lab"
"Banana",64,"lab"
"Banban",41.5,"lab"
"Banyan",16,"lab"
"Barron",73,"lab"
"Bauhinia",52.5,"lab"
"Bauple",42,"lab"
"Bell",48,"lab"
"Belmunda",18,"lab"
"Belvedere",68,"lab"
"Benholme",38,"lab"
"Berris",48,"lab"
"Bicton",25,"lab"
"Bidwill",75,"lab"
"Bilboolan",46,"lab"
"Bingera",42,"lab"
"Blackburn",70,"lab"
"Blair",54,"lab"
"Bluewater",19,"lab"
"Bonavista",36,"lab"
"Bonnie Crofts",51,"lab"
"Bonwell",42,"lab"
"Boonenne",21,"lab"
"Booyal",30.5,"lab"
"Bovekel",68,"lab"
"Boyanda",9,"lab"
"Boyne",47,"lab"
"Brae",54,"lab"
"Brightley",55,"lab"
"Brooyar",62,"lab"
"Brosnan",22,"lab"
"Bubbler",42,"lab"
"BUca",10,"lab"
"Bucca",67,"lab"
"BUfa",34,"lab"
"BUfb",17,"lab"
"BUfc",26,"lab"
"BUfe",22,"lab"
"Buffel",20,"lab"
"BUg-10",49,"lab"
"BUg-2",42,"lab"
"BUg-4",83,"lab"
"BUg-6",73,"lab"
"BUga",54,"lab"
"Bulgun",49,"lab"
"Bulguru",18,"lab"
"Bullhead",59.5,"lab"
"BUma",1,"lab"
"BUmb",13,"lab"
"Bungadoo",85,"lab"
"Burdekin",14,"lab"
"Burdekin Buried Soils Or D Horizons Vary",14,"lab"
"Burnett",8.5,"lab"
"Burnett Coarse Sandy Variant",47,"lab"
"Burradoo",44,"lab"
"Burrum",1.5,"lab"
"Bushnell",58,"lab"
"Butcher",38.5,"lab"
"BVE1",80,"lab"
"Byabra",32,"lab"
"Byee",69,"lab"
"Cabbage Tree",33,"lab"
"Calen",44,"lab"
"Callide",30.5,"lab"
"Cameron",14,"lab"
"Canoe",9,"lab"
"Carew",44.5,"lab"
"Carfax",56,"lab"
"Carmila",24.5,"lab"
"Castleview",26,"lab"
"Catherina",50,"lab"
"Cattle",64,"lab"
"CDba",10,"lab"
"Ceratodus",28.5,"lab"
"Chelmsford",79,"lab"
"Cherry Tree",35.5,"lab"
"Chessborough",37,"lab"
"Childers",68.5,"lab"
"Clayton",35,"lab"
"Clifton",18,"lab"
"Cliftonville",32,"lab"
"Cole",48,"lab"
"Condor",27,"lab"
"Conjuboy",52,"lab"
"Conway (Cqh)",57,"lab"
"Coolabunia",72,"lab"
"Coom",47.5,"lab"
"Coonoon",60.5,"lab"
"Copenhagen",23,"lab"
"Corduroy",27,"lab"
"Creek",29,"lab"
"CUca",8,"lab"
"Cudmore",16.5,"lab"
"CUfb",27,"lab"
"Curlewis",3,"lab"
"Cushnie",27,"lab"
"CVE1",69,"lab"
"CVE3",31,"lab"
"CVE4",57,"lab"
"CVE5",49,"lab"
"Dagun",76,"lab"
"Dalgangal",62,"lab"
"Dalrymple",32,"lab"
"Derra",48.5,"lab"
"Derra (CWL)",36,"lab"
"Diamond (Kcm)",74,"lab"
"Diamond (Kcm), Footslope Variant",80,"lab"
"Dickson",69,"lab"
"Dingo (Pss)",10,"lab"
"Dixie",1,"lab"
"Don",35,"lab"
"Doolbi",64,"lab"
"Doonside",59,"lab"
"Dove",66,"lab"
"Drysdale",66,"lab"
"Dudgeon",38,"lab"
"Dundula",42,"lab"
"Dunstan",70,"lab"
"Dunwold",28.5,"lab"
"Durong",58,"lab"
"Earlsfield",56,"lab"
"Eastgate",54.5,"lab"
"Edgecumbe",20,"lab"
"Edmonton",35,"lab"
"Eerwah",16,"lab"
"Egera",50,"lab"
"Eleanor",67,"lab"
"Eleanor, Mottled Phase",61,"lab"
"Elizabeth",53,"lab"
"Elliot",12,"lab"
"Ellis",39,"lab"
"Emerald",50,"lab"
"Endeavour",61,"lab"
"Eton",34,"lab"
"Etowrie",53,"lab"
"Eubenangee",54.5,"lab"
"Eversleigh",46,"lab"
"Fairdale",32,"lab"
"Fairview",59,"lab"
"Fairydale",23,"lab"
"Fairymead",37,"lab"
"Falkner",74,"lab"
"Fanning River",17.5,"lab"
"Farleigh",20,"lab"
"Farnsfield",44.5,"lab"
"Farnsfield Sandy Variant",8,"lab"
"Feluga",34,"lab"
"Finch Hatton",33,"lab"
"Finley",44,"lab"
"Fison",37,"lab"
"Flagstone",33,"lab"
"Fletcher",30,"lab"
"Fowler",64,"lab"
"Foxleigh",27,"lab"
"Freddy",25,"lab"
"Galmara",20.5,"lab"
"Gander",52,"lab"
"Gargett",32,"lab"
"Garradunga",64.5,"lab"
"Garrett",52,"lab"
"Gibson - Bab",57,"lab"
"Gigoon",35,"lab"
"Gillinbin",35,"lab"
"Givelda",40,"lab"
"Glenella",32,"lab"
"Glenroc",18,"lab"
"Gooburrum",35,"lab"
"Goodbye",28,"lab"
"Goodger",46,"lab"
"Goorganga",49,"lab"
"Goovigen",56.5,"lab"
"Gordonbrook",48,"lab"
"Graham",60,"lab"
"Granville",62,"lab"
"Grevillea",56,"lab"
"Greycliffe",53,"lab"
"Greycliffe Melonhole Phase",61,"lab"
"Gueena",74.5,"lab"
"Habana",36,"lab"
"Haden",50,"lab"
"Haly",50,"lab"
"Hamleigh",56.5,"lab"
"Hannan",18,"lab"
"Harwood",41,"lab"
"Hector (PCS)",40.5,"lab"
"Herbert",31,"lab"
"Hewitt",47,"lab"
"Hillgrove",56,"lab"
"Hillsborough",35,"lab"
"Hillview",36,"lab"
"Hind",70.5,"lab"
"Hodge (BAN)",15,"lab"
"Holding",61.5,"lab"
"Hopevale",35,"lab"
"Ilbilbie",15,"lab"
"Ingham",17,"lab"
"Inlet",46,"lab"
"Innisfail",32,"lab"
"Innot",41,"lab"
"Inverdon",8,"lab"
"Iona",76,"lab"
"Isis",18,"lab"
"Jambin",64,"lab"
"Jaro",60,"lab"
"Jarra",29,"lab"
"Jumper",26,"lab"
"Jumpo",50,"lab"
"Kaban",69,"lab"
"Kaber",79,"lab"
"Kailla",21,"lab"
"Kairi",53,"lab"
"Kalah",27,"lab"
"Karloo",40,"lab"
"Kawl Kawl",62,"lab"
"Kaygaroo",2,"lab"
"Kelona A Horizon Variant",41,"lab"
"Kelona Buried Soils Or D Horizons Vary",34,"lab"
"Kenmar",52.5,"lab"
"Kepnock",51.5,"lab"
"Kiama",7,"lab"
"Kilburnie",59.5,"lab"
"Kinchant",29.5,"lab"
"Kinchant, Coarse Sandy Variant",26,"lab"
"Kinkuna",1,"lab"
"Kirrama",23,"lab"
"Koberinga Mottled Phase (3uga9)",57,"lab"
"Koberinga Pebbly Phase (3uga8)",46,"lab"
"Koberinga Pebbly Phase (3uge8)",50,"lab"
"Kokutungo",45,"lab"
"Kolan",46,"lab"
"Kolan Red Variant",47,"lab"
"Kooingal",82,"lab"
"Koolachu",26,"lab"
"Kooringa",12,"lab"
"Koumala",37,"lab"
"Kumbia",55,"lab"
"Kungurri",51,"lab"
"Kurrimine",9,"lab"
"Kuttabul",38,"lab"
"Kuttabul, Alluvial-Colluvial Variant",33,"lab"
"Lacon",66,"lab"
"Langley-Wdh",69,"lab"
"Lannercost",31,"lab"
"Lascelles",49,"lab"
"Laura",69.5,"lab"
"Leach",56,"lab"
"Leadingham",57,"lab"
"Lee",10,"lab"
"Lillypool",55,"lab"
"Lily",56,"lab"
"Lindsay",66,"lab"
"Lingilor",46,"lab"
"Littabella",12,"lab"
"Liverpool",15,"lab"
"Lizard",68,"lab"
"Logcamp",23,"lab"
"Lucy",7,"lab"
"Lugger",8,"lab"
"Maalan",54,"lab"
"Macknade",10,"lab"
"Maclean (Lak)",62,"lab"
"Mahogany",24,"lab"
"Maiden",24,"lab"
"Manar",70,"lab"
"Mandam",20,"lab"
"Manoa Red Variant",47,"lab"
"Manor",48.5,"lab"
"Maraconda",73,"lab"
"Maria",28.5,"lab"
"Marian",31.5,"lab"
"Marlow",25,"lab"
"Marshlands",71,"lab"
"Martyr",54,"lab"
"Marwood",5,"lab"
"Mary",28,"lab"
"Mary Dark Variant",39,"lab"
"Maryvale",50.5,"lab"
"May",49,"lab"
"Meadowvale",36,"lab"
"Meilland",12,"lab"
"Melton",39,"lab"
"Memerambi",64,"lab"
"Mentmore",11,"lab"
"Midden",48,"lab"
"Midway",43,"lab"
"Millstream",64,"lab"
"Mirani",22.5,"lab"
"Mirriwinni",34,"lab"
"Miskin",12,"lab"
"Mission",31,"lab"
"Miva",52,"lab"
"Molonga",21.5,"lab"
"Mondure",67.5,"lab"
"Monkland",74,"lab"
"Moore Park",12,"lab"
"Moramana",65,"lab"
"Moramana, Gilgai Phase",69,"lab"
"Morecambe",46,"lab"
"Morganbury",48.5,"lab"
"Mossman",57,"lab"
"Muldoon",46,"lab"
"Mulei",35,"lab"
"Mullaburra",45,"lab"
"Mulligan",52,"lab"
"Mulligan Gravelly Phase",42,"lab"
"Munbura",35,"lab"
"Mundoo",47,"lab"
"Mungar",42,"lab"
"Murphy",41,"lab"
"Murray",27,"lab"
"Myrtle",64,"lab"
"Nabilla",51,"lab"
"Nail",45,"lab"
"Narcotic",30,"lab"
"Narpi",38,"lab"
"Needep",1,"lab"
"Nessvale",28.5,"lab"
"Netherdale",13,"lab"
"Niagara",69,"lab"
"Nicotine",4,"lab"
"Nicotine Yellow",4,"lab"
"Nilotica",30,"lab"
"Nind",21.5,"lab"
"Normanby",50,"lab"
"Nullinga",39,"lab"
"Oakwood",42,"lab"
"Oombabeer",48,"lab"
"Orient",23,"lab"
"Ossa",39,"lab"
"Otoo",65,"lab"
"Owanyilla",37,"lab"
"Pakington",58,"lab"
"Palm",2,"lab"
"Palouse",53,"lab"
"Pearlinga",49,"lab"
"Peep",28,"lab"
"Pelion",71,"lab"
"Penman",49,"lab"
"Pennsfield",22,"lab"
"Pentland",53,"lab"
"Picardy",58,"lab"
"Picardy Surface Seal Phase",56,"lab"
"Pin Gin",68,"lab"
"Pindi",57,"lab"
"Pinnacle - Cq",74,"lab"
"Pioneer",33.5,"lab"
"Pioneer, Red B Horizon Variant",38.5,"lab"
"Pope",66,"lab"
"Poplar",73,"lab"
"Porter",38,"lab"
"Powerhouse",40,"lab"
"Powlathanga",51,"lab"
"Prendergast",36,"lab"
"Price",16,"lab"
"Pring",64,"lab"
"Prior",19,"lab"
"Proserpine",11,"lab"
"Quart",30,"lab"
"Racetrack",30.5,"lab"
"Ram",55.5,"lab"
"Ramleh",39.5,"lab"
"Rankin",59,"lab"
"Raven",6,"lab"
"RDya",42,"lab"
"Red Flank",13,"lab"
"Retro",55,"lab"
"Retro (BAN)",42,"lab"
"Ripple",38,"lab"
"Riverleigh",34,"lab"
"Robur",27.5,"lab"
"Rolleston",52,"lab"
"Ronnoc",61,"lab"
"Roper",30.5,"lab"
"Royston",39,"lab"
"Ruby",31,"lab"
"Rubyanna",62,"lab"
"Rudd",53,"lab"
"Rugb",33,"lab"
"RUgc",21,"lab"
"RUgd",32,"lab"
"Rungoo",34,"lab"
"Russell",13,"lab"
"Saddle",55,"lab"
"Sandalwood",34,"lab"
"Sandiford",38.5,"lab"
"Sandiford (Silty Topsoil Variant)",42,"lab"
"Seaforth",32,"lab"
"Seaview",50,"lab"
"Septimus",8,"lab"
"Silent Grove",48,"lab"
"Silkwood",25,"lab"
"Slater",33,"lab"
"Solferino",74,"lab"
"Spanos",10,"lab"
"Spier",43,"lab"
"Springs",25,"lab"
"SSO1",44.5,"lab"
"St Helens",32.5,"lab"
"Sugarbag",43,"lab"
"Sunnyside",47,"lab"
"Sunter",24,"lab"
"Tailing",32,"lab"
"Tanby",61,"lab"
"Tandora",46,"lab"
"Tannalo",19,"lab"
"Tarong",66,"lab"
"Tarramba",66,"lab"
"Tawalla",9,"lab"
"TbUg-1",63.5,"lab"
"TbUg-11",74,"lab"
"TbUg-13",68,"lab"
"TbUg-2",68,"lab"
"TbUg-4",71.5,"lab"
"TbUg-6",79,"lab"
"Te_El_Kabir",48,"lab"
"Tedlands",25,"lab"
"Telegraph",66,"lab"
"Tenmile",38,"lab"
"Thalberg",58,"lab"
"Thompson",21,"lab"
"Thompson - Mrc",43,"lab"
"Thorpe",13.5,"lab"
"Tiaro",46,"lab"
"Timara",50,"lab"
"Timbrell",50,"lab"
"Tiny",55.5,"lab"
"Tirrabella",39,"lab"
"Tirroan",33,"lab"
"Tirroan Non-Sodic Variant",61,"lab"
"Tognolini",45,"lab"
"Tolga",77,"lab"
"Toobanna",32,"lab"
"Tralee",47.5,"lab"
"Tranters",34,"lab"
"Trebonne",21,"lab"
"TsDr-1",31,"lab"
"TsDy-1",28,"lab"
"TsGn-3",23,"lab"
"TsGn-4",26,"lab"
"TsGn-5",35.5,"lab"
"TsGn-6",41,"lab"
"TsUc-2",19,"lab"
"TsUf-3",33,"lab"
"TsUf-6",40,"lab"
"TsUg-7",43,"lab"
"TsUgg-2",53,"lab"
"Tully",20.5,"lab"
"Turnor",25,"lab"
"Turpad",7,"lab"
"Turpin",27,"lab"
"Tyson",21.5,"lab"
"Ulogie",31.5,"lab"
"Umala - Tab",71,"lab"
"Up River",14,"lab"
"Urannah",6,"lab"
"Uruba",11,"lab"
"Uruba Alluvial-Colluvial Variant",38.5,"lab"
"Utchee",38.5,"lab"
"Valetta",12,"lab"
"Vicenza",63.5,"lab"
"Victoria Plains",59,"lab"
"Virgil",22,"lab"
"Voewood",33,"lab"
"Wagoora",48,"lab"
"Wagoora, Basic Parent Material Variant",33,"lab"
"Walkamin",63.5,"lab"
"Walker - Mhb",31,"lab"
"Walla",53.5,"lab"
"Walsch",28,"lab"
"Walsh",44.5,"lab"
"Wandarra",25,"lab"
"Watalgan",70,"lab"
"Watalgan Mottled Variant",62.5,"lab"
"Weir",52,"lab"
"Weithew",34,"lab"
"Well",75.5,"lab"
"Well, Footslope Variant",61,"lab"
"Wheatlands",51,"lab"
"Whiptail",28,"lab"
"White",61,"lab"
"Windermere",62,"lab"
"Winfield",1,"lab"
"Witton",81,"lab"
"Wivenhoe",51,"lab"
"Woco",65,"lab"
"Wollingford",37,"lab"
"Woober",35.5,"lab"
"Woodleigh",72,"lab"
"Woolmer",55,"lab"
"Woongarra",70,"lab"
"Woonton",28,"lab"
"Wooroolin",48,"lab"
"Wygong",46.5,"lab"
"Yandaran",1,"lab"
"Yaringa",57,"lab"
"Yarrol",50.5,"lab"
"Yuruga",30,"lab"
"1ACH2",28,"texture LUT"
"1ADb-1",45,"texture LUT"
"1ADb-9",28,"texture LUT"
"1ADd-5",45,"texture LUT"
"1ASO1",35,"texture LUT"
"1AUf-7",51,"texture LUT"
"1AUg-18",51,"texture LUT"
"1AUg-5",51,"texture LUT"
"1AUg-6",57,"texture LUT"
"1AVE5",45,"texture LUT"
"1Dyc",51,"texture LUT"
"1SOx",51,"texture LUT"
"1Ugc",51,"texture LUT"
"2ADy",35,"texture LUT"
"2AUf-Ug-2",56,"texture LUT"
"2AUg-1",56,"texture LUT"
"2AUg-10m",57,"texture LUT"
"2AUg-11",50,"texture LUT"
"2AUg-16",57,"texture LUT"
"2AUg-2m",51,"texture LUT"
"2AUgg-3m",51,"texture LUT"
"2AUgg-4m",57,"texture LUT"
"2Dbe",51,"texture LUT"
"2Ddc",51,"texture LUT"
"2Ddd",28,"texture LUT"
"2UggW",51,"texture LUT"
"2Ugj",45,"texture LUT"
"3AGn-1",45,"texture LUT"
"3auf-Ug-4m",42,"texture LUT"
"3AUf-Ug-7m",51,"texture LUT"
"3AUf-Ug-8d",57,"texture LUT"
"3AUf-Ug-8m",57,"texture LUT"
"3Uga",56,"texture LUT"
"3Ugc",56,"texture LUT"
"3Ugd",57,"texture LUT"
"3Ugk",51,"texture LUT"
"4Dga",29,"texture LUT"
"4Dyg",45,"texture LUT"
"4Dyk",18,"texture LUT"
"5Dyb",45,"texture LUT"
"6ADy-2",51,"texture LUT"
"6AUf-3",51,"texture LUT"
"6AUg-7",56,"texture LUT"
"6Dbi",42,"texture LUT"
"6Dyh",45,"texture LUT"
"6Gna",42,"texture LUT"
"6Gne",42,"texture LUT"
"6Uca",5,"texture LUT"
"6Ufa",45,"texture LUT"
"6Ufc",42,"texture LUT"
"6Ufd",42,"texture LUT"
"6Ufe",28,"texture LUT"
"6Uga",46,"texture LUT"
"Abbot",57,"texture LUT"
"Appaloosa",54,"texture LUT"
"Archookoora Rocky Phase",42,"texture LUT"
"Archookoora Saline Phase",45,"texture LUT"
"Arriga Sandy",28,"texture LUT"
"Auburn Red Variant",45,"texture LUT"
"Aunt",7,"texture LUT"
"Avon",46,"texture LUT"
"Avondale Yellow Variant",51,"texture LUT"
"Barubbra",4,"texture LUT"
"Beelbi",4,"texture LUT"
"Beenham",28,"texture LUT"
"Beeron",56,"texture LUT"
"Black",22,"texture LUT"
"Booloongie",4,"texture LUT"
"Boston",22,"texture LUT"
"Botherm",42,"texture LUT"
"Buchan",16,"texture LUT"
"Buckley",18,"texture LUT"
"BUg-11",57,"texture LUT"
"BUg-17",56,"texture LUT"
"BUg-20",57,"texture LUT"
"BUg-5",57,"texture LUT"
"BUg-7",56,"texture LUT"
"BUgg-1m",57,"texture LUT"
"BUgg-2",57,"texture LUT"
"Calavos",29,"texture LUT"
"Campbell Plains",50,"texture LUT"
"Cape",42,"texture LUT"
"Carbeen",36,"texture LUT"
"Carinya",18,"texture LUT"
"Carrington",18,"texture LUT"
"Cassidy",4,"texture LUT"
"Cherbourg",29,"texture LUT"
"Chin",29,"texture LUT"
"Clemant",18,"texture LUT"
"Cobra",28,"texture LUT"
"Cobra Gravelly Phase",28,"texture LUT"
"Cobra Shallow",28,"texture LUT"
"Colvin",4,"texture LUT"
"Conway",48,"texture LUT"
"Cooyar",51,"texture LUT"
"Corfield",45,"texture LUT"
"Cottonham",42,"texture LUT"
"Crawford",42,"texture LUT"
"Crossing",28,"texture LUT"
"Daintree",4,"texture LUT"
"Dangore",29,"texture LUT"
"Daradgee",51,"texture LUT"
"Dawes",42,"texture LUT"
"Dayman",29,"texture LUT"
"Derrick Steep And Broken Phase",42,"texture LUT"
"Dingo",51,"texture LUT"
"Drinan",42,"texture LUT"
"Dryander",49,"texture LUT"
"Dwyer",45,"texture LUT"
"Elliot Fine Phase",18,"texture LUT"
"Emerald Coarse Sandy Phase",16,"texture LUT"
"Etowrie (Neutral Variant)",51,"texture LUT"
"Etowrie, Neutral Duplex Variant",51,"texture LUT"
"Finch Hatton (Alluvial - Colluvial Variant)",51,"texture LUT"
"Finch Hatton, Alluvial-Colluvial Variant",51,"texture LUT"
"Foxdale",51,"texture LUT"
"Fumar",19,"texture LUT"
"Gahan",8,"texture LUT"
"Gargett, Deep A Horizon Variant",12,"texture LUT"
"Gillen",29,"texture LUT"
"Glenrock",16,"texture LUT"
"Googarra",4,"texture LUT"
"Goolboo",7,"texture LUT"
"Gowrie - Tab",29,"texture LUT"
"Granite",9,"texture LUT"
"Gumlu",36,"texture LUT"
"Gutchy",51,"texture LUT"
"Gwynne",45,"texture LUT"
"Harris",51,"texture LUT"
"Hawkins",4,"texture LUT"
"Hawkwood",51,"texture LUT"
"Hervey",32,"texture LUT"
"Hillsdale",45,"texture LUT"
"Hillview (Zed)",22,"texture LUT"
"Hinkler",51,"texture LUT"
"Holloway",28,"texture LUT"
"Howes",42,"texture LUT"
"Hull",4,"texture LUT"
"Hunter",51,"texture LUT"
"Huxley",51,"texture LUT"
"Japoon",5,"texture LUT"
"Kaber Red Variant",51,"texture LUT"
"Kenlogan",56,"texture LUT"
"Kimberley",29,"texture LUT"
"Kingjack",51,"texture LUT"
"Kowbi",57,"texture LUT"
"Kumbia Rocky Phase",56,"texture LUT"
"Kunioon",42,"texture LUT"
"Kunipipi",45,"texture LUT"
"Leitrim",33,"texture LUT"
"Louisa",51,"texture LUT"
"Malbon",28,"texture LUT"
"Mareeba 1",28,"texture LUT"
"Marian, Yellow B Horizon Variant",51,"texture LUT"
"Midden, Melonhole Phase",56,"texture LUT"
"Midgenoo",42,"texture LUT"
"Moffat",51,"texture LUT"
"Moorland",51,"texture LUT"
"Moosie",45,"texture LUT"
"Newell",51,"texture LUT"
"Ninemile",57,"texture LUT"
"Nullinga Shallow Phase",18,"texture LUT"
"Nursery",29,"texture LUT"
"Perry",42,"texture LUT"
"Peterson",51,"texture LUT"
"Pluto",51,"texture LUT"
"Police Camp",45,"texture LUT"
"Ponzo",57,"texture LUT"
"Proston",29,"texture LUT"
"Quincan",42,"texture LUT"
"Qunaba",28,"texture LUT"
"Ray",42,"texture LUT"
"Redbank",19,"texture LUT"
"Rothchild",8,"texture LUT"
"Roundback Level Phase",51,"texture LUT"
"Russell, Gilgai Phase",51,"texture LUT"
"Sachs",56,"texture LUT"
"Sadie",51,"texture LUT"
"Seaforth, Dark B Horizon Variant",51,"texture LUT"
"Seaforth, Yellow B Horizon Variant",56,"texture LUT"
"Silkwood Brown A Horizon Variant",14,"texture LUT"
"Sugarmill",39,"texture LUT"
"Summerville",28,"texture LUT"
"Sylvia",42,"texture LUT"
"Taabinga",29,"texture LUT"
"Tabletop",57,"texture LUT"
"Tantitha",8,"texture LUT"
"Tara",51,"texture LUT"
"TbUg-10",51,"texture LUT"
"TbUg-5",57,"texture LUT"
"TbUg-8",57,"texture LUT"
"TbUg-9",57,"texture LUT"
"Teddington",42,"texture LUT"
"Terrace",28,"texture LUT"
"Theodolite",4,"texture LUT"
"Theodolite Saline Phase",4,"texture LUT"
"Tinana",22,"texture LUT"
"Tinkle",8,"texture LUT"
"Todds",51,"texture LUT"
"Tolga Rocky Phase",42,"texture LUT"
"Toondoon",56,"texture LUT"
"Trebonne Sandy Phase",12,"texture LUT"
"Tregear",57,"texture LUT"
"TsDy-6",35,"texture LUT"
"TsUg-2",56,"texture LUT"
"TsUgg-1",56,"texture LUT"
"Tureen",45,"texture LUT"
"Uruba, Alluvial-Colluvial Variant",51,"texture LUT"
"Walkamin Grey Variant",42,"texture LUT"
"Walkamin Rocky Phase",42,"texture LUT"
"Walsh Coarse Sandy Phase",16,"texture LUT"
"Warrami",28,"texture LUT"
"Washpool",51,"texture LUT"
"Wathana Heavier-Textured Var",56,"texture LUT"
"Weatherby",51,"texture LUT"
"Well, Sandy Surface Variant",57,"texture LUT"
"Whitfield",28,"texture LUT"
"Whymere",28,"texture LUT"
"Wollingford, Intrusive Parent Material Variant",51,"texture LUT"
"Wollingford, Yellow B Horizon Variant",51,"texture LUT"
"Wondai",51,"texture LUT"
"Wongabel",19,"texture LUT"
"Woodridge",42,"texture LUT"
"Yileena",18,"texture LUT"
"1AVE3",28,"texture LUT"
"1Dda3",51,"texture LUT"
"1Uga1",56,"texture LUT"
"2Dba5",51,"texture LUT"
"2Dbb2",45,"texture LUT"
"2Ddb2",45,"texture LUT"
"2Dya2",22,"texture LUT"
"2Dya3",51,"texture LUT"
"2Dyb2",45,"texture LUT"
"2Dyc2",51,"texture LUT"
"2Dyc3",51,"texture LUT"
"2Ugb",51,"texture LUT"
"2Ugd1",51,"texture LUT"
"2Ugd5",51,"texture LUT"
"2UgdW",51,"texture LUT"
"2Uge2",51,"texture LUT"
"2Uge7",51,"texture LUT"
"2UgeS",32,"texture LUT"
"2UgfE",56,"texture LUT"
"2UgfW",56,"texture LUT"
"2Ugg5",51,"texture LUT"
"2Ugk2",56,"texture LUT"
"3ASO1",45,"texture LUT"
"3AVE2",46,"texture LUT"
"4Dyd3",51,"texture LUT"
"5Dra3",51,"texture LUT"
"5SOy",45,"texture LUT"
"5UgaS",54,"texture LUT"
"5VEy",48,"texture LUT"
"6Dbb2",44,"texture LUT"
"6Dbc2",18,"texture LUT"
"6Dbe2",42,"texture LUT"
"6Dbh2",44,"texture LUT"
"6Dy",51,"texture LUT"
"6Dya5",14,"texture LUT"
"6Dyc2",51,"texture LUT"
"6Dyd2",44,"texture LUT"
"6Dyd7",48,"texture LUT"
"6Dye3",51,"texture LUT"
"6Dyf3",51,"texture LUT"
"6Dyg4",18,"texture LUT"
"6UfdA",45,"texture LUT"
"6Uma2",22,"texture LUT"
"6UmbC",40,"texture LUT"
"Alice",35,"texture LUT"
"Alluvial Complex - Lower, Cracking Clays",56,"texture LUT"
"Althaus (Zed)",45,"texture LUT"
"Andergrove (Alkaline Variant)",8,"texture LUT"
"Andromache",17,"texture LUT"
"Archookoora Nodular Phase",49,"texture LUT"
"Arnolds",35,"texture LUT"
"Arnot Dark Phase",4,"texture LUT"
"Balark",56,"texture LUT"
"Bambave A Horizon Variant",48,"texture LUT"
"Barrack",45,"texture LUT"
"Barrunga With Erosion (1ugae)",51,"texture LUT"
"BDba",22,"texture LUT"
"Beecher",42,"texture LUT"
"Bently",57,"texture LUT"
"BGna",42,"texture LUT"
"BGnb",8,"texture LUT"
"BGnb2",51,"texture LUT"
"BGnc",16,"texture LUT"
"Blackburn Shallow Phase",44,"texture LUT"
"Bluewater (Zed)",42,"texture LUT"
"Bluff",36,"texture LUT"
"Booie",8,"texture LUT"
"Boongary",51,"texture LUT"
"Boyles",56,"texture LUT"
"Boynewood",51,"texture LUT"
"Breen",45,"texture LUT"
"Brooweena",51,"texture LUT"
"BUcb",8,"texture LUT"
"Bucca Red Variant",42,"texture LUT"
"BUfd",8,"texture LUT"
"Bullhead Shallow Phase",45,"texture LUT"
"BUmb2",24,"texture LUT"
"BUmd",22,"texture LUT"
"Burnett Shallow Phase",18,"texture LUT"
"Bushnell Eroded Phase",56,"texture LUT"
"Cameron (Gleyed Subsoil Phase)",29,"texture LUT"
"Carmine",42,"texture LUT"
"CDbb",51,"texture LUT"
"CDra",32,"texture LUT"
"Chessborough Rubbly, Shallow And Rocky Phase",45,"texture LUT"
"Clemant - red subsoil horizons",22,"texture LUT"
"Coorooman",19,"texture LUT"
"Crystalbrook",51,"texture LUT"
"CUfa",22,"texture LUT"
"CUfc",28,"texture LUT"
"CUma",20,"texture LUT"
"CUma2",22,"texture LUT"
"CUmb",22,"texture LUT"
"CVE2",51,"texture LUT"
"Dale",56,"texture LUT"
"Dargy",42,"texture LUT"
"Darts",20,"texture LUT"
"Dillan",51,"texture LUT"
"Dittmer",9,"texture LUT"
"Dotswood",51,"texture LUT"
"Drape",51,"texture LUT"
"Dunbas Deep Phase",48,"texture LUT"
"Farencer Buried Soils Or D Horizons Vary",45,"texture LUT"
"Feluga Red Variant",28,"texture LUT"
"Fletcher - Brcl",45,"texture LUT"
"Fourmile",45,"texture LUT"
"Gainsford",20,"texture LUT"
"Gayfield",10,"texture LUT"
"Gibson Clay Loam Phase",51,"texture LUT"
"Gillian",56,"texture LUT"
"Glen Isla",42,"texture LUT"
"Glenalder Buried Soils Or D Horizons Vary",12,"texture LUT"
"Gooburrum Mottled Variant",42,"texture LUT"
"Goodbye (MAJCK)",32,"texture LUT"
"Gracemere",51,"texture LUT"
"Halivale",32,"texture LUT"
"Highbury",45,"texture LUT"
"Hillview Fine Variant",42,"texture LUT"
"Hodge",50,"texture LUT"
"Hollywell",51,"texture LUT"
"Homestead",33,"texture LUT"
"IDE1",48,"texture LUT"
"Isis Rocky Phase",32,"texture LUT"
"Julian",26,"texture LUT"
"Kabra",48,"texture LUT"
"Keppel",51,"texture LUT"
"Kolbore",32,"texture LUT"
"Koolachu (Saline Variant)",27,"texture LUT"
"Kulburn",57,"texture LUT"
"Lancer Buried Soils Or D Horizons Vary (6drb2)",42,"texture LUT"
"Lascelles (Alkaline Variant)",51,"texture LUT"
"Lily Shallow Phase",45,"texture LUT"
"Limeview",51,"texture LUT"
"Long Peter",56,"texture LUT"
"Lorna",56,"texture LUT"
"Luce",34,"texture LUT"
"Malchi",51,"texture LUT"
"Manton",51,"texture LUT"
"Maroondan",51,"texture LUT"
"Martin",51,"texture LUT"
"Masterton",28,"texture LUT"
"Mceuen",29,"texture LUT"
"MDE1",51,"texture LUT"
"Mingela",51,"texture LUT"
"Miskin Buried Soils Or D Horizons Vary",5,"texture LUT"
"Moosie (MAJCK)",51,"texture LUT"
"MUca",4,"texture LUT"
"MUcb",12,"texture LUT"
"Mulgildie Eroded Phase",42,"texture LUT"
"Murphy Pan Phase",32,"texture LUT"
"Myrtlevale",51,"texture LUT"
"Neugildie",42,"texture LUT"
"Neugildie Colluvial, Clayey Variant",45,"texture LUT"
"Norville",40,"texture LUT"
"Ossa (Cobbly Variant)",45,"texture LUT"
"Otoo Sandy Variant",42,"texture LUT"
"Pallamana",48,"texture LUT"
"Pattel",56,"texture LUT"
"Peep Sandy Variant",32,"texture LUT"
"Pennsfield (Shallow Variant)",45,"texture LUT"
"Preston",51,"texture LUT"
"Purono",45,"texture LUT"
"Rangeside",18,"texture LUT"
"Rangeview",45,"texture LUT"
"Riordanvale",38,"texture LUT"
"Rishton",9,"texture LUT"
"Ross",57,"texture LUT"
"RUfe",45,"texture LUT"
"RUff",51,"texture LUT"
"RUga",51,"texture LUT"
"RUgbS",51,"texture LUT"
"RUgcS",51,"texture LUT"
"Samourgassi",42,"texture LUT"
"Sandy",35,"texture LUT"
"Santo",42,"texture LUT"
"Scrubby (Zed)",42,"texture LUT"
"SDE2",46,"texture LUT"
"Severin - Tab",32,"texture LUT"
"Sister",44,"texture LUT"
"Stanage",54,"texture LUT"
"Stanley",32,"texture LUT"
"Stockyard (Zed)",35,"texture LUT"
"Stockyard loam",48,"texture LUT"
"Stone",32,"texture LUT"
"Strathdickie",46,"texture LUT"
"Sugarmill Acid Variant",45,"texture LUT"
"Sugarmill Gravelly Variant",45,"texture LUT"
"SVE1",54,"texture LUT"
"Taughboyne",45,"texture LUT"
"Teralba",51,"texture LUT"
"Thorpe - Dlr",32,"texture LUT"
"Thorpe Fine Variant",18,"texture LUT"
"Tingoora",51,"texture LUT"
"UDE1",42,"texture LUT"
"Utchee - Dlr",51,"texture LUT"
"Walkamin Sandy Phase",29,"texture LUT"
"Wallum",8,"texture LUT"
"Windradene",51,"texture LUT"
"Yackadoo",45,"texture LUT"
"Yarraman",56,"texture LUT"
"Yarwun",56,"texture LUT"
"Yeppoon",51,"texture LUT"
