"NAME","SPC_MOD_DRAIN"
"Bertha",6
"Leschke",2
"Woodbine",3
"Thornton",3
"Townson",3
"Ryan",5
"Tenthill (L)",NA
"Tenthill (l)",NA
"Blenheim(l)",NA
"Bundalba",3
"Callide",5
"Peacock",5
"Spellman",5
"Clancy",4
"Cottonham",4
"Howes",NA
"Isis",3
"Kalah",2
"Kinkuna",NA
"Kolan",3
"Kolan Red Variant",NA
"Kepnock",NA
"Kepnock Gravelly Variant",4
"Littabella",NA
"Meadowvale",NA
"Mahogany",NA
"Moorland",NA
"Moore Park",NA
"Kent",NA
"B3",2
"Pump",3
"Quarry",6
"C2",3
"Nudley",2
"C1",4
"Arubial",NA
"Bogandilla",NA
"Channing",NA
"Combidiban",NA
"Kupunn",NA
"Lateritic Krasnozem",NA
"Tara",NA
"Chinchilla",NA
"Cutthroat",NA
"Binkey",NA
"Braemar",NA
"Weranga",NA
"L2",6
"1AUg-1",NA
"1AUg-7",4
"1AUf-1",NA
"1AUg-2",NA
"1AUg-8",NA
"1AUg-3",NA
"1AUf-2",NA
"3auf-Ug-4m",NA
"1AUf-3",NA
"C3",3
"1AUg-5",NA
"1AUg-6",NA
"1ADb",4
"1AUc",NA
"1ADb-1",NA
"1ADb-2",NA
"Norbell",NA
"Purrawunda",NA
"Ridge",4
"Southbrook",NA
"Sugarloaf",NA
"Wattle-Glen",NA
"TsUf-7",NA
"TsUg-1",NA
"TsUg-2",NA
"TsUg-3",NA
"TsUg-7",3
"TsUg-8",NA
"TsUg-9",NA
"TsUgg-2",3
"TsUgg-2-d",NA
"TsGn-1",NA
"TsGn-2",5
"TsGn-3",5
"TsGn-4",5
"TsGn-5",3
"TsGn-6",4
"TsGn-8",3
"TsGn-9",NA
"TsGn-11",NA
"TsGn-12",NA
"TsDr-1",NA
"TsDr-3",NA
"TsDb",NA
"TsDy-1",NA
"TsDy-2",NA
"TsDy-3",NA
"TsDy-4",NA
"TsDy-5",NA
"TsDy-6",NA
"Canaga",NA
"Condamine",NA
"Palmer",NA
"Drumberle",3
"Earlsfield",3
"Sutton",5
"Abell",5
"Geisemann",3
"Eugene",3
"Laidley",5
"Fairview",3
"Ferguson",4
"Foster",4
"Hattonvale",NA
"Maroondan",4
"Maroondan Grey Variant",3
"Maroondan Shallow Phase",4
"Norville",3
"Oakwood",5
"Otoo",4
"Pocket",5
"Peep Sandy Variant",NA
"Qunaba",NA
"Quart",4
"Rubyanna",NA
"Rubyanna Sandy Variant",3
"Robur",NA
"Rothchild",NA
"1ADb-3",NA
"C4",4
"1ADd-3",2
"1ADb-Dd",NA
"1ADb-6",NA
"C5",3
"Drome Soil Series",NA
"Rock Soil Series",NA
"Boundary Soil Series",NA
"Oak",3
"Ridge Soil Series",3
"Springburn",3
"Ellangowan",3
"Elphinstone Clay - Linear Gilgai Complex",NA
"Nine",NA
"Waco",NA
"Macalister",NA
"Lagoon",NA
"Binda",NA
"Dulacca",NA
"Pelham",NA
"Straun",NA
"Byrne",NA
"Stockyard",NA
"Rogers",NA
"Marra",NA
"Tiereyboo",NA
"Miles",NA
"Coalbah",NA
"Macdonald",NA
"Auburn - MIL",NA
"Mahen",NA
"Cresley",NA
"Downs",NA
"Tully - LIJ",NA
"Juan",NA
"Thorn",NA
"Bushgrove",NA
"Warrego",NA
"TsDy-7",NA
"School",NA
"Range",NA
"Clayburn",NA
"Logie",NA
"Langlands",NA
"Belahville",NA
"Logyard",NA
"Diamondy",NA
"Rifle",NA
"Golf",NA
"East",NA
"Chinchilla",NA
"Glen",NA
"TsDy-8",4
"Spotted",NA
"Valley",NA
"Sawmill",NA
"Hill",NA
"Boyne - LIJ",NA
"Baking",NA
"TsDy-9",NA
"Kenmuir Stony Clay Loam",NA
"Beauaraba",NA
"TsDy-10",NA
"Charlton",NA
"Irving",NA
"Waco",NA
"Southbrook",NA
"Mallard",NA
"Burton",NA
"TsKa",NA
"TsKb",NA
"BUg-2",NA
"BUgg-3",NA
"TsGn-4",NA
"TsGn-6",4
"TsGn-3",NA
"TsDy-1",NA
"TsDy-4",NA
"TsUg-1",NA
"TsUg-7",3
"TsDb",NA
"TsDy-2",NA
"Pegunny",2
"Retro",3
"Rugb",1
"Alma",5
"Arnot",4
"Banyan",1
"Bulgun",2
"Brosnan",5
"Sugarmill",3
"Sugarmill Acid Variant",3
"Sugarmill Gravelly Variant",3
"Summerville",NA
"Seaview",4
"Telegraph",NA
"Theodolite",NA
"Takoko",6
"Toogum",2
"Turpin",3
"Tirroan",NA
"Tirroan Rocky Phase",NA
"Tantitha",6
"Winfield",2
"Woongarra",NA
"Wilkie",NA
"1ADd-1",NA
"1ADd-2",NA
"1ADr-Db",NA
"R1",4
"Waco Clay Gilgai Complex",NA
"Waco Clay Gilgai Complex (Yellow-Brown Subsoil)",NA
"Waco Clay Gilgai Complex (Weathered Basalt)",NA
"Waverley Clay Gilgai Complex",NA
"Kenmuir Stony Clay Loam",NA
"Majuba Clay",NA
"1AUf-4",NA
"Beauaraba Clay",NA
"1ADd-4",NA
"1AUf-5",NA
"S1",6
"Toowoomba",NA
"Gabbinbar",5
"Middle Ridge",5
"Drayton Clay Loam",NA
"Kynoch",NA
"1ADd-5",NA
"Kenmuir",NA
"Majuba",5
"Mallard",NA
"Southbrook",5
"Burton",NA
"Aubigny",NA
"P1",4
"Beauaraba",NA
"Rolleston",3
"Undabri",3
"Vermont",4
"Logan",3
"Downfall",3
"Pegunny",2
"Teviot",3
"Arcturus",4
"Glenora",4
"Bruce",4
"Retro",3
"Wyseby",3
"Luxor",2
"Broadmedow",2
"May Downs",4
"Taurus",3
"Springwood",3
"Medway",3
"Southernwood",4
"Carraba",4
"Cheshire",4
"Bullaroo",4
"Ingelara",5
"Kinnoul",4
"Dunrobin - CQ",5
"Annandale",5
"Forrester",4
"Gregory",5
"Rugby - CQ",5
"Shotover",6
"Highmount - CQ",6
"Moombra",4
"Bluewater",5
"Quinine Light Phase",3
"Cudmore",3
"Canoe",4
"Coom",3
"Lime View Shallow Phase",NA
"Nosnillor Shallow Phase",NA
"Avondale Rocky Phase",NA
"Feluga",4
"Glenborra",5
"Gooburrum Rocky Phase",NA
"Mary Shallow Variant",NA
"Tiaro Rocky Phase",NA
"Winfield Red Variant",NA
"Watalgan Rocky Phase",5
"Auburn Sandy Variant",NA
"Bungadoo Red Variant",NA
"Yellowbank",4
"Grienke",5
"Japoon",6
"Whiteway",NA
"Donnell",NA
"Buaraba",NA
"Holcomb",NA
"Garden",5
"Redbank - LOC",NA
"Spring",NA
"Balaam",NA
"Goovigen",2
"Crochdantigh",NA
"Merino Downs",NA
"Mitchell Downs",NA
"Bungil",NA
"Studley",NA
"Charlton",NA
"Purrawunda",NA
"Craigmore",NA
"Knapdale",NA
"Ramsay",NA
"Murlaggan",3
"Irongate",2
"Cecilvale",NA
"Yargullen",NA
"S2",6
"1ADb-4",NA
"Anchorfield",NA
"Condamine",NA
"Norillee",NA
"1ADy",NA
"Dalkeith",NA
"2AUf-Ug-1m",NA
"P4",5
"2AUf-Ug-1d",NA
"Croxley",NA
"Gowrie",NA
"Davy - CQ",6
"Clematis",4
"Warrinilla",4
"Moolayember",4
"Consuelo",4
"Keetah",4
"Bengalla",2
"Kalanga",3
"Murra Cul Cul",2
"Yambocully",3
"Oonavale",3
"Jindabyne",3
"Wondoogle",5
"Wai Wai",5
"Marella",4
"Bendidee",2
"Yelarbon",2
"Wondalli",3
"Calingunee",2
"Kurumbul",3
"Yellowbank Light Phase",4
"Yellowbank Nodular Variant",4
"Kirrama",4
"Neara",4
"Neara Shallow Phase",4
"Liverpool",5
"Monsildale",4
"Hibiscus Light Phase",6
"Sandalwood Shallow Phase",NA
"Linville",4
"Sim Jui",3
"Neranleigh",4
"Prior",2
"Riverview",NA
"Woodburn (Depression Profile)",NA
"Pamaroo",NA
"Avalon",NA
"Chinchinbilla",NA
"Spencer",3
"Bungeworgorai",NA
"Brucedale",NA
"Lyndon",NA
"Garrabarra",NA
"Craigowan",NA
"Wilton Clay",NA
"Nelson Clay Loam",3
"2ADy-1",NA
"P2",4
"Rangeville Loam",5
"2AUf-Ug-2",NA
"2AUf-Ug-2m",NA
"2ADd-1",NA
"2AUf-Ug-3",NA
"P3",5
"Davy",NA
"Dunrobin",5
"Highmount",NA
"Rugby",NA
"N2",4
"2AUf-Ug-3d",NA
"2AUf-10",NA
"2AUg-1",NA
"2AUg-12",NA
"2AUg-13",NA
"2AUg-2m",NA
"2AUg-2d",NA
"2AUf-1",NA
"2AUg-3",NA
"N1",4
"2ADb-1",NA
"2AUg-4",NA
"2AUg-5",NA
"2AUg-6g",NA
"2AUg-7",NA
"2AUg-15",NA
"2AUf-2",NA
"2AUf-3",NA
"2ADb-3",NA
"2AUg-8m",NA
"E3",5
"Freestone",NA
"Jingarry",NA
"E2",5
"Mt. Carmel",3
"Moruya",3
"Wynhari",3
"Tandawanna",3
"Arden",3
"Tarewinnabar",3
"Tarewinnabar Shallow",4
"Weengallon",4
"Flinton",5
"Uranilla",2
"Westmar",3
"Flinton Shallow",5
"Karbullah",5
"Alluvial Loams",NA
"Boyle",NA
"Jabiru",NA
"Podargus",NA
"Fassio",NA
"Cetinich",NA
"Koukandowie",3
"Fernvale",3
"Spanos",6
"Thorpe",4
"Timara",2
"Meadowvale Gravelly Variant",4
"Theodolite Saline Phase",2
"Virgil",5
"Whitfield",5
"Warrami",2
"Byee",NA
"Eastgate",NA
"Gueena",NA
"Kaber",NA
"Terrace",NA
"Tregear",3
"Bonhaven",NA
"Muckabay Pebbly Phase",NA
"Avalea",NA
"Kenormac",NA
"Oaklea",NA
"Meadowbank",NA
"Blyth",NA
"Dalmally Linear Gilgai Phase",NA
"Gladevilla Cobbly Phase",NA
"Nindinna",NA
"Tawarra",NA
"Inniscraig",NA
"Yalebone",NA
"Ardentrive",NA
"F1",4
"2AUg-8d",NA
"Pratten",NA
"Rodger",NA
"2auf-D",NA
"2AUf-D",NA
"Cottonvale",NA
"Greymare",NA
"Dalveen",NA
"Mardon",NA
"Allan",NA
"Bonnie Doon",NA
"Drome",NA
"Maxland",3
"Karangi",NA
"2AUg-9m",NA
"Glentanna",4
"2AUg-9d",NA
"2aug-10d",NA
"2AUg-10m",NA
"2AUf-4",NA
"Brown Clays",2
"Brownearths",NA
"Coarse Structured Clays",NA
"Grey Clays",2
"Weir",NA
"Wheatlands",NA
"Alloway",NA
"Avondale",NA
"Berren",NA
"Bungadoo",NA
"Botherm",4
"Booyal",NA
"Burnett",NA
"Brooweena",NA
"Childers",NA
"Corfield",NA
"Megine",NA
"Megine Deep Variant",NA
"Dongarra",5
"Tanleigh",NA
"Grevillea",3
"Greycliffe",3
"Abell (l)",5
"Blenheim (dg)",2
"Blenheim (d)",2
"Blenheim (e)",2
"Blenheim (g)",2
"Blenheim (H)",2
"3009",2
"Hodge (BAN)",5
"Buaraba (Red Subsoil Variant)",NA
"Aberdeen",4
"Acland",4
"Allan",NA
"Allan",3
"Arden",3
"Anchorfield",3
"Aubigny",5
"Banca",4
"Beauaraba",3
"Belahville",4
"Auf-2",NA
"2AUg-11",NA
"2AUg-11a",NA
"2AUf-5",NA
"2AUg-16",NA
"2ADd-2",NA
"2AUgg-1m",NA
"2AUgg-1d",NA
"2AUg-17",NA
"2ADd-3",NA
"2AUgg-2m",NA
"2AUgg-2d",NA
"Binkey",2
"2AUgg-3m",NA
"Burton",5
"Calingunee",3
"Channing",2
"Charlton",3
"2AUgg-3d",NA
"Chinchilla",5
"Clayburn",3
"Combidiban",3
"Humus Podzols",2
"Krasnozems",4
"Lateritic Podzolics",4
"Lithosols",NA
"Gindie",4
"Red Earths",NA
"Struan",4
"Wilpeena",4
"Red Podzolics",5
"Petrona",6
"Sandy Solodics",2
"Chin",NA
"Clayton",NA
"Coonar",NA
"Doolbi",4
"Drinan",3
"Doongul",3
"Dawes",3
"Farnsfield",NA
"Flagstone",NA
"Gooburrum",NA
"Gigoon",NA
"Givelda",NA
"Huxley",3
"Buaraba (y)",NA
"3299",2
"Clarendon (s)",2
"Flagstone (l)",2
"Flagstone (st)",2
"Geisemann (l)",3
"Hattonvale (a)",NA
"Hattonvale (sl)",NA
"Hattonvale (st)",NA
"Helidon (h)",4
"Helidon (st)",4
"Hooper (l)",5
"Laidley (e)",5
"Lawes (hs)",5
"Lawes (h)",5
"Leschke (g)",2
"Leschke (h)",2
"Leschke (sl)",2
"Leschke (wa)",2
"Lockyer (h)",5
"Lockyer (st)",5
"Condamine",3
"2AUgg-4m",NA
"2AUf-6",NA
"Cottonvale",2
"Craigmore",3
"2AUgg-4d",NA
"Cutthroat",2
"2AUf-7",NA
"2ADr",NA
"Davy",5
"2ADd-4",NA
"2ADb-2",NA
"Diamondy",3
"Drome",3
"East",3
"Edgefield",3
"Elphinstone",3
"Flinton",5
"Formartin",5
"2ADy",NA
"Gammie",3
"Gate",3
"Irving",3
"2ADy-Ug",NA
"Kenmuir",5
"Knoll",4
"Kupunn",2
"2ADy-2",NA
"Langlands",NA
"2auf-8",NA
"2AUf-8",NA
"Shallow Clays_Prairie_Southern Intrusives",NA
"Alma (ZDD)",1
"Shallow Clays_Prairie_Mixed Volcanics",NA
"Shallow Hillside Soils",NA
"Soloths",1
"Tea Tree Clays",2
"Yellow Podzolics",2
"Basel",3
"Beer",4
"Isis",NA
"Kowbi",4
"Kalah",NA
"Kolbore",2
"Kinkuna",2
"Kolan",3
"Kepnock",4
"Littabella",4
"Meadowvale",4
"Mahogany",2
"Maroondan",4
"Peep",3
"Quart",4
"Robur",2
"Redbank",5
"Peacock (h)",5
"Redbank (st) - LOC",NA
"Kianga",5
"Robinson (h)",5
"Robinson (st)",5
"Spellman (st)",5
"Stockyard (d)",NA
"Stockyard (h)",NA
"Stockyard (s)",NA
"Kilburnie",NA
"4982",5
"Tenthill (h)",5
"Tenthill (st)",5
"Thornton (h)",3
"Townson (br)",3
"Whiteway (d)",NA
"Mallard",3
"Middle Ridge",5
"2AUg-9-d",NA
"3AUc-1",NA
"Millmerran",3
"Moola",3
"Mywybilla",3
"Nungil",4
"Oakey",3
"Purrawunda",4
"Ruthven",5
"Southbrook",5
"Tara",2
"Toolburra",5
"Tandawanna",2
"Waco",3
"3AUc-2",NA
"3AUf",NA
"3AUg-3",NA
"3AUf-Ug-1d",NA
"Walker",3
"Weranga",2
"Wynhari",2
"Yargullen",3
"3AUf-Ug-2d",NA
"K1",5
"Basel Gilgai Phase",2
"Bsd",4
"Bfd",4
"Bfwd",4
"Beer Rocky Phase",4
"Beppo",4
"Beppo Red Variant",4
"Beppo Black Variant",4
"Basel Bleached",3
"Bfs",5
"Burrundon",4
"Caboonbah",4
"Calabash",NA
"Cooeeimbardi",4
"Theodolite",2
"Takoko",NA
"Bss",5
"Turpin",3
"Tirroan",3
"Winfield",2
"Woodgate",2
"Weithew",3
"Walla",3
"Wallum",2
"Woco",3
"Woolmer",NA
"Watalgan",5
"Aldershot",4
"Woodbine (st)",3
"Kokutungo",3
"Kooingal",4
"Koorngoo",5
"Lancefield",5
"Mapala",4
"Melton",4
"Mungi",3
"Muruguran",2
"Neimen",3
"3AUf-Ug-3d",NA
"3ADb-1",NA
"3AUf-Ug-3m",NA
"3AUf-1",NA
"K2",5
"Auf-Ug-4m",NA
"3AUf-Ug-4d",NA
"K3",5
"3ADb-2",NA
"3AUf-Ug-5m",NA
"X1",3
"3AUf-Ug-5d",NA
"3AUg-4",NA
"3AUf-Ug-6m",NA
"4AUf-Ug-6d",NA
"3AUf-Ug-7m",NA
"3AUf-Ug-7d",NA
"3AUg-5",NA
"3AUf-Ug-8m",NA
"3ADb-3",NA
"T1",4
"3ADd",NA
"3AUf-Ug-8d",NA
"3AUg-1",NA
"3AUf-2",NA
"3AUg-2",NA
"3AUf-3",NA
"3AGn-1",NA
"3ADb-4",NA
"3AUf-Ug-9",NA
"3AGn-2",NA
"3AGn-Dr",NA
"3ADr-1",NA
"3AUg-6",NA
"3ADr-2",NA
"3AUf-Ug-10",NA
"3ADr-3",NA
"U2",4
"3ADb-Dr",NA
"3AUg-7",NA
"Caboonbah_Black Subsoil",4
"Caboonbah_Carbonate",4
"Cressbrook Rocky Phase",6
"D'Aguilar",5
"Cabarlah",5
"Geham",2
"Pechey",5
"Pinelands 2",5
"Palmtree",4
"Ravensbourne",5
"Deer",4
"Deer_Alkaline",4
"Duggua",4
"Dunwich",4
"Burrum",2
"Butcher",3
"Beaver",2
"Craignish",3
"Duingal",3
"Diamond",4
"Dundowran",3
"Fairydale",NA
"Granville",3
"Isis",NA
"Jaro",1
"Olinda",5
"Overdeen Shallow Variant",5
"Powerhouse",3
"Rannes",4
"Rundull",5
"Santo",5
"Santo Stony Phase",5
"Scoria",4
"3ADy",NA
"4AUf",NA
"4AUg",NA
"4ADb",NA
"4ADr",NA
"5AUf-Ug-1m",NA
"T2",4
"5AUf-Ug-1d",NA
"5AUf-1",NA
"5AUf-2",NA
"5AUg-2",NA
"5AUg-3",NA
"5AUf-3",NA
"5AUgg-m",NA
"5AUgg-d",NA
"BUg-1",NA
"BUg-2",NA
"BUg-5",4
"BUg-16",NA
"BUf",NA
"BUg-6",NA
"BUg-7",NA
"BUg-8",NA
"BUg-17",NA
"BUg-11",NA
"BUg-12",NA
"BUgg-2",4
"BUgg-4",NA
"BUgg-3d",NA
"TbUg-14",NA
"TbUg-3",NA
"TbUg-4",NA
"TbUg-5",NA
"Esk",4
"Eskvale",NA
"Forster",NA
"Somerset (Mja)",4
"Freeman",NA
"Gallanani",5
"Gilla",NA
"Gallanani Bleached",5
"Gallanani Rocky",5
"Greenhide",4
"Greienke",6
"Gunyah",3
"Hibiscus",6
"Gunyah Gradational",3
"Kolan",3
"Littabella",NA
"Mahogany",NA
"Maroom",2
"Mary",4
"Quart",4
"Takoko",NA
"Tandora",2
"Turpin",NA
"Tirroan",NA
"Woober",2
"Walker - Mhb",2
"Shield",5
"Tarramba",3
"Tequila",4
"Thalberg",5
"Tiamby",4
"Tognolini",4
"Ulogie",3
"Woolein",4
"Youlambie",6
"TbUg-7",NA
"TbUg-9",NA
"TbUg-17",NA
"TbUg-11",NA
"TbUg-12",NA
"TbUf",NA
"1ADb-9",NA
"1AUg-11",NA
"1AUg-17",NA
"1ADr",4
"Adb-3",NA
"1ADb-8",NA
"T3",4
"1ADd-4",NA
"1ADd-6",NA
"3AUf",NA
"3AGn-2",NA
"T4",4
"3AGn-Dr",5
"D1",3
"6AUf-1",NA
"6AUg-2",NA
"6AUf-3",NA
"6AUf-4",NA
"D2",3
"Greenhide Black Variant",4
"Hibiscus_Light",6
"Hibiscus_Shallow",6
"Honey",6
"Horse",4
"Horse_Red",4
"Horse_noA2",4
"Ivory",6
"Jimna",NA
"Jimna_NonCracking",NA
"Kipper",5
"Lakeview",4
"Lakeview Coarsefrags",4
"Auburn Red Variant",NA
"Ashgrove",NA
"Ashgrove Shallow Variant",NA
"Alloway",2
"Barubbra",NA
"Bucca",4
"Berren",4
"Bungadoo",4
"Beelbi",NA
"Minnabilla",NA
"Kegabilla",NA
"Arrowfield",NA
"Bulgar",NA
"Barclay",NA
"Butler",NA
"Rockwood",NA
"Ukabilla",NA
"Mandama",NA
"Sturt",NA
"Roe",NA
"Mooroolbark",NA
"Lanky",NA
"Hodzic",NA
"Wilga",NA
"Pindari",NA
"Yarril",NA
"Dunlop",NA
"Bunker",NA
"Ug",NA
"Ug-Uf",NA
"Brendle",NA
"Ballin",NA
"Herden",NA
"Um",NA
"D3",3
"6AUg-4",NA
"D4",3
"6AUg-6",3
"6AUg-7",NA
"6AUg-8",3
"6AUg-9",NA
"6AUg-10",3
"6AUg-11",NA
"D5",3
"6AUg-12",3
"6AUgg",NA
"6AGn",NA
"Bogandilla",NA
"Boonenne",NA
"6ADb-1",NA
"Cadarga",NA
"Cecilvale",NA
"6ADb-2",NA
"6ADb-3",NA
"Coalbah",NA
"Condamine",NA
"Dulacca",NA
"Gordonbrook",NA
"Highmount",NA
"Inglestone",NA
"Inglestone Shallow",NA
"Kupunn",NA
"Minnabilla",NA
"Moola",NA
"Rogers",NA
"Tara Gilgai Depression",NA
"Tara Gilgai Mound",NA
"6ADy-1",NA
"Ulimaroa",NA
"Lakeview_Redsubsoil",4
"Linville",4
"Monsildale",6
"Monsildale_Sandy",6
"Monsildale_Texture contrast",6
"Moore_Red",6
"Moore_Black",6
"Neara",4
"Neara_Alkaline",4
"Neara Alkaline_Calcareous",4
"Noon",4
"Ottaba",2
"Booloongie",3
"Bingera",2
"Calavos",3
"Crossing",NA
"Clayton",2
"Cedars",3
"Colvin",NA
"Blacket",NA
"Crane",NA
"Doolanvale",NA
"Goodar",NA
"Giddi Giddi",NA
"Murriverie",NA
"Cooper",NA
"Ts-Dd-Ug",NA
"Dd-Ug",3
"Dy2.8",NA
"Dy",NA
"Dy-Dd",NA
"Db",NA
"Callandoon",NA
"Euroka",NA
"Macintyre",NA
"Crooked",NA
"Teelabar",NA
"Strathmore",NA
"Ts-Dd",NA
"Dd-Db",NA
"Dy-Db",NA
"Ug-Dd-Db",NA
"Thane",NA
"Talgai (EDD)",NA
"Wash",NA
"Silverwood",NA
"Middle",NA
"Turner",NA
"Herries",NA
"Seven",NA
"6ADy-2",NA
"Weengallon",NA
"Weranga",NA
"6ADy-3",3
"6ADy-4",NA
"6ADy-5",NA
"Anchorfield",NA
"6ADy-6",5
"6ADd-1",NA
"Beauaraba",NA
"Burton",NA
"Cecilvale",NA
"6ADd-2",NA
"Charlton",NA
"Craigmore",NA
"6ADd-3",NA
"TsUc-1",NA
"Drayton",NA
"TsUc-2",6
"Edgefield",NA
"Gate",NA
"TsUc-3",NA
"Irving",NA
"Kenmuir",NA
"Knoll",NA
"Moola",NA
"Oakey",NA
"Ottaba Gilgai",2
"Paddy",4
"Pinch",4
"Rebel",4
"Spencer",3
"Spencer_no-A2",3
"Spencer Gilgai",3
"Spencer Rocky",3
"Steventon",NA
"Turtle",NA
"Turtle (Not Bleached)",NA
"Watt",5
"Welton",NA
"Fairydale",1
"Farnsfield",5
"Fairymead",NA
"Fairymead Gravelly Variant",NA
"Flagstone",4
"Gooburrum",5
"Gooburrum Mottled Variant",NA
"Gahan",NA
"Gillen",NA
"Gall",NA
"Gibson - Bab",5
"Hillend",4
"Hinkler",3
"Hummock",NA
"Stock",NA
"Ironpot",NA
"Leyburn",NA
"Canal",NA
"Cunningham",NA
"Canal 2",NA
"Canal 3",NA
"Airstrip",2
"Turner/Seven",NA
"Stock/Seven",NA
"Ironpot 2",NA
"Thane 2",NA
"Silverwood 2",NA
"Silverwood 3",NA
"Barambah",2
"Brigalow",2
"A1",NA
"Nursery",4
"B1",4
"Graham",4
"B2",4
"Weaner",4
"Banban",4
"Back Creek",4
"Walker",NA
"TsUf-1",NA
"Yargullen",NA
"TsUf-2",NA
"Waco",NA
"Mywybilla",3
"Condamine",NA
"Ruthven",NA
"Toowoomba",NA
"Yarranlea",NA
"Bony",6
"Dalmeny",3
"TsUf-3",NA
"Douglas",NA
"Emlyn",NA
"Gladfield",NA
"Gomaren",NA
"Goombungee",NA
"Gully",NA
"Hendon",NA
"TsUf-4",NA
"TsUf-6",NA
"Jingarry",NA
"Junabee",NA
"Killarney",NA
"Kynock",NA
"Malling",NA
"Morgan - EDD",NA
"Nelson",NA
"Yednia",NA
"Yellowbank",4
"Cavendish",5
"Lockrose",3
"Blenheim",2
"Lawes",5
"Clarendon",2
"Flagstone - LOC",2
"Sippel",3
"Tenthill",5
"Hooper",5
"Bremer",4
"Helidon",4
"Benn",5
"Trebonne",3
"Yellarai",4
"Hillview - Dlr",5
"Yuruga",3
"Allandale",3
"Allandale, Strongly Sodic Variant",3
"Andergrove",6
"Andergrove, Coarse Sandy Variant",3
"Andergrove, Calcareous Variant",6
"Balberra",3
"Benholme",3
"Belmunda",3
"Brightley",3
"Calen",3
"Cameron",6
"2Ddc",3
"5Dra",NA
"5Dya",NA
"Ernest",3
"5Dye",NA
"Shaws",3
"2Dba",3
"2Dyb",3
"2Dyc",NA
"2Ugg",3
"Holding",3
"2Ugk",NA
"6Dbb",NA
"Nind",1
"Needep",2
"Pin Gin",5
"Prior",2
"Porter",3
"Ramleh",2
"Rungoo",2
"Silkwood",5
"Spanos",6
"Tawalla",6
"Thorpe",4
"Timara",2
"Toolakea",6
"Tully",4
"Tyson",5
"Virgil",5
"Wongaling",6
"Auburn",3
"Auburn Red Variant",NA
"Burnett",6
"Beeron",3
"Beeron Eroded Phase",NA
"Beeron Rocky Phase",NA
"Boynewood",4
"Boynewood Rocky Phase",NA
"Boyne",4
"Chessborough",5
"Coonambula",3
"Durong",3
"Dundula",2
"Dunwold",4
"Eton",3
"Etowrie",3
"Etowrie, Neutral Duplex Variant",3
"Farleigh",4
"Finch Hatton",5
"Finch Hatton, Alluvial-Colluvial Variant",5
"Gargett",4
"Gargett, Deep A Horizon Variant",4
"Glenella",5
"Habana",5
"Jumper",3
"Kinchant",3
"Derra",3
"6Dbf",NA
"6Dbg",5
"6Dbh",3
"6Dda",NA
"6Dga",2
"6Drb",NA
"Yandaran",NA
"Moolyung",NA
"Arsenic",NA
"Bluff (Spy)",NA
"6Gnc",3
"6Ufc",4
"6Ufd",4
"Calavos Shallow Variant",NA
"2Dba",NA
"Yandaran Red Variant",NA
"Yandaran, Grey Subsoil Variant",NA
"Deight",NA
"Antbed Eroded Phase",1
"Utchee",5
"Virgil",5
"Whitfield",5
"Warrami",2
"Alma",5
"Buchan",5
"Brosnan",5
"Blackburn Rocky Phase",5
"Laura Shallow Phase",NA
"Bicton",3
"Coom",3
"Clifton",3
"Edmonton",3
"Galmara Eroded Phase",NA
"Googarra",4
"Goolboo",5
"Holloway",2
"Hull",6
"Innisfail",5
"Japoon",6
"Woongarra Loamy Variant",NA
"Windermere",3
"Windermere Loamy Variant",NA
"Windermere Sandy Variant",NA
"Woco",NA
"Watalgan",5
"Watalgan Mottled Variant",NA
"Whymere",NA
"Whymere Coarse Variant",NA
"Aldershot",NA
"Baddow",NA
"Beenham",NA
"Evergreen",5
"Flagstone",3
"Glenrock",5
"Glenrock Grey Variant",NA
"Glenrock Shallow Phase",5
"Lotus",NA
"Glenrock Structured Variant",5
"Grindstone",NA
"Hawkwood",3
"Lacon",4
"Nail",NA
"O'Bil Bil",NA
"Pearlinga",3
"Riverleigh",3
"Shurback",NA
"Kinchant, Coarse Sandy Variant",3
"Kungurri",5
"Kuttabul",4
"Kuttabul, Alluvial-Colluvial Variant",4
"Kowari",5
"Marian",4
"Marian, Yellow B Horizon Variant",5
"Mentmore",3
"Mentmore, Sandy Loam Variant",5
"Mirani",4
"Mulei",4
"Munbura",4
"Martin",4
"Murray",6
"Marwood",3
"Nabilla",4
"Kimberley",5
"Liverpool",4
"Lugger",2
"Malbon",2
"Midgenoo",5
"Oaky",5
"Mission",5
"Mulgrave",NA
"Pin Gin",5
"Prior",2
"Silkwood Brown A Horizon Variant",NA
"Tawalla",6
"Thorpe",4
"Toolakea",6
"Taylor",NA
"Tully",4
"Tyson",5
"Apron",4
"Aroa Depression",NA
"Bells",NA
"Brooyar",NA
"Cole",NA
"Coonoon",NA
"Camp - Mrc",NA
"Dagun",NA
"Dunstan",NA
"Eerwah",NA
"Gander",NA
"Highbury",NA
"Mungar",NA
"Monkland",NA
"Moat",NA
"Mary",NA
"Toondoon",NA
"Washpool",3
"Wivenhoe",3
"Buchan",5
"Boobah",3
"Bicton",3
"Bulguru",1
"Carson",2
"Coom",3
"Clifton",3
"Dagmar",NA
"Daintree",6
"Devil Devil",2
"Euluma",NA
"Galmara",3
"Garioch",3
"Goolboo",5
"Hewitt",1
"Holloway",2
"Neils",3
"Narpi",3
"Netherdale",5
"Hunt",NA
"Ossa",3
"Ossa, Cobbly Variant",3
"Palmyra",4
"Pinnacle - Cq",5
"Pindi",3
"Pioneer",5
"Pioneer, Red B Horizon Variant",5
"Royston",4
"Sandiford",4
"Seaforth",4
"Seaforth, Dark B Horizon Variant",4
"Seaforth, Yellow B Horizon Variant",4
"Silent Grove",4
"Cheeseboro",4
"Clarkei",4
"Clarkei, Clay Surface Variant",4
"Moogerah",4
"Commissioner",5
"Cattle",3
"Cherwell",5
"Diamond (Kcm)",3
"Diamond (Kcm), Footslope Variant",3
"Dickson",5
"Dickson, Shallow Variant",5
"Eleanor",3
"Eleanor, Mottled Phase",3
"Nobby",NA
"Neerdie",NA
"Ram",NA
"Tiaro",NA
"Thompson - Mrc",NA
"Bellert",3
"Bellert Gradational Variant",3
"Blair",3
"Crater",4
"Dove",3
"Fletcher - Brcl",4
"Fowler",3
"Hind",3
"Hunter",3
"Sandy",4
"White",5
"Hull",6
"Innisfail",5
"Julatten",5
"Kimberley",5
"Liverpool",4
"Lerra",5
"Mossman",4
"Molloy",NA
"Miallo",NA
"Newell",3
"Pera",4
"Pin Gin",5
"Ponzo",3
"Rumula",3
"Somerset - Zmct",4
"Spanos",6
"Thorpe",4
"Toolakea",6
"Septimus",3
"St Helens",4
"Sunnyside",4
"Tannalo",4
"Uruba",4
"Uruba, Alluvial-Colluvial Variant",4
"Uruba, Sandy A Horizon Variant",4
"Victoria Plains",3
"Wagoora",4
"Wagoora, Basic Parent Material Variant",4
"Whiptail",2
"Wollingford",4
"Wollingford, Intrusive Parent Material Variant",4
"Wollingford, Yellow B Horizon Variant",4
"Alligator",NA
"Fletcher",4
"Falkner",4
"Holding Depression",3
"Holding Mound",3
"Heyford",3
"Jeffray",3
"Kenlogan",5
"Kenmar, Melonhole Phase",3
"Kenmar Depression",NA
"Kenmar Mound",NA
"Lebanon",3
"Witton",5
"Aldershot",NA
"Snake",NA
"Baddow",NA
"Bucca",NA
"Bidwill",5
"Bauple",3
"Butcher",NA
"Woongoolba",2
"Copenhagen",4
"Granville",NA
"Guyra",3
"Tully",4
"Virgil",5
"Weatherby",3
"Wongaling",6
"Auburn",2
"Appaloosa",3
"Avon",2
"Boonenne",2
"Boyne",5
"Beeron",2
"Burnett",6
"Bukali",5
"Boynewood",4
"Cannindah",4
"Coolabunia",4
"Borstal",NA
"Bell",3
"Breen",NA
"Cherry Tree",3
"Chelona",NA
"Cabbage Tree",NA
"Freddy",3
"Hannan",NA
"Hector (PCS)",5
"Ilbilbie",NA
"Karloo",3
"Koumala",3
"Leichhardt",4
"Louisa",NA
"Moffat",3
"Marwood",3
"Malin",NA
"Prendergast",3
"Saddle",3
"Shinfield",NA
"Maraconda",3
"Midden",3
"Midden, Melonhole Phase",3
"Midden Depression",NA
"Moramana",3
"Moramana, Gilgai Phase",3
"Moramana, Gilgai Phase Depression",NA
"Moramana, Gilgai Phase, Mound",NA
"Miscellaneous Soils",3
"Martyr",3
"Martyr Depression",NA
"Gutchy",3
"Jumpo",3
"Kolan",3
"Kooringa",5
"Mungar",3
"Mary",NA
"Netherby",4
"Oakwood",NA
"Owanyilla",3
"Pelion",2
"Durong",2
"Derra",2
"Gordonbrook",4
"Goodger",5
"Glenrock",5
"Harrami",4
"Hillsdale",3
"Haly",2
"Hirst",5
"Hopevale",5
"Hawkwood",2
"Mondure",3
"Mulgildie",5
"Memerambi",5
"Mceuen",5
"Palouse",2
"Quarry",5
"Selene",4
"Tingoora",4
"Weir",4
"Samourgassi",6
"Splitter",3
"Sarina",NA
"Spider",NA
"Sunnyside",4
"Swayneville",NA
"Tedlands",NA
"Turnor",3
"Turpad",NA
"Urannah",NA
"Bendy",NA
"Brook",NA
"Brook-Lethe Complex",NA
"Bubialo",NA
"Campwyn",5
"Conway",5
"Carmila",3
"Carmila-Dittmer Complex",NA
"Martyr Mound",NA
"Niagara",3
"Nungaroo",3
"Nungaroo Depression",NA
"Nungaroo Mound",NA
"Ok",4
"Rankin",3
"Russell",4
"Russell, Stony Phase",4
"Russell, Gilgai Phase",4
"Solferino",3
"Vicenza",3
"Villafranca",5
"Rothchild",NA
"Springs",3
"Tiaro",4
"Timbrell",2
"Teddington",5
"Tinana",NA
"Tirroan",NA
"Woober",NA
"Walker - Mhb",NA
"Deep Loams (Levee Soil, Eidsvold Section)",5
"Pedal Clay On Alluvium",3
"Pedal Clay On Sediments",4
"Pedal Clay On Volcanics",4
"Chettenham",NA
"Glenwood",NA
"Hogarth",NA
"Jacabar",NA
"Jacabar Earthy Variant",NA
"Miscellaneous Soils 1",NA
"Miscellaneous Soils 2",NA
"Narayen",NA
"Argentine",4
"Amity",4
"Barkla",6
"Bluff",4
"Boston",4
"Burra",3
"Basalt Rock",6
"Burdekin",5
"Bulliwallah",2
"Conjuboy",4
"Ceaser",3
"Carse O'Gowrie",3
"Creek",3
"Conolly",6
"Dittmer",6
"Drakon",6
"Dryander",3
"Edgecumbe",4
"Foxdale",3
"Gregory - Pls",NA
"Kelsey",NA
"Koolachu",3
"Lethe",NA
"Myrtle",3
"Pluto",3
"Proserpine",5
"Prospect",NA
"Prospect-Dittmer Complex",NA
"Slater",3
"Wandarra",5
"Xantho",NA
"Abbot",3
"Violet",5
"Windradene",3
"Well",3
"Well, Footslope Variant",3
"Well, Sandy Surface Variant",3
"Winvic",4
"Banyan",1
"Bulgun",2
"Bingil",4
"Boobah",3
"Brosnan",5
"Bicton",3
"Gira Gira Rocky Phase",4
"Red Dermosol On Volcanics (Pedal Clay)",4
"Loamy Tc On Alluvium",3
"Loamy Texture Contrast (Alluvial, Eidsvold Section",3
"Loamy Tc On Sediments",3
"Loamy Tc On Volcanics",3
"Sandy Tc On Granite",4
"Sandy Tc On Sediments",3
"4Uce",NA
"1Dba",NA
"1Dbb",3
"1Dbc",NA
"1Dda",3
"1Dya",3
"1Dyb",3
"1Uga",3
"1Ugc",3
"1Ugd",3
"Cape",2
"Corea",4
"Charters Towers",4
"Dalrymple",5
"Dotswood",4
"Egera",3
"Ewan",5
"Featherby",6
"Flagstone - Dlr",5
"Fanning River",NA
"Felspar",5
"Gainsford",5
"Glencoe",4
"Greenvale",4
"Hillgrove",5
"Hillview - Dlr",5
"Lime View",4
"Lolworth",3
"Liontown",3
"Maryvale",3
"Miscellaneous Basalt",2
"Miscellaneous Disturbed",NA
"Miscellaneous Flooded Areas",1
"Mingela",NA
"Manoa",NA
"Anakey",3
"Armstrong",3
"Buckley",3
"Caley",3
"Curlewis",6
"Carew",3
"Castleview",3
"Dalrymple - Ber",5
"Delta",5
"Dillon",3
"Don",4
"Finley",5
"Goodbye",3
"Guthalungra",3
"Glenroc",3
"Grasstree",3
"Greentop",3
"Feluga",4
"Galmara",4
"Googarra",4
"Hewitt",1
"Innisfail",5
"Jaffa",5
"Gallanani",4
"Honey",5
"Kurrimine",4
"Liverpool",5
"Lugger",2
"Maria",4
"Mena",4
"Midgenoo",5
"Glencairn",3
"1Uge Mound",NA
"2Dba",3
"2Dbb",3
"2Dbc",3
"2Dbd",3
"2Dbe",3
"2Dda",NA
"2Ddb",NA
"2Ddc",NA
"2Ddd",3
"2Dya",NA
"2Dyb",3
"2Dyc",NA
"2Ugb",NA
"2Ugc",NA
"2Uge",NA
"Miscellaneous Terrain (Lacustrine)",NA
"Myrtlevale",3
"Nial",4
"Nulla",4
"Pandanus",5
"Pentland",5
"Pin Gin - Dlr",5
"Pinnacle - Dlr",5
"Paynes",NA
"Powlathanga",3
"Rangeview",4
"Rolston",5
"Rangeside",5
"Scartwater",3
"Severin - Dlr",4
"Two Creek",4
"Thorpe - Dlr",3
"Tuckers",NA
"Utchee - Dlr",5
"Victoria Downs",NA
"Warrawee",NA
"Worsley - Dlr",3
"Gumlu",3
"Inverdon",5
"Knobbies",5
"Kailla",3
"Koonandah",3
"Kangaroo",3
"Luce",5
"Maiden",3
"Merinda",3
"Miskin",5
"Moosie",4
"Nevada",5
"Nilotica",3
"Nessvale",4
"Pennsfield",4
"Pring",4
"Roundback",3
"Roundback Level Phase",3
"Pin Gin",5
"Ramleh",2
"Silkwood",5
"Spanos",6
"Tawalla",6
"Thorpe",4
"Timara",2
"Toolakea",6
"Tully",4
"Tyson",5
"Utchee",5
"2Dba",NA
"4Dyf",NA
"4Dyj",NA
"4Ucf",3
"6Dbd",NA
"2Ugg",NA
"2Ugh",NA
"2Ugi",NA
"2Ugj",3
"3Dya",3
"3Uga",NA
"3Ugb",NA
"3Ugc",NA
"3Uge",NA
"3Ugh",3
"3Ugi",3
"3Ugj",3
"4Dga",NA
"4Dya",NA
"Mount Ravenswood",4
"Nosnillor",NA
"Wairuna",NA
"Wattle Vale",5
"Yarraman",3
"Barron",5
"Bally",5
"Carrington",2
"Expedition",5
"Flaggy",3
"Galmara",4
"Gillies",6
"Gwynne",3
"Gowrie - Tab",5
"Heales",5
"Kaban",5
"Morgan",2
"Maalan",5
"Millstream",3
"Mazlin",4
"Salisbury",3
"Sixmile",3
"Splitters",3
"Seven Sisters",2
"Summerhill",3
"Tolgai, Strongly Gilgaied Variant",2
"Thurso",5
"Tabletop",3
"Wygong",4
"Wilmington",2
"Woonton",3
"Walsch",2
"Wathana",2
"Wathana Heavier-Textured Var",2
"1Uge Mound",NA
"2Dba",NA
"2Dbc",NA
"6Gna",NA
"3Uga",NA
"3Ugf",3
"5Ugc  Depression",3
"Ambrose",4
"Archer",2
"Blunder",2
"Bally",4
"Corella",5
"Campsbourne",2
"Caesar",NA
"Expedition",NA
"Fullerton",NA
"Glengordon",NA
"Pallamana",3
"Umala - Dlr",4
"4Dyb",3
"4Dyc",4
"4Dyd",NA
"4Dye",NA
"4Dyf",NA
"4Dyh",NA
"4Dyi",3
"4Dyk",NA
"4Gnb",5
"4Uca",3
"4Ucc",3
"4Ucd",3
"Rishton",5
"Nettle",5
"Nyleta",1
"Turpin Rocky Phase",3
"Peterson",2
"Quincan",5
"Snider",4
"Severin - Tab",3
"Sylvia",2
"Tolga",5
"Tranters",5
"Umala - Tab",4
"Utchee",5
"Wongabel",3
"Whelan",5
"Walkamin",3
"Worsley - Tab",3
"2Dbb",NA
"Winfield",2
"Doongul",3
"2Dbd",NA
"2Dbe",NA
"2Ugb",3
"2Ugh",NA
"3Uge",NA
"4Dba",3
"5Dyf Shelf",NA
"6Dbc",NA
"6Dbe",NA
"1Dda",3
"1Dyc",3
"1Uga",3
"2Ugf",NA
"2Ugg",NA
"Gunnawarra",NA
"Ironbark",NA
"Innot",NA
"Kaban",NA
"Kiama",NA
"Logcamp",NA
"Mullaburra",NA
"Morecambe",NA
"Millstream",NA
"Nettle",NA
"Nanyeta",NA
"Quandong",NA
"Redbox",NA
"Rudd",3
"Sugarbag",NA
"Sludge",NA
"Belrose",4
"Pleasant",NA
"4Uce",3
"4Ucf",NA
"5Dda",NA
"5Dra",NA
"5Drb",5
"5Dya",NA
"5Dyb",NA
"5Dyc",NA
"5Dyd",NA
"5Dye",NA
"5Uga",NA
"6Dba",NA
"6Dbc",NA
"6Dbd",NA
"6Dbe",NA
"6Dbf",NA
"6Dbg",NA
"2Dya",NA
"Robur, Shallow Variant",NA
"Woogoompah",1
"6Dyd",NA
"Yawalpah",2
"2Uga",3
"Bucca Shallow Variant",NA
"Gigoon Non-Sodic Variant",NA
"2Ugi",NA
"Normanby Brown Variant",NA
"Lily Rocky Phase",3
"6Dra",NA
"Lily Shallow Phase",NA
"Bremer Buried Phase",4
"Lockyer",4
"Robinson",5
"Telemon",5
"4Ucc",3
"4Dga",NA
"4Dya",NA
"Miscellaneous Carbonate Materials",4
"4Dyd",NA
"4Dye",NA
"4Dyk",3
"4Gna",3
"5Ugd Mound",3
"6Dya",NA
"6Umb",NA
"Abercorn",NA
"Anyarro",NA
"Bilboolan",NA
"Belvedere",NA
"Ceratodus",NA
"Dalgangal",NA
"Sooty",NA
"Stringybark",NA
"Tirrabella",NA
"Tunmirendah",NA
"Uramo",NA
"Whelan",NA
"Woodleigh",NA
"Wooroora",NA
"Alma",5
"Buchan",5
"Babinda",1
"Bulgun",2
"Bingil",4
"Brosnan",5
"Bicton",3
"Canoe",4
"6Dbh",NA
"6Dbi",4
"6Dda",NA
"6Ddb",NA
"6Dga",2
"6Dra",NA
"6Drb",NA
"6Drc",NA
"6Dya",NA
"6Dyb",NA
"6Dyc",NA
"6Dye",NA
"6Dyf",NA
"6Dyh",NA
"6Dyi",4
"6Dyj",NA
"6Gnb",NA
"6Gnc",NA
"6Dyc",NA
"Gorman",4
"Sarabah",4
"May Downs, salty phase",NA
"6Gne",4
"2Ugc",NA
"2Uge",NA
"2AUg-14",NA
"Cainbable",4
"Bromelton-Eroded Phase",3
"Yellunga Red Phase",NA
"Muller-Eroded Phase",4
"4Dyg",NA
"4Dyh",NA
"4Dyl",4
"5Dyb",NA
"Eidsvold",NA
"Hollywell",NA
"Yarrol",NA
"Alma",5
"Dunwich",4
"Moore",3
"Watt",4
"Bulguru",1
"Bluewater",5
"Cadillah",5
"Cudmore",3
"Canoe",4
"Coom",3
"Dayman",4
"Dingo",5
"Clifton",3
"Daradgee",2
"Dagmar",NA
"Edmonton",3
"Galmara",4
"Hallen",6
"Quinine",3
"Hewitt",1
"Holloway",2
"Hull",6
"Inlet",2
"Innisfail",5
"6Gnd",NA
"6Uca",NA
"6Ucb",NA
"6Ucc",NA
"6Ufb",NA
"6Ufc",NA
"6Ufd",NA
"6Ugb",NA
"6Uma",4
"6Umb",NA
"7Dba",4
"7Ufa",4
"7Ugb",3
"Abergowrie",5
"Abergowrie Sandy Phase",5
"Althaus",3
"Arnot",4
"Arnot Dark Phase",NA
"Ashton",3
"5Dyc",NA
"5Uga",3
"5Ugb",3
"6Dyf",NA
"6Ufa",4
"6Ufb",4
"1Dba",3
"1Dbb",3
"1Dda",NA
"1Dya",3
"1Dyb",3
"1Dyc",NA
"Aroa",3
"1Dyd",3
"1Uga",NA
"1Ugc",3
"1Ugd",3
"1Uge Depression",NA
"Derra (CWL)",2
"Hooper",4
"Eubenangee",5
"Lockyer",4
"Galmara",4
"Googarra",4
"Goolboo",5
"Garradunga",5
"Hull",6
"Hillview",5
"Innisfail",5
"Jaffa",5
"Japoon",6
"Jarra",3
"Japoon",6
"Jarra",3
"Kimberley",5
"Kirrama",4
"Liverpool",5
"Lugger",2
"Malbon",2
"Mena",4
"Mangrove Soil",NA
"Mossman",4
"Mission",5
"Needep",2
"Byabra",3
"Brae",1
"Beppo",3
"Cadillah",5
"Catherina",3
"Avoca",4
"Cassidy",6
"Couch",3
"Elliot",6
"Elliot Fine Phase",6
"Fox",5
"Herbert",5
"Hawkins",5
"Hamleigh",3
"Hillview",5
"Hillview Fine Variant",5
"Hillview Undulating Phase",5
"Ingham",3
"Lucy",5
"1Uge Mound",NA
"1Ugf",NA
"3Ugb",3
"3Ugc",3
"3Ugd",3
"Peep Salty Phase",NA
"3Ugk",3
"Watalgan Shallow Variant",NA
"5Dyd",3
"5Dyf Shelf",NA
"6Dba",NA
"6Ddb",NA
"Tamborine",4
"6Dyb",NA
"6Dye",NA
"6Dyh",NA
"6Dyj",NA
"6Ufe",5
"Wonglepong",4
"Kaygaroo",5
"Kirrama",4
"Kurrimine",4
"Lee",3
"Liverpool",5
"Lugger",2
"Maria",4
"Malbon",2
"Midgenoo",5
"Mossman",4
"Marquette",5
"Mission",5
"Mundoo",5
"Moresby",4
"Pin Gin",5
"Prior",2
"Ramleh",2
"Silkwood",5
"Sumalee",1
"Seymour",4
"Spanos",6
"Thorpe",4
"Toolakea",6
"Tully",4
"Tyson",5
"Utchee",5
"Lee",3
"Leach",2
"Lannercost",3
"Lugger",2
"Mandam",1
"Macknade",4
"Molonga",3
"Manor",3
"Midway",4
"Orient",2
"Palm",4
"Porter",3
"Rungoo",2
"Ripple",2
"Senta",3
"Stone",3
"Toobanna",3
"Thorpe",4
"Thorpe Fine Variant",4
"Tinkle",5
"Toonpan",3
"Vantasell",NA
"Warbooga",5
"Windsor",NA
"Woodlands",NA
"Woodridge",4
"Yileena Scrubby Complex",NA
"Yabulu",5
"Yileena",4
"Goondaroo",NA
"Sandhurst",NA
"Buffington",NA
"Antil",NA
"Juanita",NA
"Farlane",3
"Foxleigh",3
"Foxleigh Clay Loamy Phase",3
"German",6
"Gordons Bore",4
"Hazelbrae",4
"Heyford-Wdh",3
"Honeycomb",3
"Indicus",4
"Indicus Melonhole Phase",3
"Wakooka",3
"Weymouth",2
"Weipa",5
"Witchura Yellow Variant",NA
"Yam",2
"Archookoora",4
"Appaloosa",3
"Avon",3
"Bushnell",3
"Boonenne",3
"Booie",5
"Crawford",5
"Chelmsford",4
"Lascelles (Shallow Variant)",2
"Lascelles (Alkaline Variant)",2
"Lomond",4
"Lillypool",3
"Lillypool (Shallow Variant)",3
"Luce",4
"Stockyard (Spy)",NA
"Thunder",NA
"Mentmore (Sandy Topsoil Variant)",NA
"Thunder Eroded Phase",NA
"Gibson Clay Loam Phase",NA
"Marlow",5
"Gibson Shallow Phase",3
"Murray",5
"Murray (Marine Sediment Variant)",NA
"Myrtle",3
"Hodge Strongly Acid Phase",4
"Janet Red Variant",NA
"Laura Rocky Phase",NA
"Normanby Rocky Phase",NA
"Ragvale Eroded Phase",3
"Scatterbrain",5
"Ronnoc",NA
"Ronnoc Stony Phase",NA
"Ronnoc Gilgai Phase",NA
"Bettafield",NA
"Galway",NA
"Lexington",NA
"Bendee",NA
"Kammel",NA
"Sunrise",NA
"Wyoming",NA
"Travis",NA
"Locklees",NA
"Talafa",NA
"Eden",NA
"Kilmore",NA
"Boongulla",NA
"Bonewood",NA
"Yamala",NA
"Yule",NA
"Turkey",NA
"Kensington",NA
"Weemah",NA
"Weemah Gilgai Phase",NA
"Indicus Shallow Phase",5
"Isaac",3
"Kirkcaldy",4
"Knockane",4
"Langley-Wdh",4
"Leitrim",5
"Lindsay",4
"May",4
"May Shallow Phase",4
"Mayfair",4
"Mayfair Sandy Surface Variant",3
"Drome",4
"Cherbourg",3
"Coolabunia",5
"Cushnie",3
"Charlestown",3
"Cooyar",3
"Dangore",3
"Fairdale",4
"Gordonbrook",4
"Hillsdale",3
"Hodgleigh",4
"Haly",3
"Neils",5
"Victor Eroded Phase",5
"Victor Clay Loam Phase",5
"Victor Shallow Phase",5
"Greenant Shallow Phase",NA
"Ossa (Cobbly Variant)",3
"Harper",4
"Waterford",3
"Palen",4
"Pennsfield (Shallow Variant)",4
"Pluto",4
"Pioneer",5
"Glenapp",4
"Weemah Melonhole Phase",NA
"Sullivan",NA
"Sullivan Gilgai Phase",NA
"Krongie",NA
"Minerva",NA
"Minerva Subsoil Variant",NA
"Milroy",NA
"Borneo",NA
"Gaynor B Colour Variant",3
"Gaynor Secondary Salinisation",3
"1Dyds Secondary Salinisation",3
"Barrunga With Erosion (1ugae)",3
"Barrunga Secondary Salinisation (1ugas)",3
"Barrunga Shallow Variant",3
"Barrunga Buried Soils Or D Horizons Vary",3
"2Dda",NA
"2Ddb",NA
"Ellis Shallow Phase",NA
"Mount Ravenswood Shallow Phase",NA
"2Ugd",3
"Manoa Red Variant",NA
"Dalrymple Shallow Phase",NA
"2Ugg",NA
"Lucky Break Red Variant",NA
"2Ugk",3
"Behm",1
"Bethania",1
"Coomera",1
"Gilberton",2
"Blackburn Shallow Phase",NA
"Bullhead Rocky Phase",4
"Bullhead Shallow Phase",3
"Deight Eroded Phase",3
"6Drc",NA
"Deighton Pale Phase",4
"Hirst",4
"Eykin Acid Phase",NA
"Eykin Eroded Phase",3
"Greenant Eroded Phase",3
"Gibson Eroded Phase",3
"Hopevale",6
"Iona",3
"Kumbia",3
"Kawl Kawl",3
"Kunioon",3
"Kaber",3
"Long Peter",3
"Windsor (BNH)",NA
"Mondure",3
"Marshlands",3
"Memerambi",5
"Mceuen",4
"Preston",4
"Quandong (Pss)",5
"Roundback",3
"Redfern",3
"Riordanvale",2
"Sandiford",4
"Sandiford (Silty Topsoil Variant)",3
"Strathdickie",4
"Tartar",4
"Chinghee",4
"Sunter",3
"Lindesay",4
"Sunnyside",4
"Sunnyside (Sandy Loam Topsoil Phase)",4
"Tabletop",3
"Tailing",2
"Barrunga With Erosion (1ugce)",3
"Barrunga Secondary Salinisation (1ugds)",3
"Lingilor",3
"1uge Eroded Phase",3
"Lingilor Secondary Salinisation",3
"2ugd2",3
"Barratta Shallow Variant (2uge1)",3
"Barratta Shallow Variant (2ugf1)",3
"Barratta With Erosion",3
"Barratta Secondary Salinisation (2ughs)",3
"Barratta Seasonally Inundated",2
"Koberinga A Horizon Variant",3
"6Dyg",3
"6Gnb",5
"6Gnd",5
"6Uca",3
"6Ucb",3
"6Ucc",6
"6Uga",3
"6Ugc",3
"6Uma",5
"Alluvial Complex - Higher",3
"Alluvial Complex - Lower",NA
"Alluvial Complex - Lower, Cracking Clays",3
"Auburn Channelly Phase",3
"Auburn Eroded Phase",3
"Narrawong",4
"Palouse",3
"Proston",5
"Sadie",3
"Taabinga",5
"Tureen",5
"Tarong",4
"Wondai",3
"Wheatlands",4
"Wooroolin",5
"Tenmile",2
"Uruba",4
"Uruba (Alluvial - Colluvial Variant)",4
"Uruba (Sandy A Horizon Variant)",4
"Up River",5
"Victoria Plains",3
"Kapaldo 6",NA
"Hutton 2.1",NA
"Wollingford",4
"Wagoora",4
"Hutton 3.4",NA
"1CHa",4
"1CHb",4
"1CHc",4
"1DEa",4
"Koberinga Mottled Phase (3uga9)",3
"Koberinga With Erosion (3ugae)",3
"Koberinga Rocky Phase",3
"Koberinga Secondary Salinisation (3ugas)",2
"3ugaw",2
"Koberinga Mottled Phase (3ugd9)",3
"Koberinga With Erosion (3ugde)",3
"Koberinga Shallow Variant",3
"Koberinga Pebbly Phase (3uge8)",3
"Koberinga With Erosion (3ugee)",3
"4Dyf5 B Colour Variant",3
"Bambave A Horizon Variant",3
"Auburn Red Subsoil Variant",NA
"Aranear",3
"Bray",4
"Bray Deep Phase",4
"Bonnie Crofts",3
"Brogue",4
"Brogue Rocky Phase",4
"Brogue Steep Phase",NA
"Bovekel",4
"Balark",4
"Balark Steep Phase",4
"Burnett",NA
"Burnett Coarse Sandy Variant",NA
"Beeron Deep-Surface Phase",3
"Brownside",6
"Algoma",2
"Atlanta",6
"Arriga",2
"Arriga Sandy",2
"Aunt",3
"Colledge",5
"Cobra",4
"Dimbulah",4
"Donlen",3
"Emerald",4
"Fumar",4
"Leadingham",2
"Morganbury",4
"Mcleod",2
"1DEb",5
"1KTa",6
"1SOa",4
"1SOb",4
"1SOc",4
"1SOd",4
"1SOx",4
"1VEa",4
"1VEb",4
"2SOa",4
"2VEa",NA
"2VEb",4
"2VEc",4
"2VEd",4
"2VEe",3
"2VEx",4
"2VEy",4
"3CHa",NA
"3CHx",4
"3DEa",4
"Bambave With Erosion",3
"Yoda Rocky Phase",3
"Yoda Secondary Salinisation",3
"2Dda3",3
"2DdaE",NA
"Latham Shallow Variant",4
"Dalrymple Shallow Variant",5
"Dalrymple B Colour Variant",5
"Dalrymple Alkaline Variant",5
"Dalrymple With Erosion",5
"5Dya3 A Horizon Variant",5
"Kyanoota With Erosion",4
"Kyanoota Secondary Salinisation",3
"Boynewood Eroded Phase",4
"Boyne",5
"Chessborough Rubbly, Shallow And Rocky Phase",NA
"Coonambula-Beeron",NA
"Dargy",4
"Dunbas",4
"Dunbas Deep Phase",4
"Dunbas Steep Phase",NA
"Derrick",4
"Dillan",3
"Drape",3
"Morgan",2
"Mulligan",3
"Mulligan Shallow Phase",3
"Murphy",3
"Masterton",3
"Narcotic",2
"Nullinga",3
"Nicotine",2
"Nicotine Yellow",3
"Price",5
"Poplar",2
"Penman",2
"Ray",2
"3DEx",4
"3DEy",4
"3KTx",6
"3SOa",4
"3SOb",4
"3SOx",4
"3VEa",4
"3VEb",4
"3VEc",4
"3VEw",4
"3VEx",3
"3VEy",4
"3VEz",4
"4CHa",4
"4CHb",4
"4CHx",4
"4DEx",4
"5SOy",4
"5VEx",4
"5VEy",4
"Ranly B Colour Variant",3
"Ranly With Erosion",3
"Ranly Secondary Salinisation",2
"Yalboota A Horizon Variant",4
"5Dyf",3
"Rock Outcrop",NA
"5Ugb1 Shallow Variant",3
"Wygong B Colour Variant",3
"Embie Buried Soils Or D Horizons Vary",3
"Embie With Erosion",3
"Glenalder Buried Soils Or D Horizons Vary",5
"Glenalder With Erosion",4
"Derra Rocky Phase",3
"Ella",3
"Fison",3
"Flagstone",NA
"Flagstone Channelly Phase",NA
"Greyfrill",3
"Greyfrill Eroded Phase",NA
"Jedda",4
"Kinburn",3
"Kinburn Eroded Phase",3
"Lacon Rocky Phase",NA
"Madoora",6
"Mulgildie",5
"Mulgildie Eroded Phase",5
"Mulgildie Rocky Phase",5
"Mulgildie Snuffy Variant",5
"Sorenson",4
"Tolga",5
"Bolygum",NA
"Uncle",3
"Walkamin",3
"Walsh",5
"Abrade",3
"Binna Burra",NA
"Beechmont",5
"Baundah",4
"Bellbird",4
"Berrima",4
"Beausang",3
"Biarra",3
"Brooklands",NA
"4KTx",5
"4SOa",4
"4SOb",4
"4SOx",4
"4SOy",4
"4KUx",NA
"4VEa",4
"Wetherall",1
"1ADb-11",NA
"1ADb-12",NA
"1ADb-13",4
"1AUf-8",NA
"TsDy-11",NA
"1ADd-7",NA
"1ADb-14",NA
"1ADd-8",NA
"1ADd-14",NA
"1AUg-4",4
"TsGn-7",NA
"TsUg-10",NA
"Wilkey Buried Soils Or D Horizons Vary",3
"Wilkey A Horizon Variant",3
"Wilkey With Erosion",3
"6Ddbs Secondary Salinisation",3
"Lancer Buried Soils Or D Horizons Vary (6dra2)",4
"Lancer With Erosion",4
"Lancer Buried Soils Or D Horizons Vary (6drb2)",4
"Lanona Buried Soils Or D Horizons Vary",4
"Clare A Horizon Variant",4
"Kelona Buried Soils Or D Horizons Vary",3
"Kelona A Horizon Variant",3
"Neugildie",5
"Neugildie Colluvial, Clayey Variant",5
"Neugildie Saline Phase",4
"Overrun",3
"Overrun Gilgaied Phase",NA
"Pedimentary Soil",5
"Panda",NA
"Panda Saline Phase",NA
"Platter",4
"Red Flank",6
"Riverleigh Clayey Variant",NA
"Riverleigh Eroded Phase",3
"Stratfield",4
"Solwig",3
"Solwig Eroded Phase",3
"Taughboyne",3
"Taughboyne Eroded Phase",3
"Wigton Association",3
"Bell (SEQ)",3
"Bromelton",3
"Boolumba",4
"Bridge",2
"Bunya",5
"Churchbank",4
"Cooeeimbardi",3
"Carbrook",3
"Conondale",3
"Cookes",4
"Cressbrook",5
"Woodhill",3
"Durundur",4
"D'Aguilar",5
"TsUgg-3",3
"SaUc-1",NA
"SaUc-2",6
"SaUc-3",6
"SaDy-1",4
"SaDb-1",NA
"SaDd-1",NA
"SaDy-2",3
"SaDy-3",5
"Woodall",NA
"Channel",3
"Darts",5
"Mungabunda",4
"Oombabeer",3
"Andergrove Water Table Variant",NA
"Falkner Quartz Phase",4
"Falkner Brown Variant",4
"Alice",4
"Alick",3
"Blair, Non-Vertic Variant",NA
"Almana Buried Soils Or D Horizons Vary",3
"6Dyjs Secondary Salinisation",3
"6E",NA
"Farencer Buried Soils Or D Horizons Vary",4
"Farencer B Colour Variant",4
"Farencer With Erosion",4
"Elkin Buried Soils Or D Horizons Vary",5
"6P",NA
"Swamp",2
"Miskin Buried Soils Or D Horizons Vary",6
"6Ufa2 Buried Soils Or D Horizons Vary",4
"6Ufas Secondary Salinisation",3
"6Ufb With Erosion",4
"6Ufc B Colour Variant",4
"Wigton Association Eroded Phase",3
"Wigton Association Steep And Broken Phase",NA
"Wigton Association Steep Phase",NA
"Whiteside",3
"Yondilla",3
"Ceratodus 1",NA
"Ceratodus 2",NA
"Ceratodus 4",NA
"Ceratodus 5",NA
"Ceratodus 6",NA
"Caswell 1.1",NA
"Caswell 1.2",NA
"Caswell 1.3",NA
"Evergreen 2.1",NA
"Deer",4
"Dunwich",5
"Esk",4
"Flinders",4
"Gleneagle",3
"Gallanani",4
"Gunyah",4
"Henderson (SEQ)",NA
"Horse",4
"Honey",5
"Jonlyn",4
"Jimboomba",5
"Jimna",5
"Althaus (Zed)",3
"Argea",3
"Antill",NA
"Alice-Carinya",NA
"Barra",5
"Beefwood",NA
"Barringha",NA
"Bohle",NA
"Black",5
"Bobawillie",NA
"6Ufc With Erosion",4
"6Ufd Buried Soils Or D Horizons Vary",4
"6Ufd With Erosion",4
"6Ufe With Erosion",5
"Wetona Buried Soils Or D Horizons Vary",3
"Wetona B Colour Variant",3
"Wetona With Erosion",3
"Wetona Secondary Salinisation",3
"Wetona Seasonally Inundated",2
"Burdekin Buried Soils Or D Horizons Vary",4
"Blarney",5
"Morven",6
"Coorooman",5
"Beecher",5
"Evergreen 2.2",NA
"Evergreen 2.3",NA
"Evergreen 2.4",NA
"Evergreen 2.7",NA
"Hutton 3.1",NA
"Kapaldo 1",NA
"Kapaldo 3",NA
"Kapaldo 4",NA
"Kapaldo 5",NA
"Kapaldo 7",NA
"Kapaldo 8",NA
"Kapaldo 9",NA
"Kamerigo",4
"Kenilworth",4
"Kilmoylar",4
"Kooruhman",5
"Kilcoy",5
"Logan - Seq",3
"Lara",NA
"Meadow",4
"Maclean",3
"Monsildale",4
"Moore",5
"Noon",4
"Obi",3
"Brolga",2
"Bluewater (Zed)",5
"Bently",NA
"Carinya Argea Complex",NA
"Cungulla",6
"Clemant",3
"Coonambelah",2
"Central",NA
"Danishman",4
"Double Barrel",NA
"Elizabeth",4
"Farnborough",4
"Doonside",4
"Montrose",3
"Voewood",3
"Colenso",NA
"Cleethorpes",NA
"Goodwin",6
"Janay",NA
"Kabra",NA
"Langley",NA
"Stewart",NA
"Camelot",NA
"Fourmile",NA
"Halivale",NA
"Washpool (Cqg)",NA
"Gracemere",3
"Malchi",NA
"Ewen",NA
"Somerset",NA
"Boongary",NA
"Tindall",NA
"Conway (Cqh)",3
"Barrack",4
"Bayfield",3
"Keppel",3
"Newby",3
"Awoonga",3
"Muncon 1.2",NA
"Muncon 1.3",NA
"Muncon 2.2",NA
"Muncon 2.6",NA
"Mulgildie 1",NA
"Mulgildie 2",NA
"Monto 1",NA
"Monto 2",NA
"Monto 4",NA
"Monto 5",NA
"Monto 6",NA
"Ottaba",3
"Payne",3
"Rockford",3
"Royston (SEQ)",3
"Muller",4
"Scrubby",4
"Smokes",3
"Spencer",3
"Tamrookum",NA
"Toogoolawah",3
"Vale",3
"Watt",4
"Doughboy (Zed)",1
"Elliot (Zed)",NA
"Ettrick",NA
"Five Head",NA
"Frederick",NA
"Blumberg",4
"Maroon",3
"Mockers",4
"Flagstone (Zed)",3
"Gilgai Complex",NA
"Gulliver Purono Complex",NA
"Garbutt",NA
"Gullied Lands",NA
"Granite",6
"Ebon",4
"Todds",3
"Liston",3
"Hensen",3
"Sable",4
"Tanby",2
"Stanage",2
"Keely",3
"Cammoo",5
"Gayfield",6
"Raven",5
"Meilland",5
"Carmine",5
"Iveragh",3
"Stoneleigh",4
"Swans",3
"Flanders",3
"Broughton",3
"Yaxley",2
"Arnolds",2
"Newen",3
"Beaks",5
"Muldoon",4
"Stevens",3
"Boyles",4
"Yarwun",3
"Shingle",5
"Bompa",4
"Military",6
"Monto 7",NA
"Monto 8",NA
"Threemoon 1",NA
"Threemoon 10",NA
"Threemoon 1v",NA
"Threemoon 2",NA
"Threemoon 3v",NA
"Threemoon 4",NA
"Threemoon 6",NA
"Threemoon 7",NA
"Threemoon 8",NA
"Threemoon 9",NA
"Antbed",1
"Antbed Acid Variant",1
"Andoom",5
"Wyaralong",3
"Winya",4
"Waters",NA
"Albert",3
"Andromache",6
"Ameliavale",3
"Andergrove (Alkaline Variant)",6
"Andergrove (Shallow Variant)",3
"Caboolture Soloth-Like Soils",NA
"Caboolture Krasnozems",NA
"Boston (Spy)",NA
"Billys Creek",4
"Bowman",NA
"Cape (Spy)",NA
"Corea (Spy)",NA
"Bode",5
"Gumlow",NA
"Halifax",4
"Healy",NA
"Hillview (Zed)",5
"Hervey",NA
"Jalloonda",NA
"Julago",NA
"Kulburn-Woodridge Complex",NA
"Kulburn",3
"Lagoon (Zed)",NA
"Landers Complex",NA
"Austins",5
"Valetta",5
"Magnan",2
"Lidon",2
"Ruby",4
"Corduroy",4
"Paddys",3
"Dale",4
"Kindara",3
"Adsett",2
"Yeppoon",3
"Yaringa",3
"Lorna",3
"Teralba",3
"Simpsons",4
"Plain",3
"Cottons",3
"Ironpot (Cqh)",3
"Cassandra",3
"Ashen",3
"Arnica",6
"Berrigan",6
"Boyanda",6
"Benaraby",5
"Ceduna",4
"Catalina",5
"Diglum",3
"Kenway",2
"Harwood",3
"Camona",3
"Dorall",3
"Pitt",2
"Audaer",3
"Attack",3
"Bimbus",2
"Bull",3
"Brom",3
"Brom Coarse Phase",3
"Bend",3
"Bertie",5
"Batavia",3
"Batavia Rocky Phase",3
"Crosbie",5
"Cook",5
"Camp",5
"Camp Red Variant",5
"Clark Coarse Phase",4
"Citri",2
"Caravan",3
"Ferny",4
"Bonavista",3
"Moore Eroded Phase",3
"Crystalbrook",3
"Condor",4
"Dissected Land",NA
"Calen (Sandy Loam Topsoil Phase)",NA
"Wtr",NA
"Cameron (Gleyed Subsoil Phase)",2
"Conway",4
"Campbell Plains",3
"George (Spy)",NA
"Little River",NA
"Debella",3
"Debella (Cobbly Variant)",6
"Dingo (Pss)",5
"Lucky Break",NA
"Manoa (Spy)",NA
"Langai",5
"Lansdown",NA
"Mountainous Area",NA
"Strongly Undulating Area",NA
"Mountainous Unit 3",5
"Magenta",6
"Mangroves",2
"Nosnillor (Spy)",NA
"New Moon",NA
"Morngi",NA
"Manton",3
"Night Jar",3
"Noholme",NA
"Ocke",NA
"Oolgar",NA
"Sandralee",3
"Stowe",3
"Brooks",4
"Evander",3
"Larcom",3
"Marla",3
"Narva",1
"Selina",6
"Frontier",NA
"Kinka",6
"Kellys",6
"Mulambin",2
"Tilden",2
"Hoogly",2
"Fitzroyvale 1",NA
"Darts - Fitzv",NA
"Blarney (Fitzv)",NA
"Fitzroyvale Pediment",NA
"Fitzdarts",NA
"Boyles (Fitzv)",NA
"Muldoon (Fitzv)",NA
"Fitzroyvale 2",NA
"Awoonga (Fitzv)",NA
"Fitzroyvale 3",NA
"Keppel (Fitzv)",NA
"Plain (Fitzv)",NA
"Caravan Coarse Phase",3
"Cox",5
"Doughboy",3
"Del",2
"Daunt",6
"Drop",3
"Deighton",4
"Deighton Coarse Phase",4
"Deighton Rocky Phase",4
"Dixie",5
"Endeavour",5
"Eykin",2
"Emma",5
"Eborac",5
"Ford",3
"Greenant",3
"Ginger",2
"Geike",3
"Gail",3
"George",1
"Gap",3
"Don",5
"Dunwold",4
"Dryander",3
"Edgecumbe",3
"Estuary",NA
"Etowrie",3
"Etowrie (Neutral Variant)",3
"Exmoor",6
"Finley",4
"Paynes (Spy)",NA
"Mungabunda Eroded Phase",4
"Finch Hatton (Alluvial - Colluvial Variant)",5
"Foxdale",3
"Gargett",5
"Rio (Spy)",NA
"Pattel",3
"Pinnacle",3
"Pallerenda",6
"Rishton (Spy)",NA
"Rolston (Spy)",NA
"Pall Mall",3
"Pepperpot",4
"Purono",3
"Quinda",3
"Ross",4
"Belbroughton (Fitzv)",NA
"Cottons (Fitzv)",NA
"Hoogly Acid Sulfate Soil",NA
"Hoogly (Fitzv)",NA
"Glenprairie (Fitzv)",NA
"Yaringa (Fitzv)",NA
"Selina (Fitzv)",NA
"Kinka (Fitzv)",NA
"Adeline",4
"Anncrouye",4
"Battery",3
"Bellarine",6
"Bills Hut",5
"Bills Hut Sandy Variant",5
"Bluchers",3
"Gibson",2
"Grevil Coarse Phase",NA
"Galloway",5
"Hesket",2
"Hann",2
"Henderson",5
"Isabella",5
"Jardine",3
"Jeannie",NA
"Kimba",5
"Kimba Rocky Phase",6
"Kennedy",2
"Kingjack",3
"Lockhart River Complex",NA
"Lydia Rocky Phase",2
"Lamond",3
"Lions",4
"Mitchell",5
"Moonlight",NA
"Morehead",5
"Glen Isla",1
"Goorganga",2
"Hodgkinson",5
"Ragvale",NA
"Upsand",NA
"Hector (WCS)",6
"Hillrise",3
"Hillsborough",2
"Caboolture Brown Podzolics",NA
"Julian",4
"Kailla",3
"Koolachu (Saline Variant)",3
"Kunipipi",3
"Kangaroo",3
"Kowari",5
"Lascelles",3
"Sandalwood",3
"Scrubby (Zed)",3
"Stockyard (Zed)",3
"Sachs",2
"Salt Pans",NA
"Stag",4
"Stuart",3
"Stanley",4
"Toolakea (Zed)",NA
"Booroondarra",6
"Bul Bul",4
"Bundoora",3
"Burradoo",4
"Burradoo Sodic Phase",3
"Carfax",4
"Carlo",4
"Cherwell-Wdh",6
"Emoh",3
"Myall",3
"Mapoon",1
"Norman",NA
"Nassau",NA
"Orchid",5
"Pinnacle - Cyp",2
"Pack",5
"Picanninny",3
"Quarantine",2
"Rokeby",5
"Rule",5
"Skardon",1
"Shea",4
"Scorpion",5
"Somerset - Cyp",6
"Somerset Ferric Phase",6
"Strath",6
"Silver",2
"Tozer",NA
"Victor",5
"Eildon",4
"Mcbride",4
"Digby",4
"Bayrick",3
"Cornie",2
"Mendip",3
"Connemarra",3
"Coorabulka",3
"Windeyer",3
"Romulus",3
"Burenda",3
"Armagh",3
"Douglas Ponds",3
"Sumnervale",3
"Ascot",3
"Duneira",3
"Tiree",3
"Tumbar",3
"Bibel",3
"Thomson",2
"La Plata",3
"Cornish",2
"Ulva",3
"Shirley",3
"Sumana",3
"Tambo",3
"Ludgate",3
"Merino",NA
"Glenray",NA
"Purrawunda",NA
"Acacia",NA
"Irving",NA
"Craigmore",NA
"Drayton",4
"Ruthven",5
"Gabbinbar",NA
"Middle Ridge",NA
"Haslemere",NA
"Haslemere",2
"Eastern Unit A",NA
"Duarran",NA
"Ringtail",2
"Koorandi",NA
"Stanley",4
"Yo Yo (Dwa)",NA
"Prairie (Dwa)",NA
"Vergemont",NA
"Thorton",NA
"Mueller",NA
"Johnstone",4
"Central (CCS)",NA
"Endi",NA
"Francis",NA
"Ixeter",NA
"1Dba2",NA
"Warrill",4
"Warrill-Saline Phase",2
"Ugarapul",NA
"GCAL",NA
"GRAL",NA
"GSAN",NA
"HGAL",NA
"KHB",NA
"KHG",NA
"KLB",NA
"KPR",NA
"KUB",NA
"NCHM",NA
"NCRM",NA
"NCSD",NA
"NCSG",NA
"PAN",NA
"PHG",NA
"PHM",NA
"PHS",NA
"PLDR",NA
"PLHG",NA
"PLHM",NA
"PLHS",NA
"PLHV",NA
"PLMV",NA
"PMG",NA
"Victoria",4
"Pinnacle - Dlr",5
"PSAN",NA
"PSHB",NA
"PSUB",NA
"RAN",NA
"REDR",NA
"REHG",NA
"Garfield",3
"Cherhill",3
"Coorabah",2
"Alvo",4
"Webb",4
"Uanda",4
"Tarella",4
"Tangorin",4
"Wowra",4
"Corys",3
"Ballygar",1
"Jericho",3
"Spoilbank",3
"Champion",3
"Caldervale",4
"Thrungli",3
"Stratford",4
"Rosemount",4
"Lancevale",3
"Erne",5
"Khyber",5
"Milray",4
"Rosefield",5
"Yo Yo",5
"Tilbury",4
"Sydenham",NA
"Hope",NA
"Ottaba Rocky",2
"Spencer_BlackSubsoil",3
"Norman Shallow Phase",4
"Olive",2
"Packsaddle",NA
"Therese",5
"Vrilya",NA
"Wheeler",3
"Witchura",5
"Bovekel Eroded Phase",3
"Boynewood Steep Phase",4
"Chessborough Rocky Phase",5
"Ellinthorp",NA
"Aberdeen Eroded Phase",NA
"Aberdeen Shallow Phase",4
"Craigmore Eroded Phase",NA
"Condamine Eroded Phase",NA
"Fassifern",NA
"Stibbes",4
"Kalamba",4
"Purdon",4
"Warumkarie",4
"Pennell",4
"Kulgun",NA
"Kelly",3
"Mcgrath",4
"6Dda6",NA
"6DdaW",2
"6Ddb2",3
"6Ddb3",NA
"6DdbE",3
"6Dga6",NA
"6Dra3",NA
"6Dra5",NA
"6Drb3",NA
"6Drb4",4
"Maywin",5
"Merion",3
"Middlemount",6
"Middlemount Colluvial Variant",4
"Mt Stuart",4
"Ninemile",4
"Norwich",3
"Parrot",4
"REHS",NA
"REPR",NA
"REPT",NA
"RERG",NA
"RERT",NA
"RESG",NA
"RHG",NA
"RHM",NA
"RHS",NA
"RHV",5
"RMV",NA
"RPL",NA
"RRG",NA
"RRT",NA
"RSG",NA
"RSS",NA
"SBLB",NA
"SCAN",NA
"SCDR",NA
"SCHG",NA
"SELB",NA
"SHAN",NA
"SKLB",5
"SKUB",NA
"SRHV",NA
"WLB",NA
"XHV",NA
"Clemant",4
"Ewan",5
"Carbean",NA
"Birkhead",4
"Duck Creek",4
"Devenish",4
"Tarabah",4
"Rosedale",4
"Neverfail",4
"Lumeah",3
"Annandale (Hwa)",5
"Sturt (Hwa)",3
"Nulla (Hwa)",3
"Lucknow (Hwa)",3
"Lydia (Fwa)",1
"Mundoo (Fwa)",3
"Mt Pleasant",3
"Mooloothulla",3
"Tego",3
"Gerah",3
"Wallal",3
"Noorama",3
"Bundaleer",3
"Toolonga",3
"Bando",3
"Brumby",3
"Loddon",4
"Halton",4
"6Drb8",NA
"6DrbE",4
"6DrcE",4
"6Dya2",3
"6Dya3",3
"6Dya5",3
"6Dyb1",4
"6Dyb3",4
"6Dyb4",NA
"6Dyc2",4
"6Dyc5",4
"6Dyd2",4
"6Dyd3",4
"6Dyd5",NA
"4R",NA
"4Ucc1",5
"4Ucc2",3
"4UccR",5
"5Dra3",5
"5DraR",5
"5DraV",NA
"Kestrel",NA
"Lundar",NA
"Nodule",NA
"Oxton",NA
"Peace",NA
"Quambo",NA
"Reid",NA
"Tanbrok",NA
"Mako",NA
"Midflat",NA
"Picardy Surface Seal Phase",4
"Pomegranate",3
"Pomegranate Shallow Phase",3
"Racetrack",3
"Racetrack Shallow Phase",3
"Red Cliff",4
"Red Hill",5
"Red-One",4
"Conolly",6
"Rangeview",4
"Thorpe - Dlr",3
"Earlsfield Lower Phase",3
"Rolleston Saline Phase",3
"Rolleston Deposition Phase",3
"Earlsfield Gilgai Phase",NA
"Citri Coarse Phase",2
"Caravan Deep Phase",3
"Ginger Rocky Phase",NA
"Grevil",NA
"Hodge",5
"Harmer",4
"1Dy",3
"1Ug",3
"3Dy",3
"3Ug",NA
"Maxvale",2
"Windsor (Hwa)",3
"Brunell",4
"Blackwater",3
"Mayvale",4
"Elmina",2
"Bonnie",NA
"Bowra",4
"Myola",4
"Randwick",4
"Boolooroo",3
"Minitta",4
"Conniston",3
"Rollo",3
"Cumberoo",3
"Essex",NA
"Geiger",3
"Mellew",NA
"Mons",3
"Morunda",3
"Oakham",NA
"Powell",3
"Retreat",2
"Sharpham",3
"Stewart (Bwa)",3
"Stonehenge",NA
"Southedge",NA
"Biboohra",NA
"Kimalo",NA
"Marianne",NA
"Crook",NA
"Oona",NA
"Araluena",NA
"Shanty",NA
"Goose",NA
"Pig Swamp",NA
"Twomile",NA
"Floreat",NA
"Tobacco",NA
"Beacon",NA
"Power",NA
"Meatworks",NA
"Peninsula",NA
"Forky Stick",NA
"Finger",NA
"Clergy",NA
"Donald",NA
"Gouldian",NA
"Scraper",NA
"Rosevale",4
"Dieckmann",NA
"Wiss",5
"Roper",4
"Stateschool",4
"Stephens",4
"Ternallum",4
"Thirteenmile",3
"Tiny",4
"Tralee",3
"Turon",3
"Warwick",3
"Wieta",4
"5Dr",5
"5Dy",NA
"5Ug",3
"6Dd",3
"6Dr",4
"6Dy",NA
"6Gn",4
"6Uf",4
"6Um",5
"Bullseye",NA
"Bert",NA
"Pear Tree",NA
"Court",NA
"Little Snake",NA
"Haslemere",NA
"Charlton Shallow Phase",4
"Charlton Shallow Phase",4
"Ellangowan Coarse Variant",NA
"Charlton Eroded Phase",NA
"Maxland Coarse Variant",NA
"Roma Downs",NA
"Waverly Downs",NA
"Knockalong",NA
"Limewood",NA
"Wondolin",NA
"Eumamurrin",NA
"Lance",4
"Yellunga",NA
"Frazer",5
"Ortels",NA
"Watters",NA
"Butcher Sandy Variant",NA
"Isis Rocky Phase",NA
"Johnson",NA
"Kolan Rocky Phase",NA
"Mary Dark Variant",NA
"Owanyilla Rocky Phase",NA
"Pelion Dark Variant",NA
"Rothchild Podosolic Variant",NA
"Tiaro Red Variant",NA
"Beenham Tenosolic Variant",NA
"Beenham Yellow Variant",NA
"5Dya1",5
"5Dya5",5
"5DyaR",5
"5Dyb3",4
"5Dyb5",NA
"5Dyb6",4
"5Dyc1",3
"Windeyers Hill",4
"Windeyers Hill Melonhole Phase",4
"Wyndham",5
"Gayfield (CCL)",5
"O'Connell",6
"Meilland (CCL)",5
"Voewood (CCL)",4
"Bulburin",5
"Montpellier",3
"Elphinstone Depositional Phase",NA
"Elphinstone Eroded Phase",NA
"Elphinstone Shallow Phase",NA
"Glentanna Shallow Phase",NA
"Elphinstone Salt Affected Phase",NA
"Oak Eroded Phase",NA
"Talgai Clay Eroded Phase",NA
"Talgai Clay Shallow Phase",NA
"Purrawunda Shallow Phase",4
"Pratten Salty Phase",NA
"Pratten Sandy Variant",NA
"BUca2",4
"BUcb",6
"BUcb2",4
"BUfaS",4
"BUfb2",4
"BUfcA",4
"BUfd",4
"BUga",4
"BUma",5
"BUmb",5
"BUmb2",4
"CDba",4
"Tingun",NA
"Woolaman",5
"Milford",3
"Reynold",3
"Rockville",4
"Swan Creek",4
"Toohill",4
"Charlwood",5
"Clergy Wet Phase",NA
"Glenarden",NA
"Pembroke",NA
"Belah",NA
"Karee",NA
"Quibet",NA
"5Dyc2",NA
"5Dyc3",3
"5DycR",NA
"5DycV",NA
"5Dyd3",NA
"5Dye1",4
"5Dye2",NA
"5RE",NA
"5Uga5",NA
"5Uga6",NA
"5UgaE",3
"5UgaR",3
"6Dba3",3
"6Dba5",NA
"6DbaV",NA
"6Dbb2",3
"6Dbb3",3
"6DbbE",3
"6Dbc2",4
"6Dbc3",4
"6Dbc4",4
"6Dbc5",NA
"6DbcC",4
"6DbcE",4
"6DbcW",NA
"Mcdesme",5
"Ayreesta",1
"Maidavale",3
"Jarvisfield",5
"Blarney (CCL)",5
"Gumigil",5
"Slopeaway",5
"Lizard (CCL)",5
"Barrack (CCL)",5
"Doonside (CCL)",5
"Bondoola",5
"Stanage (CCL)",3
"Annandale (Ccl)",NA
"Dunrobin (CCL)",4
"Araluena Wet Phase",NA
"Floreat Wet Phase",NA
"Peninsula Wet Phase",NA
"Forky Stick Wet Phase",NA
"2ugcs",3
"Koberinga Seasonally Inundated (3ugcw)",2
"Koberinga Secondary Salinisation (3uges)",2
"Bambave Rocky Phase",3
"Embie Secondary Salinisation",3
"6Ufb Secondary Salinidation",4
"6UmaA",3
"Carbeen",NA
"Lanona A Horizon Variant",4
"Lydia",2
"Lukin",5
"Livis",3
"Merkunga",2
"Nimitybelle",NA
"Lucknow",NA
"Alice (Awa)",5
"Nockatunga",4
"Pelican (Bwa)",2
"Tully (Hwa)",NA
"Frontal Dune",NA
"National Park",NA
"Salt Flat",NA
"Skeletal Soils",6
"1Dyc2",NA
"1UgcS",2
"1Ugd2",NA
"2UgeS",3
"4Dbb1",4
"4Dy",NA
"4Gnb1",5
"5UgaS",3
"5Ugb6",NA
"6Db",NA
"6Dbb5",NA
"6DydA",NA
"6Dyh5",NA
"6Uc",3
"6Ufa5",NA
"6UfbA",3
"6UfcA",3
"Katoora",3
"Mirrigan",5
"Mcdonald",5
"Kairi",5
"Hoop",5
"Pope",5
"Drysdale",5
"Godfrey",NA
"Yungaburra",5
"Blackburn",NA
"Laura",NA
"Maclean (Lak)",NA
"Bullhead",NA
"Bubbler",NA
"Normanby",NA
"Lily",NA
"Loamy Tc On Granite",NA
"Eurombah",NA
"Alh",3
"Wellcamp",NA
"Harristown",NA
"Station",NA
"Horto",NA
"Colet",NA
"Rio",NA
"Struan (CCL)",4
"Coorooman (CCL)",5
"Darts (CCL)",5
"Benmore",4
"Awoonga (CCL)",3
"Cardowan",4
"Cerbrus",5
"Kinka (CCL)",6
"Manifold",6
"Charon",6
"Valentine",1
"Dismal (CCL)",1
"Marina",2
"Clifford",4
"Clifford Steep Phase",4
"Como",4
"Wahpunga",4
"Wahpunga Deep Phase",4
"Carinya (Rom)",NA
"Carinya Pebbly Phase",NA
"Nsg",NA
"CDbb",3
"CUmb",5
"MUfa",2
"RDya",3
"RUff",2
"RUgbS",3
"RUgcS",3
"Jamtin",NA
"Hooley",NA
"Cleanskin",NA
"Brandy Hat",NA
"6UfdA",4
"6UgcA",3
"6Uma6",NA
"BGna",5
"BGnb2",4
"Black - red subsoil horizons",5
"BUca",6
"BUcaS",4
"BUcbA",NA
"BUfa",4
"BUfa2",NA
"BUfb",4
"BUfc",4
"BUfc2",NA
"BUfcS",4
"BUma2",NA
"BUmaS",5
"BUmbS",NA
"BUmd",5
"CUca",6
"CUca2",NA
"CUfa",5
"CUfa2",NA
"CUfb",5
"CUfb2",NA
"CUfc",4
"CUfc2",NA
"CUfcS",3
"CUma",6
"CUma2",4
"CUmb2",NA
"Dalrymple (MAJCK)",5
"Miscellaneous flooded",2
"Moosie (MAJCK)",3
"Manton - structured surface horizons",4
"Granite",6
"Mothar",NA
"Neusa",NA
"Otago",NA
"Rammutt",NA
"Tagigan",NA
"Tewoo",NA
"Tungi",NA
"Wolvi",NA
"Wonga",NA
"Woondum",NA
"Oak",3
"Glenmore",3
"6Dbd2",NA
"6Dbd3",4
"1DbaR",NA
"1Dda3",3
"1Ddb",NA
"1Dyc1",NA
"1Dyc3",3
"1Dyc6",NA
"1DycE",3
"Rolleston (CCL)",4
"Pegunny (CCL)",3
"Ewen (CCL)",3
"Ironpot (CCL)",NA
"Develin",3
"Warree",NA
"Strathmuir",3
"Planted",3
"Nullegai",3
"Larcom (CCL)",3
"Milman",2
"Bore Track",NA
"Landing",NA
"Mungo",NA
"Lynch",NA
"Jagged",NA
"Toby",NA
"Racecourse",NA
"Gara",NA
"Pillars",NA
"Christi",NA
"Blanrock",NA
"Prestwet",NA
"Nender",NA
"Pig Holes",NA
"Sircom",NA
"BGnc",5
"Harris",3
"Nikita",4
"Overdeen",4
"Police Camp",3
"MUca",6
"MUcb",6
"RUca",6
"RUfe",3
"RUga",3
"RUgc",3
"RUgd",3
"Saline seep in lower slope position",NA
"Serpentine",2
"Sachs - brown subsoil horizons",3
"Stockyard loam - red subsoil horizons",4
"Walker - grey subsoil horizons",3
"1Db",3
"Walker (Majck)",4
"Atlanta Shallow Phase",6
"Algoma Pan Phase",NA
"Caesar Acid Variant",NA
"Expedition Yellow Variant",NA
"Glengordon Gravelly Variant",NA
"Leadingham Shallow Phase",NA
"Mullaburra Yellow Variant",NA
"Murphy Gravelly Phase",3
"Price Coarse Sandy Phase",NA
"Penman Pan Phase",NA
"Rumula Alkaline Variant",3
"1Dyg",NA
"1Uga1",3
"1Uga2",NA
"1Ugc6",NA
"1Ugd5",NA
"1Uge1",NA
"1Uge2",NA
"1UgeR",NA
"1Ugf3",NA
"1UgfE",3
"2Dba2",3
"2Dba3",3
"2Dba5",3
"2DbaE",3
"2DbaV",NA
"2Dbb2",3
"2Dbb3",3
"2Dbb5",NA
"2DbbE",3
"2Dbc2",3
"2Dbc3",3
"2DbcE",3
"2Dbd2",3
"Yarranlea",NA
"Goodger",5
"Lankowsky",5
"Wellington",5
"Degalgil",5
"Figtree",NA
"Yeppoon (CCL)",3
"Hilldale",5
"Vermont (CCL)",3
"Glengarry",2
"Maxwelton",3
"Hoogly (Ccl)",1
"Wadallah",1
"1ARU1",5
"Pakington",3
"Retro (BAN)",3
"Santo Fertile Phase",5
"Applegrove",NA
"Kelsey Cobbly Phase",NA
"Koolachu Saline Phase",NA
"Bench",5
"Buffel",4
"Ladies Mile",NA
"Lindeman",NA
"Mount-Bambling",4
"Stylo",3
"Tank",3
"Coonambula Eroded Phase",3
"Steep/dissected land:hillslopes, crests and gorges",NA
"Spanos Heavy Variant",5
"Tolga Rocky Phase",5
"Weatherby Alkaline Variant",NA
"Walkamin Grey Variant",3
"Walkamin Shallow Phase",NA
"Walkamin Sandy Phase",NA
"Walsh Gravelly Phase",5
"Steep Dissected Gullies",NA
"Magenta",6
"Manton",3
"Pall Mall",3
"Miva",NA
"Bromelton (Kal)",4
"Rangeview (Kal)",5
"Murlaggan",3
"2Ddb1",NA
"2Ddb2",3
"2Ddb3",3
"2Ddb5",NA
"2Ddb7",NA
"2DdbE",3
"2Ddc3",NA
"2Ddc5",NA
"Butcher",NA
"Coonoon Yellow Variant",NA
"Dwyer",NA
"Palms",NA
"Amamoor",NA
"Brooyar Non-Mottled Variant",NA
"Dagun Brown Variant",NA
"Gander Red Variant",NA
"Tandur",NA
"Bony",6
"Anderleigh",NA
"Bella",NA
"Coondoo",NA
"Goomboorian",NA
"Kiaora",NA
"Mapleton",NA
"Mettarula",NA
"1AKA1",5
"1ADE1",4
"1ACH1",4
"1ACH2",4
"1ASO1",3
"1AVE1",4
"1AVE2",4
"1AVE3",4
"1AVE4",3
"1AVE5",4
"1ATE2",5
"1ATE3",5
"1AKA2",5
"1ADE2",4
"1ACH3",4
"1AVE6",4
"2ADE1",4
"2ASO1",2
"2AVE1",4
"2AVE2",4
"3ASO1",3
"3ASO2",4
"3ASO3",3
"3AVE1",4
"Derrick Steep And Broken Phase",4
"Fison Rocky Phase",NA
"Lacon Eroded Phase",4
"Neugildie Eroded Phase",5
"Burnett Shallow Phase",NA
"6Dyg5",NA
"Purrawunda Shallow Phase",4
"Como Shallow Phase",3
"Cootharaba",1
"Beechmont2",5
"Blake",NA
"Sonny",4
"Sonny",4
"Jacks",NA
"Christmas",NA
"Venture",NA
"Cousin",NA
"Bustard",NA
"2Ddf",NA
"2Dya2",3
"2Dya3",3
"2Dya7",NA
"2DyaE",3
"2DyaV",NA
"2DyaW",2
"2Dyb1",3
"2Dyb2",3
"2Dyb3",NA
"2Dyb5",NA
"2DybB",NA
"2DybE",3
"2Dyc2",3
"2Dyc3",3
"2DycE",3
"2DycV",NA
"2DycW",2
"2Dyf",NA
"2E",NA
"2P",NA
"2SP",2
"2Ufa",NA
"2Uga2",NA
"2UgaE",3
"2UgbE",3
"2Ugc2",3
"2Ugc3",NA
"Witton, vertic variant",NA
"XLB",NA
"YEAN",NA
"YEHM",NA
"Mongal",NA
"Berris",4
"2Dbd3",NA
"2Dbd5",NA
"2Dbd7",3
"2DbdE",3
"2DbdV",NA
"2Dbe2",3
"2Dbe3",NA
"2Dbe4",3
"2DbeE",3
"2DbeW",2
"2Dbh",NA
"2Dda2",3
"6Dyd7",4
"6DydE",4
"6DydW",2
"6Dye2",NA
"6Dye3",4
"6Dyf2",4
"6Dyf3",4
"6Dyf5",NA
"6DyfE",4
"6Dyg4",3
"6Dyg7",3
"6DygE",3
"6DygW",2
"6Dyh1",NA
"6Dyh3",3
"6DyhE",3
"CDE1",5
"CDE2",4
"CDE3",4
"CDE4",4
"CCH1",3
"CSO1",3
"CSO2",3
"CVE1",4
"CVE3",3
"CVE4",3
"CVE5",2
"TTE1",5
"TKA1",5
"TDE1",5
"TKU1",4
"TDE2",4
"BFE1",5
"BVE1",4
"IDE1",5
"IDV1",4
"IVE1",4
"IDE2",5
"Gulf Road",NA
"Gilbert",NA
"Coleman",NA
"Boomerang",NA
"Pear Tree Red Variant",NA
"Venture Calcareous Variant",NA
"Brandy Hat Alkaline Variant",NA
"Bullock",4
"Gillian",2
"Pennsfield (MAJCK)",NA
"Koberinga Pebbly Phase (3uga8)",3
"6Drc5",NA
"Donlen Pan Phase",NA
"Emerald Coarse Sandy Phase",4
"Leadingham Pan Phase",NA
"6Dyd1",4
"4Dga3",3
"4Dya1",3
"6UgaA",3
"YEPR",NA
"YEPT",NA
"YERM",NA
"YERT",NA
"YRG",NA
"YSG",NA
"YSS",NA
"Glenroc Stony Phase",3
"Eroded Alluvial Terraces",NA
"Eroded Banks Of Major Streams",NA
"Eroded Areas In Pediplains",NA
"Eroded Sedentary Soils",NA
"Burdekin Deltaic Deposits",NA
"Alluvial Unit 1",NA
"Alluvial Unit 2",NA
"Plains Unit 1",NA
"Plains Unit 2",NA
"Plains Unit 3",NA
"Plains Unit 4",NA
"Plains Unit 5",NA
"Plains Unit 6",NA
"Plateau Unit 1",NA
"Arriga (Ata)",NA
"Pin Gin (Ata)",NA
"Mapee",NA
"6Dyj2",3
"Glenmore",3
"Talgai Clay",3
"Norillee",NA
"Mywybilla",3
"GCH1",4
"GDE1",5
"GSO1",4
"MSO1",4
"MDE2",5
"SDE1",4
"SDE2",4
"SDE3",5
"SDE4",4
"SSO1",4
"SVE1",4
"UDE1",4
"UDE2",5
"Liverpool Wet Variant",5
"Pawngilly",NA
"Mountains And Hills - Metamorphic",NA
"Mountains And Hills - Granitic",NA
"Maraboon",NA
"TsDb-1",NA
"TsDd-1",NA
"TsUc-4",NA
"Karmona",3
"Arima",3
"Ackland",3
"Ooliman",3
"Pinkilla",3
"Thylungra",3
"Kihee",3
"Houdraman",2
"Comongin",3
"Parrogona",2
"Cottesmore",4
"3AUf-Ug-6d",NA
"Tabbareah",2
"Currawinya",3
"Wilson",3
"BGnb",5
"MDya",2
"Spier",5
"Wandoo",5
"Belldeen",4
"Bluff (BAN)",6
"Banana",4
"Edwards",5
"4dyc1",NA
"Murphy Shallow Phase",3
"Nullinga Shallow Phase",NA
"Penman Dark Phase",NA
"Penman Sandy Phase",NA
"Archers Creek",NA
"Dimbulah (Ata)",NA
"Paddys Green",NA
"Algoma (Ata)",NA
"Mt Garnet",NA
"Barron River Alluvium",NA
"Mandalee",NA
"Leadingham (Ata)",NA
"Chilverton",NA
"2Ugc5",3
"2UgcE",3
"2UgcW",2
"2Ugd1",3
"2Ugd3",3
"2Ugd5",3
"2Ugd7",3
"2UgdE",3
"2UgdW",2
"2Uge2",3
"2Uge3",NA
"2Uge5",3
"2Uge6",NA
"2Uge7",3
"2UgeB",NA
"2UgeE",3
"2UgeW",2
"2Ugf2",3
"Greycliffe Melonhole Phase",2
"6Dyj3",3
"6DyjE",3
"6G",NA
"6Gna3",4
"6Gnb2",5
"6Gnb3",5
"6Gnc2",3
"6GndE",5
"6Gne2",4
"6Gne3",4
"6GneE",4
"6Uca4",NA
"6Ucb2",3
"6Ucb3",3
"6UcbV",NA
"6Ucc5",6
"6UccC",6
"6UccE",6
"6Ufc2",4
"6UfcW",2
"6UfdW",2
"6Ufe6",NA
"6UgaC",3
"6Ugc2",3
"6Ugc3",3
"6UgcE",3
"6UgcW",2
"Quilpie",2
"Wyara",2
"Tennappera",2
"Chastleton",3
"Ambathala",3
"Caiwarro",3
"Tintinchilla",NA
"Whynot",NA
"Lymbah",NA
"Coolah",NA
"Okena",4
"Prairie",3
"Kulki",3
"Corona",4
"Mt Margaret",4
"Uncle Shallow Phase",NA
"Walkamin Rocky Phase",3
"Walsh Coarse Sandy Phase",5
"Eulama",2
"Eulama Buried Variant",3
"Paulsen",4
"Pender",4
"Stratton",4
"Brandyhat Alkaline Phase",NA
"Gulfroad Alkaline Phase",NA
"Pleasant Calcareous (Alkaline) Phase",NA
"Venture Red Phase",NA
"Toby Pan Phase",NA
"Boretrack Alkaline Phase",NA
"Blanrock Alkaline Phase",NA
"Bustard Heavy Variant",NA
"Bert Red Variant",NA
"Bullseye-Mungo Intergrade",NA
"Coleman Alkaline Phase",NA
"Coleman Sandy Loam Variant",NA
"Pleasant-Venture Intergrade",NA
"Pleasant-Venture Intergrade, Calcareous Phase",NA
"Toby-Tock Intergrade",NA
"2UgfE",3
"2UgfW",2
"2Ugg2",3
"2Ugg3",3
"2Ugg5",3
"2Ugg7",3
"2UggB",3
"2UggE",3
"2UggW",2
"2Ugh2",NA
"2Ugh5",NA
"2Ugh7",3
"2UghV",NA
"2Ugk2",3
"Plateau Unit 2",NA
"Plateau Unit 3",NA
"Plateau Unit 4",NA
"Plateau Unit 5",NA
"Plateau Unit 6",NA
"Althaus (Zed)",4
"Black",4
"Carse O'Gowrie",3
"6Uma2",5
"6UmaC",5
"6UmaE",5
"6UmaW",NA
"Prairie Creek",NA
"Flin",NA
"Rifle Creek",NA
"3SOc",4
"2DEx",4
"Perry",4
"6Umb3",NA
"6UmbC",5
"D",1
"E",NA
"E1Dba",NA
"E1Ugb",NA
"E1Ugd",NA
"E1Uge",3
"E2Ugb",NA
"E3Dya",NA
"E3Ugd",NA
"E3Ugh",3
"E4Dyb",3
"E4Dyc",NA
"E5Dra",NA
"E6Dba",NA
"G",NA
"SSs",3
"Alluvial Metamorphics",NA
"Alluvium (BAT)",NA
"Tinnenburra",4
"Napoleon",5
"Gooyana",2
"Kotri",5
"Titheroo",5
"Paroomatoo",5
"Mirintu",5
"Chookoo",5
"Woban",3
"Grey",5
"Thornleigh",3
"Woorbil",3
"Springvale",NA
"Tilkerie",4
"6AUf-2",NA
"TsUg-4",NA
"Cootabynia",3
"Tock",NA
"Venture Calcreous Pahse",NA
"Cecilvale",3
"5Dra2",NA
"Kinmond",2
"Kinmond Acidic Phase",2
"Pangola",3
"Pangola Deeply Weathered Phase",3
"Edgecombe",NA
"Waverley",NA
"Oakview",NA
"Miscellaneous Group 1",NA
"Miscellaneous Group 2",NA
"Miscellaneous Group 3",NA
"Miscellaneous Group 4",4
"1Dba3",NA
"Purono",3
"Ross",4
"Scrubby (Zed)",3
"Moore (Kal)",NA
"Churchbank (Kal)",NA
"Trinity",NA
"Machan",NA
"3Uga1",NA
"3Uga2",NA
"3Uge2",NA
"3Ugf1",3
"3Ugk6",NA
"4Dga5",NA
"4Dya3",3
"4Dyd3",4
"4DydE",4
"4Dyf3",NA
"4Dyg1",NA
"Bierwirth",NA
"Blakens",NA
"Blakens Old",NA
"Brown Clay (BAT)",NA
"Earthy Sand (BAT)",NA
"Grey Earth (BAT)",NA
"Hills Metamorphic",NA
"Hills Sandstone",NA
"Hills Tertiary (includes lateritic remnants)",NA
"Ironstone Ridges (BAT)",NA
"Lithosol (BAT)",NA
"Minty",NA
"Mundy",NA
"Pit",NA
"Plains Granite (GRIP)",NA
"Perpetua",4
"Garrett",4
"Eversleigh",4
"Griffiths",3
"Haden",4
"Podsol (BAT)",NA
"Dudgeon",3
"Price (GRIP)",NA
"Red Earth (BAT)",NA
"Rolling Basalt",5
"Rolling Tertiary",NA
"Tilly",5
"Tilly Shallow",5
"Sylvester",3
"Carlow",3
"Hayfields",3
"Moonbang",2
"Holmes",3
"Bulgroo",NA
"Lynwood",4
"Newhaven",4
"Ingella",3
"Woomelang",5
"Bindaree",5
"Mitchells",5
"Ullenburry",5
"Moses",5
"Woolga",5
"Northampton",3
"Karoola",3
"Davenport",NA
"Canary",3
"Warra",3
"Buckingham",3
"Marion",3
"Glengyle",2
"Bonwell",4
"Caroline",3
"Collins",4
"Desdemona",3
"Hibiscus_Strong",6
"Moore",4
"Muckabay",NA
"Hempsall",2
"Hempsall Hydrosol Phase",2
"Kin Kin",4
"4Dyg4",3
"4Dyh1",NA
"4Dyh3",3
"4Dyl3",NA
"4E",NA
"4Gna2",3
"6Dbe2",4
"6Dbe3",NA
"6Dbe5",NA
"6DbeE",4
"6Dbf1",NA
"6Dbf3",NA
"6DbfV",NA
"6DbgW",2
"6Dbh2",3
"6Dbh5",NA
"6Dbh7",3
"6DbhV",NA
"6Dda1",NA
"6Dda5",3
"Stockyard (Zed)",3
"Stuart",3
"Undulating Basalts",NA
"Undulating Granite (GRIP)",NA
"Undulating Tertiary (includes lateritic remnants)",NA
"Willow",NA
"Xanthozem (BAT)",NA
"Yellow Earth (BAT)",NA
"Cockatoo",NA
"BCAL",NA
"BCLB",NA
"BCPL",NA
"BEAL",NA
"BEDB",4
"BELB",NA
"BERG",NA
"Glenvale",NA
"Pony",NA
"Eulawra",NA
"Springburn",3
"BGHS",2
"BMAL",NA
"BYPT",NA
"EBAL",NA
"EDB",NA
"ELB",NA
"ERM",NA
"EUB",NA
"GBAN",NA
"Moonda",2
"Brighton",3
"Cluny",3
"Linda",3
"Pelican (Hwa)",2
"Wheelaman",4
"Coota",4
"Poodyea",4
"Boundary",4
"Duncan",3
"Ninmaroo",NA
"Carondotta",3
"Austral",4
"Alderley",3
"Cottonbush",3
"Wolkingham",2
"Diamantina",2
"Thackery",2
"Wolga",3
"Manuka",4
"Wills",4
"Chatsworth",4
"Landsdowne",3
"Warrah",3
"Burnham",4
"Charlton Red Variant",NA
"Cawdor",NA
"Glenmore Eroded Phase",NA
"Murlaggan Shallow Phase",NA
"Purrawunda Eroded Phase",NA
"Station (Wrs)",NA
"Mapee (Wrs)",NA
"Mapee Rocky Phase",NA
"Walkamin Shallow Phase (Wrs)",NA
"Maud",NA
"Bates",4
"Bates Deep Phase",4
"Bazzo",3
"Boreen",3
"Kin Kin Bleached Variant",4
"Damper",NA
"Beppo Rocky Phase",4
"Gulfroad Eroded",NA
"Normanby (MRS)",NA
"Cyrus",NA
"Hanson",NA
"Weber",3
"Furnivall",3
"Evans",3
"Sartor",NA
"Simpson",4
"Simpson Acidic Phase",3
"Sister",4
"Beechmont Boundary Phase",NA
"Kin Kin Yellow Variant",4
"Common",NA
"Tutae",NA
"Levee",NA
"Stockman",NA
"Alder",NA
"Yellow Sandy (Gullied)",NA
"Mambury",NA
"Common Gilgai Phase",NA
"Common Rocky Phase (20%)",NA
"Common Rocky Phase (50%)",NA
"Central Gilgai Phase",NA
"Central Boree Phase",NA
"Central Rocky Phase (20%)",NA
"Central Rocky Phase (50%)",NA
"Stockman Shallow Phase",NA
"Tutae Shallow Phase",NA
"Alder Alkaline Phase",NA
"Levee Alkaline Phase",NA
"Red Alluvial",NA
"Red Alluvial Shallow Variant",NA
"Red Sandy",NA
"Yellow Sandy",NA
"Brown Loamy",NA
"Brown Gravelly",NA
"Swampy Tea Tree",NA
"Bandicoot",NA
"Narayen Brigalow 7",5
"Narayen Brigalow 8",5
"Narayen Brigalow 9 Gilgai Complex",5
"Narayen Brigalow 10",5
"Shallow Granite Soil",NA
"Deep Granite Soil",NA
"Ocean",NA
"Sandy Footslope Soil",NA
"Beach Ridge Soil",NA
"Marine Sediments",NA
"Narayen Brigalow 14",5
"Narayen Brigalow 15",4
"Narayen Brigalow 15 Brown Subsoil Phase",4
"Narayen Brigalow 16",5
"Narayen Brigalow 17",5
"Narayen Brigalow 18",5
"Narayen Brigalow 19",4
"Narayen Brigalow 20 Gilgai Complex",4
"Redlands",5
"Woodridge Rhs",NA
"Queen",NA
"Coburg",4
"Delancey",3
"Hilliards",2
"Narayen Brigalow 2",4
"Narayen Brigalow 3",4
"Narayen Brigalow 4",4
"Southbrook Eroded Phase",NA
"Waco Eroded Phase",3
"Narayen Brigalow 11",5
"Narayen Brigalow 11 Deep Phase",5
"Narayen Brigalow 12",5
"Narayen Brigalow 13",5
"Narayen Brigalow 21",4
"Narayen Brigalow 22 Gilgai Complex",4
"Narayen Brigalow 23",5
"Narayen Brigalow 24",4
"Narayen Brigalow 25 Gilgai Complex",5
"Narayen Brigalow 26 Gilgai Complex",4
"Narayen Brigalow 27",4
"Narayen Brigalow 28",4
"Narayen Brigalow 29",4
"Narayen Brigalow 30",3
"Unebee",NA
"Unedin",NA
"Narayen Brigalow 1",4
"Mareeba 1",5
"Mareeba 2",5
"Mareeba 3",5
"Mareeba 4",NA
"Mareeba 5",3
"Mareeba 6",3
"Mareeba 7",3
"Mareeba 8",2
"Mareeba 9",2
"Mareeba 10",2
"Mareeba 11",2
"Mareeba 12",2
"Mareeba 13",4
"Brown Gravelly, Swampy Tea Tree Complex",NA
"Yellow Sandy (Shallow Variant)",NA
"Narayen Brigalow 5",4
"Narayen Brigalow 6",4
"Beerwah 1",NA
"Beerwah 2",NA
"Beerwah 3",NA
"Beerwah 4",NA
"Beerwah 5",2
"Mareeba 14",2
"Dardin",NA
"Dunbee",NA
"Greygil",NA
"Parbee",NA
"Beerwah 6",NA
"Beerwah 7",2
"Beerwah 8",1
"Beerwah 9",1
"Beerwah 10",2
"Beerwah 11",2
"Beerwah 12",2
"Watt Rocky Phase",5
"Babcock",NA
"Winwill",NA
"Darbalara",NA
"TbUg-16",NA
"TsGn-5",3
"Breadalbane",NA
"Mungana",NA
"Glenprairie",1
"Bygrave",5
"Bullawaria",NA
"Farnham",NA
"Tirtywinna",NA
"Coparella",4
"Lynbrydon",3
"Manar",3
"Alluvial Black Earths",3
"Alluvial Red-Brown Earths",5
"Dulbolla",4
"Dulbolla Sodic Phase",3
"Knapp Acidic Phase",3
"Hardgrave",4
"Hewitt",1
"Timara",2
"Staaten",NA
"Wyaaba",NA
"Miranda",NA
"4Dbb",4
"Brabazon",3
"Glendower",NA
"Blantyre",NA
"Type 8 clay loam",NA
"Pinelands 1",5
"Stockyard - LOC",NA
"Limestone Calcareous Desert Soils",4
"Stockyard (st)",NA
"Braemar",2
"TsDr-2",3
"TsGn-10",NA
"TsUgg-1",NA
"6Uga",NA
"7Uga",3
"Kinkuna Eroded Phase",NA
"3Ugf",NA
"Lillydale",3
"Lillydale Acidic Phase",3
"Yarrabilba",5
"Kooralbyn Deep Phase",4
"1Ugb",3
"6Ufa",4
"Elphinstone (CWL)",3
"Sarabah Tenosolic Variant",4
"Earthy Sands",NA
"Humic Gleys",3
"Loamy Solodics",2
"Sandy Alluvials",NA
"Shallow Clays_Rendzinas",NA
"Knapp",4
"Strathglass",NA
"Bullock Creek",NA
"Penrice",NA
"Karoon",NA
"Fernlees",NA
"Rosevale (Fln)",NA
"Mt. Beckford",NA
"Glenmoan",NA
"Ellington",NA
"Nicoleche",NA
"Mt. Devlin",NA
"Coolibah",NA
"Sussex",NA
"R2",4
"Mundoolun",4
"Strachan",NA
"Paddy",4
"Glenfern",4
"Kagar",NA
"Gulgi",NA
"Yackadoo",5
"Downfall (MCD)",2
"Self-mulching Clay On Volcanics",NA
"Deep Sands",NA
"Pedal Clay on Granite",NA
"Sandy Tc On Alluvium",NA
"Sandy Tc On Volcanics",NA
"Nanyetta red structured variant",NA
"Sugarbag structured variant",NA
"Tirrabella Structured Variant",NA
"Tirrabella Sandy Structured Variant",NA
"Sludge-Nanyetta Red intergrade structured variant",NA
"Philp",4
"Tgr",NA
"Tgn",NA
"Tdr",NA
"Tdb",NA
"Muncon 2.5",NA
"Muncon 3.2",NA
"Mulgildie 4",NA
"Monto 3",NA
"Drynan",3
"Drayton Eroded Phase",NA
"Drayton Shallow Phase",NA
"Noondoo",NA
"Beardie",NA
"Bookalong",NA
"Kalamba (BNH)",4
"Walker (BNH)",5
"Rockville Shallow Variant",4
"Yellow Earths",3
"Muncon 1.4",NA
"Threemoon 6v",NA
"Kapaldo 2",NA
"Kenmar",3
"Wallaroo",4
"Carinya",3
"Blenheim calcareous variant",2
"Blenheim sandy phase",2
"Hooper rise phase",5
"Stockyard gilgaied phase",NA
"Dimbulah Shallow Phase",NA
"Fumar Shallow",NA
"Morganbury Brown Variant",NA
"Murphy Pan Phase",3
"Walsh Yellow Variant",NA
"Cobra Gravelly Phase",NA
"Cobra Shallow",NA
"Donlen Shallow Phase",NA
"E1",5
"Pine Vale",3
"Bridge",2
"Brandyhat-Bullseye Complex",NA
"Bustard-Bert Complex",NA
"Bustard-Coleman Complex",NA
"Bustard-Sircom Complex",NA
"Bustard-Tock Complex",NA
"Bert Red Variant-Racecourse Complex",NA
"Coleman-Bustrad Complex",NA
"Coleman-Bert Red Variant Complex",NA
"Coleman-Sircom Complex",NA
"Nindooinbah Deep Phase",4
"Nindooinbah Acidic Variant",4
"U1",4
"L1",5
"Wanna",5
"Caboolture Gradational Red Podzolics",NA
"Caboolture Red Podzolics With Deep A-Horizons",NA
"Caboolture Red Podzolics With Shallow A Horizons",NA
"Caboolture Earthy Sands",NA
"Nambour Red Earths",NA
"Nambour Yellow Podzolics",NA
"Nambour Non-Calcic Brown Soils",NA
"Josephville",4
"Kooralbyn",3
"Clutha",3
"Isis Shallow Variant",NA
"Archookoora Rocky Phase",4
"Archookoora Nodular Phase",3
"Archookoora Saline Phase",4
"Appaloosa Rocky Phase",3
"Bushnell Eroded Phase",3
"Boonenne Rocky Phase",3
"Booie Rocky Phase",5
"Cherbourg Rocky Phase",3
"Coolabunia Nodular Phase",5
"Dangore Rocky Phase",3
"Birnam",4
"Lugger Heavy Variant",NA
"Mulligan Gravelly Phase",3
"Mulligan Pan Phase",3
"Algoma Shallow Phase",NA
"Nicotine Shallow Phase",NA
"Ray Rocky Phase",NA
"Floodplain Complex",NA
"1AUg-10",NA
"BUm",NA
"F3",4
"E4",2
"Boynewood Deep Phase",4
"Sw-Gn2",4
"Al-Dd",NA
"Dunsinane",4
"Brandyhat Eroded Phase",NA
"Coleman Eroded Phase",NA
"Coleman Sandy Loam Phase",NA
"Gulfroad Eroded Phase",NA
"Jacks Eroded Phase",NA
"Littlesnake Red Variant",NA
"Lynch Pan Phase",NA
"Racecourse Eroded Phase",NA
"Racecourse Alkaline Phase",NA
"Toby Eroded Phase",NA
"Toby Shallow Phase",NA
"Tock Eroded Phase",NA
"Venture Eroded Phase",NA
"Booka",5
"Wittenburra",2
"Yanko",5
"Tooratchie",NA
"Jambin",3
"Jambin Gilgai Phase",3
"Nambour Krasnozems",NA
"Nambour Yellow Earths",NA
"Jacobs",2
"Glenoake",4
"Liverpool Grey Variant",NA
"Clutha Deep Variant",3
"Bicton Shallow Phase",NA
"Threemoon 3",NA
"Threemoon 5",NA
"Avondale Tenic Variant",NA
"Fletcher, Shallow Variant (Brcl)",4
"BUg-7Sp",NA
"Flanagan",4
"Gordonbrook Rocky Phase",4
"Nindooinbah",4
"Saville",3
"Barney",4
"Drynan Deep Variant",3
"Fairdale Rocky Phase",4
"Hillsdale Rocky Phase",3
"Hillsdale Red Variant",4
"Hillsdale Nodular Phase",3
"Haly Rocky Phase",3
"Hirst Sandy Variant",6
"Kumbia Rocky Phase",3
"Cogurra",NA
"Sawpit Creek",NA
"Maranoa",NA
"Rowallan",NA
"Kenniff",NA
"Eremophila",NA
"Chinamen's Dam",NA
"Warren Point",NA
"Marbango",NA
"Ashfield",NA
"Saleyards",NA
"Aerodrome",NA
"Booringa Downs",NA
"Sachs",2
"Gilligan",NA
"Wanjuru sandy variant",NA
"Hewitt Sandy Variant",NA
"Bartle",NA
"Gunnawarra Structured Variant",NA
"Gunnawarra Acidic Structured Variant",NA
"Clark",4
"Canning",NA
"Toolburra Clay",NA
"Natal",3
"Fairlight",5
"Nee Nee",NA
"Manton - yellow subsoil horizons",3
"Artillery",5
"Limeview",4
"Black - red soil color",5
"Goodbye (MAJCK)",3
"Stockyard loam",3
"Bullock - light textured surface horizons",4
"Granite - heavy textured surface horizons",5
"Clemant - red subsoil horizons",5
"Clemant - Heavy Textured Surface And Subsoil Horiz",5
"Sachs - alkaline lower subsoil-substrate",3
"Artillery - bleached A2 horizon",4
"Purrawunda Red Variant",NA
"Southbrook Shallow Phase",NA
"Waco fine sandy surface variant",NA
"Oakland",NA
"Corbould",3
"Kumbia Saline Phase",NA
"Kaber Red Variant",4
"Lankowsky Eroded Phase",NA
"Upsand Eroded Phase",NA
"Oscar",4
"Rosslyn",3
"Lizard",4
"Gulliver",4
"6AUg-1",NA
"6AUg-5",3
"3ADb-5",NA
"3AUf-Ug-2m",NA
"Bellbird Shallow Phase",4
"Cressbrook Shallow Phase",5
"Coleraine",NA
"Caboolture Yellow Podzolics",NA
"Caboolture Yellow Earths",NA
"Caboolture Red Earths",NA
"Caboolture Gradational Yellow Podzolics",NA
"Murray (Colluvial Variant)",5
"BUg-10",NA
"6AUg-3",NA
"Tartar Shallow Phase",4
"Greers",4
"Wichilo",4
"SCHS",NA
"Cavell",NA
"Wambiana",NA
"UFE1",5
"Thompson",5
"Mookara",4
"Lebanon, Red Variant",4
"Ok, Gravel Phase",5
"Bucca Red Variant",NA
"Brooweena Rocky Phase",NA
"Brooweena Red Variant",NA
"Doongul Rocky Phase",NA
"Farnsfield Sandy Variant",NA
"Flagstone Grey Subsoil Variant",NA
"Tirroan Eroded Phase",NA
"Watalgan Grey Subsoil Variant",NA
"Gympie Lithosols Developed On Shale",NA
"Gympie Krasnozems",NA
"Gympie Leached Krasnozems",NA
"Gympie Red Podzolics",NA
"Gympie Non-Calcic Brown Soils",NA
"Isis Grey Subsoil Variant 2",NA
"Watalgan Grey Subsoil Variant 2",NA
"Yandaran Grey Subsoil Variant",NA
"Type 7 clay",NA
"1Dyc",3
"1Uge Depression",NA
"2Dbf",3
"2Uga",NA
"Axehead",NA
"4Dyl",NA
"Cammoo (CCL)",5
"Denison",NA
"Banca",NA
"Gammie",NA
"Hanmer",NA
"Glamorgan",3
"Lowood",3
"Tuckerimba",3
"Gira Gira",4
"Burnage",5
"Salmond",NA
"Nareen",NA
"Banool",NA
"Widgewa",NA
"Ibon",NA
"Trevanna",NA
"Coorang",NA
"Morilla",NA
"Portreath",NA
"Bulimba",NA
"BUfe",4
"Stockleigh",3
"Bremer",4
"Iveragh (CCL)",4
"Langdale",3
"Tannum",5
"Roma",NA
"Roma Linear Gilgai Phase",NA
"Warooby",NA
"Weithew",3
"Rathdowney",4
"Cedar Vale",4
"Dalmally",NA
"Tdy",NA
"Ardno",NA
"Kianawah",NA
"Leumeah",3
"1ATE1",6
"2ASO2",3
"Brabazon Acidic Variant",3
"Bompa (CCL)",5
"Dy3",NA
"Gn2",NA
"Sw-Db",NA
"Al-Ug",NA
"Dy-Ug",NA
"Gil Ug",NA
"Ug-D",NA
"Ts-Dy",NA
"Db-Dr",NA
"Flagstone - Dlr",5
"Karangi",3
"Leyburn",2
"Richards",3
"Logan - Seq",4
"Blakens Active",NA
"Blakens Sedentary",NA
"Undulating Metamorphics",NA
"Plains Basalt",NA
"Rolling Metamorphics",NA
"Hills Granite (GRIP)",NA
"Hills Basalt",NA
"Alluvial Tertiary (includes lateritic remnants)",NA
"Alluvial Basalt",NA
"Midgee",NA
"Farnborough (Ccl)",4
"Gladevilla",NA
"Dundonnel",NA
"Dundonnel Gilgai Phase",NA
"Waldegrave",NA
"Rockybank",NA
"Sunnymead",NA
"Charltonbank",NA
"Cooreela",NA
"Trinidad",NA
"Feluga Red Variant",5
"3AVE2",4
"BVE2",5
"CVE2",4
"MDE1",4
"Muldoon (CCL)",5
"Cunnalama",4
"Sibson",NA
"Well Eroded Phase",3
"Annandale Shallow Variant",4
"Police Camp Shallow Variant",3
"Gibson (V2)",NA
"Gibson Acid Phase",NA
"Umala Rocky Phase",4
"TbUg-2",NA
"TbUg-8",NA
"TbUg-6",NA
"BUgg-3m",NA
"BUg-13",NA
"BUg-18",NA
"BUg-4",NA
"BUg-9",NA
"BUg-15",NA
"BUg-3",NA
"BUgg-1m",NA
"BUgg-5",NA
"BUg-14",NA
"BUg-20",NA
"BUgg-1d",NA
"Burn",5
"Raymond",NA
"Beauaraba Red Variant",NA
"Craigmore Red Variant",NA
"Cleethorpes (CCL)",5
"Givelda Rocky Phase",3
"Avondale Yellow Variant",3
"4SOz",4
"1ADb-5",NA
"Glencairn",3
"Rolling Granite (GRIP)",NA
"1ADb-10",NA
"1AUg-16",3
"Hopevale eroded phase",6
"Memerambi Eroded Phase",5
"Mceuen Rocky Phase",4
"Tarong Rocky Phase",4
"Wooroolin Eroded Phase",5
"Whymere Saline Variant",2
"Deepwater",NA
"Waratah",NA
"Yapunyah",NA
"Megine Eroded Phase",NA
"Cliftonville",NA
"1AUf-6",4
"Isis Grey Subsoil Variant",NA
"Irving Eroded Phase",3
"Irving Red Variant",NA
"Murlaggan Eroded Phase",3
"Moola Eroded Phase",3
"Nungil Shallow Phase",NA
"Farnsfield Gravelly Variant",5
"Hymenale",1
"Diglum (CCL)",4
"Midden Mound",NA
"Harristown Loam",NA
"Toowoomba",5
"Grigor",4
"Ceratodus 3",NA
"Hollins",3
"Tartrus",3
"Heifer",2
"Rosslyn (CCL)",3
"Montrose (CCL)",NA
"Chlory",3
"Haven",3
"Poll",5
"Lyra",NA
"Farnsfield Rocky Phase",NA
"Hewitt Deep A Horizon Variant",1
"Wangabry",4
"1AUg-18",NA
"1AUgg-d",NA
"1AUgg-m",NA
"Wanjuru",NA
"Wyvuri",NA
"Russell Mottled Variant (RUSS)",NA
"Mirriwinni",NA
"Cooper (BAN)",5
"Gigoon Rocky Phase",NA
"Bug",NA
"Adb",NA
"Add",NA
"Tuf",NA
"Tug (Left Bank)",NA
"Tug (Right Bank)",NA
"Liverpool Gravelly Variant",NA
"Catfish",5
"1AUf-7",NA
"Ellis",NA
"Conolly Eroded Phase",NA
"Charters Towers Rocky Phase",NA
"Dalrymple Rocky Phase",NA
"Ellis Eroded Phase",NA
"Fanning River Shallow Phase",NA
"Felspar Rocky Phase",NA
"Lolworth Rocky Phase",NA
"Maryvale Rocky Phase",NA
"Manoa Red Variant-Felspar Intergrade",NA
"Myrtlevale Shallow Phase",NA
"Rishton Shallow Phase",NA
"Bluff Eroded Phase",NA
"Burdekin Eroded Phase",NA
"Charters Towers Eroded Phase",NA
"Fanning River Eroded Phase",NA
"Manoa Red Variant Eroded",NA
"Myrtlevale Eroded Phase",NA
"Nosnillor Pan Phase",NA
"Nosnillor Shallow Phase Eroded",NA
"Sandalwood Eroded Phase",NA
"Sandalwood Pan Phase",NA
"Kagaru",4
"Gould",3
"Butcher Rocky Phase",NA
"Rangeville",NA
"Robur Rocky Phase",NA
"Stoodleigh",3
"Pozieres",NA
"Uc",NA
"Lamber",NA
"Hay",NA
"Cressbrook",5
"Honey Shallow Phase",5
"Monsildale Shallow Phase",4
"Noon Shallow Phase",4
"Scrubby Shallow Phase",4
"Spencer Shallow Phase",3
"Auf",NA
"Aug",NA
"Adr",NA
"Bidwill Rocky Phase",NA
"Garrick",NA
"Jeff",NA
"Martin (CCS)",NA
"Flat Top",4
"Granville (BAN)",3
"Precipice",4
"6ADr",NA
"6ADb-4",NA
"6ADb-5",NA
"Tgg",NA
"3AUf-Ug-1m",NA
"Kenmuir Gravelly",NA
"Irving Bouldery Phase",NA
"YERG",3
"1AUg-9",4
"1AUg-12",3
"1AUg-13",3
"Te_El_Kabir",4
"Browns",3
"Norwell",2
"Ormeau",3
"Pimpama",2
"Stapylton",4
"Steigletz",2
"Tabby",4
"Cobbleton",5
"Pomegranate Melonhole Phase",3
"1ADb-1",NA
"1ADb-3",NA
"Woollaman",5
"Horan",NA
"Belbroughton",3
"Star",3
"TsDb-2",NA
"Sutton (l)",5
"Springvale (ZMN)",5
"Healy (ZMN)",NA
"Crowbar",NA
"Hanna",NA
"Beppo Eroded Phase",3
"Moosie Grey Phase",NA
"TbUg-15",NA
"1AUg-15",NA
"Harper Shallow Phase",4
"Bauhinia",4
"Aroa Mound",NA
"Gillinbin",3
"Kenilworth Deep Phase",4
"Annandale (BAN)",4
"Colenso (CCL)",5
"Trebonne Sandy Phase",NA
"Niringa",NA
"Tirroan Non-Sodic Variant",3
"Bluewater Yileena Complex",NA
"Manton Gilgai Complex",NA
"Otoo Sandy Variant",4
"Childers Ferric Nodular Variant",NA
"Gibson Clay Loam Variant",NA
"2AUg-6",NA
"Edendale",3
"Mills",NA
"Searly",NA
"Barkly",4
"Irongate Slope Phase",3
"Boorama",4
"Zingari",NA
"Cargoon",NA
"Clarina",NA
"Cullen",NA
"Elliott",NA
"Forsayth",NA
"Lang",NA
"Manbulloo",NA
"Nangum",2
"Rosella",NA
"Sturgeon",NA
"Wallabadah",NA
"Wonardo",4
"Wyandotte",5
"Norman (ZEG)",NA
"Bustard Heavy Clay Variant",NA
"Nosnillor (Spy) Eroded Phase",NA
"Eden Bann",5
"Ramillies",4
"Bathurst",NA
"Alice (ZMN)",NA
"Helenvale",2
"Brooklyn",NA
"Coleman (ZMN)",5
"Emu",NA
"Carpentaria",NA
"BYAN",NA
"Russell (RUSS)",NA
"Frazer (ZMN)",NA
"Mimosa",NA
"Maitland",NA
"Bridge (ZMN)",NA
"Dinah",NA
"Cardwell",NA
"Alluvial Granite (GRIP)",2
"Plains Metamorphics",NA
"2Ugd",NA
"2Ugf",3
"3Ugd",NA
"3Ugg",NA
"4Dba",NA
"4Dyg",NA
"4Dyj",NA
"4Gna",3
"4Ucb",3
"6Dbb",NA
"6Dyd",NA
"6Dyg",NA
"6Gna",4
"Janet",NA
"Laravale",4
"Brennan",3
"Cluden",5
"Military (CCL)",4
"Halivale (CCL)",5
"1ADb-7",NA
"Altanmouie",5
"TbUg-1",NA
"TbUg-10",NA
"TbUg-13",NA
"TbUg-18",NA
"BUg-19",NA
"PSAL",NA
"Sorenson Coarse Sandy Phase",4
"Koolatah",2
"Wrotham",4
"Gamboola",NA
"Stewart (ZMN)",NA
"Kalinga",NA
"Homestead",NA
"Mirriwinni-Lugger",NA
"Pawngilly-Malbon",NA
"Plains Tertiary (includes lateritic remnants)",NA
"Kool",5
"BDba",4
"BDya",4
"CDra",5
"RDyaA",3
"Collawmar",3
"Picardy",4
"Thorpe Sandy Variant",NA
"Alw",4
"Merritts",4
