"NAME","Depth","lim","Nev.post","TerryERD","ERDfinal","ERDfinalT"
"1ADb-2",80,"Cl",NA,NA,80,80
"1ADb-7",40,"Cl",NA,NA,40,40
"1ADb-Dd",75,"Cl",NA,NA,75,75
"1ADd-3",90,"Cl",NA,NA,90,90
"1ADd-4",40,"Cl",NA,NA,40,40
"1AUg-12",90,"Cl",NA,NA,90,90
"1AUg-13",40,"Cl",NA,NA,40,40
"1AUg-3",90,"Cl",NA,NA,90,90
"1AVE1",115,"Cl",NA,NA,115,115
"1AVE2",115,"Cl",NA,NA,115,115
"1AVE4",40,"Cl",NA,NA,40,40
"1AVE6",40,"Cl",NA,NA,40,40
"1Dbb",40,"ESP","2A",40,40,40
"1Dyd",40,"Cl",NA,NA,40,40
"1SOa",40,"Cl",NA,NA,40,40
"1SOb",40,"Cl",NA,NA,40,40
"1Ug",50,"Cl",NA,NA,50,50
"1Uga",55,"Cl","1AB",90,90,90
"1Ugd",60,"Cl","1AB",90,90,90
"1Ugf",40,"Cl","1AB",90,90,90
"2ADb-1",40,"Cl",NA,NA,40,40
"2AUf-Ug-3",50,"Cl",NA,NA,50,50
"2AUg-3",45,"Cl",NA,NA,45,45
"2AUg-7",55,"Cl",NA,NA,55,55
"2AUg-8m",40,"Cl",NA,NA,40,40
"2AUg-9m",40,"Cl",NA,NA,40,40
"2AUgg-1m",45,"Cl",NA,NA,45,45
"2AUgg-2m",40,"Cl",NA,NA,40,40
"2Dba",40,"Cl","2A",40,40,40
"2Dbb",40,"Cl","2B",60,60,60
"2Dbd",45,"Cl","2B",60,60,60
"2Dda",40,"Cl","2A",40,40,40
"2Dda2",40,"Cl","2A",40,40,40
"2Ddb",40,"Cl","2A",40,40,40
"2Ddd",40,"Cl","2B",60,60,60
"2Dya",40,"Cl","2A",40,40,40
"2Dyb",40,"Cl","2B",60,60,60
"2Dyc",70,"Cl","2A",40,40,40
"2Uga",105,"Cl","1AB",90,90,90
"2Ugc",110,"Cl","1AB",90,90,90
"2UgcW",125,"Cl","1AB",90,90,90
"2Ugd",105,"Cl","1AB",90,90,90
"2Uge",55,"Cl","2A",40,40,40
"2Ugf",130,"Cl","1AB",90,90,90
"2Ugg",105,"Cl","1AB",90,90,90
"2Ugh",60,"Cl","1AB",90,90,90
"2Ugj",40,"Cl","1AB",90,90,90
"2Ugk",45,"Cl","1AB",90,90,90
"2VEa",55,"Cl",NA,NA,55,55
"2VEb",50,"Cl",NA,NA,50,50
"2VEe",120,"Cl",NA,NA,120,120
"2VEx",70,"Cl",NA,NA,70,70
"2VEy",65,"Cl",NA,NA,65,65
"3ASO2",75,"Cl",NA,NA,75,75
"3AUf-Ug-2m",45,"Cl",NA,NA,45,45
"3AUf-Ug-3d",40,"Cl",NA,NA,40,40
"3AUf-Ug-6m",40,"Cl",NA,NA,40,40
"3AUg-2",105,"Cl",NA,NA,105,105
"3Uga",75,"Cl","1AB",90,90,90
"3Uge",100,"Cl","1AB",90,90,90
"3VEa",40,"Cl",NA,NA,40,40
"3VEb",40,"Cl",NA,NA,40,40
"3VEc",40,"Cl",NA,NA,40,40
"3VEw",40,"Cl",NA,NA,40,40
"3VEy",45,"Cl",NA,NA,45,45
"3VEz",85,"Cl",NA,NA,85,85
"4AUf",40,"Cl",NA,NA,40,40
"4Dyb",40,"ESP",NA,NA,40,40
"4Dyd",60,"ESP",NA,NA,60,60
"4Dyg",40,"Cl","2B",60,60,60
"5Dyc",45,"Cl","2A",40,40,40
"5SOy",45,"Cl",NA,NA,45,45
"5Uga",110,"ESP","1E",90,90,90
"5Ugc  Depression",40,"Cl","1D",90,90,90
"6ADb-1",40,"Cl",NA,NA,40,40
"6ADb-4",40,"Cl",NA,NA,40,40
"6ADy-3",130,"Cl",NA,NA,130,130
"6AUg-10",40,"Cl",NA,NA,40,40
"6AUg-12",55,"Cl",NA,NA,55,55
"6AUg-3",40,"Cl",NA,NA,40,40
"6AUg-4",40,"Cl",NA,NA,40,40
"6AUg-5",85,"Cl",NA,NA,85,85
"6AUg-6",40,"Cl",NA,NA,40,40
"6AUg-8",40,"Cl",NA,NA,40,40
"6AUg-9",40,"Cl",NA,NA,40,40
"6Dba",40,"ESP","2B",60,60,60
"6Dbb",70,"Cl","2C",90,90,90
"6Dbh",40,"ESP","2A",40,40,40
"6Dda",40,"Cl","2B",60,60,60
"6Dye",120,"Cl","2C",90,90,90
"6Dyf2",125,"Cl","3A",90,90,90
"6Dyg",40,"Cl","2B",60,60,60
"6Dyj",40,"Cl","2A",40,40,40
"6Gnc",45,"ESP","2B",60,60,60
"Abbot",90,"Cl",NA,NA,90,90
"Abercorn",55,"Cl",NA,NA,55,55
"Albert",135,"Cl",NA,NA,135,135
"Allandale",70,"Cl",NA,NA,70,70
"Allandale, Strongly Sodic Variant",40,"ESP",NA,NA,40,40
"Althaus",65,"ESP",NA,NA,65,65
"Althaus (Zed)",125,"Cl",NA,NA,125,125
"Amity",105,"Cl",NA,NA,105,105
"Andergrove",120,"Cl",NA,NA,120,120
"Apron",130,"Cl",NA,NA,130,130
"Archookoora",75,"Cl",NA,NA,75,75
"Arriga",60,"Cl",NA,NA,60,60
"Ashgrove",90,"Cl",NA,NA,90,90
"Auburn",50,"Cl",NA,NA,50,50
"Avondale",45,"ESP",NA,NA,45,45
"Awoonga",40,"ESP",NA,NA,40,40
"Banana",70,"Cl",NA,NA,70,70
"Banban",50,"Cl",NA,NA,50,50
"Bauhinia",75,"Cl",NA,NA,75,75
"Bauple",40,"Cl",NA,NA,40,40
"Beeron",40,"ESP",NA,NA,40,40
"Bells",55,"ESP",NA,NA,55,55
"Belvedere",40,"Cl",NA,NA,40,40
"Benholme",90,"Cl",NA,NA,90,90
"Berris",60,"ESP",NA,NA,60,60
"Bilboolan",55,"Cl",NA,NA,55,55
"Bingera",40,"Cl",NA,NA,40,40
"Blair",40,"Cl",NA,NA,40,40
"Bonnie Crofts",40,"Cl",NA,NA,40,40
"Boonenne",45,"ESP",NA,NA,45,45
"Brooweena",40,"ESP",NA,NA,40,40
"Buckley",65,"ESP",NA,NA,65,65
"BUg-4",100,"Cl",NA,NA,100,100
"BUga",95,"ESP","BDS-neg",NA,95,95
"Bulguru",55,"pH",NA,NA,55,55
"Burradoo",40,"Cl",NA,NA,40,40
"Bushnell",50,"Cl",NA,NA,50,50
"Byabra",75,"Cl","WTC",NA,75,75
"Carew",45,"Cl","BER-so2",NA,45,45
"Carmila",55,"ESP",NA,NA,55,55
"Cattle",65,"Cl",NA,NA,65,65
"Cherry Tree",50,"ESP",NA,NA,50,50
"Condor",50,"ESP",NA,NA,50,50
"Corduroy",125,"Cl",NA,NA,125,125
"CVE1",75,"Cl",NA,NA,75,75
"CVE3",40,"Cl",NA,NA,40,40
"CVE4",40,"Cl",NA,NA,40,40
"CVE5",40,"Cl",NA,NA,40,40
"Dalgangal",40,"Cl",NA,NA,40,40
"Dalrymple",40,"Cl",NA,NA,40,40
"Derra",90,"ESP",NA,NA,90,90
"Diamond (Kcm)",55,"Cl",NA,NA,55,55
"Diamond (Kcm), Footslope Variant",55,"Cl",NA,NA,55,55
"Don",120,"ESP",NA,NA,120,120
"Dove",40,"Cl",NA,NA,40,40
"Dudgeon",40,"ESP",NA,NA,40,40
"Dundula",40,"Cl",NA,NA,40,40
"Earlsfield",70,"Cl",NA,NA,70,70
"Eastgate",130,"ESP",NA,NA,130,130
"Edmonton",115,"ESP",NA,NA,115,115
"Egera",40,"Cl",NA,NA,40,40
"Eleanor",90,"Cl",NA,NA,90,90
"Eleanor, Mottled Phase",65,"Cl",NA,NA,65,65
"Eton",115,"Cl",NA,NA,115,115
"Etowrie",90,"Cl",NA,NA,90,90
"Fairview",40,"Cl",NA,NA,40,40
"Fairymead",70,"ESP",NA,NA,70,70
"Fison",80,"Cl",NA,NA,80,80
"Flagstone",120,"Cl",NA,NA,120,120
"Fowler",40,"Cl",NA,NA,40,40
"Foxleigh",75,"ESP",NA,NA,75,75
"Gigoon",40,"ESP",NA,NA,40,40
"Givelda",40,"Cl",NA,NA,40,40
"Glenroc",40,"Cl",NA,NA,40,40
"Goodbye",45,"Cl",NA,NA,45,45
"Goorganga",120,"pH",NA,NA,120,120
"Goovigen",40,"ESP",NA,NA,40,40
"Gracemere",40,"Cl",NA,NA,40,40
"Graham",65,"Cl",NA,NA,65,65
"Granville",60,"Cl",NA,NA,60,60
"Grevillea",40,"Cl",NA,NA,40,40
"Greycliffe",40,"Cl",NA,NA,40,40
"Greycliffe Melonhole Phase",40,"Cl",NA,NA,40,40
"Gumlu",40,"Cl",NA,NA,40,40
"Harris",40,"Cl",NA,NA,40,40
"Healy",40,"Cl",NA,NA,40,40
"Hillsborough",40,"Cl",NA,NA,40,40
"Hind",40,"Cl",NA,NA,40,40
"Holding",115,"Cl",NA,NA,115,115
"Ilbilbie",100,"ESP",NA,NA,100,100
"Ingham",115,"Cl",NA,NA,115,115
"Iona",40,"Cl",NA,NA,40,40
"Jambin",65,"Cl",NA,NA,65,65
"Jaro",40,"Cl",NA,NA,40,40
"Jumper",70,"ESP",NA,NA,70,70
"Jumpo",55,"Cl",NA,NA,55,55
"Kaber",50,"Cl",NA,NA,50,50
"Kailla",60,"ESP",NA,NA,60,60
"Kalah",65,"ESP",NA,NA,65,65
"Kawl Kawl",40,"Cl",NA,NA,40,40
"Kelona A Horizon Variant",40,"Cl",NA,NA,40,40
"Kelona Buried Soils Or D Horizons Vary",40,"Cl",NA,NA,40,40
"Kenlogan",80,"Cl",NA,NA,80,80
"Kenmar",40,"Cl",NA,NA,40,40
"Keppel",60,"ESP",NA,NA,60,60
"Kilburnie",40,"Cl",NA,NA,40,40
"Kinchant",85,"ESP",NA,NA,85,85
"Kingjack",40,"ESP",NA,NA,40,40
"Koberinga Mottled Phase (3uga9)",70,"Cl","1AB",90,90,90
"Koberinga Pebbly Phase (3uga8)",105,"Cl","1AB",90,90,90
"Koberinga Pebbly Phase (3uge8)",115,"Cl","1AB",90,90,90
"Kokutungo",65,"Cl",NA,NA,65,65
"Kolan",40,"Cl",NA,NA,40,40
"Kolan Red Variant",45,"ESP",NA,NA,45,45
"Kolbore",55,"Cl",NA,NA,55,55
"Kooingal",40,"Cl",NA,NA,40,40
"Koolachu",55,"ESP",NA,NA,55,55
"Kulburn",50,"Cl",NA,NA,50,50
"Kumbia",120,"Cl",NA,NA,120,120
"Lacon",40,"Cl",NA,NA,40,40
"Langley-Wdh",45,"Cl",NA,NA,45,45
"Leadingham",65,"ESP",NA,NA,65,65
"Lillypool",50,"ESP",NA,NA,50,50
"Lindsay",40,"Cl",NA,NA,40,40
"Lingilor",40,"Cl",NA,NA,40,40
"Lorna",50,"Cl",NA,NA,50,50
"Maiden",95,"ESP",NA,NA,95,95
"Malchi",40,"Cl",NA,NA,40,40
"Manar",75,"Cl",NA,NA,75,75
"Mandam",40,"Cl",NA,NA,40,40
"Manoa Red Variant",40,"Cl",NA,NA,40,40
"Maraconda",40,"Cl",NA,NA,40,40
"Marshlands",55,"Cl",NA,NA,55,55
"Martyr",60,"Cl",NA,NA,60,60
"Maryvale",50,"Cl",NA,NA,50,50
"Midden",75,"Cl",NA,NA,75,75
"Miva",65,"Cl",NA,NA,65,65
"Molonga",120,"Cl",NA,NA,120,120
"Mondure",65,"Cl",NA,NA,65,65
"Moramana",70,"Cl",NA,NA,70,70
"Mungar",45,"Cl",NA,NA,45,45
"Myrtle",140,"Cl",NA,NA,140,140
"Myrtlevale",50,"Cl",NA,NA,50,50
"Nail",110,"ESP",NA,NA,110,110
"Narpi",85,"Cl",NA,NA,85,85
"Needep",60,"pH",NA,NA,60,60
"Niagara",65,"Cl",NA,NA,65,65
"Nilotica",40,"Cl",NA,NA,40,40
"Normanby",125,"Cl",NA,NA,125,125
"Oombabeer",105,"ESP",NA,NA,105,105
"Orient",90,"Cl",NA,NA,90,90
"Owanyilla",60,"Cl",NA,NA,60,60
"Palouse",40,"Cl",NA,NA,40,40
"Pearlinga",105,"ESP",NA,NA,105,105
"Peep",40,"ESP",NA,NA,40,40
"Pelion",40,"Cl",NA,NA,40,40
"Penman",120,"Cl",NA,NA,120,120
"Pennsfield",45,"Cl",NA,NA,45,45
"Picardy",50,"Cl",NA,NA,50,50
"Picardy Surface Seal Phase",60,"Cl",NA,NA,60,60
"Pindi",65,"ESP",NA,NA,65,65
"Powerhouse",50,"Cl",NA,NA,50,50
"Powlathanga",40,"Cl",NA,NA,40,40
"Racetrack",40,"Cl",NA,NA,40,40
"Rankin",40,"Cl",NA,NA,40,40
"RDya",40,"Cl","BDS-neg",NA,40,40
"Retro",40,"Cl",NA,NA,40,40
"Retro (BAN)",55,"Cl",NA,NA,55,55
"Robur",75,"ESP",NA,NA,75,75
"Rolleston",40,"Cl",NA,NA,40,40
"Rubyanna",50,"Cl",NA,NA,50,50
"Rugb",40,"Cl","BDS-neg",NA,40,40
"Sachs",80,"Cl","W3",NA,80,80
"Sandalwood",40,"Cl",NA,NA,40,40
"Seaview",70,"ESP",NA,NA,70,70
"Solferino",45,"Cl",NA,NA,45,45
"SSO1",50,"Cl",NA,NA,50,50
"Sunnyside",145,"Cl",NA,NA,145,145
"Tailing",50,"Cl",NA,NA,50,50
"Tandora",40,"Cl",NA,NA,40,40
"Tara",40,"Cl",NA,NA,40,40
"Tarong",50,"Cl",NA,NA,50,50
"Tarramba",40,"Cl",NA,NA,40,40
"TbUg-1",95,"Cl",NA,NA,95,95
"TbUg-13",40,"Cl",NA,NA,40,40
"TbUg-2",45,"Cl",NA,NA,45,45
"TbUg-4",95,"Cl",NA,NA,95,95
"TbUg-6",50,"Cl",NA,NA,50,50
"Te_El_Kabir",75,"Cl",NA,NA,75,75
"Tedlands",75,"ESP",NA,NA,75,75
"Tenmile",50,"Cl",NA,NA,50,50
"Timbrell",40,"Cl",NA,NA,40,40
"Tiny",40,"Cl",NA,NA,40,40
"Toobanna",90,"ESP",NA,NA,90,90
"Toondoon",40,"ESP",NA,NA,40,40
"Tralee",40,"Cl",NA,NA,40,40
"TsDr-1",130,"Cl",NA,NA,130,130
"TsUf-3",40,"Cl",NA,NA,40,40
"TsUf-6",40,"Cl",NA,NA,40,40
"TsUg-7",40,"Cl",NA,NA,40,40
"TsUgg-2",40,"Cl",NA,NA,40,40
"Turpin",80,"ESP",NA,NA,80,80
"Ulogie",45,"ESP",NA,NA,45,45
"Vicenza",65,"Cl",NA,NA,65,65
"Victoria Plains",120,"Cl",NA,NA,120,120
"Voewood",70,"ESP",NA,NA,70,70
"Walla",45,"Cl",NA,NA,45,45
"Walsch",50,"Cl",NA,NA,50,50
"Weithew",40,"ESP",NA,NA,40,40
"Well",60,"Cl",NA,NA,60,60
"Well, Footslope Variant",40,"Cl",NA,NA,40,40
"Whiptail",40,"Cl",NA,NA,40,40
"Windermere",95,"ESP",NA,NA,95,95
"Wivenhoe",60,"Cl",NA,NA,60,60
"Woco",45,"Cl",NA,NA,45,45
"Wollingford",90,"ESP",NA,NA,90,90
"Woober",40,"Cl",NA,NA,40,40
"Wooroolin",120,"Cl",NA,NA,120,120
"Yaringa",60,"Cl",NA,NA,60,60
"Yarraman",55,"Cl",NA,NA,55,55
"Yarrol",40,"Cl",NA,NA,40,40
