"NAME","ESP85_90"
"1ACH1",18.64
"1ADb",4.48
"1ADb-2",8.78
"1ADb-7",14.08
"1ADb-Dd",12.66
"1ADd-3",14.72
"1ADd-4",17.84
"1ADE1",3.02
"1ADE2",4.28
"1AKA1",0.02
"1ARU1",0.01
"1ATE1",0.01
"1AUg-12",14.46
"1AUg-13",20.15
"1AUg-2",10.6
"1AUg-3",8.89
"1AUg-4",6.26
"1AVE1",8.34
"1AVE2",9.95
"1AVE4",12.16
"1AVE6",17.12
"1CHa",6.35
"1CHb",6.96
"1DEa",3.67
"1KTa",0.01
"1SOa",10.13
"1SOb",10.04
"2ADb-1",10.97
"2AUf-Ug-3",20.36
"2AUg-3",11.94
"2AUg-7",13.86
"2AUg-8m",17.03
"2AUg-9m",16.94
"2AUgg-1m",20.85
"2AUgg-2m",19.73
"2AVE2",3.83
"2VEa",17.74
"2VEb",12.22
"2VEe",9.23
"2VEx",15.66
"2VEy",20.55
"3ASO2",22.75
"3AUf",NA
"3AUf-Ug-1m",NA
"3AUf-Ug-2m",13.1
"3AUf-Ug-3d",11.87
"3AUf-Ug-6m",19.19
"3AUg-2",5.25
"3CHx",2.96
"3SOb",2.8
"3VEa",22.89
"3VEb",24.41
"3VEc",12.98
"3VEw",18.68
"3VEy",16.42
"3VEz",15.69
"4AUf",24.14
"6ADb-1",26.71
"6ADb-4",24.42
"6ADy-3",15.41
"6AUg-10",18.99
"6AUg-12",13.65
"6AUg-3",11.56
"6AUg-4",12.5
"6AUg-5",12.53
"6AUg-6",16.49
"6AUg-8",17.41
"6AUg-9",12.53
"A1",0.01
"Abercorn",28.75
"Amity",7.54
"Annandale",0.01
"Anyarro",0.01
"Apron",13.1
"Archookoora",12.37
"Arcturus",1.58
"Aroa",1.4
"Auburn",30.47
"Awoonga",44.22
"B1",1.79
"B2",6.91
"Banana",8.09
"Banban",13.82
"Battery",19.71
"Bauhinia",11.64
"Beeron",NA
"Belbroughton",4.48
"Belvedere",13.29
"Bilboolan",26.39
"Blair",22.85
"Bluff",NA
"Bogandilla",26.51
"Bonnie Crofts",15.63
"Bonwell",7.72
"Boonenne",30.17
"Bovekel",4.6
"Boyanda",0.01
"Boyles",NA
"Boyne",0.01
"Boynewood",NA
"Boynewood Deep Phase",3.72
"Broadmedow",34.2
"Bruce",3.05
"Buffel",6.8
"BUg-10",4.94
"BUg-2",1.88
"BUg-3",NA
"BUg-4",4.75
"BUg-6",5.05
"Bulburin",0.19
"Burdekin",0.01
"Burnett",1.59
"Burnett Coarse Sandy Variant",7.68
"Burradoo",12.32
"Bushnell",29.85
"BVE1",7.59
"Byee",6.29
"C2",6.57
"C3",18.61
"C4",11.11
"C5",16.71
"Cadarga",0.01
"Callide",3.29
"Cape",17.99
"Carfax",4.56
"Carraba",10.16
"Cattle",17.53
"Ceratodus",2.13
"Ceratodus 3",28.05
"Chelmsford",0.01
"Cheshire",23.07
"Chessborough",0.14
"Chinchilla",0.01
"Clematis",5.15
"Conjuboy",0.01
"Conway (Cqh)",0.01
"Coolabunia",0.01
"Coorooman",NA
"Corduroy",7.4
"Cottonham",NA
"Creek",1.98
"Cushnie",13.71
"CVE1",17.3
"CVE3",29.52
"CVE4",16.16
"CVE5",19.79
"D1",NA
"D2",14.79
"D3",24.28
"Dale",NA
"Dalgangal",18.73
"Dalrymple",33.93
"Darts",NA
"Degalgil",0.01
"Derra",24.86
"Diamond (Kcm)",20.28
"Diamond (Kcm), Footslope Variant",16.9
"Dickson",0.01
"Diglum (CCL)",6.19
"Doonside",0.01
"Dotswood",10.84
"Dove",22.07
"Downfall",37.12
"Dunrobin - CQ",0.01
"Durong",13.73
"E2",0.46
"E3",0.01
"Earlsfield",17.85
"Eastgate",24.57
"Eden",4.45
"Egera",20.63
"Eleanor",16.23
"Eleanor, Mottled Phase",21.07
"Elizabeth",0.01
"Ellis",0.01
"Fairdale",4.08
"Fairview",24.83
"Falkner",1.78
"Fanning River",0.01
"Figtree",0.01
"Fison",26.84
"Flagstone",16.51
"Fletcher",2.91
"Fletcher - Brcl",NA
"Fowler",22.86
"Foxleigh",31.5
"Galway",2
"Glenora",4.23
"Glenrock",NA
"Goodger",16.07
"Goovigen",38.66
"Gordonbrook",0.01
"Graham",10.18
"Grevillea",24.67
"Greycliffe",23.35
"Greycliffe Melonhole Phase",21.35
"Gueena",10.29
"Halivale (CCL)",0.01
"Haly",11.48
"Harris",NA
"Harwood",10.14
"Hawkwood",NA
"Hilldale",9.23
"Hillgrove",0.01
"Hind",21.88
"Hodge (BAN)",0.01
"Holding",8.99
"Hoogly (Ccl)",43.06
"Hopevale",0.01
"IDE1",NA
"Iona",3.22
"Jambin",15.1
"K1",0.01
"K2",0.01
"K3",12.69
"Kaber",8.66
"Kawl Kawl",6.8
"Kenlogan",NA
"Kenmar",23.29
"Keppel",NA
"Kilburnie",16.17
"Kokutungo",21.69
"Kooingal",26.8
"Krongie",10.27
"Kumbia",0.39
"Lacon",19.76
"Langley-Wdh",15.96
"Larcom (CCL)",20.6
"Lindsay",19.21
"Lizard",0.01
"Lizard (CCL)",0.01
"Lorna",NA
"Luxor",8.81
"Manar",17.55
"Manoa Red Variant",28.47
"Maraconda",6.65
"Marshlands",30.01
"Martyr",14.4
"Maryvale",11.53
"May",3.65
"May Downs",7.49
"May Shallow Phase",NA
"Mceuen",NA
"Medway",NA
"Meilland",0.01
"Melton",4.05
"Memerambi",0.01
"Midden",11.12
"Mondure",23.17
"Monto 4",6.83
"Moramana",14.61
"Moramana, Gilgai Phase",4.55
"Muldoon",0.01
"Muldoon (CCL)",NA
"Myrtlevale",NA
"N1",0.01
"Nail",15.18
"Niagara",9.44
"Nullegai",26.69
"Nursery",NA
"O'Bil Bil",NA
"Oombabeer",20.61
"Oscar",7.55
"P1",NA
"P2",2.56
"Pakington",17.57
"Palouse",26.64
"Pearlinga",21.88
"Pegunny",27.13
"Pegunny (CCL)",26.12
"Pentland",0.01
"Petrona",NA
"Picardy",10.98
"Picardy Surface Seal Phase",8.28
"Police Camp",NA
"Powerhouse",27.4
"Powlathanga",22.37
"R1",15.97
"Racetrack",36.95
"Ramillies",1.71
"Rankin",16.71
"Raven",0.01
"Red Flank",0.01
"Retro",18.91
"Retro (BAN)",22.18
"Riverleigh",5.89
"Rolleston",16.5
"Ronnoc",2.77
"Roper",12.12
"Ruby",0.01
"Russell",2.57
"Santo",NA
"Selina",0.01
"Shotover",NA
"Solferino",50.44
"Spier",5.5
"Springwood",19.28
"SSO1",32.27
"Strathmuir",42.34
"Sullivan",6.98
"T1",5.99
"T3",22.37
"T4",24.61
"Tanby",15.65
"Tarong",25.14
"Tarramba",21.37
"Taurus",22.06
"TbUg-1",7.52
"TbUg-11",1.72
"TbUg-13",10.43
"TbUg-2",6.81
"TbUg-4",8.46
"TbUg-6",14.38
"Te_El_Kabir",6.51
"Teviot",15.52
"Thalberg",11.75
"Threemoon 1",15.74
"Tiny",20.98
"Tognolini",3.25
"Toondoon",NA
"Tralee",28.27
"TsDr-1",5.54
"TsDy-1",23.29
"TsGn-3",0.01
"TsGn-4",0.01
"TsGn-5",7.19
"TsGn-6",0.01
"TsUc-2",0.01
"TsUf-3",1.71
"TsUf-6",21.67
"TsUg-7",20.52
"TsUgg-2",23.14
"Tureen",NA
"U1",0.01
"Ulogie",37.96
"Valetta",0.01
"Vermont",12.35
"Vermont (CCL)",8.34
"Vicenza",12.1
"Voewood",39.21
"Wangabry",5.76
"Warrinilla",2.26
"Weir",11.83
"Well",14.54
"Well, Footslope Variant",13.72
"Wheatlands",2.37
"White",7.01
"Windradene",NA
"Witton",0.35
"Wivenhoe",20.44
"Wooroolin",1.48
"Wyseby",19.04
"X1",3.5
"Yaringa",15.04
"Yarraman",NA
"Yarrol",24.37
