"","NAME","Kadj_sit","count_sites","Kadj_spc","K_factor_spc","data_src_final","K_factor_spcm"
"1","1ACH1",0.062,2,0.076,0.062,"site calc",0.6076
"2","1ADb",0.046,2,0.048,0.046,"site calc",0.4508
"3","1ADb-2",0.0645,4,0.063,0.0645,"site calc",0.6321
"4","1ADb-7",0.071,2,0.074,0.071,"site calc",0.6958
"5","1ADb-Dd",0.0615,2,0.064,0.0615,"site calc",0.6027
"6","1ADd-3",0.071,2,0.073,0.071,"site calc",0.6958
"7","1ADd-4",0.0775,2,0.073,0.0775,"site calc",0.7595
"8","1ADE1",0.0615,6,0.064,0.0615,"site calc",0.6027
"9","1ADE2",0.0575,6,0.051,0.0575,"site calc",0.5635
"10","1AKA1",0.0335,2,0.04,0.0335,"site calc",0.3283
"11","1ARU1",0.0595,2,0.058,0.0595,"site calc",0.5831
"12","1ATE1",0.0315,2,0.041,0.0315,"site calc",0.3087
"13","1AUg-12",0.059,4,0.067,0.059,"site calc",0.5782
"14","1AUg-13",0.0635,8,0.057,0.0635,"site calc",0.6223
"15","1AUg-2",0.055,2,0.055,0.055,"site calc",0.539
"16","1AUg-3",0.057,3,0.052,0.057,"site calc",0.5586
"17","1AUg-4",0.064,2,0.068,0.064,"site calc",0.6272
"18","1AVE1",0.052,3,0.056,0.052,"site calc",0.5096
"19","1AVE2",0.0585,4,0.062,0.0585,"site calc",0.5733
"20","1AVE4",0.059,8,0.064,0.059,"site calc",0.5782
"21","1AVE6",0.056,3,0.067,0.056,"site calc",0.5488
"22","1CHa",0.06,3,0.054,0.06,"site calc",0.588
"23","1CHb",0.0545,2,0.066,0.0545,"site calc",0.5341
"24","1Dbb",0.0515,2,0.061,0.0515,"site calc",0.5047
"25","1DEa",0.067,2,0.072,0.067,"site calc",0.6566
"26","1Dyd",0.062,6,0.07,0.062,"site calc",0.6076
"27","1KTa",0.0355,2,0.04,0.0355,"site calc",0.3479
"28","1SOa",0.079,2,0.072,0.079,"site calc",0.7742
"29","1SOb",0.0665,2,0.069,0.0665,"site calc",0.6517
"30","1Ug",0.054,4,0.067,0.054,"site calc",0.5292
"31","1Uga",0.0585,6,0.069,0.0585,"site calc",0.5733
"32","1Ugd",0.057,11,0.072,0.057,"site calc",0.5586
"33","1Ugf",0.0525,10,0.065,0.0525,"site calc",0.5145
"34","2ADb-1",0.0645,2,0.059,0.0645,"site calc",0.6321
"35","2AUf-Ug-3",0.065,2,0.061,0.065,"site calc",0.637
"36","2AUg-3",0.049,4,0.046,0.049,"site calc",0.4802
"37","2AUg-7",0.0565,6,0.058,0.0565,"site calc",0.5537
"38","2AUg-8m",0.055,6,0.057,0.055,"site calc",0.539
"39","2AUg-9m",0.065,2,0.061,0.065,"site calc",0.637
"40","2AUgg-1m",0.0575,4,0.061,0.0575,"site calc",0.5635
"41","2AUgg-2m",0.047,2,0.044,0.047,"site calc",0.4606
"42","2AVE2",0.0595,2,0.056,0.0595,"site calc",0.5831
"43","2Dba",0.065,4,0.077,0.065,"site calc",0.637
"44","2Dbb",0.074,2,0.088,0.074,"site calc",0.7252
"45","2Dbc",0.041,3,0.052,0.041,"site calc",0.4018
"46","2Dbd",0.0635,6,0.089,0.0635,"site calc",0.6223
"47","2Dda",0.057,15,0.079,0.057,"site calc",0.5586
"48","2Dda2",0.055,4,0.073,0.055,"site calc",0.539
"49","2Ddb",0.069,33,0.083,0.069,"site calc",0.6762
"50","2Dya",0.069,20,0.087,0.069,"site calc",0.6762
"51","2Dyb",0.07,28,0.095,0.07,"site calc",0.686
"52","2Dyc",0.07,13,0.093,0.07,"site calc",0.686
"53","2Uga",0.0595,8,0.077,0.0595,"site calc",0.5831
"54","2Ugc",0.067,12,0.073,0.067,"site calc",0.6566
"55","2UgcW",0.0625,4,0.075,0.0625,"site calc",0.6125
"56","2Ugd",0.0635,34,0.082,0.0635,"site calc",0.6223
"57","2ugd2",0.0655,6,0.081,0.0655,"site calc",0.6419
"58","2Uge",0.065,60,0.078,0.065,"site calc",0.637
"59","2Ugf",0.057,4,0.071,0.057,"site calc",0.5586
"60","2Ugg",0.0535,12,0.068,0.0535,"site calc",0.5243
"61","2Ugh",0.0555,22,0.076,0.0555,"site calc",0.5439
"62","2Ugj",0.065,2,0.067,0.065,"site calc",0.637
"63","2Ugk",0.06,3,0.078,0.06,"site calc",0.588
"64","2VEa",0.065,3,0.066,0.065,"site calc",0.637
"65","2VEb",0.055,3,0.061,0.055,"site calc",0.539
"66","2VEe",0.051,2,0.057,0.051,"site calc",0.4998
"67","2VEx",0.056,10,0.057,0.056,"site calc",0.5488
"68","2VEy",0.0575,2,0.051,0.0575,"site calc",0.5635
"69","3ASO2",0.0635,2,0.07,0.0635,"site calc",0.6223
"70","3AUf",0.0625,2,0.056,0.0625,"site calc",0.6125
"71","3AUf-Ug-1m",0.0535,2,0.05,0.0535,"site calc",0.5243
"72","3AUf-Ug-2m",0.054,2,0.052,0.054,"site calc",0.5292
"73","3AUf-Ug-3d",0.055,2,0.051,0.055,"site calc",0.539
"74","3AUf-Ug-6m",0.0605,2,0.054,0.0605,"site calc",0.5929
"75","3AUg-2",0.05,4,0.046,0.05,"site calc",0.49
"76","3CHx",0.0385,2,0.031,0.0385,"site calc",0.3773
"77","3Uge",0.0665,4,0.068,0.0665,"site calc",0.6517
"78","3VEa",0.051,3,0.047,0.051,"site calc",0.4998
"79","3VEb",0.056,2,0.056,0.056,"site calc",0.5488
"80","3VEc",0.047,6,0.048,0.047,"site calc",0.4606
"81","3VEw",0.06,6,0.068,0.06,"site calc",0.588
"82","3VEy",0.06,4,0.055,0.06,"site calc",0.588
"83","3VEz",0.0505,4,0.049,0.0505,"site calc",0.4949
"84","4AUf",0.0665,2,0.065,0.0665,"site calc",0.6517
"85","4Dyb",0.036,2,0.047,0.036,"site calc",0.3528
"86","4Dyd",0.043,8,0.032,0.043,"site calc",0.4214
"87","4Dyg",0.0625,2,0.064,0.0625,"site calc",0.6125
"88","4Dyj",0.0345,4,0.037,0.0345,"site calc",0.3381
"89","4Gnb",0.032,8,0.026,0.032,"site calc",0.3136
"90","4Ucc",0.025,4,0.021,0.025,"site calc",0.245
"91","5Dra",0.054,8,0.05,0.054,"site calc",0.5292
"92","5Dya",0.053,2,0.043,0.053,"site calc",0.5194
"93","5Dyc",0.0655,8,0.071,0.0655,"site calc",0.6419
"94","5Dye",0.06,2,0.058,0.06,"site calc",0.588
"95","5Uga",0.052,8,0.062,0.052,"site calc",0.5096
"96","5Ugb",0.047,4,0.061,0.047,"site calc",0.4606
"97","5Ugc  Depression",0.0655,4,0.069,0.0655,"site calc",0.6419
"98","6ADb-1",0.052,6,0.058,0.052,"site calc",0.5096
"99","6ADb-4",0.0625,4,0.053,0.0625,"site calc",0.6125
"100","6ADy-3",0.04,4,0.034,0.04,"site calc",0.392
"101","6AUg-10",0.0615,8,0.071,0.0615,"site calc",0.6027
"102","6AUg-12",0.0565,6,0.065,0.0565,"site calc",0.5537
"103","6AUg-3",0.0575,6,0.065,0.0575,"site calc",0.5635
"104","6AUg-4",0.0665,4,0.066,0.0665,"site calc",0.6517
"105","6AUg-5",0.0565,4,0.055,0.0565,"site calc",0.5537
"106","6AUg-6",0.066,4,0.059,0.066,"site calc",0.6468
"107","6AUg-8",0.06,8,0.062,0.06,"site calc",0.588
"108","6AUg-9",0.0595,4,0.061,0.0595,"site calc",0.5831
"109","6Db",0.0455,6,0.05,0.0455,"site calc",0.4459
"110","6Dba",0.045,10,0.046,0.045,"site calc",0.441
"111","6Dbb",0.0705,6,0.094,0.0705,"site calc",0.6909
"112","6Dbc",0.0595,8,0.066,0.0595,"site calc",0.5831
"113","6Dbd",0.0665,12,0.082,0.0665,"site calc",0.6517
"114","6Dbe",0.0655,12,0.078,0.0655,"site calc",0.6419
"115","6Dbf",0.057,8,0.073,0.057,"site calc",0.5586
"116","6Dbg",0.0585,4,0.055,0.0585,"site calc",0.5733
"117","6Dbh",0.082,5,0.096,0.082,"site calc",0.8036
"118","6Dda",0.059,11,0.072,0.059,"site calc",0.5782
"119","6Dra",0.057,4,0.07,0.057,"site calc",0.5586
"120","6Drb",0.071,9,0.08,0.071,"site calc",0.6958
"121","6Drc",0.0695,12,0.085,0.0695,"site calc",0.6811
"122","6Dya",0.044,7,0.044,0.044,"site calc",0.4312
"123","6Dyb",0.0425,6,0.047,0.0425,"site calc",0.4165
"124","6Dyc",0.0435,2,0.049,0.0435,"site calc",0.4263
"125","6Dyd",0.053,8,0.069,0.053,"site calc",0.5194
"126","6Dye",0.041,2,0.048,0.041,"site calc",0.4018
"127","6Dyf",0.07,18,0.09,0.07,"site calc",0.686
"128","6Dyf2",0.052,7,0.056,0.052,"site calc",0.5096
"129","6Dyg",0.0585,22,0.071,0.0585,"site calc",0.5733
"130","6Dyj",0.056,19,0.07,0.056,"site calc",0.5488
"131","6Gn",0.0395,2,0.043,0.0395,"site calc",0.3871
"132","6Gnb",0.0465,2,0.042,0.0465,"site calc",0.4557
"133","6Gnc",0.056,4,0.066,0.056,"site calc",0.5488
"134","6Gnd",0.045,4,0.045,0.045,"site calc",0.441
"135","6Ucc",0.049,8,0.036,0.049,"site calc",0.4802
"136","6Uma",0.064,4,0.052,0.064,"site calc",0.6272
"137","6Umb",0.0685,4,0.066,0.0685,"site calc",0.6713
"138","Abbot",0.061,1,0.061,0.061,"site calc",0.5978
"139","Abercorn",0.0855,4,0.091,0.0855,"site calc",0.8379
"140","Abergowrie",0.0545,18,0.055,0.0545,"site calc",0.5341
"141","Abergowrie Sandy Phase",0.028,2,0.02,0.028,"site calc",0.2744
"142","Albert",0.084,8,0.093,0.084,"site calc",0.8232
"143","Aldershot",0.058,4,0.064,0.058,"site calc",0.5684
"144","Allandale",0.0265,2,0.041,0.0265,"site calc",0.2597
"145","Allandale, Strongly Sodic Variant",0.037,2,0.051,0.037,"site calc",0.3626
"146","Alloway",0.052,9,0.068,0.052,"site calc",0.5096
"147","Alma",0.042,3,0.027,0.042,"site calc",0.4116
"148","Althaus",0.047,6,0.049,0.047,"site calc",0.4606
"149","Amity",0.062,9,0.055,0.062,"site calc",0.6076
"150","Andergrove",0.029,10,0.016,0.029,"site calc",0.2842
"151","Andergrove Water Table Variant",0.01,3,0.008,0.01,"site calc",0.098
"152","Anyarro",0.0495,6,0.052,0.0495,"site calc",0.4851
"153","Apron",0.0545,2,0.057,0.0545,"site calc",0.5341
"154","Archookoora",0.0585,8,0.06,0.0585,"site calc",0.5733
"155","Arnot",0.031,6,0.022,0.031,"site calc",0.3038
"156","Arnot Dark Phase",0.022,6,0.022,0.022,"site calc",0.2156
"157","Aroa",0.0465,4,0.065,0.0465,"site calc",0.4557
"158","Arriga",0.08,6,0.106,0.08,"site calc",0.784
"159","Ashton",0.0365,4,0.037,0.0365,"site calc",0.3577
"160","Auburn",0.071,15,0.081,0.071,"site calc",0.6958
"161","Avondale",0.047,10,0.057,0.047,"site calc",0.4606
"162","Awoonga",0.0595,2,0.073,0.0595,"site calc",0.5831
"163","Babinda",0.0505,16,0.061,0.0505,"site calc",0.4949
"164","Baddow",0.023,2,0.029,0.023,"site calc",0.2254
"165","Balberra",0.069,10,0.09,0.069,"site calc",0.6762
"166","Bally",0.0445,2,0.052,0.0445,"site calc",0.4361
"167","Banana",0.0575,16,0.052,0.0575,"site calc",0.5635
"168","Banban",0.061,8,0.059,0.061,"site calc",0.5978
"169","Banyan",0.0245,4,0.025,0.0245,"site calc",0.2401
"170","Barron",0.041,2,0.044,0.041,"site calc",0.4018
"171","Bauhinia",0.059,5,0.073,0.059,"site calc",0.5782
"172","Bauple",0.033,2,0.037,0.033,"site calc",0.3234
"173","Beeron",0.0655,2,0.061,0.0655,"site calc",0.6419
"174","Bell",0.049,5,0.058,0.049,"site calc",0.4802
"175","Bells",0.066,2,0.075,0.066,"site calc",0.6468
"176","Belmunda",0.0345,4,0.048,0.0345,"site calc",0.3381
"177","Belvedere",0.0675,2,0.069,0.0675,"site calc",0.6615
"178","Benholme",0.065,19,0.086,0.065,"site calc",0.637
"179","Berris",0.062,2,0.064,0.062,"site calc",0.6076
"180","Bicton",0.051,4,0.054,0.051,"site calc",0.4998
"181","Bidwill",0.0575,2,0.052,0.0575,"site calc",0.5635
"182","Bilboolan",0.0755,2,0.086,0.0755,"site calc",0.7399
"183","Bingera",0.056,2,0.056,0.056,"site calc",0.5488
"184","Blackburn",0.04,6,0.059,0.04,"site calc",0.392
"185","Blair",0.071,1,0.065,0.071,"site calc",0.6958
"186","Bluewater",0.0465,4,0.038,0.0465,"site calc",0.4557
"187","Bluff",0.038,13,0.033,0.038,"site calc",0.3724
"188","Bonavista",0.0915,2,0.097,0.0915,"site calc",0.8967
"189","Bonnie Crofts",0.065,4,0.069,0.065,"site calc",0.637
"190","Bonwell",0.062,11,0.055,0.062,"site calc",0.6076
"191","Boonenne",0.0415,4,0.047,0.0415,"site calc",0.4067
"192","Booyal",0.058,4,0.051,0.058,"site calc",0.5684
"193","Boston",0.0475,4,0.051,0.0475,"site calc",0.4655
"194","Bovekel",0.0575,2,0.064,0.0575,"site calc",0.5635
"195","Boyanda",0.0255,2,0.025,0.0255,"site calc",0.2499
"196","Boyne",0.059,2,0.06,0.059,"site calc",0.5782
"197","Boynewood",0.0535,2,0.066,0.0535,"site calc",0.5243
"198","Brae",0.062,2,0.076,0.062,"site calc",0.6076
"199","Brightley",0.065,12,0.08,0.065,"site calc",0.637
"200","Brooyar",0.052,2,0.053,0.052,"site calc",0.5096
"201","Brosnan",0.031,11,0.015,0.031,"site calc",0.3038
"202","Bubbler",0.054,6,0.061,0.054,"site calc",0.5292
"203","BUca",0.0315,2,0.024,0.0315,"site calc",0.3087
"204","BUcb",0.037,1,0.053,0.037,"site calc",0.3626
"205","Bucca",0.042,7,0.047,0.042,"site calc",0.4116
"206","Buckley",0.02,2,0.023,0.02,"site calc",0.196
"207","BUfa",0.069,2,0.074,0.069,"site calc",0.6762
"208","BUfb",0.064,2,0.063,0.064,"site calc",0.6272
"209","BUfc",0.069,5,0.074,0.069,"site calc",0.6762
"210","BUfe",0.097,1,0.087,0.097,"site calc",0.9506
"211","Buffel",0.0535,2,0.049,0.0535,"site calc",0.5243
"212","BUg-10",0.0555,4,0.061,0.0555,"site calc",0.5439
"213","BUg-2",0.054,18,0.051,0.054,"site calc",0.5292
"214","BUg-3",0.056,6,0.049,0.056,"site calc",0.5488
"215","BUg-4",0.052,2,0.049,0.052,"site calc",0.5096
"216","BUg-6",0.057,1,0.057,0.057,"site calc",0.5586
"217","BUga",0.05,2,0.051,0.05,"site calc",0.49
"218","Bulgun",0.056,9,0.061,0.056,"site calc",0.5488
"219","Bulguru",0.0705,4,0.07,0.0705,"site calc",0.6909
"220","Bullhead",0.0505,6,0.067,0.0505,"site calc",0.4949
"221","BUma",0.059,2,0.066,0.059,"site calc",0.5782
"222","BUmb",0.0555,2,0.042,0.0555,"site calc",0.5439
"223","Bungadoo",0.056,3,0.059,0.056,"site calc",0.5488
"224","Burdekin",0.0515,14,0.062,0.0515,"site calc",0.5047
"225","Burdekin Buried Soils Or D Horizons Vary",0.061,2,0.067,0.061,"site calc",0.5978
"226","Burnett",0.046,5,0.042,0.046,"site calc",0.4508
"227","Burnett Coarse Sandy Variant",0.0465,2,0.051,0.0465,"site calc",0.4557
"228","Burradoo",0.065,11,0.064,0.065,"site calc",0.637
"229","Burrum",0.0385,2,0.045,0.0385,"site calc",0.3773
"230","Bushnell",0.047,6,0.066,0.047,"site calc",0.4606
"231","Butcher",0.07,6,0.075,0.07,"site calc",0.686
"232","BVE1",0.051,2,0.047,0.051,"site calc",0.4998
"233","Byabra",0.044,2,0.041,0.044,"site calc",0.4312
"234","Byee",0.0435,4,0.051,0.0435,"site calc",0.4263
"235","Cabbage Tree",0.051,1,0.051,0.051,"site calc",0.4998
"236","Calen",0.0665,24,0.079,0.0665,"site calc",0.6517
"237","Callide",0.077,13,0.073,0.077,"site calc",0.7546
"238","Cameron",0.0635,10,0.068,0.0635,"site calc",0.6223
"239","Campbell Plains",0.084,1,0.066,0.084,"site calc",0.8232
"240","Canoe",0.055,27,0.054,0.055,"site calc",0.539
"241","Cape",0.0745,6,0.079,0.0745,"site calc",0.7301
"242","Carew",0.071,13,0.066,0.071,"site calc",0.6958
"243","Carfax",0.056,9,0.06,0.056,"site calc",0.5488
"244","Carmila",0.05,6,0.053,0.05,"site calc",0.49
"245","Cassidy",0.018,2,0.006,0.018,"site calc",0.1764
"246","Castleview",0.0415,2,0.044,0.0415,"site calc",0.4067
"247","Catherina",0.076,2,0.089,0.076,"site calc",0.7448
"248","Cattle",0.065,6,0.076,0.065,"site calc",0.637
"249","CDba",0.053,2,0.058,0.053,"site calc",0.5194
"250","Ceratodus",0.065,8,0.075,0.065,"site calc",0.637
"251","Cheeseboro",0.0595,2,0.07,0.0595,"site calc",0.5831
"252","Chelmsford",0.056,6,0.051,0.056,"site calc",0.5488
"253","Cherry Tree",0.0505,4,0.08,0.0505,"site calc",0.4949
"254","Chessborough",0.056,2,0.051,0.056,"site calc",0.5488
"255","Childers",0.047,51,0.048,0.047,"site calc",0.4606
"256","Clayton",0.07,9,0.078,0.07,"site calc",0.686
"257","Clifton",0.056,5,0.081,0.056,"site calc",0.5488
"258","Cliftonville",0.0745,2,0.086,0.0745,"site calc",0.7301
"259","Cole",0.0715,2,0.074,0.0715,"site calc",0.7007
"260","Commissioner",0.042,2,0.034,0.042,"site calc",0.4116
"261","Condor",0.0515,2,0.052,0.0515,"site calc",0.5047
"262","Conjuboy",0.0555,12,0.045,0.0555,"site calc",0.5439
"263","Conway (Cqh)",0.0385,4,0.052,0.0385,"site calc",0.3773
"264","Coolabunia",0.051,9,0.041,0.051,"site calc",0.4998
"265","Coom",0.065,27,0.079,0.065,"site calc",0.637
"266","Coonoon",0.0445,4,0.044,0.0445,"site calc",0.4361
"267","Coorooman",0.0325,2,0.051,0.0325,"site calc",0.3185
"268","Copenhagen",0.0565,2,0.057,0.0565,"site calc",0.5537
"269","Corduroy",0.065,2,0.077,0.065,"site calc",0.637
"270","Cottonham",0.048,6,0.055,0.048,"site calc",0.4704
"271","Creek",0.0655,2,0.067,0.0655,"site calc",0.6419
"272","CUca",0.031,3,0.014,0.031,"site calc",0.3038
"273","Cudmore",0.055,5,0.066,0.055,"site calc",0.539
"274","CUfb",0.044,1,0.054,0.044,"site calc",0.4312
"275","Curlewis",0.048,2,0.047,0.048,"site calc",0.4704
"276","CVE1",0.061,2,0.061,0.061,"site calc",0.5978
"277","CVE3",0.055,2,0.058,0.055,"site calc",0.539
"278","CVE4",0.0475,4,0.061,0.0475,"site calc",0.4655
"279","CVE5",0.067,6,0.059,0.067,"site calc",0.6566
"280","Dagun",0.046,2,0.06,0.046,"site calc",0.4508
"281","Dalgangal",0.0605,2,0.065,0.0605,"site calc",0.5929
"282","Dalrymple",0.046,8,0.042,0.046,"site calc",0.4508
"283","Darts",0.047,2,0.035,0.047,"site calc",0.4606
"284","Derra",0.0695,4,0.062,0.0695,"site calc",0.6811
"285","Derra (CWL)",0.054,5,0.06,0.054,"site calc",0.5292
"286","Diamond (Kcm)",0.0465,2,0.071,0.0465,"site calc",0.4557
"287","Diamond (Kcm), Footslope Variant",0.048,6,0.07,0.048,"site calc",0.4704
"288","Dickson",0.053,2,0.05,0.053,"site calc",0.5194
"289","Dingo",0.051,1,0.041,0.051,"site calc",0.4998
"290","Dingo (Pss)",0.0295,8,0.024,0.0295,"site calc",0.2891
"291","Dittmer",0.049,4,0.046,0.049,"site calc",0.4802
"292","Dixie",0.027,2,0.017,0.027,"site calc",0.2646
"293","Don",0.062,8,0.064,0.062,"site calc",0.6076
"294","Doolbi",0.059,9,0.064,0.059,"site calc",0.5782
"295","Doonside",0.0605,2,0.064,0.0605,"site calc",0.5929
"296","Dotswood",0.067,5,0.077,0.067,"site calc",0.6566
"297","Dove",0.055,1,0.056,0.055,"site calc",0.539
"298","Drinan",0.0705,2,0.081,0.0705,"site calc",0.6909
"299","Dryander",0.0555,4,0.053,0.0555,"site calc",0.5439
"300","Drysdale",0.044,2,0.045,0.044,"site calc",0.4312
"301","Dudgeon",0.0675,2,0.082,0.0675,"site calc",0.6615
"302","Dundula",0.0475,6,0.077,0.0475,"site calc",0.4655
"303","Dunstan",0.052,2,0.06,0.052,"site calc",0.5096
"304","Dunwold",0.033,9,0.038,0.033,"site calc",0.3234
"305","Durong",0.058,2,0.06,0.058,"site calc",0.5684
"306","Earlsfield",0.059,37,0.051,0.059,"site calc",0.5782
"307","Eastgate",0.055,4,0.059,0.055,"site calc",0.539
"308","Edgecumbe",0.061,3,0.071,0.061,"site calc",0.5978
"309","Edmonton",0.062,5,0.1,0.062,"site calc",0.6076
"310","Eerwah",0.0415,2,0.045,0.0415,"site calc",0.4067
"311","Egera",0.055,2,0.051,0.055,"site calc",0.539
"312","Eleanor",0.057,4,0.075,0.057,"site calc",0.5586
"313","Eleanor, Mottled Phase",0.0585,2,0.076,0.0585,"site calc",0.5733
"314","Elizabeth",0.0485,4,0.054,0.0485,"site calc",0.4753
"315","Elliot",0.025,5,0.014,0.025,"site calc",0.245
"316","Ellis",0.043,4,0.043,0.043,"site calc",0.4214
"317","Emerald",0.0415,2,0.031,0.0415,"site calc",0.4067
"318","Endeavour",0.041,2,0.041,0.041,"site calc",0.4018
"319","Eton",0.069,21,0.075,0.069,"site calc",0.6762
"320","Etowrie",0.0615,12,0.08,0.0615,"site calc",0.6027
"321","Etowrie (Neutral Variant)",0.084,2,0.097,0.084,"site calc",0.8232
"322","Eubenangee",0.057,7,0.058,0.057,"site calc",0.5586
"323","Eversleigh",0.0705,4,0.079,0.0705,"site calc",0.6909
"324","Fairdale",0.0605,12,0.063,0.0605,"site calc",0.5929
"325","Fairview",0.0605,8,0.072,0.0605,"site calc",0.5929
"326","Fairydale",0.0495,2,0.065,0.0495,"site calc",0.4851
"327","Fairymead",0.0625,4,0.073,0.0625,"site calc",0.6125
"328","Falkner",0.06,20,0.066,0.06,"site calc",0.588
"329","Fanning River",0.062,7,0.072,0.062,"site calc",0.6076
"330","Farleigh",0.036,4,0.029,0.036,"site calc",0.3528
"331","Farnsfield",0.0385,12,0.044,0.0385,"site calc",0.3773
"332","Feluga",0.0365,10,0.028,0.0365,"site calc",0.3577
"333","Feluga Red Variant",0.037,1,0.042,0.037,"site calc",0.3626
"334","Finch Hatton",0.045,7,0.057,0.045,"site calc",0.441
"335","Finley",0.042,5,0.037,0.042,"site calc",0.4116
"336","Fison",0.0475,2,0.036,0.0475,"site calc",0.4655
"337","Flagstone",0.0645,8,0.071,0.0645,"site calc",0.6321
"338","Fletcher",0.044,2,0.057,0.044,"site calc",0.4312
"339","Fletcher - Brcl",0.048,1,0.054,0.048,"site calc",0.4704
"340","Fowler",0.0505,2,0.066,0.0505,"site calc",0.4949
"341","Foxdale",0.063,2,0.081,0.063,"site calc",0.6174
"342","Foxleigh",0.042,15,0.053,0.042,"site calc",0.4116
"343","Freddy",0.051,2,0.071,0.051,"site calc",0.4998
"344","Galmara",0.06,11,0.058,0.06,"site calc",0.588
"345","Gander",0.05,2,0.062,0.05,"site calc",0.49
"346","Gargett",0.053,8,0.061,0.053,"site calc",0.5194
"347","Garradunga",0.051,6,0.049,0.051,"site calc",0.4998
"348","Garrett",0.0595,2,0.046,0.0595,"site calc",0.5831
"349","Gibson - Bab",0.061,2,0.057,0.061,"site calc",0.5978
"350","Gigoon",0.04,2,0.037,0.04,"site calc",0.392
"351","Gillinbin",0.073,2,0.07,0.073,"site calc",0.7154
"352","Givelda",0.068,7,0.067,0.068,"site calc",0.6664
"353","Glenella",0.0465,4,0.053,0.0465,"site calc",0.4557
"354","Glenroc",0.0525,10,0.048,0.0525,"site calc",0.5145
"355","Glenrock",0.043,2,0.047,0.043,"site calc",0.4214
"356","Gooburrum",0.0315,4,0.039,0.0315,"site calc",0.3087
"357","Goodbye",0.066,3,0.058,0.066,"site calc",0.6468
"358","Goodger",0.044,19,0.052,0.044,"site calc",0.4312
"359","Goorganga",0.052,2,0.073,0.052,"site calc",0.5096
"360","Goovigen",0.066,4,0.075,0.066,"site calc",0.6468
"361","Gordonbrook",0.033,6,0.04,0.033,"site calc",0.3234
"362","Graham",0.0605,4,0.059,0.0605,"site calc",0.5929
"363","Granville",0.072,8,0.08,0.072,"site calc",0.7056
"364","Grevillea",0.077,9,0.084,0.077,"site calc",0.7546
"365","Greycliffe",0.067,22,0.068,0.067,"site calc",0.6566
"366","Greycliffe Melonhole Phase",0.067,20,0.072,0.067,"site calc",0.6566
"367","Gueena",0.046,4,0.043,0.046,"site calc",0.4508
"368","Gumlu",0.037,1,0.039,0.037,"site calc",0.3626
"369","Habana",0.052,12,0.06,0.052,"site calc",0.5096
"370","Haden",0.073,2,0.084,0.073,"site calc",0.7154
"371","Haly",0.044,6,0.043,0.044,"site calc",0.4312
"372","Hamleigh",0.056,9,0.072,0.056,"site calc",0.5488
"373","Hannan",0.0485,2,0.045,0.0485,"site calc",0.4753
"374","Harris",0.0445,2,0.048,0.0445,"site calc",0.4361
"375","Harwood",0.0605,2,0.074,0.0605,"site calc",0.5929
"376","Hawkwood",0.06,4,0.065,0.06,"site calc",0.588
"377","Hector (PCS)",0.054,4,0.052,0.054,"site calc",0.5292
"378","Herbert",0.07,9,0.07,0.07,"site calc",0.686
"379","Hewitt",0.062,12,0.07,0.062,"site calc",0.6076
"380","Highbury",0.0505,2,0.044,0.0505,"site calc",0.4949
"381","Hillgrove",0.057,11,0.057,0.057,"site calc",0.5586
"382","Hillview",0.044,11,0.04,0.044,"site calc",0.4312
"383","Hillview Fine Variant",0.042,1,0.047,0.042,"site calc",0.4116
"384","Hind",0.048,5,0.057,0.048,"site calc",0.4704
"385","Hodge",0.0615,4,0.047,0.0615,"site calc",0.6027
"386","Hodge (BAN)",0.056,6,0.063,0.056,"site calc",0.5488
"387","Holding",0.057,4,0.069,0.057,"site calc",0.5586
"388","Hopevale",0.0405,4,0.04,0.0405,"site calc",0.3969
"389","Hull",0.0125,2,0.004,0.0125,"site calc",0.1225
"390","IDE1",0.0535,2,0.058,0.0535,"site calc",0.5243
"391","Ilbilbie",0.0315,2,0.028,0.0315,"site calc",0.3087
"392","Ingham",0.063,4,0.071,0.063,"site calc",0.6174
"393","Inlet",0.07,5,0.079,0.07,"site calc",0.686
"394","Innisfail",0.054,6,0.057,0.054,"site calc",0.5292
"395","Inverdon",0.037,2,0.037,0.037,"site calc",0.3626
"396","Iona",0.042,6,0.07,0.042,"site calc",0.4116
"397","Isis",0.046,19,0.05,0.046,"site calc",0.4508
"398","Jambin",0.063,19,0.065,0.063,"site calc",0.6174
"399","Jaro",0.061,2,0.059,0.061,"site calc",0.5978
"400","Jarra",0.069,5,0.069,0.069,"site calc",0.6762
"401","Julian",0.0525,6,0.079,0.0525,"site calc",0.5145
"402","Jumper",0.0535,4,0.072,0.0535,"site calc",0.5243
"403","Jumpo",0.062,1,0.054,0.062,"site calc",0.6076
"404","Kaban",0.04,2,0.026,0.04,"site calc",0.392
"405","Kaber",0.06,2,0.06,0.06,"site calc",0.588
"406","Kailla",0.0195,2,0.021,0.0195,"site calc",0.1911
"407","Kairi",0.0465,2,0.047,0.0465,"site calc",0.4557
"408","Kalah",0.103,2,0.103,0.103,"site calc",1.0094
"409","Kawl Kawl",0.054,18,0.062,0.054,"site calc",0.5292
"410","Kaygaroo",0.019,6,0.012,0.019,"site calc",0.1862
"411","Kelona A Horizon Variant",0.04,2,0.056,0.04,"site calc",0.392
"412","Kelona Buried Soils Or D Horizons Vary",0.0425,6,0.049,0.0425,"site calc",0.4165
"413","Kenlogan",0.047,4,0.055,0.047,"site calc",0.4606
"414","Kenmar",0.0615,4,0.057,0.0615,"site calc",0.6027
"415","Kepnock",0.056,22,0.057,0.056,"site calc",0.5488
"416","Keppel",0.049,4,0.062,0.049,"site calc",0.4802
"417","Kiama",0.0195,2,0.023,0.0195,"site calc",0.1911
"418","Kilburnie",0.067,13,0.059,0.067,"site calc",0.6566
"419","Kinchant",0.0355,8,0.048,0.0355,"site calc",0.3479
"420","Kinchant, Coarse Sandy Variant",0.017,2,0.026,0.017,"site calc",0.1666
"421","Kingjack",0.0705,4,0.071,0.0705,"site calc",0.6909
"422","Kinkuna",0.0165,4,0.022,0.0165,"site calc",0.1617
"423","Kirrama",0.0515,4,0.047,0.0515,"site calc",0.5047
"424","Koberinga Mottled Phase (3uga9)",0.0645,8,0.074,0.0645,"site calc",0.6321
"425","Koberinga Pebbly Phase (3uga8)",0.0545,4,0.074,0.0545,"site calc",0.5341
"426","Koberinga Pebbly Phase (3uge8)",0.067,3,0.077,0.067,"site calc",0.6566
"427","Kokutungo",0.063,23,0.064,0.063,"site calc",0.6174
"428","Kolan",0.073,7,0.086,0.073,"site calc",0.7154
"429","Kolan Red Variant",0.0545,2,0.056,0.0545,"site calc",0.5341
"430","Kolbore",0.0555,2,0.061,0.0555,"site calc",0.5439
"431","Kooingal",0.047,8,0.042,0.047,"site calc",0.4606
"432","Koolachu",0.0385,14,0.044,0.0385,"site calc",0.3773
"433","Kooringa",0.0345,2,0.044,0.0345,"site calc",0.3381
"434","Koumala",0.044,2,0.042,0.044,"site calc",0.4312
"435","Kowari",0.0415,4,0.052,0.0415,"site calc",0.4067
"436","Kumbia",0.054,6,0.059,0.054,"site calc",0.5292
"437","Kungurri",0.051,4,0.058,0.051,"site calc",0.4998
"438","Kurrimine",0.012,2,0.01,0.012,"site calc",0.1176
"439","Kuttabul",0.044,4,0.061,0.044,"site calc",0.4312
"440","Kuttabul, Alluvial-Colluvial Variant",0.0405,4,0.055,0.0405,"site calc",0.3969
"441","Lacon",0.066,2,0.065,0.066,"site calc",0.6468
"442","Langley-Wdh",0.0635,14,0.057,0.0635,"site calc",0.6223
"443","Lannercost",0.064,2,0.058,0.064,"site calc",0.6272
"444","Lascelles",0.0565,2,0.055,0.0565,"site calc",0.5537
"445","Laura",0.0565,6,0.057,0.0565,"site calc",0.5537
"446","Leach",0.064,2,0.077,0.064,"site calc",0.6272
"447","Leadingham",0.067,8,0.084,0.067,"site calc",0.6566
"448","Lee",0.041,4,0.043,0.041,"site calc",0.4018
"449","Leitrim",0.058,1,0.058,0.058,"site calc",0.5684
"450","Lillypool",0.07,2,0.082,0.07,"site calc",0.686
"451","Lily",0.055,6,0.06,0.055,"site calc",0.539
"452","Lindsay",0.064,9,0.062,0.064,"site calc",0.6272
"453","Lingilor",0.052,14,0.063,0.052,"site calc",0.5096
"454","Littabella",0.029,3,0.061,0.029,"site calc",0.2842
"455","Liverpool",0.0495,8,0.038,0.0495,"site calc",0.4851
"456","Lizard",0.0525,2,0.059,0.0525,"site calc",0.5145
"457","Logcamp",0.05,2,0.049,0.05,"site calc",0.49
"458","Louisa",0.0445,2,0.05,0.0445,"site calc",0.4361
"459","Lucy",0.05,6,0.048,0.05,"site calc",0.49
"460","Lugger",0.037,11,0.034,0.037,"site calc",0.3626
"461","Maalan",0.038,6,0.035,0.038,"site calc",0.3724
"462","Macknade",0.06,7,0.056,0.06,"site calc",0.588
"463","Maclean (Lak)",0.067,2,0.068,0.067,"site calc",0.6566
"464","Mahogany",0.041,19,0.049,0.041,"site calc",0.4018
"465","Maiden",0.0275,2,0.027,0.0275,"site calc",0.2695
"466","Malbon",0.037,3,0.041,0.037,"site calc",0.3626
"467","Manar",0.0585,2,0.062,0.0585,"site calc",0.5733
"468","Mandam",0.05,1,0.054,0.05,"site calc",0.49
"469","Manoa Red Variant",0.061,4,0.062,0.061,"site calc",0.5978
"470","Manor",0.059,11,0.088,0.059,"site calc",0.5782
"471","Maraconda",0.0675,4,0.078,0.0675,"site calc",0.6615
"472","Maria",0.046,6,0.036,0.046,"site calc",0.4508
"473","Marian",0.055,18,0.068,0.055,"site calc",0.539
"474","Marlow",0.055,2,0.053,0.055,"site calc",0.539
"475","Maroondan",0.055,7,0.055,0.055,"site calc",0.539
"476","Marshlands",0.0505,6,0.058,0.0505,"site calc",0.4949
"477","Martin",0.0585,4,0.071,0.0585,"site calc",0.5733
"478","Martyr",0.0575,4,0.055,0.0575,"site calc",0.5635
"479","Marwood",0.0225,4,0.03,0.0225,"site calc",0.2205
"480","Mary",0.062,8,0.067,0.062,"site calc",0.6076
"481","Mary Dark Variant",0.0695,2,0.075,0.0695,"site calc",0.6811
"482","Maryvale",0.061,15,0.064,0.061,"site calc",0.5978
"483","May",0.063,14,0.061,0.063,"site calc",0.6174
"484","May Shallow Phase",0.057,2,0.057,0.057,"site calc",0.5586
"485","Mceuen",0.042,4,0.061,0.042,"site calc",0.4116
"486","Meadowvale",0.0455,12,0.05,0.0455,"site calc",0.4459
"487","Meilland",0.032,4,0.034,0.032,"site calc",0.3136
"488","Melton",0.072,14,0.075,0.072,"site calc",0.7056
"489","Memerambi",0.044,49,0.051,0.044,"site calc",0.4312
"490","Mentmore",0.0355,4,0.044,0.0355,"site calc",0.3479
"491","Midden",0.0555,4,0.065,0.0555,"site calc",0.5439
"492","Midway",0.074,2,0.082,0.074,"site calc",0.7252
"493","Millstream",0.043,2,0.039,0.043,"site calc",0.4214
"494","Mingela",0.042,3,0.05,0.042,"site calc",0.4116
"495","Mirani",0.034,6,0.039,0.034,"site calc",0.3332
"496","Mirriwinni",0.0635,4,0.067,0.0635,"site calc",0.6223
"497","Miskin",0.0465,2,0.041,0.0465,"site calc",0.4557
"498","Mission",0.048,5,0.035,0.048,"site calc",0.4704
"499","Miva",0.071,2,0.082,0.071,"site calc",0.6958
"500","Molonga",0.057,9,0.08,0.057,"site calc",0.5586
"501","Mondure",0.0545,12,0.056,0.0545,"site calc",0.5341
"502","Monkland",0.0585,2,0.067,0.0585,"site calc",0.5733
"503","Moore Park",0.046,2,0.043,0.046,"site calc",0.4508
"504","Moramana",0.063,2,0.074,0.063,"site calc",0.6174
"505","Moramana, Gilgai Phase",0.062,4,0.074,0.062,"site calc",0.6076
"506","Morecambe",0.0405,6,0.037,0.0405,"site calc",0.3969
"507","Morganbury",0.037,12,0.025,0.037,"site calc",0.3626
"508","Mossman",0.059,4,0.062,0.059,"site calc",0.5782
"509","Muldoon",0.047,2,0.046,0.047,"site calc",0.4606
"510","Mulei",0.046,4,0.049,0.046,"site calc",0.4508
"511","Mullaburra",0.085,2,0.079,0.085,"site calc",0.833
"512","Mulligan",0.033,12,0.034,0.033,"site calc",0.3234
"513","Mulligan Gravelly Phase",0.049,12,0.046,0.049,"site calc",0.4802
"514","Munbura",0.024,8,0.03,0.024,"site calc",0.2352
"515","Mundoo",0.042,4,0.041,0.042,"site calc",0.4116
"516","Mungar",0.0725,2,0.075,0.0725,"site calc",0.7105
"517","Murphy",0.0345,8,0.033,0.0345,"site calc",0.3381
"518","Murray",0.0245,4,0.019,0.0245,"site calc",0.2401
"519","Myrtle",0.054,1,0.062,0.054,"site calc",0.5292
"520","Myrtlevale",0.063,4,0.071,0.063,"site calc",0.6174
"521","Nabilla",0.05,12,0.062,0.05,"site calc",0.49
"522","Nail",0.057,4,0.063,0.057,"site calc",0.5586
"523","Narcotic",0.0265,2,0.017,0.0265,"site calc",0.2597
"524","Narpi",0.069,13,0.091,0.069,"site calc",0.6762
"525","Needep",0.0455,2,0.055,0.0455,"site calc",0.4459
"526","Nessvale",0.0515,4,0.052,0.0515,"site calc",0.5047
"527","Netherdale",0.055,4,0.062,0.055,"site calc",0.539
"528","Niagara",0.049,2,0.051,0.049,"site calc",0.4802
"529","Nicotine",0.0165,4,0.008,0.0165,"site calc",0.1617
"530","Nicotine Yellow",0.015,2,0.005,0.015,"site calc",0.147
"531","Nilotica",0.065,1,0.069,0.065,"site calc",0.637
"532","Nind",0.034,7,0.049,0.034,"site calc",0.3332
"533","Ninemile",0.063,1,0.063,0.063,"site calc",0.6174
"534","Normanby",0.0615,8,0.059,0.0615,"site calc",0.6027
"535","Nullinga",0.031,6,0.026,0.031,"site calc",0.3038
"536","Nursery",0.0565,8,0.056,0.0565,"site calc",0.5537
"537","O'Bil Bil",0.051,4,0.056,0.051,"site calc",0.4998
"538","Oakwood",0.0385,14,0.045,0.0385,"site calc",0.3773
"539","Oombabeer",0.061,3,0.061,0.061,"site calc",0.5978
"540","Orient",0.0615,2,0.083,0.0615,"site calc",0.6027
"541","Ossa",0.0615,2,0.077,0.0615,"site calc",0.6027
"542","Ossa (Cobbly Variant)",0.054,2,0.067,0.054,"site calc",0.5292
"543","Otoo",0.042,14,0.059,0.042,"site calc",0.4116
"544","Owanyilla",0.0645,4,0.064,0.0645,"site calc",0.6321
"545","Pakington",0.0775,2,0.08,0.0775,"site calc",0.7595
"546","Pallamana",0.031,3,0.05,0.031,"site calc",0.3038
"547","Palm",0.06,2,0.068,0.06,"site calc",0.588
"548","Palmyra",0.047,4,0.076,0.047,"site calc",0.4606
"549","Palouse",0.049,12,0.068,0.049,"site calc",0.4802
"550","Pearlinga",0.059,4,0.058,0.059,"site calc",0.5782
"551","Peep",0.096,2,0.099,0.096,"site calc",0.9408
"552","Pelion",0.071,2,0.061,0.071,"site calc",0.6958
"553","Penman",0.0875,10,0.105,0.0875,"site calc",0.8575
"554","Pennsfield",0.052,2,0.057,0.052,"site calc",0.5096
"555","Pentland",0.042,7,0.046,0.042,"site calc",0.4116
"556","Picardy",0.052,12,0.048,0.052,"site calc",0.5096
"557","Picardy Surface Seal Phase",0.0615,4,0.05,0.0615,"site calc",0.6027
"558","Pin Gin",0.0475,24,0.045,0.0475,"site calc",0.4655
"559","Pindi",0.04,6,0.048,0.04,"site calc",0.392
"560","Pinnacle - Cq",0.039,4,0.036,0.039,"site calc",0.3822
"561","Pioneer",0.053,11,0.066,0.053,"site calc",0.5194
"562","Pioneer, Red B Horizon Variant",0.05,8,0.053,0.05,"site calc",0.49
"563","Police Camp",0.064,19,0.064,0.064,"site calc",0.6272
"564","Pope",0.0455,2,0.05,0.0455,"site calc",0.4459
"565","Poplar",0.059,6,0.058,0.059,"site calc",0.5782
"566","Porter",0.0415,4,0.069,0.0415,"site calc",0.4067
"567","Powerhouse",0.058,6,0.06,0.058,"site calc",0.5684
"568","Powlathanga",0.07,5,0.077,0.07,"site calc",0.686
"569","Prendergast",0.054,2,0.059,0.054,"site calc",0.5292
"570","Price",0.041,2,0.029,0.041,"site calc",0.4018
"571","Pring",0.0465,4,0.051,0.0465,"site calc",0.4557
"572","Prior",0.0465,20,0.044,0.0465,"site calc",0.4557
"573","Proserpine",0.038,10,0.032,0.038,"site calc",0.3724
"574","Quart",0.0435,12,0.045,0.0435,"site calc",0.4263
"575","Racetrack",0.0575,14,0.063,0.0575,"site calc",0.5635
"576","Ram",0.058,4,0.072,0.058,"site calc",0.5684
"577","Ramleh",0.0735,6,0.082,0.0735,"site calc",0.7203
"578","Rangeside",0.021,1,0.034,0.021,"site calc",0.2058
"579","Rangeview",0.058,2,0.041,0.058,"site calc",0.5684
"580","Rankin",0.046,7,0.06,0.046,"site calc",0.4508
"581","Raven",0.0365,2,0.039,0.0365,"site calc",0.3577
"582","RDya",0.082,2,0.099,0.082,"site calc",0.8036
"583","Red Flank",0.035,2,0.034,0.035,"site calc",0.343
"584","Retro",0.061,8,0.08,0.061,"site calc",0.5978
"585","Retro (BAN)",0.082,14,0.08,0.082,"site calc",0.8036
"586","Riordanvale",0.056,14,0.069,0.056,"site calc",0.5488
"587","Ripple",0.05,3,0.058,0.05,"site calc",0.49
"588","Rishton",0.017,1,0.033,0.017,"site calc",0.1666
"589","Riverleigh",0.0545,4,0.074,0.0545,"site calc",0.5341
"590","Robur",0.045,12,0.06,0.045,"site calc",0.441
"591","Rolleston",0.06,45,0.068,0.06,"site calc",0.588
"592","Ronnoc",0.047,15,0.062,0.047,"site calc",0.4606
"593","Roper",0.061,10,0.065,0.061,"site calc",0.5978
"594","Royston",0.0455,4,0.067,0.0455,"site calc",0.4459
"595","Ruby",0.048,2,0.056,0.048,"site calc",0.4704
"596","Rubyanna",0.071,2,0.059,0.071,"site calc",0.6958
"597","Rudd",0.072,4,0.074,0.072,"site calc",0.7056
"598","Rugb",0.071,4,0.08,0.071,"site calc",0.6958
"599","RUgc",0.075,2,0.087,0.075,"site calc",0.735
"600","RUgd",0.0795,2,0.086,0.0795,"site calc",0.7791
"601","Rungoo",0.0265,4,0.024,0.0265,"site calc",0.2597
"602","Russell",0.05,8,0.064,0.05,"site calc",0.49
"603","Samourgassi",0.0595,2,0.053,0.0595,"site calc",0.5831
"604","Sandalwood",0.0775,2,0.068,0.0775,"site calc",0.7595
"605","Sandiford",0.054,14,0.067,0.054,"site calc",0.5292
"606","Sandiford (Silty Topsoil Variant)",0.075,2,0.088,0.075,"site calc",0.735
"607","Santo",0.062,22,0.061,0.062,"site calc",0.6076
"608","Scatterbrain",0.0545,2,0.066,0.0545,"site calc",0.5341
"609","Seaforth",0.062,4,0.088,0.062,"site calc",0.6076
"610","Seaview",0.0475,4,0.053,0.0475,"site calc",0.4655
"611","Septimus",0.023,5,0.029,0.023,"site calc",0.2254
"612","Silent Grove",0.0555,14,0.057,0.0555,"site calc",0.5439
"613","Silkwood",0.055,4,0.056,0.055,"site calc",0.539
"614","Slater",0.0545,18,0.063,0.0545,"site calc",0.5341
"615","Solferino",0.0475,2,0.065,0.0475,"site calc",0.4655
"616","Spanos",0.0085,6,0.013,0.0085,"site calc",0.0833
"617","Spier",0.057,29,0.057,0.057,"site calc",0.5586
"618","Springs",0.0425,2,0.044,0.0425,"site calc",0.4165
"619","St Helens",0.061,14,0.086,0.061,"site calc",0.5978
"620","Sugarbag",0.035,2,0.045,0.035,"site calc",0.343
"621","Sumalee",0.057,1,0.065,0.057,"site calc",0.5586
"622","Sunnyside",0.069,13,0.08,0.069,"site calc",0.6762
"623","Sunter",0.055,2,0.057,0.055,"site calc",0.539
"624","Tailing",0.053,6,0.056,0.053,"site calc",0.5194
"625","Tanby",0.058,2,0.067,0.058,"site calc",0.5684
"626","Tandora",0.0685,2,0.072,0.0685,"site calc",0.6713
"627","Tannalo",0.031,5,0.042,0.031,"site calc",0.3038
"628","Tarong",0.0635,4,0.064,0.0635,"site calc",0.6223
"629","Tarramba",0.064,24,0.07,0.064,"site calc",0.6272
"630","Tawalla",0.009,2,0.005,0.009,"site calc",0.0882
"631","TbUg-1",0.051,4,0.049,0.051,"site calc",0.4998
"632","TbUg-11",0.0525,2,0.048,0.0525,"site calc",0.5145
"633","TbUg-13",0.053,2,0.051,0.053,"site calc",0.5194
"634","TbUg-2",0.047,14,0.054,0.047,"site calc",0.4606
"635","TbUg-4",0.0545,4,0.054,0.0545,"site calc",0.5341
"636","TbUg-6",0.054,2,0.049,0.054,"site calc",0.5292
"637","Te_El_Kabir",0.063,4,0.063,0.063,"site calc",0.6174
"638","Tedlands",0.0585,4,0.076,0.0585,"site calc",0.5733
"639","Telegraph",0.0525,4,0.025,0.0525,"site calc",0.5145
"640","Tenmile",0.033,10,0.033,0.033,"site calc",0.3234
"641","Thalberg",0.064,13,0.062,0.064,"site calc",0.6272
"642","Thompson",0.051,4,0.053,0.051,"site calc",0.4998
"643","Thompson - Mrc",0.0665,2,0.078,0.0665,"site calc",0.6517
"644","Thorpe",0.042,30,0.035,0.042,"site calc",0.4116
"645","Tiaro",0.055,2,0.065,0.055,"site calc",0.539
"646","Timara",0.073,27,0.066,0.073,"site calc",0.7154
"647","Timbrell",0.074,4,0.084,0.074,"site calc",0.7252
"648","Tiny",0.06,11,0.053,0.06,"site calc",0.588
"649","Tirrabella",0.058,2,0.055,0.058,"site calc",0.5684
"650","Tirroan",0.045,7,0.055,0.045,"site calc",0.441
"651","Tirroan Non-Sodic Variant",0.043,2,0.04,0.043,"site calc",0.4214
"652","Tognolini",0.06,7,0.069,0.06,"site calc",0.588
"653","Tolga",0.039,12,0.034,0.039,"site calc",0.3822
"654","Toobanna",0.0745,12,0.092,0.0745,"site calc",0.7301
"655","Toondoon",0.0675,4,0.063,0.0675,"site calc",0.6615
"656","Tralee",0.066,18,0.084,0.066,"site calc",0.6468
"657","Tranters",0.038,2,0.044,0.038,"site calc",0.3724
"658","Trebonne",0.056,6,0.067,0.056,"site calc",0.5488
"659","TsDr-1",0.0485,4,0.046,0.0485,"site calc",0.4753
"660","TsDy-1",0.043,10,0.04,0.043,"site calc",0.4214
"661","TsGn-3",0.036,4,0.028,0.036,"site calc",0.3528
"662","TsGn-4",0.0435,4,0.042,0.0435,"site calc",0.4263
"663","TsGn-5",0.0415,8,0.041,0.0415,"site calc",0.4067
"664","TsGn-6",0.047,8,0.045,0.047,"site calc",0.4606
"665","TsUc-2",0.0305,4,0.02,0.0305,"site calc",0.2989
"666","TsUf-3",0.0615,4,0.057,0.0615,"site calc",0.6027
"667","TsUf-6",0.0605,4,0.051,0.0605,"site calc",0.5929
"668","TsUg-7",0.063,32,0.054,0.063,"site calc",0.6174
"669","TsUgg-2",0.058,16,0.056,0.058,"site calc",0.5684
"670","Tully",0.06,7,0.063,0.06,"site calc",0.588
"671","Tureen",0.0585,2,0.062,0.0585,"site calc",0.5733
"672","Turnor",0.037,2,0.05,0.037,"site calc",0.3626
"673","Turpad",0.032,2,0.024,0.032,"site calc",0.3136
"674","Turpin",0.0485,10,0.052,0.0485,"site calc",0.4753
"675","Tyson",0.037,15,0.029,0.037,"site calc",0.3626
"676","Ulogie",0.065,23,0.066,0.065,"site calc",0.637
"677","Umala - Tab",0.0485,2,0.048,0.0485,"site calc",0.4753
"678","Up River",0.0265,2,0.023,0.0265,"site calc",0.2597
"679","Urannah",0.0265,2,0.028,0.0265,"site calc",0.2597
"680","Uruba",0.036,4,0.05,0.036,"site calc",0.3528
"681","Uruba Alluvial-Colluvial Variant",0.07,8,0.074,0.07,"site calc",0.686
"682","Utchee",0.036,6,0.033,0.036,"site calc",0.3528
"683","Valetta",0.043,2,0.057,0.043,"site calc",0.4214
"684","Vicenza",0.049,4,0.073,0.049,"site calc",0.4802
"685","Victoria Plains",0.059,16,0.069,0.059,"site calc",0.5782
"686","Violet",0.035,1,0.052,0.035,"site calc",0.343
"687","Virgil",0.05,6,0.05,0.05,"site calc",0.49
"688","Voewood",0.0545,2,0.064,0.0545,"site calc",0.5341
"689","Wagoora",0.0605,18,0.068,0.0605,"site calc",0.5929
"690","Wagoora, Basic Parent Material Variant",0.043,6,0.056,0.043,"site calc",0.4214
"691","Walkamin",0.0485,4,0.046,0.0485,"site calc",0.4753
"692","Walker - Mhb",0.058,2,0.075,0.058,"site calc",0.5684
"693","Walla",0.0735,4,0.076,0.0735,"site calc",0.7203
"694","Walsch",0.0535,2,0.048,0.0535,"site calc",0.5243
"695","Walsh",0.0685,6,0.081,0.0685,"site calc",0.6713
"696","Wandarra",0.03,6,0.042,0.03,"site calc",0.294
"697","Warrami",0.059,1,0.059,0.059,"site calc",0.5782
"698","Watalgan",0.0515,16,0.048,0.0515,"site calc",0.5047
"699","Watalgan Mottled Variant",0.0505,4,0.056,0.0505,"site calc",0.4949
"700","Weir",0.059,4,0.068,0.059,"site calc",0.5782
"701","Well",0.0625,4,0.073,0.0625,"site calc",0.6125
"702","Well, Footslope Variant",0.0545,2,0.074,0.0545,"site calc",0.5341
"703","Wheatlands",0.054,2,0.055,0.054,"site calc",0.5292
"704","Whelan",0.0685,2,0.066,0.0685,"site calc",0.6713
"705","Whiptail",0.057,4,0.062,0.057,"site calc",0.5586
"706","White",0.0415,2,0.057,0.0415,"site calc",0.4067
"707","Whitfield",0.067,1,0.042,0.067,"site calc",0.6566
"708","Windermere",0.057,3,0.057,0.057,"site calc",0.5586
"709","Windradene",0.051,2,0.043,0.051,"site calc",0.4998
"710","Witton",0.0425,4,0.054,0.0425,"site calc",0.4165
"711","Wivenhoe",0.041,2,0.043,0.041,"site calc",0.4018
"712","Woco",0.065,4,0.075,0.065,"site calc",0.637
"713","Wollingford",0.059,10,0.082,0.059,"site calc",0.5782
"714","Woober",0.084,3,0.094,0.084,"site calc",0.8232
"715","Woodleigh",0.0495,4,0.054,0.0495,"site calc",0.4851
"716","Woolmer",0.0665,4,0.063,0.0665,"site calc",0.6517
"717","Woongarra",0.0425,16,0.028,0.0425,"site calc",0.4165
"718","Woonton",0.0465,2,0.038,0.0465,"site calc",0.4557
"719","Wooroolin",0.044,31,0.05,0.044,"site calc",0.4312
"720","Wygong",0.0695,8,0.064,0.0695,"site calc",0.6811
"721","Yackadoo",0.0545,2,0.053,0.0545,"site calc",0.5341
"722","Yandaran",0.04,2,0.045,0.04,"site calc",0.392
"723","Yaringa",0.0985,2,0.107,0.0985,"site calc",0.9653
"724","Yarraman",0.067,6,0.061,0.067,"site calc",0.6566
"725","Yarrol",0.069,4,0.083,0.069,"site calc",0.6762
"726","3Ugd",NA,NA,0.064,0.064,"spc calc",0.6272
"727","6Ufd",NA,NA,0.056,0.056,"spc calc",0.5488
