"","ID","LAB_METH_CODE","NUMERIC_VALUE","RESULT_STATUS","NAME","final_SPC","DISTURB_TYPE"
"1","NCD-344-1","6A1",1.391,"A","3VEz",7570,6
"2","NCD-58-1","6A1",1.605,"A","2VEb",7549,6
"3","NCD-285-1","6A1",1.07,"A","2VEx",7553,6
"4","NCD-356-1","6A1",1.284,"A","2VEx",7553,6
"5","NCD-339-1","6A1",1.177,"A","3VEz",7570,6
"6","EME-9008-1","6A1",1.498,"A","Ronnoc",7714,6
"7","EME-9007-1","6A1",1.712,"A","Galway",7718,6
"8","EME-9006-1","6A1",1.926,"A","Eden",7727,6
"9","BAN-510-1","6A1",1.177,"A","Earlsfield",3556,6
"10","BAN-2093-1","6A1",0.749,"A","Earlsfield",3556,7
"11","BAN-2255-1","6A1",2.354,"A","Cottonham",3269,7
"12","BAN-2090-1","6A1",1.284,"A","Hodge (BAN)",3835,6
"13","BAN-883-1","6A1",2.996,"A","Earlsfield",3556,6
"14","BAN-2164-1","6A1",1.391,"A","Tognolini",5028,7
"15","BAN-440-1","6A1",2.675,"A","Fairview",3664,6
"16","SFS-73-1","6A1",1.712,"A","Rolleston",4739,6
"17","SFS-70-1","6A1",1.819,"A","Rolleston",4739,6
"18","SFS-71-1","6A1",1.498,"A","Rolleston",4739,6
"19","SFS-27-1","6A1",1.712,"A","Tarramba",5045,6
"20","SFS-56-1","6A1",1.284,"A","Rolleston",4739,6
"21","SFS-54-1","6A1",1.284,"A","Rolleston",4739,6
"22","SFS-52-1","6A1",1.391,"A","Rolleston",4739,6
"23","SFS-53-1","6A1",1.712,"A","Rolleston",4739,6
"24","SFS-26-1","6A1",1.498,"A","Retro",4746,6
"25","SFS-50-1","6A1",1.177,"A","Rolleston",4739,6
"26","SFS-32-1","6A1",1.605,"A","Tarramba",5045,6
"27","SFS-22-1","6A1",1.177,"A","Earlsfield",3556,6
"28","SFS-23-1","6A1",1.391,"A","Earlsfield",3556,6
"29","SFS-4-1","6A1",1.177,"A","Falkner",3637,6
"30","SFS-25-1","6A1",1.498,"A","Tarramba",5045,6
"31","BAN-2093-1","6A1",4.173,"A","Earlsfield",3556,7
"32","BAN-185-1","6A1",1.07,"A","Earlsfield",3556,6
"33","SFS-31-1","6A1",1.177,"A","Tarramba",5045,6
"34","SFS-21-1","6A1",0.963,"A","Earlsfield",3556,6
"35","SFS-2-1","6A1",1.284,"A","Falkner",3637,6
"36","SFS-76-1","6A1",1.712,"A","Rolleston",4739,6
"37","SFS-29-1","6A1",1.284,"A","Jambin",3953,6
"38","SFS-3-1","6A1",1.177,"A","Falkner",3637,6
"39","SFS-30-1","6A1",1.177,"A","Jambin",3953,6
"40","BAN-1945-1","6A1",1.284,"A","Earlsfield",3556,6
"41","BAN-1956-1","6A1",1.819,"A","Earlsfield",3556,6
"42","ARD-9014-1","6A1",1.712,"A","Wivenhoe",5351,7
"43","ARD-9001-1","6A1",1.284,"A","Glenrock",3772,7
"44","WDH-2034-1","6A1",1.605,"A","May",8009,6
"45","WDH-9031-1","6A1",2.033,"A","Langley-Wdh",8006,6
"46","WDH-2114-1","6A1",1.177,"A","Ninemile",8018,6
"47","WDH-929-1","6A1",1.284,"A","Langley-Wdh",8006,6
"48","SFS-600-1","6A1",2.033,"A","Ronnoc",7714,6
"49","SFS-302-1","6A1",0.963,"A","Falkner",3637,6
"50","SFS-5-1","6A1",0.642,"A","Falkner",3637,6
"51","SFS-325-1","6A1",0.856,"A","Ronnoc",7714,6
"52","SFS-253-1","6A1",1.819,"A","Retro",4746,6
"53","SFS-126-1","6A1",1.391,"A","Earlsfield",3556,6
"54","SFS-5-1","6A1",2.033,"A","Falkner",3637,6
"55","SFS-31-1","6A1",1.07,"A","Tarramba",5045,6
"56","SFS-76-1","6A1",1.07,"A","Rolleston",4739,6
"57","SFS-6-1","6A1",1.498,"A","Falkner",3637,6
"58","SFS-56-1","6A1",2.247,"A","Rolleston",4739,6
"59","SFS-300-1","6A1",1.07,"A","Falkner",3637,6
"60","SFS-21-1","6A1",0.856,"A","Earlsfield",3556,6
"61","SFS-22-1","6A1",0.963,"A","Earlsfield",3556,6
"62","SFS-229-1","6A1",1.391,"A","Bonwell",3157,6
"63","SFS-1-1","6A1",0.749,"A","Falkner",3637,6
"64","SFS-55-1","6A1",1.391,"A","Rolleston",4739,6
"65","SFS-103-1","6A1",2.033,"A","Jambin",3953,6
"66","SFS-457-1","6A1",1.498,"A","Rolleston",4739,6
"67","SFS-20-1","6A1",0.642,"A","Earlsfield",3556,6
"68","SFS-200-1","6A1",1.498,"A","Earlsfield",3556,6
"69","SFS-7-1","6A1",1.177,"A","Falkner",3637,6
"70","SFS-3-1","6A1",0.749,"A","Falkner",3637,6
"71","SFS-30-1","6A1",0.963,"A","Jambin",3953,6
"72","SFS-2-1","6A1",0.749,"A","Falkner",3637,6
"73","SFS-604-1","6A1",1.926,"A","Ronnoc",7714,6
"74","SFS-454-1","6A1",1.391,"A","Rolleston",4739,6
"75","SFS-515-1","6A1",1.284,"A","Oombabeer",7615,6
"76","SFS-601-1","6A1",1.712,"A","Ronnoc",7714,6
"77","CQC-120-1","6A1",0.7597,"A","May Downs",4266,6
"78","CQC-111-1","6A1",0.7383,"A","Bruce",3065,6
"79","SFS-176-1","6A1",1.712,"A","Earlsfield",3556,6
"80","SFS-405-1","6A1",1.177,"A","Russell",4725,6
"81","SFS-29-1","6A1",1.177,"A","Jambin",3953,6
"82","SFS-506-1","6A1",1.819,"A","Oombabeer",7615,6
"83","SFS-4-1","6A1",0.642,"A","Falkner",3637,6
"84","SFS-26-1","6A1",0.856,"A","Retro",4746,6
"85","SFS-51-1","6A1",1.177,"A","Rolleston",4739,6
"86","SFS-400-1","6A1",1.07,"A","Russell",4725,6
"87","SFS-327-1","6A1",0.963,"A","Ronnoc",7714,6
"88","SFS-152-1","6A1",1.177,"A","Earlsfield",3556,6
"89","SFS-32-1","6A1",0.963,"A","Tarramba",5045,6
"90","LFZ-473-1","6A1",1.391,"A","CVE1",8151,6
"91","LFZ-494-1","6A1",0.642,"A","1AKA1",8118,7
"92","KCM-9007-1","6A1",0.749,"A","Falkner",3637,6
"93","CQH-832-1","6A1",1.177,"A","Meilland",7890,7
"94","KCM-9008-1","6A1",1.07,"A","Vicenza",5187,6
"95","KCM-9005-1","6A1",0.749,"A","Eleanor",3578,6
"96","CQH-455-1","6A1",1.07,"A","Tanby",7884,6
"97","CCL-788-1","6A1",4.28,"A","Bulburin",8051,6
"98","CQH-616-1","6A1",4.066,"A","Raven",7889,7
"99","BRCL-51-1","6A1",1.819,"A","Blair",3058,6
"100","3MC-9007-1","6A1",3.424,"A","Threemoon 1",5013,7
"101","BLS-9008-1","6A1",0.749,"A","Callide",3231,6
"102","NCD-393-1","6A1",1.284,"A","2VEy",7554,6
"103","BLS-9009-1","6A1",1.391,"A","Callide",3231,7
"104","BLS-9010-1","6A1",2.247,"A","Tognolini",5028,6
"105","ABS-6-1","6A1",3.531,"A","B1",2879,6
"106","EIM-6006-1","6A1",1.712,"A","Krongie",7740,6
"107","EIM-6052-1","6A1",0.963,"A","Krongie",7740,6
"108","BLS-9007-1","6A1",1.284,"A","Tognolini",5028,7
"109","ATE-12-1","6A1",0.963,"A","Luxor",4208,6
"110","EIM-6048-1","6A1",0.856,"A","Rankin",4719,6
"111","CCL-328-1","6A1",2.033,"A","Lizard (CCL)",8061,7
"112","ABS-7-1","6A1",2.354,"A","B1",2879,6
"113","CCL-326-1","6A1",1.819,"A","Muldoon (CCL)",8055,7
"114","EIM-6046-1","6A1",1.391,"A","Krongie",7740,6
"115","CCL-325-1","6A1",0.642,"A","Voewood",7852,7
"116","EIM-6047-1","6A1",1.391,"A","Krongie",7740,6
"117","ABS-59-1","6A1",2.889,"A","U1",5154,6
"118","EIM-6004-1","6A1",1.07,"A","Krongie",7740,6
"119","EIM-6003-1","6A1",0.963,"A","Krongie",7740,6
"120","ABS-78-1","6A1",1.819,"A","D2",3404,6
"121","ABS-78-1","6A1",2.568,"A","D2",3404,6
"122","3MC-6001-1","6A1",1.712,"A","Threemoon 1",5013,7
"123","EIM-6023-1","6A1",1.177,"A","Krongie",7740,6
"124","EIM-6058-1","6A1",1.07,"A","Krongie",7740,6
"125","EIM-6043-1","6A1",1.498,"A","Rankin",4719,6
"126","EIM-6016-1","6A1",1.07,"A","Krongie",7740,6
"127","EIM-6041-1","6A1",1.284,"A","Krongie",7740,6
"128","EIM-6037-1","6A1",1.498,"A","Rankin",4719,6
"129","ABS-85-1","6A1",2.996,"A","U1",5154,6
"130","EIM-6059-1","6A1",1.284,"A","Krongie",7740,6
"131","ABS-84-1","6A1",2.889,"A","U1",5154,6
"132","ABS-84-1","6A1",2.675,"A","U1",5154,6
"133","EIM-6040-1","6A1",2.033,"A","Krongie",7740,6
"134","ABS-3-1","6A1",4.066,"A","B2",2880,6
"135","EIM-6022-1","6A1",0.963,"A","Krongie",7740,6
"136","ABS-100-1","6A1",1.498,"A","X1",5361,6
"137","ABS-100-1","6A1",1.177,"A","X1",5361,6
"138","ATE-14-1","6A1",1.819,"A","Arcturus",2788,6
"139","ATE-15-1","6A1",1.605,"A","Bruce",3065,6
"140","EIM-6053-1","6A1",0.963,"A","Krongie",7740,6
"141","ABS-9-1","6A1",3.103,"A","B2",2880,6
"142","CCL-755-1","6A1",1.712,"A","Oscar",8052,7
"143","CIS-9013-1","6A1",2.354,"A","Bilboolan",2908,6
"144","ABS-88-1","6A1",3.21,"A","U1",5154,6
"145","ABS-88-1","6A1",3.424,"A","U1",5154,6
"146","ABS-85-1","6A1",2.889,"A","U1",5154,6
"147","EIM-6055-1","6A1",1.498,"A","Rankin",4719,6
"148","ABS-8-1","6A1",3.424,"A","B1",2879,6
"149","BLS-9000-1","6A1",1.177,"A","Hodge (BAN)",3835,6
"150","EIM-6025-1","6A1",1.498,"A","Rankin",4719,6
"151","ABS-79-1","6A1",2.675,"A","C5",3187,6
"152","EIM-6010-1","6A1",1.605,"A","Krongie",7740,6
"153","CIS-9012-1","6A1",1.391,"A","Ceratodus",3233,7
"154","EIM-6029-1","6A1",1.391,"A","Krongie",7740,6
"155","CIS-9011-1","6A1",1.926,"A","Ceratodus",3233,6
"156","BLS-9001-1","6A1",1.819,"A","Melton",4402,7
"157","EIM-6031-1","6A1",1.498,"A","Rankin",4719,6
"158","EIM-6028-1","6A1",1.177,"A","Krongie",7740,6
"159","EIM-6034-1","6A1",0.963,"A","Krongie",7740,6
"160","EIM-6017-1","6A1",1.605,"A","Krongie",7740,6
"161","EIM-6011-1","6A1",1.284,"A","Krongie",7740,6
"162","EIM-6035-1","6A1",1.284,"A","Krongie",7740,6
"163","ABS-14-1","6A1",1.926,"A","B2",2880,6
"164","EIM-6049-1","6A1",2.14,"A","Rankin",4719,6
"165","ABS-15-1","6A1",3.317,"A","B2",2880,6
"166","ATE-20-1","6A1",0.856,"A","Battery",7976,6
"167","ATE-2-1","6A1",0.856,"A","Sullivan",7738,6
"168","CCL-111-1","6A1",2.461,"A","Degalgil",8103,7
"169","ATE-1-1","6A1",1.07,"A","Bruce",3065,6
"170","CCL-111-1","6A1",1.926,"A","Degalgil",8103,7
"171","ATE-17-1","6A1",1.819,"A","Vermont",5199,6
"172","CIS-9003-1","6A1",2.675,"A","Dalgangal",3448,6
"173","ABS-91-1","6A1",5.992,"A","C4",3186,6
"174","ABS-91-1","6A1",5.457,"A","C4",3186,6
"175","ATE-5-1","6A1",1.07,"A","Arcturus",2788,6
"176","EIM-6000-1","6A1",1.605,"A","Rankin",4719,6
"177","MGR-9001-1","6A1",1.391,"A","Bovekel",2977,6
"178","MON-6095-1","6A1",1.177,"A","Rolleston",4739,6
"179","MGR-9005-1","6A1",1.819,"A","Flagstone",3649,6
"180","ABS-4-1","6A1",2.568,"A","B2",2880,6
"181","CIS-9009-1","6A1",1.819,"A","Ceratodus",3233,6
"182","CCL-80-1","6A1",1.819,"A","Degalgil",8103,7
"183","CIS-9005-1","6A1",1.177,"A","Abercorn",2783,6
"184","CIS-9007-1","6A1",1.07,"A","Anyarro",2878,6
"185","CCL-1167-1","6A1",2.675,"A","Diglum (CCL)",8107,6
"186","NCD-885-1","6A1",1.177,"A","3VEc",7566,7
"187","NCD-872-1","6A1",2.247,"A","2VEa",7548,7
"188","BAN-1945-1","6A1",1.819,"A","Earlsfield",3556,6
"189","BAN-1956-1","6A1",1.284,"A","Earlsfield",3556,6
"190","KCM-9040-1","6A1",1.712,"A","Rankin",4719,6
"191","NCD-1031-1","6A1",0.642,"A","2VEx",7553,7
"192","NCD-1032-1","6A1",0.749,"A","3VEy",7569,7
"193","NCD-1035-1","6A1",0.642,"A","3VEw",7567,7
"194","NCD-1036-1","6A1",0.535,"A","3VEw",7567,7
"195","EIM-6013-1","6A1",1.391,"A","Rankin",4719,6
"196","SFS-75-1","6A1",1.712,"A","Rolleston",4739,6
"197","SFS-20-1","6A1",1.284,"A","Earlsfield",3556,6
"198","SFS-457-1","6A1",1.926,"A","Rolleston",4739,6
"199","BAN-2099-1","6A1",1.819,"A","Callide",3231,7
"200","SFS-28-1","6A1",1.391,"A","Tarramba",5045,6
"201","EIM-6007-1","6A1",1.498,"A","Rankin",4719,6
"202","LFZ-472-1","6A1",2.247,"A","1AVE1",8123,6
"203","ABS-90-1","6A1",3.21,"A","B1",2879,6
"204","ATE-4-1","6A1",0.963,"A","May Downs",4266,6
"205","MGR-9004-1","6A1",1.177,"A","Burnett Coarse Sandy Variant",3029,7
"206","MISSE-627-1","6A1",1.5408,"A","Threemoon 1",5013,7
"207","MISSE-628-1","6A1",2.0972,"A","Threemoon 1",5013,7
"208","MISSE-629-1","6A1",1.6157,"A","Threemoon 1",5013,7
"209","ABN-243-1","6A1",1.605,"A","K1",3986,7
"210","MISSE-626-1","6A1",1.819,"A","Threemoon 1",5013,7
"211","ATE-28-1","6A1",1.819,"A","May Downs",4266,6
"212","ABS-90-1","6A1",3.745,"A","B1",2879,6
"213","QCS-77-1","6A1",0.8453,"A","Teviot",5136,6
"214","QCS-77-1","6A1",3.21,"A","Teviot",5136,6
"215","QCS-75-1","6A1",0.7597,"A","Glenora",3741,6
"216","QCS-74-1","6A1",0.6527,"A","Arcturus",2788,7
"217","QCS-72-1","6A1",0.6206,"A","May Downs",4266,6
"218","QCS-71-1","6A1",0.8881,"A","Glenora",3741,6
"219","QCS-79-1","6A1",1.284,"A","Krongie",7740,6
"220","QCS-79-1","6A1",1.819,"A","Krongie",7740,6
"221","EIR-9050-1","6A1",1.284,"A","6AUg-8",2750,6
"222","EIR-9050-1","6A1",0.856,"A","6AUg-8",2750,6
"223","EIR-9047-1","6A1",0.8881,"A","6AUg-12",2744,6
"224","EIR-9047-1","6A1",0.7276,"A","6AUg-12",2744,6
"225","ZCQ-6022-1","6A1",0.9,"A","Arcturus",2788,6
"226","CQC-102-1","6A1",0.6848,"A","Arcturus",2788,6
"227","CQC-28-1","6A1",0.7811,"A","May Downs",4266,6
"228","CQC-76-1","6A1",0.9416,"A","May Downs",4266,6
"229","CQC-85-1","6A1",1.284,"A","Bruce",3065,6
"230","CQC-103-1","6A1",0.7811,"A","May Downs",4266,6
"231","CQC-47-1","6A1",1.0058,"A","Bruce",3065,6
"232","CQC-48-1","6A1",1.177,"A","Arcturus",2788,6
"233","CQC-53-1","6A1",0.8453,"A","Bruce",3065,6
"234","CQC-64-1","6A1",0.7811,"A","Arcturus",2788,6
"235","CQC-86-1","6A1",1.177,"A","Arcturus",2788,6
"236","CQC-45-1","6A1",1.177,"A","May Downs",4266,6
"237","CQC-54-1","6A1",0.749,"A","Arcturus",2788,6
"238","CQC-65-1","6A1",0.8667,"A","Glenora",3741,6
"239","CQC-77-1","6A1",0.9202,"A","May Downs",4266,6
"240","CQC-87-1","6A1",1.07,"A","May Downs",4266,6
"241","CQC-104-1","6A1",0.8346,"A","Arcturus",2788,6
"242","CQC-32-1","6A1",0.7918,"A","Glenora",3741,6
"243","CQC-33-1","6A1",0.8667,"A","Arcturus",2788,6
"244","CQC-46-1","6A1",0.749,"A","May Downs",4266,6
"245","CQC-49-1","6A1",0.9844,"A","Arcturus",2788,6
"246","CQC-66-1","6A1",0.8453,"A","Glenora",3741,6
"247","CQC-78-1","6A1",0.7383,"A","May Downs",4266,6
"248","CQC-88-1","6A1",0.8453,"A","May Downs",4266,6
"249","CQC-105-1","6A1",0.6955,"A","Arcturus",2788,6
"250","CQC-34-1","6A1",1.177,"A","Glenora",3741,6
"251","CQC-50-1","6A1",1.07,"A","May Downs",4266,6
"252","CQC-89-1","6A1",0.963,"A","May Downs",4266,6
"253","CQC-91-1","6A1",0.8988,"A","May Downs",4266,6
"254","CQC-106-1","6A1",0.8988,"A","Bruce",3065,6
"255","CQC-35-1","6A1",0.7276,"A","Glenora",3741,6
"256","CQC-57-1","6A1",0.8667,"A","Vermont",5199,6
"257","CQC-92-1","6A1",0.9523,"A","Arcturus",2788,6
"258","CQC-93-1","6A1",0.9202,"A","Arcturus",2788,6
"259","CQC-107-1","6A1",0.9416,"A","Arcturus",2788,6
"260","CQC-94-1","6A1",1.0272,"A","Arcturus",2788,6
"261","CQC-122-1","6A1",0.7169,"A","May Downs",4266,6
"262","CQC-36-1","6A1",1.0272,"A","Glenora",3741,6
"263","CQC-58-1","6A1",0.8667,"A","Vermont",5199,6
"264","CQC-95-1","6A1",0.8667,"A","Arcturus",2788,6
"265","CQC-108-1","6A1",1.0058,"A","Arcturus",2788,6
"266","CQC-109-1","6A1",1.0165,"A","Bruce",3065,6
"267","CQC-125-1","6A1",0.963,"A","Bruce",3065,6
"268","CQC-79-1","6A1",0.9416,"A","Bruce",3065,6
"269","CQC-80-1","6A1",0.9951,"A","Bruce",3065,6
"270","CQC-71-1","6A1",1.284,"A","May Downs",4266,6
"271","CQC-96-1","6A1",0.7704,"A","May Downs",4266,6
"272","CQC-110-1","6A1",0.6313,"A","Bruce",3065,6
"273","CQC-18-1","6A1",1.0486,"A","Arcturus",2788,6
"274","CQC-72-1","6A1",1.177,"A","May Downs",4266,6
"275","CQC-81-1","6A1",0.8881,"A","Bruce",3065,6
"276","CQC-97-1","6A1",1.0058,"A","May Downs",4266,6
"277","CQC-112-1","6A1",0.8346,"A","Bruce",3065,6
"278","CQC-113-1","6A1",0.8453,"A","Bruce",3065,6
"279","CQC-39-1","6A1",0.856,"A","Arcturus",2788,6
"280","CQC-73-1","6A1",0.6634,"A","Bruce",3065,6
"281","CQC-82-1","6A1",0.8239,"A","Arcturus",2788,6
"282","CQC-98-1","6A1",0.9309,"A","May Downs",4266,6
"283","CQC-114-1","6A1",0.6741,"A","Arcturus",2788,6
"284","CQC-40-1","6A1",0.9202,"A","May Downs",4266,6
"285","CQC-74-1","6A1",0.6313,"A","Bruce",3065,6
"286","CQC-99-1","6A1",1.0165,"A","Arcturus",2788,6
"287","CQC-115-1","6A1",0.6634,"A","Bruce",3065,6
"288","CQC-27-1","6A1",0.9416,"A","May Downs",4266,6
"289","CQC-41-1","6A1",0.963,"A","Bruce",3065,6
"290","CQC-100-1","6A1",0.8239,"A","Arcturus",2788,6
"291","CQC-42-1","6A1",0.9737,"A","Bruce",3065,6
"292","CQC-63-1","6A1",0.8239,"A","May Downs",4266,6
"293","CQC-84-1","6A1",1.284,"A","Bruce",3065,6
"294","CQC-101-1","6A1",0.7811,"A","Bruce",3065,6
"295","IPB-5-1","6A1",1.819,"A","Gueena",3798,6
"296","IPB-7-1","6A1",0.7062,"A","Wheatlands",5264,6
"297","IPB-10-1","6A1",1.712,"A","Byee",3178,6
"298","IPB-2-1","6A1",2.354,"A","Weir",5240,6
"299","IPB-6-1","6A1",1.498,"A","Eastgate",3549,6
"300","WAN-3-1","6A1",1.07,"A","Downfall",3440,6
"301","WAN-6-1","6A1",1.712,"A","Rolleston",4739,6
"302","SALTE-744-1","6A1",2.354,"A","Goodger",3710,6
"303","SALTE-738-1","6A1",1.605,"A","Coolabunia",3296,6
"304","EIL-35-1","6A1",1.177,"A","2AUg-7",2293,6
"305","EIL-3-1","6A1",1.391,"A","BUg-2",3126,6
"306","EIL-5-1","6A1",1.177,"A","BUg-2",3126,6
"307","EIL-1-1","6A1",1.177,"A","BUg-2",3126,6
"308","EIL-2-1","6A1",1.284,"A","BUg-2",3126,6
"309","CQCS-103-1","6A1",0.749,"A","Annandale",2835,7
"310","SALTE-741-1","6A1",1.391,"A","Memerambi",4345,6
"311","SALTE-745-1","6A1",2.033,"A","Coolabunia",3296,6
"312","MISSE-150-1","6A1",2.033,"A","Riverleigh",4722,6
"313","MISSE-151-1","6A1",1.926,"A","Nail",4484,7
"314","MISSE-164-1","6A1",1.712,"A","Witton",5345,6
"315","MISSE-101-1","6A1",2.14,"A","Pearlinga",4613,7
"316","MISSE-162-1","6A1",2.033,"A","Toondoon",4959,7
"317","MISSE-102-1","6A1",1.819,"A","Hawkwood",3915,7
"318","MISSE-163-1","6A1",5.671,"A","Hind",3834,6
"319","EIL-79-1","6A1",1.07,"A","2AUg-3",2289,6
"320","EIL-66-1","6A1",1.07,"A","BUg-6",3132,6
"321","EIL-82-1","6A1",0.963,"A","TbUg-11",4940,6
"322","EIL-78-1","6A1",0.856,"A","TbUg-6",4950,6
"323","ROSL-31-1","6A1",0.642,"A","Arcturus",2788,6
"324","ROSL-31-1","6A1",0.642,"A","Arcturus",2788,6
"325","ROSL-32-1","6A1",0.642,"A","May Downs",4266,6
"326","ROSL-32-1","6A1",0.535,"A","May Downs",4266,6
"327","ROSL-23-1","6A1",0.749,"A","Arcturus",2788,6
"328","ROSL-23-1","6A1",0.642,"A","Arcturus",2788,6
"329","ROSL-28-1","6A1",0.749,"A","Arcturus",2788,6
"330","ROSL-28-1","6A1",0.856,"A","Arcturus",2788,6
"331","ROSL-29-1","6A1",0.856,"A","Arcturus",2788,6
"332","ROSL-29-1","6A1",0.749,"A","Arcturus",2788,6
"333","ROSL-30-1","6A1",0.749,"A","Arcturus",2788,6
"334","ROSL-30-1","6A1",0.642,"A","Arcturus",2788,6
"335","ATD-11-1","6A1",1.605,"A","Pegunny",4587,6
"336","ATD-12-1","6A1",1.819,"A","Cheshire",3264,6
"337","ATD-6-1","6A1",0.963,"A","Teviot",5136,6
"338","ATD-13-1","6A1",2.247,"A","Vermont",5199,6
"339","ATD-14-1","6A1",1.605,"A","Warrinilla",5216,6
"340","ATD-9-1","6A1",1.712,"A","Retro",4748,6
"341","ATD-3-1","6A1",3.745,"A","May Downs",4266,6
"342","SFS-8-1","6A1",0.856,"A","Falkner",3637,6
"343","ESH-6005-1","6A1",1.819,"A","6AUg-3",2746,6
"344","SFS-9-1","6A1",0.749,"A","Falkner",3637,6
"345","ESH-6007-1","6A1",0.535,"A","BUg-2",3126,6
"346","ESH-6020-1","6A1",1.1663,"A","1AUg-2",2097,6
"347","KCM-9040-1","6B3a",1.87,"A","Rankin",4719,6
"348","KCM-9040-1","6B3a",3.43,"A","Rankin",4719,6
"349","EME-9008-1","6B3a",1.58,"A","Ronnoc",7714,6
"350","EME-9007-1","6B3a",1.88,"A","Galway",7718,6
"351","EME-9007-1","6B3a",1.97,"A","Galway",7718,6
"352","EME-9008-1","6B3a",1.66,"A","Ronnoc",7714,6
"353","EME-9007-1","6B2b",2.03,"A","Galway",7718,6
"354","EME-9007-1","6B2b",2.04,"A","Galway",7718,6
"355","MISSE-626-1","6B2b",2.03,"A","Threemoon 1",5013,7
"356","MISSE-627-1","6B2b",1.5,"A","Threemoon 1",5013,7
"357","MISSE-628-1","6B2b",2.17,"A","Threemoon 1",5013,7
"358","MISSE-629-1","6B2b",1.6,"A","Threemoon 1",5013,7
"359","SALTC-400-1","6B2b",0.51,"A","Rankin",4719,6
"360","MISSE-162-1","6B2b",2.18,"A","Toondoon",4959,7
"361","MISSE-163-1","6B2b",5.56,"A","Hind",3834,6
"362","MISSE-164-1","6B2b",1.95,"A","Witton",5345,6
"363","CTAP-8-1","6B2b",0.5,"A","Ellis",9947,7
"364","CTAP-8-1","6B2b",0.35,"A","Ellis",9947,7
"365","MISSE-150-1","6B2b",2.12,"A","Riverleigh",4722,6
"366","MISSE-151-1","6B2b",2.13,"A","Nail",4484,7
"367","MISSE-101-1","6B2b",2.07,"A","Pearlinga",4613,7
"368","MISSE-102-1","6B2b",1.98,"A","Hawkwood",3915,7
