"","NAME","OC","count_sites"
"1","1ACH1",1.391,1
"2","1ADb",0.856,1
"3","1ADb-2",1.1235,2
"4","1ADb-7",1.07,1
"5","1ADb-Dd",2.033,1
"6","1ADd-3",0.963,1
"7","1ADd-4",1.498,5
"8","1ADE1",1.819,3
"9","1ADE2",2.45,3
"10","1AKA1",0.642,1
"11","1ARU1",1.819,1
"12","1ATE1",0.749,1
"13","1AUg-12",0.88275,2
"14","1AUg-13",1.712,3
"15","1AUg-2",1.1663,1
"16","1AUg-3",0.963,2
"17","1AUg-4",0.963,1
"18","1AVE1",2.568,2
"19","1AVE2",2.4975,2
"20","1AVE4",2.0865,4
"21","1AVE6",2.3005,2
"22","1CHa",1.6585,2
"23","1CHb",1.07,1
"24","1Dbb",0.963,1
"25","1Dda",1.177,3
"26","1DEa",1.712,1
"27","1Dya",0.963,3
"28","1Dyc",0.856,4
"29","1Dyd",0.749,3
"30","1KTa",2.033,1
"31","1SOa",1.07,1
"32","1SOb",1.07,1
"33","1Uga",1.07,15
"34","1Ugc",1.3375,2
"35","1Ugd",1.177,9
"36","1Ugf",1.07,6
"37","2ADb-1",0.749,1
"38","2AUf-Ug-3",0.642,1
"39","2AUg-3",1.8725,2
"40","2AUg-7",1.177,3
"41","2AUg-8m",1.07,3
"42","2AUg-9m",0.535,1
"43","2AUgg-2m",2.033,1
"44","2AVE2",2.033,1
"45","2Dba",1.605,3
"46","2Dbb",2.14,2
"47","2Dbc",1.07,3
"48","2Dbd",1.498,3
"49","2Dda",1.07,8
"50","2Dda2",1.177,2
"51","2Ddb",1.07,15
"52","2Ddc",1.3375,2
"53","2Dya",1.07,11
"54","2Dyb",1.177,25
"55","2Dyc",1.391,7
"56","2Uga",0.963,5
"57","2Ugb",1.07,1
"58","2Ugc",1.07,8
"59","2UgcW",2.0865,2
"60","2Ugd",1.2305,28
"61","2ugd2",1.391,3
"62","2Uge",1.284,41
"63","2Ugf",1.177,2
"64","2Ugg",1.498,7
"65","2Ugh",0.856,22
"66","2Ugj",4.82,2
"67","2Ugk",1.07,2
"68","2VEa",1.9795,2
"69","2VEb",1.2305,2
"70","2VEe",1.712,1
"71","2VEx",1.07,5
"72","2VEy",1.284,1
"73","3ASO2",1.819,1
"74","3AUf-Ug-1m",0.535,1
"75","3AUf-Ug-2m",0.749,1
"76","3AUf-Ug-3d",0.856,1
"77","3AUf-Ug-6m",0.642,1
"78","3AUg-2",1.4445,2
"79","3CHx",1.498,1
"80","3Ug",0.642,1
"81","3Uga",1.5515,2
"82","3Ugc",1.177,2
"83","3Ugd",0.856,11
"84","3Uge",0.856,3
"85","3VEa",1.712,2
"86","3VEb",0.749,1
"87","3VEc",1.712,3
"88","3VEw",0.642,3
"89","3VEy",1.1235,2
"90","3VEz",1.284,2
"91","4AUf",0.856,1
"92","4Dyb",0.428,1
"93","4Dyd",0.2705,4
"94","4Dyg",0.449,7
"95","4Dyj",0.3745,2
"96","4Dyk",0.321,4
"97","4Gnb",0.5885,4
"98","4Ucc",0.2675,2
"99","5Dra",1.2305,16
"100","5Dya",1.3375,2
"101","5Dyb",1.284,11
"102","5Dyc",1.177,5
"103","5Dye",1.177,1
"104","5Dyf Shelf",0.428,2
"105","5Uga",1.391,5
"106","5Ugb",1.3375,2
"107","5Ugc  Depression",1.1235,2
"108","6ADb-1",0.8025,3
"109","6ADb-4",0.535,2
"110","6ADr",1.07,2
"111","6ADy-3",0.67945,2
"112","6AUg-10",0.63665,4
"113","6AUg-12",0.8881,3
"114","6AUg-3",1.819,3
"115","6AUg-4",0.642,2
"116","6AUg-5",1.284,2
"117","6AUg-6",1.1342,2
"118","6AUg-8",0.72225,4
"119","6AUg-9",1.8725,2
"120","6Db",1.07,2
"121","6Dba",0.749,7
"122","6Dbb",2.247,3
"123","6Dbc",1.284,5
"124","6Dbd",1.177,17
"125","6Dbe",1.284,7
"126","6Dbf",0.5175,4
"127","6Dbg",0.749,2
"128","6Dbh",1.177,5
"129","6Dda",1.177,7
"130","6Dra",0.749,2
"131","6Drb",0.963,16
"132","6Drc",1.391,7
"133","6Dya",0.6955,4
"134","6Dyb",0.6955,3
"135","6Dyc",1.605,1
"136","6Dyd",0.642,5
"137","6Dye",0.535,1
"138","6Dyf",0.963,19
"139","6Dyf2",2.033,5
"140","6Dyg",1.142,12
"141","6Dyj",0.9465,12
"142","6Gn",0.856,1
"143","6Gnb",0.963,3
"144","6Gnc",0.72225,4
"145","6Gnd",0.642,2
"146","6Ucc",0.642,4
"147","6Ufc",1.605,1
"148","6Ufd",2.461,3
"149","6Uga",1.51,5
"150","6Uma",2.07,3
"151","6Umb",2.568,2
"152","Abbot",1.498,1
"153","Abercorn",1.819,2
"154","Abergowrie",1.5515,12
"155","Abergowrie Sandy Phase",0.963,1
"156","Adeline",1.177,5
"157","Albert",1.605,4
"158","Aldershot",2.209015,2
"159","Allandale",0.963,2
"160","Allandale, Strongly Sodic Variant",3.959,2
"161","Alloway",0.749,6
"162","Alma",7.3405,2
"163","Althaus",0.749,3
"164","Andergrove",0.6527,9
"165","Andergrove Water Table Variant",0.7062,2
"166","Annandale",0.963,2
"167","Anyarro",1.605,3
"168","Appaloosa",1.9,1
"169","Apron",1.284,1
"170","Archookoora",2.247,4
"171","Arcturus",0.97905,84
"172","Arnot",1.7465,4
"173","Arnot Dark Phase",3.424,6
"174","Aroa",1.605,2
"175","Arriga",0.6,3
"176","Ashton",1.07,2
"177","Auburn",1.5515,8
"178","Avon",1.4,1
"179","Avondale",1.177,5
"180","Awoonga",2.675,1
"181","Ayreesta",5.029,1
"182","Babinda",16.939,12
"183","Baddow",0.60669,2
"184","Balberra",1.3375,6
"185","Bally",5.243,1
"186","Banana",1.605,12
"187","Banban",2.247,4
"188","Banyan",3.1,3
"189","Barron",6.099,1
"190","Basel",2.5145,6
"191","Battery",1.284,5
"192","Bauhinia",1.284,3
"193","Bauple",2.568,1
"194","Beauaraba",2.889,23
"195","Beeron",1.819,1
"196","Bell",3.103,3
"197","Bells",2.14,1
"198","Belmunda",2.14,2
"199","Belvedere",2.782,1
"200","Benholme",2.0865,10
"201","Berris",2.354,1
"202","Bicton",2.984,2
"203","Bidwill",2.889,1
"204","Bilboolan",2.354,1
"205","Bingera",3.638,1
"206","Bingil",3.3705,2
"207","Blackburn",2.58,3
"208","Blair",1.819,1
"209","Bluewater",1.605,2
"210","Bluff",0.8,9
"211","Bogandilla",2.461,1
"212","Bonavista",1.498,1
"213","Bonnie Crofts",1.712,2
"214","Bonwell",2.568,7
"215","Boonenne",1.284,3
"216","Booyal",1.177,2
"217","Boston",0.908,4
"218","Bovekel",1.391,1
"219","Boyanda",1.712,1
"220","Boyne",1.177,1
"221","Boynewood",2.1935,10
"222","Brae",4.922,1
"223","Brightley",1.819,6
"224","Broadmedow",0.6741,14
"225","Brooweena",1.605,1
"226","Brooyar",5.243,1
"227","Brosnan",1.5335,8
"228","Bruce",1.07,45
"229","Bubbler",2.73,3
"230","BUca",0.963,1
"231","BUcb",1.07,1
"232","Bucca",2.677,4
"233","Buchan",1.498,3
"234","Buckley",0.428,1
"235","BUfa",1.498,1
"236","BUfb",1.177,1
"237","BUfc",1.712,3
"238","BUfe",1.605,1
"239","Buffel",1.391,2
"240","BUg-10",1.1235,2
"241","BUg-2",1.177,9
"242","BUg-3",1.07,3
"243","BUg-4",1.177,1
"244","BUg-6",1.07,1
"245","BUga",2.033,1
"246","Bulgun",3.4435,8
"247","Bulguru",5.7375,2
"248","Bullhead",1.605,3
"249","BUma",1.819,1
"250","BUmb",0.963,1
"251","Bungadoo",8.239,2
"252","Burdekin",0.856,9
"253","Burdekin Buried Soils Or D Horizons Vary",2.033,1
"254","Burnett",1.137,6
"255","Burnett Coarse Sandy Variant",1.177,1
"256","Burradoo",1.605,9
"257","Burrum",2.033,2
"258","Bushnell",1.605,3
"259","Butcher",1.4445,4
"260","Butcher Sandy Variant",0.642,1
"261","BVE1",2.461,1
"262","Byabra",0.535,1
"263","Byee",1.712,3
"264","Cabbage Tree",2.461,1
"265","Cadarga",2.0865,2
"266","Calen",1.284,12
"267","Callide",2.461,9
"268","Cameron",0.963,5
"269","Campbell Plains",1.819,1
"270","Canoe",1.391,28
"271","Cape",1.41775,10
"272","Carew",1.177,5
"273","Carfax",1.391,9
"274","Carmila",2.14,3
"275","Cassidy",0.749,1
"276","Castleview",0.535,1
"277","Catherina",2.0009,1
"278","Cattle",0.904,3
"279","CDba",0.963,1
"280","Ceratodus",1.8725,4
"281","Cheeseboro",2.461,1
"282","Chelmsford",2.247,3
"283","Cherry Tree",0.8025,2
"284","Chessborough",1.498,1
"285","Childers",3.01,32
"286","Chinchilla",1.07,1
"287","Clayton",0.749,6
"288","Clematis",2.4717,4
"289","Clifton",1.08,5
"290","Cliftonville",1.605,1
"291","Cole",3.745,1
"292","Commissioner",2.461,1
"293","Condor",1.498,1
"294","Consuelo",2.247,1
"295","Conway",0.95765,2
"296","Conway (Cqh)",2.8355,2
"297","Coolabunia",2.14,5
"298","Coom",1.926,22
"299","Coonoon",3.1565,2
"300","Coorooman",8.132,1
"301","Copenhagen",1.56862,1
"302","Corduroy",3.103,1
"303","Corea",0.7295,2
"304","Cottonham",3.103,4
"305","Creek",1.498,1
"306","CUca",0.6955,2
"307","Cudmore",1.07,3
"308","CUfb",1.07,1
"309","Curlewis",0.856,1
"310","CVE1",1.391,1
"311","CVE3",1.605,1
"312","CVE4",2.0715,2
"313","CVE5",2.14,3
"314","Dagun",2.782,1
"315","Dalgangal",2.675,1
"316","Dalrymple",0.9435,10
"317","Darts",4.922,1
"318","Derra",2.033,2
"319","Derra (CWL)",4.8749,4
"320","Diamond (Kcm)",0.963,1
"321","Diamond (Kcm), Footslope Variant",0.692,3
"322","Dickson",2.889,1
"323","Dickson, Shallow Variant",2.983,4
"324","Dingo",5.12,2
"325","Dingo (Pss)",1.07,4
"326","Dittmer",1.02185,2
"327","Dixie",0.2925,2
"328","Don",1.5515,4
"329","Doolbi",1.391,5
"330","Doonside",1.498,1
"331","Dotswood",1,9
"332","Dove",1.926,1
"333","Drinan",1.284,1
"334","Dryander",2.5145,4
"335","Drysdale",2.247,1
"336","Dudgeon",2.354,1
"337","Dundula",2.14,3
"338","Dunrobin - CQ",1.391,7
"339","Dunstan",5.136,1
"340","Dunwold",1.07,5
"341","Durong",1.968,2
"342","Earlsfield",1.284,29
"343","Eastgate",2.354,2
"344","Eden",1.712,2
"345","Edgecumbe",2.354,4
"346","Edmonton",1.5425,4
"347","Egera",1.19,5
"348","Eleanor",0.8025,2
"349","Eleanor, Mottled Phase",0.642,1
"350","Elizabeth",3.1565,2
"351","Elliot",1.712,3
"352","Ellis",0.425,2
"353","Emerald",0.8,1
"354","Emoh",0.8025,4
"355","Endeavour",5.136,1
"356","Eton",1.28,11
"357","Etowrie",1.605,7
"358","Etowrie (Neutral Variant)",3.317,1
"359","Eubenangee",2.497,4
"360","Eversleigh",1.9795,2
"361","Fairdale",2.6215,6
"362","Fairview",2.782,7
"363","Fairydale",2.247,1
"364","Fairymead",1.9795,2
"365","Falkner",0.9095,16
"366","Fanning River",0.92,5
"367","Farleigh",0.749,2
"368","Farnsfield",1.391,7
"369","Feluga",2.6215,6
"370","Feluga Red Variant",4.4,1
"371","Finch Hatton",2.033,4
"372","Finley",2.033,6
"373","Fison",1.177,1
"374","Flagstone",1.712,4
"375","Fletcher",0.856,1
"376","Fletcher - Brcl",2.568,1
"377","Flinton",1.6585,2
"378","Fowler",1.712,1
"379","Foxdale",3.21,3
"380","Foxleigh",0.749,17
"381","Freddy",1.07,1
"382","Galmara",1.5515,6
"383","Galway",1.88,7
"384","Gander",3.531,1
"385","Gargett",0.803,4
"386","Garradunga",2.27,3
"387","Garrett",1.605,1
"388","Gibson - Bab",1.926,1
"389","Gigoon",0.749,1
"390","Gillinbin",0.963,1
"391","Givelda",2.14,6
"392","Glenella",1.3375,2
"393","Glengordon",0.963,2
"394","Glenora",0.97905,14
"395","Glenroc",0.535,5
"396","Glenrock",1.379,2
"397","Gooburrum",1.605,3
"398","Goodbye",0.6955,2
"399","Goodger",4.815,11
"400","Googarra",2.14,1
"401","Goolboo",0.963,5
"402","Goorganga",3.959,1
"403","Goovigen",2.033,2
"404","Gordonbrook",2.1935,4
"405","Graham",1.712,2
"406","Granville",2.432,4
"407","Grevillea",2.461,7
"408","Greycliffe",2.033,17
"409","Greycliffe Melonhole Phase",1.926,13
"410","Gueena",2.461,2
"411","Gumlu",0.642,1
"412","Gunnawarra",0.749,1
"413","Habana",2.14,6
"414","Haden",1.712,1
"415","Haly",2.461,3
"416","Hamleigh",2.782,8
"417","Hannan",1.498,1
"418","Harris",4.708,1
"419","Harwood",1.819,1
"420","Hawkwood",1.8995,2
"421","Hector (PCS)",3.2635,2
"422","Herbert",1.9795,8
"423","Hewitt",7.597,9
"424","Highbury",3.531,1
"425","Hillgrove",1.8725,6
"426","Hillview",1.712,10
"427","Hillview Fine Variant",3.4,1
"428","Hind",5.56,3
"429","Hodge (BAN)",1.177,3
"430","Holding",1.4445,2
"431","Holloway",2.033,3
"432","Honeycomb",1.391,11
"433","Hopevale",3.103,3
"434","Hull",0.8025,4
"435","IDE1",2.354,1
"436","Ilbilbie",0.963,1
"437","Ingham",1.4445,2
"438","Inlet",1.284,3
"439","Innisfail",1.933,6
"440","Inverdon",1.819,1
"441","Iona",2.996,3
"442","Isis",1.177,11
"443","Jambin",2.033,13
"444","Japoon",2.4075,2
"445","Jaro",7.811,2
"446","Jarra",1.498,3
"447","Jarvisfield",2.247,1
"448","Julian",3.1565,4
"449","Jumper",2.033,2
"450","Jumpo",2.782,1
"451","Kaban",2.996,1
"452","Kaber",2.889,1
"453","Kailla",0.428,1
"454","Kairi",1.926,1
"455","Kalah",0.963,3
"456","Kawl Kawl",2.247,9
"457","Kaygaroo",1.391,3
"458","Kelona A Horizon Variant",0.428,1
"459","Kelona Buried Soils Or D Horizons Vary",0.428,3
"460","Kenlogan",1.9795,2
"461","Kenmar",0.9095,2
"462","Kepnock",2.19,14
"463","Keppel",3.2635,2
"464","Kiama",0.535,1
"465","Kilburnie",1.391,9
"466","Kimberley",0.9095,2
"467","Kinchant",0.848,4
"468","Kinchant, Coarse Sandy Variant",0.9095,2
"469","Kingjack",0.5175,2
"470","Kinkuna",2.14,3
"471","Kirkcaldy",1.605,4
"472","Kirrama",1.6575,2
"473","Knockane",1.498,7
"474","Koberinga Mottled Phase (3uga9)",1.0165,4
"475","Koberinga Pebbly Phase (3uga8)",0.963,3
"476","Koberinga Pebbly Phase (3uge8)",0.9095,2
"477","Kokutungo",1.6585,20
"478","Kolan",2.033,4
"479","Kolan Red Variant",2.568,1
"480","Kolbore",0.963,1
"481","Koolachu",1.0272,8
"482","Kooringa",2.033,1
"483","Koumala",1.926,1
"484","Kowari",6.0455,2
"485","Krongie",1.284,31
"486","Kumbia",1.284,3
"487","Kungurri",1.7655,2
"488","Kurrimine",3.0135,2
"489","Kuttabul",1.284,2
"490","Kuttabul, Alluvial-Colluvial Variant",1.4445,2
"491","Lacon",2.461,1
"492","Langley-Wdh",1.3375,12
"493","Lannercost",0.963,1
"494","Lascelles",2.14,1
"495","Laura",2.78,3
"496","Leach",3.317,1
"497","Leadingham",0.3,4
"498","Lee",2.14,4
"499","Leitrim",1.819,1
"500","Lillypool",1.498,1
"501","Lily",4.58,3
"502","Lindsay",1.07,7
"503","Lingilor",1.284,8
"504","Littabella",1.395,2
"505","Liverpool",2.14,6
"506","Lizard",2.14,1
"507","Logcamp",3.745,1
"508","Louisa",1.926,1
"509","Lucy",1.819,3
"510","Lugger",1.498,8
"511","Luxor",0.963,33
"512","Maalan",5.992,3
"513","Macknade",1.391,7
"514","Mahogany",1.07,10
"515","Maidavale",2.1935,2
"516","Maiden",0.428,1
"517","Malbon",1.22,9
"518","Manar",1.819,1
"519","Mandam",1.819,1
"520","Manoa Red Variant",3.53,2
"521","Manor",1.391,9
"522","Mapala",2.14,8
"523","Maraconda",0.642,2
"524","Maria",2.6625,4
"525","Marian",1.277,10
"526","Marlow",2.354,1
"527","Maroondan",2.4075,4
"528","Marshlands",1.605,3
"529","Martin",1.07,2
"530","Martyr",1.07,2
"531","Marwood",0.5885,2
"532","Mary",2.247,4
"533","Mary Dark Variant",1.5515,1
"534","Maryvale",0.63,9
"535","May",0.963,15
"536","May Downs",0.963,55
"537","May Shallow Phase",1.177,3
"538","Mceuen",2.461,2
"539","Meadowvale",1.284,7
"540","Meilland",1.177,2
"541","Melton",2.889,10
"542","Memerambi",2.354,25
"543","Mentmore",2.1935,2
"544","Midden",1.4445,2
"545","Midgenoo",1.07,1
"546","Midway",3.21,1
"547","Millstream",2.461,1
"548","Mingela",0.5,3
"549","Minnabilla",2.033,1
"550","Mirani",0.963,4
"551","Mirriwinni",1.2305,6
"552","Miskin",0.856,1
"553","Mission",1.42,5
"554","Miva",2.32832,1
"555","Molonga",2.1935,8
"556","Mondure",1.498,7
"557","Monsildale",3.2215,8
"558","Moolayember",1.177,1
"559","Moore Park",0.856,1
"560","Moramana",1.07,1
"561","Moramana, Gilgai Phase",1.3375,2
"562","Morecambe",0.749,3
"563","Morgan",1.85,1
"564","Morganbury",0.75,6
"565","Mossman",2.614,2
"566","Muldoon",2.4,9
"567","Mulei",1.07,2
"568","Mullaburra",2.033,1
"569","Mulligan",0.6,6
"570","Mulligan Gravelly Phase",0.5,6
"571","Munbura",0.98,4
"572","Mundoo",2.826,2
"573","Mungar",2.996,1
"574","Murphy",0.5,4
"575","Murray",0.3745,2
"576","Myrtle",2.14,3
"577","Myrtlevale",1.9,2
"578","Nabilla",1.6975,6
"579","Nail",2.028,2
"580","Nanyeta",0.642,1
"581","Narcotic",0.7,1
"582","Narpi",1.712,7
"583","Needep",24.61,1
"584","Neerdie",3.959,1
"585","Nessvale",0.856,2
"586","Netherdale",1.5515,2
"587","Niagara",1.926,1
"588","Nicotine",0.4,2
"589","Nicotine Yellow",0.5,1
"590","Nilotica",1.07,1
"591","Nind",1.63175,4
"592","Ninemile",1.177,1
"593","Normanby",1.45,4
"594","Norwich",1.177,10
"595","Nullinga",1.2,3
"596","Nursery",2.1935,4
"597","O'Bil Bil",2.889,2
"598","Oakwood",2.25,8
"599","Oombabeer",1.5515,2
"600","Orient",0.856,1
"601","Ossa",1.1235,2
"602","Ossa (Cobbly Variant)",2.675,1
"603","Otoo",2.5,7
"604","Owanyilla",2.996,3
"605","Pakington",2.461,1
"606","Palm",1.284,1
"607","Palmyra",2.1935,2
"608","Palouse",1.819,6
"609","Pearlinga",2.105,2
"610","Peep",1.605,2
"611","Pegunny",0.6955,10
"612","Penman",0.9,5
"613","Pennsfield",0.963,1
"614","Pentland",1.37,8
"615","Petrona",1.4231,8
"616","Picardy",1.712,10
"617","Picardy Surface Seal Phase",1.5515,2
"618","Pin Gin",2.76,13
"619","Pindi",1.16,3
"620","Pinnacle - Cq",2.5145,2
"621","Pioneer",1.1235,6
"622","Pioneer, Red B Horizon Variant",0.856,4
"623","Pluto",0.93625,2
"624","Police Camp",2.782,13
"625","Pope",3.317,1
"626","Poplar",1.3,3
"627","Porter",1.1885,4
"628","Powerhouse",2.247,5
"629","Powlathanga",0.92,12
"630","Prendergast",1.177,1
"631","Price",1.1,1
"632","Pring",1.819,2
"633","Prior",1.391,9
"634","Proserpine",0.7276,5
"635","Quart",0.9095,6
"636","Racetrack",1.2305,14
"637","Ram",4.7615,2
"638","Ramleh",1.819,3
"639","Rangeside",1.3,1
"640","Rankin",1.498,15
"641","Raven",4.066,1
"642","RDya",4.066,1
"643","Red Flank",0.642,1
"644","Retro",1.498,29
"645","Retro (BAN)",2.14,11
"646","Riordanvale",3.103,7
"647","Ripple",1.498,2
"648","Rishton",0.2,1
"649","Riverleigh",2.0765,2
"650","Robur",0.856,7
"651","Rolleston",1.6157,32
"652","Ronnoc",1.62,8
"653","Roper",1.2305,8
"654","Rosslyn",3.103,1
"655","Royston",3.531,2
"656","Ruby",1.391,1
"657","Rubyanna",5.457,1
"658","Rudd",1.712,2
"659","Rugb",2.033,2
"660","RUgc",1.498,1
"661","RUgd",1.605,1
"662","Rungoo",0.963,3
"663","Russell",1.1235,4
"664","Samourgassi",1.498,1
"665","Sandalwood",0.88,1
"666","Sandiford",0.95,7
"667","Sandiford (Silty Topsoil Variant)",1.498,1
"668","Santo",2.14,18
"669","Seaforth",1.391,2
"670","Seaview",3.527,2
"671","Septimus",0.428,3
"672","Shotover",2.44495,12
"673","Silent Grove",2.247,7
"674","Silkwood",1.786,2
"675","Slater",1.284,9
"676","Solferino",2.14,1
"677","Spanos",0.749,5
"678","Spanos Heavy Variant",1.3,1
"679","Spier",1.712,26
"680","Springs",2.033,1
"681","Springwood",1.5515,8
"682","St Helens",1.498,7
"683","Stateschool",1.391,13
"684","Stephens",1.498,6
"685","Sugarbag",0.642,1
"686","Sullivan",0.856,1
"687","Sumalee",11.7,1
"688","Sunnyside",1.498,9
"689","Sunter",2.033,1
"690","Tabletop",0.856,2
"691","Tailing",1.605,3
"692","Tanby",1.07,1
"693","Tandora",6.634,1
"694","Tannalo",0.963,3
"695","Tarong",1.605,2
"696","Tarramba",1.605,18
"697","Taurus",0.98,11
"698","Tawalla",1.605,1
"699","TbUg-1",1.6371,2
"700","TbUg-11",0.963,1
"701","TbUg-13",1.284,1
"702","TbUg-2",2.782,7
"703","TbUg-4",1.0165,2
"704","TbUg-6",0.856,1
"705","Te_El_Kabir",1.712,2
"706","Tedlands",1.7655,2
"707","Telegraph",2.206,2
"708","Tenmile",1.177,5
"709","Teviot",1.903,40
"710","Thalberg",1.926,10
"711","Thompson - Mrc",4.173,1
"712","Thorpe",1.29,19
"713","Tiaro",2.5145,2
"714","Timara",2.247,27
"715","Timbrell",2.72101,2
"716","Tingoora",3.4775,2
"717","Tiny",1.391,9
"718","Tirrabella",1.177,1
"719","Tirroan",1.284,4
"720","Tirroan Non-Sodic Variant",1.391,1
"721","Tognolini",1.819,4
"722","Tolga",3.2435,6
"723","Toobanna",1.3803,11
"724","Toondoon",2.1065,2
"725","Tralee",1.605,15
"726","Tranters",3.103,1
"727","Trebonne",1.605,7
"728","TsDy-1",0.9844,5
"729","TsGn-3",0.856,3
"730","TsGn-4",0.5778,2
"731","TsGn-5",0.7811,4
"732","TsGn-6",0.85065,4
"733","TsUc-2",0.70085,2
"734","TsUf-3",0.9416,2
"735","TsUf-6",0.642,2
"736","TsUg-7",0.91485,16
"737","TsUgg-2",1.498,8
"738","Tully",2.358,4
"739","Tureen",6.955,1
"740","Turnor",1.284,1
"741","Turon",1.498,17
"742","Turpad",1.07,1
"743","Turpin",2.36,7
"744","Tyson",1.222,6
"745","Ulogie",1.498,19
"746","Umala - Tab",4.601,1
"747","Up River",0.963,1
"748","Uramo",1.498,1
"749","Urannah",2.996,1
"750","Uruba",1.926,5
"751","Uruba Alluvial-Colluvial Variant",1.2135,4
"752","Utchee",3.018,4
"753","Valetta",1.284,1
"754","Vermont",1.605,15
"755","Vicenza",1.07,2
"756","Victoria Plains",2.247,9
"757","Violet",0.749,1
"758","Virgil",1.3235,4
"759","Voewood",0.642,1
"760","Wagoora",2.461,9
"761","Wagoora, Basic Parent Material Variant",2.354,3
"762","Walkamin",3.455,2
"763","Walker - Mhb",1.819,1
"764","Walla",2.7285,2
"765","Walsch",0.642,1
"766","Walsh",0.5,3
"767","Wandarra",1.498,3
"768","Warrami",1.97,1
"769","Warwick",1.4445,20
"770","Watalgan",2.889,9
"771","Watalgan Mottled Variant",1.926,2
"772","Weir",2.354,3
"773","Well",1.1235,2
"774","Well, Footslope Variant",0.749,1
"775","Wheatlands",0.7062,1
"776","Whelan",6.099,1
"777","Whiptail",2.033,2
"778","White",5.564,1
"779","Whitfield",2.4,1
"780","Windermere",4.28,2
"781","Windradene",2.354,1
"782","Witton",1.831,2
"783","Wivenhoe",1.712,1
"784","Woco",2.033,3
"785","Wollingford",0.963,5
"786","Woober",2.214365,2
"787","Woodleigh",1.391,2
"788","Woolmer",0.5885,2
"789","Woongarra",1.712,9
"790","Wooroolin",2.7285,18
"791","Wygong",0.856,3
"792","Wyseby",1.4766,15
"793","Yackadoo",2.782,1
"794","Yandaran",0.856,1
"795","Yaringa",1.391,1
"796","Yarraman",1.24,5
"797","Yarrol",2.568,2
