"","NAME","OC","count_sites"
"1","1AKA1",0.642,1
"2","1AUg-2",1.1663,1
"3","1AVE1",2.247,1
"4","1Ugd",1.23,1
"5","2AUg-3",1.07,1
"6","2AUg-7",1.177,1
"7","2Dda",0.963,1
"8","2Ddb",0.963,1
"9","2Ugc",6.575,2
"10","2Ugd",1.0165,2
"11","2Ugg",1.498,1
"12","2VEa",2.247,1
"13","2VEb",1.605,1
"14","2VEx",1.07,3
"15","2VEy",1.284,1
"16","3VEc",1.177,1
"17","3VEw",0.5885,2
"18","3VEy",0.749,1
"19","3VEz",1.284,2
"20","4Dyg",4.24,2
"21","6AUg-12",0.80785,2
"22","6AUg-3",1.819,1
"23","6AUg-8",1.07,2
"24","6Dya",0.642,1
"25","6Dyf2",2.4,3
"26","6Ufd",6.195,2
"27","6Uma",6.385,2
"28","Abercorn",1.177,1
"29","Abergowrie",1.2091,7
"30","Alloway",0.749,5
"31","Andergrove",0.8025,2
"32","Annandale",0.749,1
"33","Anyarro",1.07,1
"34","Appaloosa",1.9,1
"35","Arcturus",0.856,35
"36","Arnot Dark Phase",3.317,3
"37","Arriga",1.3,1
"38","Babinda",16.478,11
"39","Balberra",1.257,2
"40","Banyan",3.1,1
"41","Battery",0.856,1
"42","Beauaraba",1.6585,10
"43","Bell",3.103,3
"44","Benholme",1.177,3
"45","Berris",2.354,1
"46","Bicton",2.33,1
"47","Bidwill",2.889,1
"48","Bilboolan",2.354,1
"49","Blackburn",2.58,3
"50","Blair",1.819,1
"51","Bluewater",2.14,1
"52","Bonavista",1.498,1
"53","Bonwell",1.391,1
"54","Booyal",0.963,1
"55","Bovekel",1.391,1
"56","Brightley",1.819,6
"57","Brosnan",0.749,5
"58","Bruce",0.9202,22
"59","Bubbler",2.675,1
"60","BUca",0.963,1
"61","BUcb",1.07,1
"62","Bucca",3.0495,2
"63","BUfa",1.498,1
"64","BUfb",1.177,1
"65","BUfc",1.712,3
"66","BUfe",1.605,1
"67","BUg-2",1.177,5
"68","BUg-6",1.07,1
"69","BUga",2.033,1
"70","Bulgun",2.5,7
"71","Bulguru",5.7375,2
"72","Bullhead",1.605,1
"73","BUmb",0.963,1
"74","Burnett",1.608,1
"75","Burnett Coarse Sandy Variant",1.177,1
"76","Butcher",2.4005,2
"77","Byee",1.706,2
"78","Cabbage Tree",2.461,1
"79","Calen",1.07,9
"80","Callide",1.391,3
"81","Cameron",0.749,3
"82","Canoe",1.391,23
"83","Catherina",2.0009,1
"84","CDba",0.963,1
"85","Ceratodus",1.819,3
"86","Cherry Tree",0.8025,2
"87","Childers",2.96,27
"88","Clayton",0.9095,2
"89","Clifton",0.6945,2
"90","Cliftonville",1.605,1
"91","Conway",0.95765,2
"92","Coolabunia",1.819,2
"93","Coom",1.84,19
"94","Coonoon",3.103,1
"95","Cottonham",2.354,1
"96","CUca",0.749,1
"97","CUfb",1.07,1
"98","CVE1",1.391,1
"99","Dagun",2.782,1
"100","Dalgangal",2.675,1
"101","Derra (CWL)",4.815,2
"102","Dingo (Pss)",0.6955,2
"103","Don",1.5515,2
"104","Doolbi",1.5515,4
"105","Drinan",1.284,1
"106","Dryander",1.712,2
"107","Dundula",2.782,1
"108","Dunwold",0.6945,2
"109","Earlsfield",1.284,20
"110","Eastgate",1.498,1
"111","Eden",1.926,1
"112","Edgecumbe",1.712,3
"113","Edmonton",1.5425,4
"114","Eleanor",0.749,1
"115","Ellis",0.425,2
"116","Emerald",0.8,1
"117","Eton",1.2285,8
"118","Etowrie",1.284,3
"119","Eubenangee",2.497,2
"120","Eversleigh",1.712,1
"121","Fairview",2.675,1
"122","Fairydale",2.247,1
"123","Fairymead",1.9795,2
"124","Falkner",0.9095,16
"125","Farleigh",0.749,2
"126","Farnsfield",1.4,5
"127","Feluga",3.39,3
"128","Finch Hatton",2.033,2
"129","Flagstone",1.605,3
"130","Galmara",1.257,2
"131","Galway",1.97,5
"132","Gargett",0.803,2
"133","Garradunga",2.1515,2
"134","Garrett",1.605,1
"135","Gibson - Bab",1.926,1
"136","Gillinbin",0.963,1
"137","Glenella",1.3375,2
"138","Glenora",0.856,8
"139","Glenrock",1.379,2
"140","Gooburrum",1.8025,2
"141","Goodger",4.677,2
"142","Goolboo",0.963,5
"143","Granville",1.787,2
"144","Gueena",1.819,1
"145","Habana",1.4445,2
"146","Haden",1.712,1
"147","Hamleigh",1.391,4
"148","Hannan",1.498,1
"149","Hawkwood",1.8995,2
"150","Hector (PCS)",2.782,1
"151","Herbert",1.8725,6
"152","Hewitt",7.65,6
"153","Hillview",1.177,5
"154","Hind",5.6155,2
"155","Hodge (BAN)",1.2305,2
"156","Holloway",1.284,1
"157","Ingham",0.749,1
"158","Inlet",1.284,3
"159","Innisfail",1.926,5
"160","Isis",1.177,8
"161","Jambin",1.177,5
"162","Jarra",1.498,3
"163","Kaban",2.996,1
"164","Kaygaroo",1.3375,2
"165","Kepnock",2.377,8
"166","Kinchant",0.9015,2
"167","Kinkuna",4.387,1
"168","Kirrama",1.6575,2
"169","Koolachu",0.856,1
"170","Kooringa",2.033,1
"171","Krongie",1.284,23
"172","Kungurri",1.7655,2
"173","Kuttabul, Alluvial-Colluvial Variant",1.4445,2
"174","Langley-Wdh",1.6585,2
"175","Lily",1.605,1
"176","Littabella",1.395,2
"177","Liverpool",1.7355,2
"178","Lucy",1.177,1
"179","Lugger",1.7655,4
"180","Luxor",0.963,1
"181","Macknade",0.9095,2
"182","Mahogany",0.8025,4
"183","Maidavale",2.1935,2
"184","Malbon",0.87,5
"185","Manor",1.2305,6
"186","Maria",2.8025,2
"187","Marian",1.17,8
"188","Maroondan",2.461,3
"189","Martin",1.07,2
"190","Mary",1.8725,2
"191","May",1.605,1
"192","May Downs",0.9202,28
"193","Meadowvale",2.245,4
"194","Meilland",1.177,1
"195","Melton",1.819,1
"196","Memerambi",1.391,1
"197","Midgenoo",1.07,1
"198","Mirani",0.963,4
"199","Mirriwinni",1.2305,6
"200","Molonga",1.819,5
"201","Mondure",0.9,1
"202","Monsildale",1.819,3
"203","Moore Park",0.856,1
"204","Morganbury",1.1,1
"205","Mossman",2.614,2
"206","Mulligan",1.3,1
"207","Munbura",0.98,2
"208","Mundoo",1.8,1
"209","Murphy",0.9,1
"210","Murray",0.3745,2
"211","Myrtle",1.819,2
"212","Nabilla",1.9115,4
"213","Nail",2.028,2
"214","Nind",0.963,3
"215","Ninemile",1.177,1
"216","Nullinga",1,2
"217","Oakwood",2.05,6
"218","Oombabeer",1.5515,2
"219","Otoo",2.45,4
"220","Pearlinga",2.105,2
"221","Peep",1.07,1
"222","Pegunny",1.605,1
"223","Penman",0.5,1
"224","Pin Gin",2.09,7
"225","Pindi",1.008,2
"226","Pinnacle - Cq",2.5145,2
"227","Pioneer",1.07,4
"228","Pioneer, Red B Horizon Variant",0.856,4
"229","Prendergast",1.177,1
"230","Price",1.1,1
"231","Prior",1.3375,6
"232","Proserpine",0.7918,4
"233","Quart",0.749,2
"234","Ramleh",1.8695,2
"235","Rankin",1.498,14
"236","Raven",4.066,1
"237","Retro",1.605,4
"238","Riordanvale",1.498,1
"239","Riverleigh",2.0765,2
"240","Robur",1.284,1
"241","Rolleston",1.498,19
"242","Ronnoc",1.62,8
"243","Rugb",2.033,2
"244","RUgc",1.498,1
"245","RUgd",1.605,1
"246","Russell",1.1235,2
"247","Samourgassi",1.498,1
"248","Sandiford",0.95,7
"249","Seaview",2.354,1
"250","Septimus",0.3745,2
"251","Silent Grove",1.9685,4
"252","Silkwood",1.786,2
"253","Slater",1.284,3
"254","Spanos",0.749,5
"255","St Helens",1.498,6
"256","Sullivan",0.856,1
"257","Sunnyside",1.2485,2
"258","Tanby",1.07,1
"259","Tarramba",1.391,7
"260","Tawalla",1.605,1
"261","TbUg-11",0.963,1
"262","TbUg-6",0.856,1
"263","Tedlands",1.819,1
"264","Telegraph",2.206,2
"265","Teviot",0.963,3
"266","Thompson - Mrc",4.173,1
"267","Thorpe",1.1235,8
"268","Timara",2.06,21
"269","Tingoora",3.4775,2
"270","Tognolini",1.391,3
"271","Tolga",1.8,2
"272","Toobanna",1.1877,7
"273","Toondoon",2.1065,2
"274","Trebonne",1.284,5
"275","Tully",1.609,2
"276","Turnor",1.284,1
"277","Turpad",1.07,1
"278","Turpin",2.77,6
"279","Tyson",1.342,2
"280","Uruba Alluvial-Colluvial Variant",1.2135,4
"281","Utchee",3.023,2
"282","Vermont",1.177,5
"283","Vicenza",1.07,1
"284","Victoria Plains",2.14,6
"285","Virgil",1.177,3
"286","Voewood",0.642,1
"287","Wagoora",1.84,5
"288","Walker - Mhb",1.819,1
"289","Walsh",0.5,1
"290","Watalgan",2.905,6
"291","Watalgan Mottled Variant",1.391,1
"292","Weir",2.027,2
"293","Wheatlands",0.7062,1
"294","Witton",1.831,2
"295","Wivenhoe",1.712,1
"296","Woco",1.7655,2
"297","Wollingford",0.9095,4
"298","Woongarra",1.712,8
