"","NAME","OC","count_sites"
"1","1AKA1",0.642,1
"2","1AUg-2",1.1663,1
"3","1AVE1",2.247,1
"4","2AUg-3",1.07,1
"5","2AUg-7",1.177,1
"6","2VEa",2.247,1
"7","2VEb",1.605,1
"8","2VEx",1.07,3
"9","2VEy",1.284,1
"10","3VEc",1.177,1
"11","3VEw",0.5885,2
"12","3VEy",0.749,1
"13","3VEz",1.284,2
"14","6AUg-12",0.80785,2
"15","6AUg-3",1.819,1
"16","6AUg-8",1.07,2
"17","Abercorn",1.177,1
"18","Annandale",0.749,1
"19","Anyarro",1.07,1
"20","Arcturus",0.856,35
"21","B1",3.424,5
"22","B2",3.103,5
"23","Battery",0.856,1
"24","Bilboolan",2.354,1
"25","Blair",1.819,1
"26","Bonwell",1.391,1
"27","Bovekel",1.391,1
"28","Bruce",0.9202,22
"29","BUg-2",1.177,5
"30","BUg-6",1.07,1
"31","Bulburin",4.28,1
"32","Burnett Coarse Sandy Variant",1.177,1
"33","Byee",1.712,1
"34","C4",5.7245,2
"35","C5",2.675,1
"36","Callide",1.391,3
"37","Ceratodus",1.819,3
"38","Cheshire",1.819,1
"39","Coolabunia",1.819,2
"40","Cottonham",2.354,1
"41","CVE1",1.391,1
"42","D2",2.1935,2
"43","Dalgangal",2.675,1
"44","Degalgil",1.926,3
"45","Diglum (CCL)",2.675,1
"46","Downfall",1.07,1
"47","Earlsfield",1.284,20
"48","Eastgate",1.498,1
"49","Eden",1.926,1
"50","Eleanor",0.749,1
"51","Ellis",0.425,2
"52","Fairview",2.675,1
"53","Falkner",0.9095,16
"54","Flagstone",1.819,1
"55","Galway",1.97,5
"56","Glenora",0.856,8
"57","Glenrock",1.284,1
"58","Goodger",2.354,1
"59","Gueena",1.819,1
"60","Hawkwood",1.8995,2
"61","Hind",5.6155,2
"62","Hodge (BAN)",1.2305,2
"63","Jambin",1.177,5
"64","K1",1.605,1
"65","Krongie",1.284,23
"66","Langley-Wdh",1.6585,2
"67","Lizard (CCL)",2.033,1
"68","Luxor",0.963,1
"69","May",1.605,1
"70","May Downs",0.9202,28
"71","Meilland",1.177,1
"72","Melton",1.819,1
"73","Memerambi",1.391,1
"74","Muldoon (CCL)",1.819,1
"75","Nail",2.028,2
"76","Ninemile",1.177,1
"77","Oombabeer",1.5515,2
"78","Oscar",1.712,1
"79","Pearlinga",2.105,2
"80","Pegunny",1.605,1
"81","Rankin",1.498,14
"82","Raven",4.066,1
"83","Retro",1.605,4
"84","Riverleigh",2.0765,2
"85","Rolleston",1.498,19
"86","Ronnoc",1.62,8
"87","Russell",1.1235,2
"88","Sullivan",0.856,1
"89","Tanby",1.07,1
"90","Tarramba",1.391,7
"91","TbUg-11",0.963,1
"92","TbUg-6",0.856,1
"93","Teviot",0.963,3
"94","Threemoon 1",1.7655,10
"95","Tognolini",1.391,3
"96","Toondoon",2.1065,2
"97","U1",2.889,7
"98","Vermont",1.34285,4
"99","Vicenza",1.07,1
"100","Voewood",0.642,1
"101","Warrinilla",1.605,1
"102","Weir",2.354,1
"103","Wheatlands",0.7062,1
"104","Witton",1.831,2
"105","Wivenhoe",1.712,1
"106","X1",1.3375,2
