"NAME","pH85_90"
"1ACH1",9.26
"1ACH2",NA
"1ADb",7.43
"1ADb-2",8.73
"1ADb-7",8.7
"1ADb-Dd",8.77
"1ADd-3",8.8
"1ADd-4",8.58
"1ADE1",8.4
"1ADE2",7.73
"1AKA1",6.9
"1ARU1",7.37
"1ASO1",8.45
"1ATE1",7
"1AUg-12",8.75
"1AUg-13",8.32
"1AUg-2",8.47
"1AUg-3",8.89
"1AUg-4",8.9
"1AVE1",8.57
"1AVE2",7.9
"1AVE4",7.95
"1AVE6",8.37
"1CHa",7.8
"1CHb",7.83
"1Dbb",9.86
"1DEa",8.44
"1Dyd",9.09
"1KTa",7.33
"1SOa",8.72
"1SOb",8.4
"1SOx",7.63
"1Ug",8.9
"1Uga",9
"1Ugd",8.7
"1Ugf",8.65
"2ADb-1",8.2
"2AUf-Ug-3",8.8
"2AUg-3",7.96
"2AUg-7",7.88
"2AUg-8m",8.17
"2AUg-9m",6.62
"2AUgg-1m",8.09
"2AUgg-2m",8.2
"2AVE2",8.43
"2Dba",9.18
"2Dbb",9.42
"2Dbc",8.84
"2Dbd",9.08
"2Dda",9.2
"2Dda2",9.02
"2Ddb",9.21
"2Ddd",9.08
"2Dya",8.65
"2Dyb",9.03
"2Dyc",8.44
"2Uga",8.71
"2Ugc",8.29
"2UgcW",6.96
"2Ugd",8.36
"2ugd2",8.54
"2Uge",8.9
"2Ugf",6.34
"2Ugg",7.93
"2Ugh",8.81
"2Ugj",5
"2Ugk",7.83
"2VEa",8.49
"2VEb",8.2
"2VEe",7.5
"2VEx",8.39
"2VEy",8.74
"3ASO1",NA
"3ASO2",8.25
"3AUf",NA
"3AUf-Ug-1m",NA
"3AUf-Ug-2m",8.64
"3AUf-Ug-3d",8.48
"3AUf-Ug-6m",6.65
"3AUg-2",8.54
"3CHx",8.11
"3SOb",8.41
"3Uga",8.5
"3Uge",8.88
"3VEa",7.53
"3VEb",8.81
"3VEc",8.56
"3VEw",6.19
"3VEy",8.3
"3VEz",8.94
"4AUf",8.84
"4Dyb",9.68
"4Dyd",5.63
"4Dyg",8.9
"4Dyj",6.73
"4Gnb",6.68
"4Ucc",6.24
"5Dra",7.33
"5Dya",6.71
"5Dyc",9.03
"5Dye",8.22
"5SOy",8.79
"5Uga",8.85
"5Ugb",8.66
"5Ugc  Depression",9.14
"6ADb-1",9.07
"6ADb-4",9.34
"6ADy-3",9.23
"6AUg-10",8.11
"6AUg-12",7.69
"6AUg-3",7.9
"6AUg-4",7.87
"6AUg-5",8.77
"6AUg-6",8.66
"6AUg-8",8.25
"6AUg-9",7.79
"6Db",8.09
"6Dba",9.43
"6Dbb",8.51
"6Dbc",7.3
"6Dbd",8.59
"6Dbe",8.06
"6Dbf",7.41
"6Dbg",6.97
"6Dbh",9.26
"6Dbi",9.9
"6Dda",9.21
"6Dra",6.67
"6Drb",6.94
"6Drc",7.71
"6Dya",6.73
"6Dyb",6.29
"6Dyc",6.66
"6Dyd",6.89
"6Dye",7.65
"6Dyf",8
"6Dyf2",7.71
"6Dyg",9.06
"6Dyj",9.63
"6Gn",6.83
"6Gnb",6.31
"6Gnc",8.32
"6Gnd",7.5
"6Ucc",6.9
"6Ufc",7.19
"6Ufd",6.89
"6Uma",6.36
"6Umb",7
"Abbot",8.89
"Abercorn",8.95
"Abergowrie",5.7
"Abergowrie Sandy Phase",5.71
"Albert",5.7
"Aldershot",7.35
"Alice",6.08
"Allandale",5.82
"Allandale, Strongly Sodic Variant",9.84
"Alloway",5.78
"Alma",5.23
"Althaus",6.3
"Althaus (Zed)",5.98
"Amity",8.71
"Andergrove",6.5
"Andergrove Water Table Variant",6.62
"Anyarro",7.52
"Apron",9.13
"Archookoora",7.61
"Arnolds",5.3
"Arnot",5.8
"Arnot Dark Phase",5.7
"Aroa",8.88
"Arriga",7.06
"Ashgrove",6.55
"Ashton",5.72
"Auburn",8.62
"Avondale",5.09
"Awoonga",8.77
"Babinda",4.6
"Baddow",6.78
"Balberra",6.08
"Bally",4.99
"Banana",8.62
"Banban",8.68
"Banyan",5.36
"Barrack",NA
"Barron",6.51
"Bauhinia",8.86
"Bauple",4.6
"Beeron",NA
"Bell",7.83
"Bells",NA
"Belmunda",6.22
"Belvedere",8.37
"Benholme",8.02
"Bently",7.18
"Berris",9.14
"Bicton",4.7
"Bidwill",5.18
"Bilboolan",8.81
"Bingera",6.69
"Blackburn",6.55
"Blair",7.97
"Bluewater",6.01
"Bluewater (Zed)",6.33
"Bluff",8.43
"Bonavista",5.83
"Bonnie Crofts",9.16
"Bonwell",9.27
"Boonenne",8.46
"Booyal",6.61
"Boston",6.4
"Bovekel",8.7
"Boyanda",6.59
"Boyles",NA
"Boyne",7.32
"Boynewood",NA
"Brae",5.4
"Brightley",7.83
"Brooweena",NA
"Brooyar",4.27
"Brosnan",5.09
"Bubbler",7.6
"BUca",7.4
"Bucca",5.09
"Buckley",NA
"BUfa",7.77
"BUfb",7.43
"BUfc",7.54
"BUfe",8.2
"Buffel",7.55
"BUg-10",8.51
"BUg-2",8.1
"BUg-3",NA
"BUg-4",8.54
"BUg-6",8.49
"BUga",8.26
"Bulgun",5.23
"Bulguru",3.7
"Bullhead",7.19
"BUma",6.76
"BUmb",7
"Bungadoo",4.94
"Burdekin",7.22
"Burdekin Buried Soils Or D Horizons Vary",6.55
"Burnett",7.73
"Burnett Coarse Sandy Variant",6.28
"Burradoo",8.71
"Burrum",5.74
"Bushnell",8.97
"Bushnell Eroded Phase",NA
"Butcher",7.32
"BVE1",8.8
"Byabra",9.19
"Byee",7.7
"Cabbage Tree",7.81
"Calen",7.68
"Callide",8.27
"Cameron",6.56
"Campbell Plains",NA
"Canoe",5.8
"Cape",8.46
"Carew",8.35
"Carfax",8.91
"Carmila",9.12
"Cassidy",NA
"Castleview",7.93
"Catherina",7.19
"Cattle",7.19
"CDba",6.67
"Ceratodus",7.38
"Cheeseboro",NA
"Chelmsford",6.43
"Cherry Tree",9.09
"Chessborough",6.36
"Childers",6.06
"Clayton",6.08
"Clifton",5.84
"Cliftonville",7.56
"Cole",5.49
"Colenso",NA
"Condor",6
"Conjuboy",6.99
"Conway (Cqh)",5.29
"Coolabunia",6.57
"Coom",5.32
"Coonoon",5.49
"Coorooman",NA
"Copenhagen",6.77
"Corduroy",7.51
"Cottonham",NA
"Creek",6.8
"CUca",5.7
"Cudmore",6.21
"CUfb",7.23
"Curlewis",7.02
"Cushnie",8.28
"CVE1",8.64
"CVE2",NA
"CVE3",8.31
"CVE4",3.7
"CVE5",8.23
"Dagun",4.61
"Daintree",4.9
"Dale",NA
"Dalgangal",8.7
"Dalrymple",7.6
"Darts",6.41
"Dayman",5.06
"Derra",8.94
"Derra (CWL)",5.39
"Diamond (Kcm)",8.7
"Diamond (Kcm), Footslope Variant",8.17
"Dickson",6.61
"Dingo",5.03
"Dingo (Pss)",7
"Dittmer",NA
"Dixie",5.61
"Don",8.57
"Doolbi",4.57
"Doonside",5.09
"Dotswood",8.9
"Dove",9.03
"Drinan",6.5
"Dryander",NA
"Drysdale",7.3
"Dudgeon",9.51
"Dundula",7.77
"Dunstan",4.41
"Dunwold",6.88
"Durong",8.59
"Earlsfield",8.71
"Eastgate",9.26
"Edgecumbe",6.9
"Edmonton",5.84
"Eerwah",6.82
"Egera",8.54
"Eleanor",8.94
"Eleanor, Mottled Phase",8.34
"Elizabeth",5.32
"Elliot",6.16
"Ellis",6.79
"Emerald",5.99
"Endeavour",5.89
"Eton",8.43
"Etowrie",7.13
"Etowrie (Neutral Variant)",NA
"Etowrie, Neutral Duplex Variant",6.75
"Eubenangee",5.29
"Eversleigh",8.06
"Fairdale",8.5
"Fairview",7.17
"Fairydale",4.21
"Fairymead",4.25
"Falkner",8.6
"Fanning River",7.48
"Farleigh",6.34
"Farnsfield",5.74
"Farnsfield Sandy Variant",5.44
"Feluga",4.72
"Feluga Red Variant",5.27
"Finch Hatton",6.21
"Finley",6.73
"Fison",8.63
"Flagstone",7.65
"Fletcher",9.1
"Fletcher - Brcl",NA
"Fowler",8.61
"Foxleigh",9.33
"Freddy",6
"Gainsford",6.9
"Galmara",5
"Gander",5.09
"Gargett",7.48
"Garradunga",5.09
"Garrett",4.9
"Gibson - Bab",7.49
"Gigoon",7
"Gillinbin",6.43
"Givelda",6.63
"Glenella",6.74
"Glenroc",9.43
"Glenrock",NA
"Gooburrum",5.38
"Goodbye",8.8
"Goodger",5.92
"Goorganga",4.52
"Goovigen",8.86
"Gordonbrook",5.97
"Gracemere",8.5
"Graham",8.72
"Granville",6.27
"Grevillea",8.8
"Greycliffe",4.78
"Greycliffe Melonhole Phase",5.84
"Gueena",8.2
"Gumlu",8.9
"Habana",6.83
"Haden",6.67
"Haly",6.7
"Hamleigh",6.51
"Hannan",6.31
"Harris",7.75
"Harwood",8.41
"Hawkwood",NA
"Healy",9.3
"Hector (PCS)",6.67
"Herbert",6.5
"Hewitt",5.12
"Highbury",NA
"Hillgrove",7.01
"Hillsborough",6.9
"Hillview",5.51
"Hillview Fine Variant",5.74
"Hind",8.6
"Hodge",NA
"Hodge (BAN)",8.22
"Holding",8.95
"Hopevale",4.57
"Hull",5.75
"IDE1",NA
"Ilbilbie",6.11
"Ingham",6.05
"Inlet",5.38
"Innisfail",5.22
"Innot",6.11
"Inverdon",7.39
"Iona",8.01
"Isis",5.66
"Jambin",7.87
"Jaro",5.1
"Jarra",5.63
"Julian",NA
"Jumper",9.18
"Jumpo",5.1
"Kaban",5.8
"Kaber",8.25
"Kailla",5.39
"Kairi",6.47
"Kalah",6.97
"Karloo",8.48
"Kawl Kawl",8.57
"Kaygaroo",5.78
"Kelona A Horizon Variant",9.67
"Kelona Buried Soils Or D Horizons Vary",9.89
"Kenlogan",8.56
"Kenmar",6.05
"Kepnock",5.71
"Keppel",6.06
"Kiama",6.4
"Kilburnie",8.38
"Kimberley",NA
"Kinchant",5.82
"Kinchant, Coarse Sandy Variant",5.5
"Kingjack",NA
"Kinkuna",6.05
"Kirrama",5.19
"Koberinga Mottled Phase (3uga9)",8.79
"Koberinga Pebbly Phase (3uga8)",8.88
"Koberinga Pebbly Phase (3uge8)",9.09
"Kokutungo",8.1
"Kolan",4.9
"Kolan Red Variant",5.1
"Kolbore",NA
"Kooingal",8.87
"Koolachu",5.77
"Kooringa",7.01
"Koumala",6.54
"Kowari",NA
"Kulburn",9.65
"Kumbia",6.44
"Kungurri",5.41
"Kurrimine",5.28
"Kuttabul",6.02
"Kuttabul, Alluvial-Colluvial Variant",6.22
"Lacon",8.72
"Langley-Wdh",8.27
"Lannercost",6.02
"Lascelles",5.3
"Laura",6.85
"Leach",5.91
"Leadingham",8.2
"Lee",5.8
"Lillypool",4.77
"Lily",6.31
"Lindsay",8.57
"Lingilor",9.11
"Littabella",6.57
"Liverpool",5.22
"Lizard",4.99
"Logcamp",7.12
"Lorna",NA
"Louisa",NA
"Lucy",5.61
"Lugger",5.5
"Maalan",5.1
"Macknade",6.28
"Maclean (Lak)",6.77
"Magnan",NA
"Mahogany",5.6
"Maiden",6.58
"Malbon",6.05
"Malchi",8.52
"Manar",7.8
"Mandam",4.1
"Manoa Red Variant",8.91
"Manor",6.32
"Maraconda",5.07
"Maria",5.07
"Marian",7.21
"Marlow",7.4
"Maroondan",NA
"Marshlands",6.88
"Martin",NA
"Martyr",8.08
"Marwood",5.01
"Mary",7.3
"Mary Dark Variant",7.16
"Maryvale",8.6
"May",8.7
"May Shallow Phase",NA
"Mceuen",7.79
"Meadowvale",6.24
"Meilland",6.13
"Melton",8.23
"Memerambi",5.2
"Mentmore",6.21
"Midden",8.44
"Midway",5.67
"Millstream",6.39
"Mingela",9.4
"Mirani",5.94
"Miskin",7.23
"Mission",5.22
"Miva",9
"Molonga",7.13
"Mondure",6.79
"Monkland",8.2
"Moore Park",7.9
"Moosie",9.3
"Moramana",8.7
"Moramana, Gilgai Phase",8.77
"Morecambe",6.61
"Morganbury",6.51
"Mossman",5.33
"Muldoon",6.48
"Mulei",5.39
"Mullaburra",6.81
"Mulligan",6.65
"Mulligan Gravelly Phase",6.5
"Munbura",5.66
"Mundoo",4.99
"Mungar",6.52
"Murphy",6.6
"Murray",6.14
"Myrtle",6.63
"Myrtlevale",8.49
"Nabilla",8.15
"Nail",9.13
"Narcotic",6.2
"Narpi",7.25
"Needep",3.45
"Nessvale",6.94
"Netherdale",6.43
"Newell",4.72
"Niagara",8.6
"Nicotine",6.61
"Nicotine Yellow",6.09
"Nilotica",8.99
"Nind",4.94
"Normanby",7.68
"Nullinga",6.7
"Nursery",NA
"O'Bil Bil",NA
"Oakwood",5.57
"Oombabeer",9.4
"Orient",4.58
"Ossa",6.58
"Ossa (Cobbly Variant)",NA
"Otoo",5.71
"Owanyilla",5.99
"Pakington",8.44
"Pallamana",6.79
"Palm",5.62
"Palmyra",NA
"Palouse",9.05
"Pearlinga",5.24
"Peep",7.59
"Pelion",8.91
"Penman",7.31
"Pennsfield",9.51
"Pentland",6.3
"Perry",8.69
"Picardy",8.12
"Picardy Surface Seal Phase",8.58
"Pin Gin",4.99
"Pindi",6.45
"Pinnacle - Cq",4.92
"Pioneer",7.11
"Pioneer, Red B Horizon Variant",6.34
"Pluto",NA
"Police Camp",NA
"Ponzo",5.25
"Pope",6.11
"Poplar",6.68
"Porter",6.38
"Powerhouse",8.9
"Powlathanga",7.04
"Prendergast",7.48
"Price",7.1
"Pring",6.97
"Prior",5.69
"Proserpine",6.43
"Quart",6.08
"Racetrack",9.36
"Ram",5.38
"Ramleh",4.69
"Rangeside",6.37
"Rangeview",6.97
"Rankin",6.8
"Raven",5.3
"RDya",8.44
"Red Flank",6.76
"Retro",8.94
"Retro (BAN)",8.71
"Riordanvale",NA
"Ripple",5.92
"Rishton",6.57
"Riverleigh",7.71
"Robur",6.74
"Rolleston",7.64
"Ronnoc",8.5
"Roper",8.73
"Royston",7.01
"Ruby",7.2
"Rubyanna",4.5
"Rudd",8.4
"Rugb",8.65
"RUgc",7.1
"RUgd",8.06
"Rungoo",5.4
"Russell",9.01
"Sachs",9.26
"Saddle",6.15
"Samourgassi",NA
"Sandalwood",9.4
"Sandiford",6.96
"Sandiford (Silty Topsoil Variant)",5.83
"Santo",NA
"Seaforth",6.25
"Seaview",4.7
"Septimus",5.87
"Silent Grove",7.29
"Silkwood",5.71
"Slater",5.45
"Solferino",9
"Spanos",5
"Spier",7.53
"Springs",8.98
"SSO1",8.01
"St Helens",7.04
"Stanage",NA
"Sugarbag",6.12
"Sumalee",5.17
"Sunnyside",7.38
"Sunter",5.8
"SVE1",NA
"Tailing",8
"Tanby",5.6
"Tandora",4.5
"Tannalo",5.85
"Tara",5.03
"Tarong",4.47
"Tarramba",8.63
"Tawalla",4.5
"TbUg-1",8.54
"TbUg-11",8.8
"TbUg-13",5.68
"TbUg-2",8.37
"TbUg-4",8.55
"TbUg-6",8.2
"Te_El_Kabir",8.63
"Tedlands",6.08
"Telegraph",5.05
"Tenmile",8.9
"Teralba",NA
"Thalberg",6.8
"Thompson",7.5
"Thompson - Mrc",7.62
"Thorpe",5.59
"Thorpe - Dlr",6.6
"Tiaro",7.22
"Timara",5.29
"Timbrell",8.7
"Tiny",7.49
"Tirrabella",6.8
"Tirroan",5.62
"Tirroan Non-Sodic Variant",5.6
"Todds",5.3
"Tognolini",8.26
"Tolga",6.8
"Toobanna",6.99
"Toondoon",NA
"Tralee",8.55
"Tranters",6.42
"Trebonne",7.01
"TsDr-1",9
"TsDy-1",9
"TsGn-3",7.77
"TsGn-4",7.34
"TsGn-5",7.29
"TsGn-6",7.41
"TsUc-2",7.26
"TsUf-3",6.4
"TsUf-6",8.58
"TsUg-7",6.42
"TsUgg-2",7.94
"Tully",5.27
"Tureen",NA
"Turnor",6.17
"Turpad",5.79
"Turpin",5.57
"Tyson",4.92
"Ulogie",8.07
"Umala - Tab",5.09
"Up River",5.17
"Urannah",6.4
"Uruba",6.63
"Uruba Alluvial-Colluvial Variant",8.03
"Utchee",4.82
"Valetta",5.62
"Vicenza",8.01
"Victoria Plains",7.52
"Violet",NA
"Virgil",5.08
"Voewood",7.26
"Wagoora",7.23
"Wagoora, Basic Parent Material Variant",6.21
"Walkamin",6.07
"Walker - Mhb",6.82
"Walla",5.36
"Walsch",8.95
"Walsh",6.51
"Wandarra",5.5
"Warrami",5.74
"Watalgan",5
"Watalgan Mottled Variant",4.63
"Weatherby",5.49
"Weir",8.68
"Weithew",9.35
"Well",7.54
"Well, Footslope Variant",4.55
"Wheatlands",7.36
"Whelan",NA
"Whiptail",6.06
"White",6.23
"Whitfield",6
"Windermere",6.32
"Windradene",NA
"Winfield",5.61
"Witton",7.18
"Wivenhoe",7.89
"Woco",4.51
"Wollingford",8.02
"Woober",5.21
"Woodleigh",8.62
"Woolmer",5.54
"Woongarra",6.82
"Woonton",6.82
"Wooroolin",6
"Wygong",8.98
"Yandaran",5.57
"Yaringa",7.86
"Yarraman",8.1
"Yarrol",8.6
"Yarwun",NA
"Yeppoon",6.25
"Yuruga",7.7
