"","NAME","pHlab","count_sites"
"1","1AKA1",7.15,2
"2","1AUg-12",7.95,2
"3","1AUg-2",8.4,1
"4","1AVE1",7.1,3
"5","2AUg-3",8.6,1
"6","2AUg-7",8.3,1
"7","2VEa",6.7,2
"8","2VEb",7.3,3
"9","2VEx",8.55,16
"10","2VEy",8.9,2
"11","3VEc",8.15,2
"12","3VEw",8.35,2
"13","3VEy",8.55,4
"14","3VEz",8.1,4
"15","6AUg-12",7.8,3
"16","6AUg-3",7.4,1
"17","6AUg-8",8.35,2
"18","Abercorn",6.15,2
"19","Annandale",6.15,2
"20","Anyarro",6.9,2
"21","Arcturus",7.9,58
"22","B1",6.55,6
"23","B2",6.75,6
"24","Barrack",5.3,1
"25","Battery",8.2,2
"26","Bilboolan",6.7,2
"27","Blair",6.7,2
"28","Bogandilla",6.85,2
"29","Bonwell",7.1,2
"30","Bovekel",7.9,2
"31","Bruce",7.6,42
"32","BUg-2",7.5,5
"33","BUg-6",8,1
"34","Bulburin",6.75,2
"35","Burnett Coarse Sandy Variant",7.5,2
"36","Bushnell Eroded Phase",6.2,1
"37","Byee",6.4,1
"38","C4",7.15,2
"39","C5",6.3,1
"40","Callide",7.05,6
"41","Ceduna",6.4,1
"42","Ceratodus",6.8,6
"43","Cheshire",7.3,2
"44","Coolabunia",5.6,2
"45","Cottonham",8.5,1
"46","CVE1",8.6,2
"47","CVE2",9.5,1
"48","CVE3",8.8,1
"49","D2",5.85,2
"50","D3",7,3
"51","Dalgangal",7.45,2
"52","Degalgil",6.75,4
"53","Diglum (CCL)",6.9,1
"54","Doonside",5.9,1
"55","Downfall",8.9,1
"56","E2",6.1,1
"57","Earlsfield",8.1,26
"58","Eastgate",7.2,1
"59","Eden",8.2,2
"60","Eleanor",8.4,3
"61","Eleanor, Mottled Phase",8.2,1
"62","Ellis",6.6,2
"63","Fairview",7.9,1
"64","Falkner",7.95,20
"65","Flagstone",6.55,2
"66","Galway",7.35,2
"67","Glenora",7.8,18
"68","Glenrock",7.2,1
"69","Goodger",6.4,1
"70","Gueena",6.3,1
"71","Hawkwood",6.1,1
"72","Hind",7.4,1
"73","Hodge (BAN)",6.7,4
"74","Jambin",8.4,8
"75","K1",6.4,4
"76","Kabra",6.4,1
"77","Krongie",8.05,24
"78","Langley-Wdh",8.4,3
"79","Lizard (CCL)",5,2
"80","Luxor",7.45,2
"81","May",7.5,1
"82","May Downs",7.8,48
"83","Meilland",7.05,2
"84","Melton",7.5,2
"85","Memerambi",5.75,2
"86","Muldoon (CCL)",6.7,2
"87","Myrtlevale",6.9,1
"88","Nail",7.2,1
"89","Ninemile",7.6,1
"90","Oombabeer",7.4,3
"91","Oscar",6.7,2
"92","Pearlinga",7,1
"93","Pegunny",8,2
"94","R1",6.1,1
"95","Rankin",8.4,14
"96","Raven",6.8,2
"97","Retro",7.2,7
"98","Riverleigh",6.9,1
"99","Rolleston",8.3,23
"100","Ronnoc",7.9,11
"101","Russell",8.55,4
"102","Sullivan",8.2,1
"103","Tanby",5.3,6
"104","Tara",9.1,1
"105","Tarramba",7.9,8
"106","TbUg-11",8.4,1
"107","TbUg-6",8.5,1
"108","Teviot",7.9,5
"109","Threemoon 1",7.35,8
"110","Tiny",8.4,1
"111","Tognolini",7.25,6
"112","Toondoon",6.1,1
"113","TsUgg-2",8.5,1
"114","U1",6.3,9
"115","Vermont",7.55,8
"116","Vicenza",8.65,2
"117","Voewood",6.15,2
"118","Warrinilla",6.85,2
"119","Weir",6.2,1
"120","Wheatlands",6.6,1
"121","Witton",6.5,1
"122","Wivenhoe",5.9,2
"123","X1",6.5,7
