"ID","NUMERIC_VALUE","NAME","final_SPC","DISTURB_TYPE"
"SALTE-749-1",6.2,"Banban",2903,4
"SALTC-350-1",7.5,"Teviot",5136,NA
"SALTC-349-1",6.4,"Broadmedow",3013,NA
"SALTE-745-1",5.7,"Coolabunia",3296,6
"SALTE-746-1",7.8,"Banban",2903,NA
"SALTE-741-1",6.1,"Memerambi",4345,6
"SALTE-742-1",5.4,"Memerambi",4345,6
"SALTC-346-1",6.7,"Galway",7718,NA
"SALTE-740-1",6.5,"Memerambi",4345,5
"SALTC-345-1",6.4,"Galway",7718,NA
"SALTC-346-1",6.8,"Galway",7718,NA
"SALTC-344-2",6.1,"Wyseby",5358,5
"SALTC-343-1",5.7,"Luxor",4208,NA
"SALTC-344-1",6.6,"Wyseby",5358,NA
"SALTC-342-1",4.7,"Luxor",4208,1
"SALTC-343-1",6.1,"Luxor",4208,NA
"SALTC-340-1",6,"Eden",7727,NA
"SALTC-351-1",6.5,"Teviot",5136,NA
"SALTS-72-1",9.1,"Tara",4918,6
"NCD-125-1",7.3,"1SOa",7540,4
"NCD-125-1",6.9,"1SOa",7540,4
"SALTN-502-1",8.6,"Teviot",5136,6
"SALTN-504-1",7.6,"Galway",7718,3
"NCD-51-1",7.2,"1DEa",7537,3
"NCD-71-1",8.1,"3VEa",7564,3
"NCD-276-1",7.7,"2VEx",7553,NA
"NCD-344-1",8.6,"3VEz",7570,6
"NCD-344-1",8.4,"3VEz",7570,6
"NCD-44-1",7.1,"1KTa",7539,3
"NCD-143-1",6.9,"1CHa",7534,4
"NCD-276-1",8.5,"2VEx",7553,NA
"NCD-51-1",7.3,"1DEa",7537,3
"NCD-58-1",7.3,"2VEb",7549,6
"NCD-71-1",8,"3VEa",7564,3
"NCD-356-1",8.5,"2VEx",7553,6
"NCD-52-1",6.2,"2VEe",7552,3
"NCD-52-1",6.1,"2VEe",7552,3
"NCD-58-1",7.3,"2VEb",7549,6
"NCD-127-1",6.8,"1SOb",7541,4
"NCD-143-1",6.9,"1CHa",7534,4
"NCD-285-1",8.4,"2VEx",7553,6
"NCD-83-1",7.1,"1CHb",7535,5
"NCD-83-1",6.4,"1CHb",7535,5
"NCD-356-1",8.4,"2VEx",7553,6
"NCD-364-1",7.6,"3CHx",7556,5
"NCD-364-1",7.1,"3CHx",7556,5
"NCD-452-1",7.1,"3VEy",7569,NA
"NCD-72-1",6.2,"3VEc",7566,3
"NCD-72-1",8.3,"3VEc",7566,3
"NCD-224-1",7.2,"3VEc",7566,4
"NCD-452-1",7.1,"3VEy",7569,NA
"NCD-127-1",6.7,"1SOb",7541,4
"NCD-224-1",7.5,"3VEc",7566,4
"NCD-37-1",7.3,"2VEa",7548,3
"NCD-339-1",7.8,"3VEz",7570,6
"NCD-89-1",8.9,"3VEb",7565,4
"NCD-37-1",7.3,"2VEa",7548,3
"NCD-393-1",8.8,"2VEy",7554,6
"NCD-393-1",9,"2VEy",7554,6
"NCD-89-1",8.7,"3VEb",7565,4
"NCD-272-1",7.7,"3VEw",7567,NA
"NCD-339-1",7.7,"3VEz",7570,6
"WDH-649-1",6.5,"Burradoo",7984,1
"WDH-699-1",6.5,"Foxleigh",7992,1
"WDH-701-1",6.6,"Foxleigh",7992,1
"WDH-9094-1",7.9,"Battery",7976,5
"WDH-2159-1",6.7,"Foxleigh",7992,1
"WDH-1248-1",7.5,"May Shallow Phase",8010,1
"WDH-1261-1",7.4,"May Shallow Phase",8010,1
"WDH-1271-1",7.7,"Langley-Wdh",8006,3
"WDH-1394-1",7.8,"Langley-Wdh",8006,4
"WDH-9055-1",8.4,"Tiny",8036,1
"CTAP-247-1",6.3,"Conjuboy",3188,2
"CTAP-247-1",6.2,"Conjuboy",3188,2
"WDH-9027-1",7,"Picardy Surface Seal Phase",8022,4
"WDH-890-1",8.2,"Langley-Wdh",8006,4
"WDH-351-1",6,"Racetrack",8026,1
"WDH-751-1",5.9,"Racetrack",8026,4
"ARD-507-1",6.7,"O'Bil Bil",4518,NA
"ATD-17-1",6.5,"Retro",4748,2
"EME-9008-1",8.5,"Ronnoc",7714,6
"EME-9008-1",8.5,"Ronnoc",7714,6
"EME-9007-1",7.4,"Galway",7718,6
"EME-9007-1",7.3,"Galway",7718,6
"EME-9006-1",8.2,"Eden",7727,6
"EME-9006-1",8.2,"Eden",7727,6
"BAN-723-1",7.9,"Police Camp",4574,3
"BAN-522-1",8.1,"Kilburnie",3999,4
"BAN-322-1",7.2,"Kokutungo",4104,4
"BAN-339-1",7.9,"Cottonham",3269,4
"BAN-339-1",7.7,"Cottonham",3269,4
"BAN-2259-1",6,"Greycliffe Melonhole Phase",9519,4
"BAN-2259-1",5.8,"Greycliffe Melonhole Phase",9519,4
"BAN-2123-1",7.5,"Jambin",3953,5
"BAN-1975-1",6,"Spier",4853,1
"BAN-1983-1",6.1,"Ulogie",5169,2
"BAN-823-1",6.9,"Melton",4402,4
"BAN-824-1",7.1,"Melton",4402,3
"BAN-835-1",7.9,"Jambin",3953,2
"BAN-516-1",7.7,"Banana",3017,3
"BAN-511-1",8.1,"Bonwell",3157,3
"BAN-511-1",8.3,"Bonwell",3157,3
"BAN-2598-1",6.4,"Greycliffe Melonhole Phase",9519,3
"BAN-2480-1",7.6,"Jambin",3953,2
"BAN-2105-1",8.2,"Earlsfield",3556,4
"BAN-1914-1",7.1,"Kokutungo",4104,5
"BAN-1971-1",7.8,"Thalberg",4931,5
"BAN-97-1",6.5,"Greycliffe Melonhole Phase",9519,3
"BAN-682-1",7.8,"Harris",3878,1
"BAN-2497-1",6.4,"Kilburnie",3999,3
"BAN-2258-1",7.5,"Greycliffe Melonhole Phase",9519,4
"BAN-2258-1",6.4,"Greycliffe Melonhole Phase",9519,4
"BAN-2257-1",8.2,"Banana",3017,2
"BAN-820-1",6.9,"Callide",3231,3
"BAN-657-1",7.5,"Santo",4827,2
"BAN-2596-1",6.5,"Greycliffe Melonhole Phase",9519,4
"BAN-2597-1",7.4,"Greycliffe Melonhole Phase",9519,3
"BAN-2451-1",6.1,"Spier",4853,3
"BAN-2455-1",6.5,"Ulogie",5169,4
"BAN-2257-1",7.9,"Banana",3017,2
"BAN-6-1",7.9,"Grevillea",3778,4
"BAN-509-1",5.1,"Spier",4853,3
"BAN-510-1",8.1,"Earlsfield",3556,6
"BAN-508-1",7,"Goovigen",3803,3
"BAN-2337-1",7.4,"Powerhouse",4600,5
"BAN-2350-1",7.1,"Ulogie",5169,3
"BAN-2352-1",5.5,"Spier",4853,2
"BAN-2355-1",6.6,"Powerhouse",4600,5
"BAN-2093-1",8.6,"Earlsfield",3556,7
"BAN-2096-1",7,"Kilburnie",3999,2
"BAN-2096-1",7,"Kilburnie",3999,2
"BAN-949-1",6.3,"Police Camp",4574,5
"BAN-585-1",8.1,"Banana",3017,3
"BAN-2586-1",8.6,"Kilburnie",3999,3
"BAN-2330-1",7.6,"Kilburnie",3999,5
"BAN-2256-1",7.7,"Greycliffe",3692,3
"BAN-2256-1",7,"Greycliffe",3692,3
"BAN-2172-1",6.9,"Grevillea",3778,2
"BAN-947-1",7.1,"Greycliffe",3692,3
"BAN-804-1",7.1,"Police Camp",4574,1
"BAN-804-1",6.9,"Police Camp",4574,1
"BAN-596-1",7.6,"Banana",3017,3
"BAN-599-1",7,"Melton",4402,2
"BAN-599-1",6.9,"Melton",4402,2
"BAN-508-1",7.2,"Goovigen",3803,3
"BAN-507-1",7.7,"Goovigen",3803,3
"BAN-301-1",6.9,"Spier",4853,5
"BAN-301-1",6.7,"Spier",4853,5
"BAN-2590-1",5.9,"Spier",4853,3
"BAN-2332-1",7,"Ulogie",5169,3
"BAN-2177-1",7.5,"Grevillea",3778,3
"BAN-2255-1",8.5,"Cottonham",3269,7
"BAN-2051-1",7.4,"Tarramba",5045,3
"BAN-2074-1",7.5,"Tarramba",5045,3
"BAN-2090-1",6.5,"Hodge (BAN)",3835,6
"BAN-2090-1",6.2,"Hodge (BAN)",3835,6
"BAN-29-1",7.1,"Callide",3231,2
"BAN-2298-1",6.4,"Grevillea",3778,4
"BAN-2034-1",7.1,"Thalberg",4931,5
"BAN-2037-1",7.9,"Ulogie",5169,4
"BAN-2038-1",7.4,"Kokutungo",4104,4
"BAN-2042-1",5.9,"Spier",4853,2
"BAN-940-1",6.8,"Bonwell",3157,3
"BAN-947-1",7.7,"Greycliffe",3692,3
"BAN-883-1",7.3,"Earlsfield",3556,6
"BAN-913-1",7.8,"Bonwell",3157,5
"BAN-3-1",7.1,"Jambin",3953,0
"BAN-922-1",8.2,"Fairview",3664,4
"BAN-493-1",7.6,"Fairview",3664,5
"BAN-5-1",6.3,"Tarramba",5045,5
"BAN-289-1",6.8,"Retro (BAN)",4747,4
"BAN-2559-1",5.7,"Spier",4853,3
"BAN-2164-1",7.2,"Tognolini",5028,7
"BAN-2164-1",7.3,"Tognolini",5028,7
"BAN-761-1",8,"Police Camp",4574,4
"BAN-748-1",6.9,"Greycliffe Melonhole Phase",9519,4
"BAN-539-1",8.1,"Fairview",3664,4
"BAN-484-1",7.3,"Kilburnie",3999,5
"BAN-865-1",6.6,"Retro (BAN)",4747,1
"BAN-865-1",6.3,"Retro (BAN)",4747,1
"BAN-533-1",7.6,"Banana",3017,2
"BAN-487-1",7.5,"Fairview",3664,5
"BAN-289-1",7.2,"Retro (BAN)",4747,4
"BAN-286-1",6.9,"Melton",4402,3
"BAN-286-1",6.9,"Melton",4402,3
"BAN-2263-1",7.9,"Bauhinia",2898,5
"BAN-73-1",6.3,"Ulogie",5169,4
"BAN-738-1",6.8,"Police Camp",4574,3
"BAN-748-1",7.2,"Greycliffe Melonhole Phase",9519,4
"BAN-53-1",8.1,"Earlsfield",3556,3
"BAN-376-1",6.7,"Santo",4827,3
"BAN-281-1",8.2,"Tarramba",5045,3
"BAN-2263-1",8.4,"Bauhinia",2898,5
"BAN-859-1",7,"Banana",3017,2
"BAN-859-1",6.9,"Banana",3017,2
"BAN-532-1",7.5,"Cottonham",3269,5
"BAN-409-1",7.1,"Melton",4402,3
"BAN-45-1",6.6,"Spier",4853,5
"BAN-468-1",7.4,"Bauhinia",2898,5
"BAN-271-1",6.8,"Kokutungo",4104,4
"BAN-2262-1",7.1,"Kilburnie",3999,2
"BAN-858-1",7.9,"Fairview",3664,4
"BAN-858-1",8,"Fairview",3664,4
"BAN-723-1",8.2,"Police Camp",4574,3
"BAN-360-1",7.9,"Fairview",3664,5
"BAN-365-1",7.1,"Kokutungo",4104,5
"BAN-2531-1",6,"Ulogie",5169,2
"BAN-2535-1",6.5,"Santo",4827,4
"BAN-2537-1",6.6,"Kokutungo",4104,5
"BAN-2538-1",5.7,"Spier",4853,2
"BAN-2262-1",7,"Kilburnie",3999,2
"BAN-2121-1",7.1,"Grevillea",3778,2
"BAN-1987-1",5.7,"Spier",4853,3
"BAN-2015-1",6.5,"Greycliffe",3692,5
"BAN-850-1",7.6,"Banana",3017,3
"BAN-857-1",8.1,"Banana",3017,4
"BAN-708-1",8.3,"Bonwell",3157,4
"SFS-73-1",8.1,"Rolleston",4739,6
"BAN-1971-1",6,"Thalberg",4931,5
"BAN-1903-1",6.9,"Kokutungo",4104,5
"BAN-1906-1",7.3,"Greycliffe",3692,3
"BAN-1940-1",7.9,"Tarramba",5045,4
"BAN-1812-1",6.4,"Ulogie",5169,1
"BAN-172-1",6.9,"Callide",3231,3
"BAN-1725-1",6,"Greycliffe",3692,5
"BAN-1590-1",7.2,"Callide",3231,0
"BAN-1598-1",7.6,"Earlsfield",3556,5
"BAN-1542-1",7.1,"Kokutungo",4104,3
"BAN-1352-1",7.6,"Santo",4827,5
"BAN-1354-1",7.8,"Earlsfield",3556,5
"SFS-70-1",8,"Rolleston",4739,6
"SFS-71-1",7.7,"Rolleston",4739,6
"SFS-27-1",6.5,"Tarramba",5045,6
"SFS-28-1",7.4,"Tarramba",5045,6
"BAN-2264-1",7.1,"Banana",3017,3
"BAN-1726-1",5.6,"Spier",4853,3
"BAN-1734-1",7,"Retro (BAN)",4747,5
"BAN-1559-1",6.9,"Santo",4827,2
"SFS-56-1",8.5,"Rolleston",4739,6
"SFS-600-1",7.5,"Ronnoc",7714,6
"SFS-29-1",8.5,"Jambin",3953,6
"BAN-2264-1",7.2,"Banana",3017,3
"BAN-1872-1",6.8,"Kokutungo",4104,4
"BAN-1147-1",6.9,"Police Camp",4574,3
"BAN-1812-1",6.3,"Ulogie",5169,1
"BAN-1522-1",7.1,"Santo",4827,3
"BAN-1533-1",6.3,"Retro (BAN)",4747,3
"BAN-119-1",7.3,"Bonwell",3157,4
"SFS-54-1",8.3,"Rolleston",4739,6
"SFS-55-1",8.5,"Rolleston",4739,6
"BAN-1713-1",6.4,"Greycliffe",3692,5
"SFS-52-1",8.2,"Rolleston",4739,6
"SFS-25-1",6.3,"Tarramba",5045,6
"BAN-2108-1",6.7,"Hodge (BAN)",3835,5
"BAN-2105-1",8.3,"Earlsfield",3556,4
"BAN-1858-1",7.5,"Ulogie",5169,0
"BAN-1865-1",6.2,"Spier",4853,3
"BAN-1971-1",7.4,"Thalberg",4931,5
"BAN-1971-1",7,"Thalberg",4931,5
"BAN-1811-1",6.5,"Kokutungo",4104,1
"BAN-1717-1",6.3,"Kokutungo",4104,5
"BAN-1719-1",7.2,"Luxor",4208,5
"BAN-1719-1",6.7,"Luxor",4208,5
"BAN-1668-1",6.9,"Retro (BAN)",4747,3
"BAN-116-1",7.8,"Kilburnie",3999,NA
"BAN-1182-1",7.3,"Bonwell",3157,3
"BAN-767-1",8,"Banana",3017,3
"SFS-53-1",8.1,"Rolleston",4739,6
"SFS-26-1",7.1,"Retro",4746,6
"BAN-1903-1",6.8,"Kokutungo",4104,5
"BAN-167-1",7.8,"Earlsfield",3556,3
"BAN-1695-1",6.5,"Melton",4402,3
"BAN-1702-1",6.8,"Grevillea",3778,2
"BAN-1703-1",5.9,"Retro (BAN)",4747,2
"BAN-1147-1",6.9,"Police Camp",4574,3
"BAN-2105-1",8.2,"Earlsfield",3556,4
"BAN-19-1",6.9,"Grevillea",3778,3
"BAN-165-1",8,"Santo",4827,2
"BAN-1651-1",7,"Greycliffe Melonhole Phase",9519,4
"BAN-1655-1",7.7,"Retro (BAN)",4747,5
"BAN-1660-1",6.5,"Thalberg",4931,5
"BAN-1663-1",7.1,"Greycliffe Melonhole Phase",9519,4
"BAN-150-1",5.9,"Spier",4853,1
"SFS-50-1",8.1,"Rolleston",4739,6
"BAN-1805-1",6.4,"Ulogie",5169,1
"BAN-2099-1",7,"Callide",3231,7
"BAN-187-1",7.6,"Santo",4827,3
"BAN-1872-1",6.4,"Kokutungo",4104,4
"BAN-1803-1",7.2,"Spier",4853,3
"BAN-1805-1",6.3,"Ulogie",5169,1
"BAN-1648-1",7.1,"Greycliffe",3692,5
"BAN-1487-1",6.4,"Greycliffe",3692,4
"BAN-1110-1",7.2,"Melton",4402,3
"SFS-32-1",7.9,"Tarramba",5045,6
"SFS-22-1",8.1,"Earlsfield",3556,6
"SFS-23-1",8.2,"Earlsfield",3556,6
"BAN-2099-1",7.1,"Callide",3231,7
"BAN-2097-1",8.5,"Kilburnie",3999,2
"BAN-1858-1",7.5,"Ulogie",5169,0
"BAN-1865-1",6.2,"Spier",4853,3
"BAN-1628-1",7.9,"Earlsfield",3556,5
"SFS-4-1",7.9,"Falkner",3637,6
"BAN-1800-1",8.1,"Jambin",3953,5
"BAN-1647-1",6.7,"Greycliffe",3692,5
"BAN-1452-1",6.5,"Santo",4827,4
"BAN-1456-1",6,"Santo",4827,4
"BAN-1465-1",6.3,"Santo",4827,4
"SFS-31-1",8.2,"Tarramba",5045,6
"SFS-200-1",8.4,"Earlsfield",3556,6
"BAN-2093-1",7.7,"Earlsfield",3556,7
"BAN-2038-1",6.6,"Kokutungo",4104,4
"BAN-2042-1",8.6,"Spier",4853,2
"BAN-2057-1",7.9,"Tarramba",5045,3
"BAN-185-1",8.4,"Earlsfield",3556,6
"BAN-1619-1",7.3,"Powerhouse",4600,5
"BAN-1625-1",6.9,"Powerhouse",4600,4
"BAN-1061-1",7.2,"Greycliffe Melonhole Phase",9519,4
"BAN-107-1",7.6,"Tarramba",5045,4
"BAN-1088-1",6.4,"Pakington",4606,5
"SFS-21-1",7.9,"Earlsfield",3556,6
"BAN-1763-1",7,"Thalberg",4931,5
"BAN-1771-1",6.2,"Ulogie",5169,5
"BAN-1773-1",5.7,"Spier",4853,0
"BAN-1605-1",7.5,"Kooingal",4062,4
"BAN-1607-1",7.8,"Kooingal",4062,4
"BAN-1401-1",6.6,"Santo",4827,3
"BAN-1435-1",6.2,"Santo",4827,2
"BAN-1088-1",6.9,"Pakington",4606,5
"BAN-1041-1",7,"Kokutungo",4104,4
"SFS-2-1",7.8,"Falkner",3637,6
"BAN-2034-1",7.4,"Thalberg",4931,5
"BAN-2023-1",6.4,"Ulogie",5169,5
"BAN-1777-1",6.5,"Spier",4853,5
"BAN-1781-1",6.8,"Retro (BAN)",4747,5
"BAN-1749-1",6.5,"Kokutungo",4104,5
"BAN-1614-1",7.2,"Kooingal",4062,3
"BAN-1618-1",7.1,"Kooingal",4062,3
"BAN-1442-1",6.3,"Santo",4827,4
"BAN-1381-1",6.1,"Police Camp",4574,1
"BAN-1052-1",5.3,"Thalberg",4931,4
"BAN-1059-1",6.2,"Ulogie",5169,1
"BAN-101-1",7.9,"Banana",3017,3
"SFS-75-1",7,"Rolleston",4739,6
"BAN-509-1",5.1,"Spier",4853,3
"BAN-1987-1",7.1,"Spier",4853,3
"BAN-1996-1",7,"Jambin",3953,5
"BAN-1815-1",6.1,"Ulogie",5169,2
"BAN-1758-1",7.9,"Jambin",3953,5
"BAN-1760-1",6.6,"Greycliffe",3692,5
"BAN-1601-1",8.1,"Kooingal",4062,4
"BAN-139-1",5.9,"Thalberg",4931,3
"BAN-103-1",7.5,"Banana",3017,2
"SFS-76-1",8.7,"Rolleston",4739,6
"SFS-76-1",8,"Rolleston",4739,6
"SFS-29-1",8.3,"Jambin",3953,6
"SFS-3-1",8.6,"Falkner",3637,6
"SFS-30-1",7.9,"Jambin",3953,6
"SFS-30-1",8.5,"Jambin",3953,6
"BAN-1977-1",4.5,"Greycliffe",3692,4
"BAN-1983-1",6.6,"Ulogie",5169,2
"BAN-1949-1",8.7,"Greycliffe",3692,5
"BAN-1956-1",7.8,"Earlsfield",3556,6
"BAN-1738-1",8.5,"Greycliffe",3692,5
"BAN-1740-1",7.2,"Kokutungo",4104,5
"BAN-1569-1",5.8,"Retro (BAN)",4747,2
"BAN-1571-1",6.4,"Santo",4827,5
"BAN-1374-1",8.2,"Police Camp",4574,3
"BAN-1377-1",6.6,"Retro (BAN)",4747,4
"ARD-9010-1",7.6,"Durong",3455,3
"ARD-9009-1",7.4,"Derra",3500,NA
"ARD-9002-1",6.7,"O'Bil Bil",4518,NA
"ARD-9002-1",6.3,"O'Bil Bil",4518,NA
"ARD-9009-1",7.4,"Derra",3500,NA
"ARD-9008-1",8.1,"Derra",3500,4
"ARD-9008-1",8.6,"Derra",3500,4
"ARD-9007-1",7.2,"Boynewood",3159,3
"BAN-1147-1",6.5,"Police Camp",4574,3
"ARD-9007-1",6.9,"Boynewood",3159,3
"ARD-9006-1",6.5,"Auburn",2769,NA
"BAN-1052-1",5.3,"Thalberg",4931,4
"BAN-1041-1",7,"Kokutungo",4104,4
"ARD-9005-1",6.7,"Lacon",4126,NA
"ARD-9014-1",5.9,"Wivenhoe",5351,7
"ARD-9014-1",5.9,"Wivenhoe",5351,7
"ARD-9003-1",6.5,"Chessborough",3209,NA
"ARD-9013-1",6.1,"Flagstone",3648,NA
"ARD-9013-1",6,"Flagstone",3648,NA
"ARD-9012-1",7.2,"Boyne",3040,2
"ARD-9001-1",7.2,"Glenrock",3772,7
"ARD-9012-1",7.2,"Boyne",3040,2
"ARD-9011-1",6.4,"Burnett",3025,NA
"ARD-9010-1",7.4,"Durong",3455,3
"ARD-9000-1",6,"Beeron",3055,NA
"ARD-507-1",6.3,"O'Bil Bil",4518,NA
"WDH-9050-1",8.6,"Tralee",8037,4
"WDH-9094-1",8,"Battery",7976,5
"WDH-9089-1",7.4,"May",8009,1
"WDH-9054-1",7,"Carfax",7986,1
"WDH-9115-1",7.2,"Tralee",8037,4
"WDH-9104-1",8,"Lindsay",8008,1
"WDH-9054-1",7.2,"Carfax",7986,1
"WDH-9092-1",7.4,"Burradoo",7984,1
"WDH-9092-1",7.5,"Burradoo",7984,1
"WDH-9107-1",7.3,"Tralee",8037,4
"WDH-9107-1",7.2,"Tralee",8037,4
"WDH-9091-1",7.9,"Burradoo",7984,4
"WDH-9081-1",6.9,"Langley-Wdh",8006,4
"WDH-9081-1",6.7,"Langley-Wdh",8006,4
"WDH-9056-1",7.6,"Tiny",8036,1
"WDH-9056-1",7,"Tiny",8036,1
"WDH-9051-1",7.5,"Tralee",8037,4
"WDH-9106-1",6.5,"Roper",8031,1
"WDH-9090-1",7.8,"May",8009,1
"WDH-9051-1",8,"Tralee",8037,4
"WDH-9080-1",8.6,"Langley-Wdh",8006,4
"WDH-9064-1",7.3,"May Shallow Phase",8010,1
"WDH-9090-1",7.7,"May",8009,1
"WDH-9080-1",8.3,"Langley-Wdh",8006,4
"WDH-9055-1",7.2,"Tiny",8036,1
"WDH-9050-1",8.3,"Tralee",8037,4
"WDH-9089-1",6.9,"May",8009,1
"WDH-9064-1",7.7,"May Shallow Phase",8010,1
"WDH-9115-1",7.2,"Tralee",8037,4
"WDH-349-1",7.6,"Burradoo",7984,4
"WDH-350-1",7.7,"Burradoo",7984,4
"WDH-9032-1",8.4,"Picardy",8021,1
"WDH-9032-1",8.6,"Picardy",8021,1
"WDH-9027-1",7,"Picardy Surface Seal Phase",8022,4
"WDH-2145-1",5.7,"Foxleigh",7992,4
"WDH-2034-1",7.5,"May",8009,6
"WDH-2035-1",7.3,"May",8009,1
"WDH-1223-1",5.9,"Racetrack",8026,4
"WDH-767-1",8.2,"Tiny",8036,5
"WDH-352-1",5.6,"Racetrack",8026,4
"WDH-339-1",7.1,"Racetrack",8026,1
"WDH-340-1",6.6,"Foxleigh",7992,1
"WDH-9031-1",8.5,"Langley-Wdh",8006,6
"WDH-9026-1",8.1,"Picardy Surface Seal Phase",8022,4
"WDH-2012-1",6.3,"Battery",7976,5
"WDH-1208-1",8.2,"Lindsay",8008,1
"WDH-1210-1",7.7,"Langley-Wdh",8006,4
"WDH-342-1",7.2,"Tralee",8037,4
"WDH-332-1",6.8,"Racetrack",8026,4
"WDH-9026-1",7.7,"Picardy Surface Seal Phase",8022,4
"WDH-1987-1",7.6,"Burradoo",7984,4
"WDH-757-1",5.9,"Roper",8031,3
"WDH-758-1",6.7,"Tralee",8037,1
"WDH-338-1",7.9,"Battery",7976,4
"WDH-9031-1",8.4,"Langley-Wdh",8006,6
"WDH-1633-1",7.7,"Tiny",8036,4
"WDH-1633-1",7.8,"Tiny",8036,4
"WDH-731-1",6,"Roper",8031,1
"WDH-742-1",6.4,"Tralee",8037,4
"WDH-743-1",6.1,"Tralee",8037,4
"WDH-720-1",8.5,"Tralee",8037,4
"WDH-330-1",8.4,"May",8009,1
"WDH-330-2",7.5,"May",8009,1
"WDH-322-1",7.7,"Tiny",8036,NA
"WDH-1557-1",7.5,"Burradoo",7984,4
"WDH-9020-1",6.6,"Foxleigh",7992,1
"WDH-2114-1",7.6,"Ninemile",8018,6
"WDH-992-1",7.7,"Tiny",8036,4
"WDH-995-1",8.3,"Tiny",8036,1
"WDH-995-1",8.1,"Tiny",8036,1
"WDH-973-1",6.3,"Racetrack",8026,1
"WDH-716-1",7.3,"Tralee",8037,4
"WDH-718-1",6,"Roper",8031,1
"WDH-9030-1",7,"Picardy",8021,1
"WDH-9030-1",7,"Picardy",8021,1
"WDH-9020-1",6.7,"Foxleigh",7992,1
"WDH-1901-1",7.8,"May",8009,1
"WDH-1905-1",7.6,"Leitrim",8007,1
"WDH-1907-1",7.2,"May",8009,1
"WDH-1520-1",8.3,"May",8009,1
"WDH-1520-1",7.2,"May",8009,1
"WDH-1507-1",7.3,"Burradoo",7984,4
"WDH-944-1",8.2,"Lindsay",8008,1
"WDH-698-1",6.8,"Foxleigh",7992,1
"WDH-9019-1",7.1,"Racetrack",8026,1
"WDH-1508-1",5.9,"Racetrack",8026,NA
"WDH-959-1",8.3,"Langley-Wdh",8006,5
"WDH-965-1",7.1,"Tiny",8036,4
"WDH-968-1",8.4,"Tiny",8036,6
"WDH-690-1",7.7,"Carfax",7986,1
"WDH-9029-1",8.3,"Lindsay",8008,1
"WDH-9019-1",6.6,"Racetrack",8026,1
"WDH-9001-1",6.7,"Foxleigh",7992,1
"WDH-2084-1",8.2,"Picardy",8021,4
"WDH-1787-1",6.4,"Roper",8031,1
"WDH-935-1",6.8,"Roper",8031,1
"WDH-943-1",8.5,"Langley-Wdh",8006,4
"WDH-2085-1",8.1,"Picardy",8021,1
"WDH-2086-1",8.4,"Carfax",7986,1
"WDH-2086-1",7,"Carfax",7986,1
"WDH-917-1",8.5,"Lindsay",8008,5
"WDH-928-1",8.1,"Picardy",8021,4
"WDH-929-1",8,"Langley-Wdh",8006,6
"WDH-9001-1",6.5,"Foxleigh",7992,1
"WDH-2081-1",8,"Picardy",8021,4
"WDH-2081-1",7.7,"Picardy",8021,4
"WDH-905-1",7.8,"Carfax",7986,1
"WDH-905-2",7.1,"Carfax",7986,1
"WDH-9033-1",8.4,"Carfax",7986,1
"WDH-9028-1",8.7,"Lindsay",8008,1
"WDH-9007-1",5.9,"Racetrack",8026,1
"WDH-9028-1",8.3,"Lindsay",8008,1
"WDH-9007-1",6,"Racetrack",8026,1
"WDH-1726-1",7.6,"May",8009,1
"WDH-1726-1",8.5,"May",8009,1
"WDH-1262-1",8.6,"Lindsay",8008,1
"WDH-1270-1",7,"Tralee",8037,1
"WDH-830-1",8.3,"Carfax",7986,1
"WDH-830-2",7.5,"Carfax",7986,1
"WDH-571-1",5.9,"Foxleigh",7992,1
"WDH-9012-1",6.6,"Roper",8031,1
"WDH-1237-1",7.1,"May",8009,2
"WDH-1252-1",7,"May",8009,1
"WDH-824-1",7.2,"Langley-Wdh",8006,4
"WDH-825-1",8.4,"Picardy",8021,4
"WDH-825-1",8.3,"Picardy",8021,4
"WDH-574-1",5.9,"Roper",8031,1
"WDH-353-1",6.9,"Racetrack",8026,1
"WDH-354-1",8.1,"Tralee",8037,4
"WDH-9012-1",6.5,"Roper",8031,1
"SFS-5-1",6.9,"Falkner",3637,6
"SFS-325-1",7.9,"Ronnoc",7714,6
"SFS-325-1",7.8,"Ronnoc",7714,6
"SFS-253-1",6.7,"Retro",4746,6
"SFS-253-1",7.3,"Retro",4746,6
"SFS-126-1",7,"Earlsfield",3556,6
"SFS-5-1",6.9,"Falkner",3637,6
"SFS-76-1",8.5,"Rolleston",4739,6
"SFS-6-1",8.1,"Falkner",3637,6
"SFS-600-1",7.5,"Ronnoc",7714,6
"SFS-56-1",8,"Rolleston",4739,6
"SFS-103-1",7.8,"Jambin",3953,6
"SFS-31-1",8,"Tarramba",5045,6
"SFS-21-1",8.5,"Earlsfield",3556,6
"SFS-22-1",7.4,"Earlsfield",3556,6
"SFS-229-1",7.1,"Bonwell",3157,6
"CTAP-1-1",8.2,"Powlathanga",4563,4
"SFS-457-1",8.3,"Rolleston",4739,6
"SFS-302-1",7.9,"Falkner",3637,6
"SFS-302-1",7.8,"Falkner",3637,6
"SFS-103-1",8.1,"Jambin",3953,6
"SFS-55-1",8.5,"Rolleston",4739,6
"SFS-457-1",8.4,"Rolleston",4739,6
"SFS-457-1",8.5,"Rolleston",4739,6
"SFS-300-1",8.5,"Falkner",3637,6
"SFS-20-1",7.8,"Earlsfield",3556,6
"SFS-200-1",8.1,"Earlsfield",3556,6
"SFS-7-1",8.4,"Falkner",3637,6
"SFS-3-1",8,"Falkner",3637,6
"SFS-30-1",8.6,"Jambin",3953,6
"SFS-2-1",8.1,"Falkner",3637,6
"SFS-604-1",7.3,"Ronnoc",7714,6
"SFS-604-1",7.3,"Ronnoc",7714,6
"SFS-515-1",7.4,"Oombabeer",7615,6
"SFS-454-1",8.4,"Rolleston",4739,6
"SFS-176-1",8.9,"Earlsfield",3556,6
"SFS-405-1",8.3,"Russell",4725,6
"SFS-405-1",8.3,"Russell",4725,6
"SFS-176-1",8.7,"Earlsfield",3556,6
"SFS-29-1",8.5,"Jambin",3953,6
"SFS-506-1",8.4,"Oombabeer",7615,6
"SFS-4-1",7.7,"Falkner",3637,6
"SFS-400-1",8.8,"Russell",4725,6
"SFS-26-1",6.7,"Retro",4746,6
"SFS-400-1",8.8,"Russell",4725,6
"SFS-327-1",8.6,"Ronnoc",7714,6
"SFS-152-1",8.2,"Earlsfield",3556,6
"SFS-152-1",8.3,"Earlsfield",3556,6
"CTAP-5-1",7,"Manoa Red Variant",9896,3
"SFS-601-1",7.9,"Ronnoc",7714,6
"SFS-601-1",8,"Ronnoc",7714,6
"SFS-32-1",7.9,"Tarramba",5045,6
"SFS-126-1",7.4,"Earlsfield",3556,6
"CQC-120-1",8,"May Downs",4266,6
"PZS-32-1",6.2,"Nullegai",8096,2
"CQC-111-1",7.6,"Bruce",3065,6
"CQC-111-1",7.6,"Bruce",3065,6
"LFZ-489-1",6.3,"1AVE6",8133,3
"LFZ-472-1",7,"1AVE1",8123,6
"LFZ-472-1",7.1,"1AVE1",8123,6
"LFZ-395-1",6.5,"1AVE2",8124,3
"LFZ-362-1",6.7,"1AVE2",8124,2
"ESH-6007-1",7,"BUg-2",3126,6
"KCM-9017-1",7.6,"Kenlogan",4040,2
"LFZ-506-1",6,"1ADE1",8119,3
"LFZ-506-1",7.1,"1ADE1",8119,3
"LFZ-488-1",6.3,"1AVE4",8126,2
"LFZ-467-1",7,"1ADE1",8119,4
"LFZ-500-1",7.1,"CVE4",8154,5
"LFZ-500-1",6.9,"CVE4",8154,5
"LFZ-3-1",6.5,"1AVE6",8133,2
"KCM-9001-1",8.6,"Diamond (Kcm)",3476,1
"KCM-9001-1",8.5,"Diamond (Kcm)",3476,1
"LFZ-488-1",6.4,"1AVE4",8126,2
"LFZ-471-1",8.1,"CVE5",8155,3
"LFZ-471-1",8,"CVE5",8155,3
"LFZ-505-1",7.4,"CVE5",8155,5
"LFZ-505-1",7.3,"CVE5",8155,5
"LFZ-499-1",7.6,"1AVE4",8126,4
"LFZ-499-1",8,"1AVE4",8126,4
"LFZ-487-1",6.3,"1ADE2",8131,4
"LFZ-487-1",6.2,"1ADE2",8131,4
"LFZ-212-1",7,"1AVE6",8133,4
"LFZ-224-1",7,"1AVE2",8124,5
"LFZ-98-1",7.4,"CVE2",8152,5
"LFZ-504-1",6.1,"1ADE2",8131,3
"LFZ-504-1",6.1,"1ADE2",8131,3
"LFZ-497-1",7.2,"CVE3",8153,3
"LFZ-491-1",7.7,"BVE1",8163,5
"LFZ-491-1",7.7,"BVE1",8163,5
"LFZ-464-1",7.2,"1ACH1",8120,5
"LFZ-497-1",7.2,"CVE3",8153,3
"LFZ-496-1",7.2,"IDE1",8164,3
"LFZ-486-1",6.7,"1ARU1",8117,2
"LFZ-486-1",6.7,"1ARU1",8117,2
"LFZ-17-1",7.1,"SVE1",9516,3
"LFZ-137-1",6.7,"1ADE1",8119,4
"LFZ-464-1",6.6,"1ACH1",8120,5
"LFZ-459-1",7.5,"CVE4",8154,4
"LFZ-503-1",6.8,"1AVE4",8126,2
"LFZ-503-1",6.8,"1AVE4",8126,2
"LFZ-496-1",7.2,"IDE1",8164,3
"LFZ-490-1",7.1,"1AVE4",8126,NA
"LFZ-490-1",6.7,"1AVE4",8126,NA
"LFZ-460-1",8.8,"CVE3",8153,6
"LFZ-473-1",8.7,"CVE1",8151,6
"LFZ-468-1",7.4,"1ATE1",7613,3
"LFZ-429-1",7.1,"CVE3",8153,4
"LFZ-105-1",8.6,"1AVE1",8123,7
"LFZ-507-1",7.6,"3ASO2",8140,2
"LFZ-473-1",8.5,"CVE1",8151,6
"LFZ-507-1",7.8,"3ASO2",8140,2
"LFZ-502-1",5.9,"1AVE2",8124,5
"LFZ-502-1",6.6,"1AVE2",8124,5
"LFZ-489-1",6.4,"1AVE6",8133,3
"LFZ-468-1",6.9,"1ATE1",7613,3
"LFZ-494-1",7.5,"1AKA1",8118,7
"LFZ-494-1",6.8,"1AKA1",8118,7
"LFZ-467-1",7,"1ADE1",8119,4
"KCM-9014-1",7.3,"Kenlogan",4040,1
"KCM-9006-1",8.4,"Eleanor",3578,1
"KCM-9006-1",8.1,"Eleanor",3578,1
"KCM-9015-1",7.1,"Martyr",4400,2
"KCM-9009-1",8.4,"Holding",9523,1
"KCM-9003-1",6.8,"Commissioner",3370,1
"KCM-9019-1",8.5,"Eleanor, Mottled Phase",3579,1
"KCM-9003-1",6.3,"Commissioner",3370,1
"KCM-9016-1",8.3,"Martyr",4400,2
"KCM-9016-1",8.5,"Martyr",4400,2
"KCM-9010-1",8.4,"Holding",9523,1
"KCM-9007-1",7.8,"Falkner",3637,6
"KCM-9007-1",7.9,"Falkner",3637,6
"KCM-9002-1",8.5,"Manar",4353,4
"KCM-9008-1",8.7,"Vicenza",5187,6
"KCM-9013-1",8.4,"Russell",4725,1
"KCM-9013-1",8.2,"Russell",4725,1
"KCM-9015-1",7.7,"Martyr",4400,2
"KCM-9011-1",6.9,"Maraconda",4248,1
"KCM-9009-1",8.4,"Holding",9523,1
"KCM-9017-1",7.6,"Kenlogan",4040,2
"KCM-9024-1",6,"Apron",2847,1
"KCM-9019-1",8.7,"Eleanor, Mottled Phase",3579,1
"KCM-9012-1",7.5,"Dickson",3510,4
"KCM-9012-1",7.5,"Dickson",3510,4
"KCM-9010-1",8.3,"Holding",9523,1
"KCM-9008-1",8.6,"Vicenza",5187,6
"KCM-9005-1",8.3,"Eleanor",3578,6
"KCM-9005-1",8.4,"Eleanor",3578,6
"KCM-9022-1",6.8,"Maraconda",4248,1
"KCM-9022-1",6.9,"Maraconda",4248,1
"KCM-9014-1",7.4,"Kenlogan",4040,1
"KCM-9002-1",8.5,"Manar",4353,4
"KCM-9011-1",6.7,"Maraconda",4248,1
"CQH-452-1",6,"Tanby",7884,6
"CQH-412-1",5.6,"Conway (Cqh)",7872,3
"CQH-728-1",5.9,"Doonside",7850,6
"CQH-455-1",5.1,"Tanby",7884,6
"CQH-289-1",6.2,"Corduroy",7913,4
"CQH-1212-1",5.9,"Lorna",7920,5
"CQH-1213-1",6,"Corduroy",7913,NA
"CQH-723-1",5.3,"Doonside",7850,NA
"CQH-1200-1",5.2,"Yeppoon",7918,NA
"CCL-788-1",7,"Bulburin",8051,6
"CCL-788-1",6.5,"Bulburin",8051,6
"CQH-832-1",7.1,"Meilland",7890,7
"CQH-727-1",5.3,"Barrack",7873,6
"CQH-401-1",6.6,"Darts",7611,1
"CQH-401-1",6.7,"Darts",7611,1
"CQH-1019-1",6.1,"Awoonga",7877,2
"CQH-435-1",6.4,"Selina",7947,1
"CQH-384-1",5.7,"Conway (Cqh)",7872,4
"CQH-26-1",5.4,"Coorooman",7844,1
"CQH-26-1",5.7,"Coorooman",7844,1
"CCL-1680-1",6.5,"Muldoon (CCL)",8055,3
"CQH-832-1",7,"Meilland",7890,7
"CQH-695-1",5.2,"Doonside",7850,NA
"CQH-384-1",6.1,"Conway (Cqh)",7872,4
"CQH-1018-1",6.1,"Meilland",7890,NA
"CQH-1018-1",6.3,"Meilland",7890,NA
"CCL-786-1",7.2,"Muldoon (CCL)",8055,4
"CQH-695-1",5.6,"Doonside",7850,NA
"CQH-250-1",6.1,"Ruby",7912,5
"CQH-250-1",6.3,"Ruby",7912,5
"CQH-248-1",6.3,"Elizabeth",7847,5
"CQH-434-1",7.2,"Selina",7947,1
"CQH-434-1",7.5,"Selina",7947,1
"CQH-344-1",6.4,"Ceduna",7932,7
"CCL-1679-1",6.2,"Vermont (CCL)",8109,3
"CQH-949-1",6.2,"Ruby",7912,NA
"CQH-822-1",6.7,"Muldoon",7901,NA
"CQH-640-1",5.9,"Raven",7889,NA
"CQH-423-1",6.3,"Keppel",7875,3
"CQH-423-1",6.2,"Keppel",7875,3
"CQH-820-1",7.2,"Boyles",7903,NA
"CQH-616-1",6.9,"Raven",7889,7
"CQH-331-1",5.4,"Elizabeth",7847,2
"CQH-331-1",5.5,"Elizabeth",7847,2
"CQH-210-1",6.1,"Boyanda",7930,1
"CQH-210-1",5.8,"Boyanda",7930,1
"CQH-946-1",5.3,"Lizard",7848,NA
"CQH-806-1",6.2,"Meilland",7890,3
"CQH-616-1",6.7,"Raven",7889,7
"CQG-149-1",8.3,"Colenso",7854,1
"CQH-802-1",7,"Meilland",7890,NA
"CCL-480-1",6.1,"Nullegai",8096,4
"CQH-940-1",4.7,"Lizard",7848,NA
"CQH-615-1",6.1,"Valetta",7909,5
"CQH-615-1",5.9,"Valetta",7909,5
"CQH-459-1",5.4,"Tanby",7884,7
"CQH-467-1",5.5,"Tanby",7884,6
"CQH-295-1",6.2,"Keppel",7875,3
"CQH-2-1",6.7,"Keppel",7875,3
"CQH-1109-1",6.2,"Harwood",7936,NA
"CQH-128-1",6.1,"Yaringa",7919,2
"CQH-1109-1",6,"Harwood",7936,NA
"CQG-114-1",6.4,"Kabra",7859,6
"CQH-455-1",5.1,"Tanby",7884,6
"CQH-455-1",5.2,"Tanby",7884,6
"CQH-289-1",6.3,"Corduroy",7913,4
"AGOPS-332-1",6.9,"Foxleigh",7992,5
"AGOPS-332-1",8.4,"Foxleigh",7992,5
"BRCL-9-1",7.4,"Dove",3525,NA
"BRCL-61-1",7,"White",5268,2
"BRCL-61-1",6.8,"White",5268,2
"BRCL-51-1",6.6,"Blair",3058,6
"BRCL-51-1",6.8,"Blair",3058,6
"BRCL-4-1",6.6,"Fletcher - Brcl",3631,NA
"BRCL-2-1",6.1,"Fowler",3665,NA
"BRCL-2-1",5.9,"Fowler",3665,NA
"BRCL-16-1",8.8,"Hind",3834,NA
"ABN-520-1",7.1,"U1",5154,2
"AGOPS-248-1",6.4,"Foxleigh",7992,3
"AGOPS-248-1",6.3,"Foxleigh",7992,3
"3MC-9014-1",6.4,"U1",5154,5
"3MC-9007-1",7,"Threemoon 1",5013,7
"3MC-9014-1",6.6,"U1",5154,5
"3MC-9007-1",6.7,"Threemoon 1",5013,7
"3MC-9010-1",6.5,"C2",3184,1
"3MC-9010-1",6.1,"C2",3184,1
"BLS-9008-1",6.9,"Callide",3231,6
"BLS-9007-1",7.5,"Tognolini",5028,7
"BPS-9012-1",8,"Te_El_Kabir",4960,3
"BLS-9009-1",7.1,"Callide",3231,7
"BLS-9009-1",7.1,"Callide",3231,7
"BLS-9008-1",7,"Callide",3231,6
"BLS-9010-1",7,"Tognolini",5028,6
"BLS-9010-1",7,"Tognolini",5028,6
"BPS-9007-1",6.6,"Nursery",4512,5
"BPS-9007-1",6.5,"Nursery",4512,5
"BPS-9008-1",6.1,"Buffel",3108,5
"BPS-9008-1",6.2,"Buffel",3108,5
"BPS-9009-1",6.5,"Nursery",4512,3
"ABS-64-1",6.8,"B1",2879,3
"BPS-9009-1",6.6,"Nursery",4512,3
"ABS-66-1",6.7,"R1",4671,5
"ABS-67-1",7.3,"R1",4671,5
"BPS-9010-1",7.9,"Graham",3774,3
"BPS-9010-1",7.3,"Graham",3774,3
"BLS-9007-1",7.4,"Tognolini",5028,7
"ABC-382-1",6.9,"K2",3987,5
"CCL-1284-1",6.5,"Nullegai",8096,4
"ABC-357-1",5.8,"K1",3986,1
"ABN-518-1",7,"U1",5154,2
"ABC-357-1",5.6,"K1",3986,1
"ABC-48-1",7.2,"Wooroolin",5330,3
"ABC-48-1",7.2,"Wooroolin",5330,3
"EIM-6006-1",8.7,"Krongie",7740,6
"ABN-51-1",5.6,"P2",4551,1
"ABN-518-1",6.8,"U1",5154,2
"CTAP-5-1",7,"Manoa Red Variant",9896,3
"ABN-493-1",6.5,"B2",2880,4
"ABN-493-1",6.4,"B2",2880,4
"ABC-461-1",7,"B1",2879,0
"ABC-462-1",6.6,"X1",5361,1
"ABC-346-1",5,"X1",5361,1
"BPS-9012-1",7.6,"Te_El_Kabir",4960,3
"BPS-9013-1",6.3,"Banban",2903,3
"BPS-9013-1",6.1,"Banban",2903,3
"ATE-12-1",7,"Luxor",4208,6
"EIM-6048-1",8.6,"Rankin",4719,6
"EIM-6052-1",7.6,"Krongie",7740,6
"ABC-337-1",5.8,"D3",3405,1
"ABC-341-1",5.7,"D3",3405,1
"ABC-85-1",6.7,"D3",3405,2
"ABC-86-1",6.5,"D3",3405,0
"ABC-87-1",6.6,"N1",4445,3
"ABC-79-1",7,"C5",3187,1
"ABC-451-1",8.4,"C3",3185,4
"ABC-346-1",5.6,"X1",5361,1
"ABC-87-1",6.6,"N1",4445,3
"ABS-279-1",7.2,"B2",2880,3
"CCL-1280-1",6.7,"Belbroughton",8099,3
"CCL-330-1",6.2,"Degalgil",8103,NA
"CCL-328-1",5.1,"Lizard (CCL)",8061,7
"ABC-355-1",6.1,"R1",4671,1
"ABC-451-1",8,"C3",3185,4
"ABS-279-1",6.9,"B2",2880,3
"ABS-277-1",6.2,"R1",4671,4
"BPS-9015-1",5.8,"Banban",2903,3
"CCL-1280-1",6.8,"Belbroughton",8099,3
"ABC-350-1",6.4,"D3",3405,3
"ABC-351-1",6.1,"D3",3405,1
"ABC-353-1",6.1,"D3",3405,1
"ATE-12-1",7.9,"Luxor",4208,6
"ABC-355-1",5.9,"R1",4671,1
"ABC-389-1",5.9,"K2",3987,1
"ABS-277-1",6.3,"R1",4671,4
"CCL-1279-1",7.4,"Belbroughton",8099,4
"CCL-1279-1",7.9,"Belbroughton",8099,4
"CCL-328-1",4.9,"Lizard (CCL)",8061,7
"ABC-35-1",5.8,"B2",2880,4
"ABC-52-1",6.1,"Wooroolin",5330,1
"ABC-52-1",6.9,"Wooroolin",5330,1
"ABC-99-1",7.3,"C3",3185,0
"ATD-18-1",6.2,"Broadmedow",3013,2
"CCL-326-1",6.5,"Muldoon (CCL)",8055,7
"ABC-389-1",5.7,"K2",3987,1
"ABS-109-1",5.4,"X1",5361,2
"ABS-110-1",6.5,"X1",5361,6
"ABS-114-1",5.7,"P2",4551,5
"ABS-116-1",6.2,"B1",2879,4
"ATD-18-1",6.1,"Broadmedow",3013,2
"ABC-99-1",7.2,"C3",3185,0
"ABC-384-1",6.9,"U1",5154,1
"ABS-116-1",5.9,"B1",2879,4
"CCL-326-1",6.9,"Muldoon (CCL)",8055,7
"CCL-325-1",6.3,"Voewood",7852,7
"EIM-6046-1",7.6,"Krongie",7740,6
"ABC-97-1",5.8,"D3",3405,3
"ABC-97-1",5.4,"D3",3405,3
"ABC-383-1",5.3,"U1",5154,1
"ABC-384-1",6.6,"U1",5154,1
"ABS-101-1",6.4,"X1",5361,6
"ABS-102-1",6.1,"R1",4671,6
"ABS-104-1",7,"D3",3405,6
"ABS-105-1",6,"K3",3988,0
"ABS-107-1",6,"D3",3405,3
"ABS-128-1",6,"D2",3404,3
"EIM-6007-1",8.3,"Rankin",4719,6
"ABN-53-1",5.7,"D3",3405,0
"ABN-477-1",6.2,"N1",4445,2
"CCL-324-1",6,"Lizard (CCL)",8061,5
"ABC-362-1",5.9,"T3",4906,1
"ABC-94-1",4.9,"T1",4904,0
"ABC-382-1",7,"K2",3987,5
"ABN-59-1",6.1,"T3",4906,0
"ABS-128-1",6.1,"D2",3404,3
"ABN-477-1",6.4,"N1",4445,2
"ABC-362-1",5.9,"T3",4906,1
"ABN-673-1",6.6,"D3",3405,4
"ABC-149-1",5.8,"C3",3185,0
"ABS-58-1",6.6,"B1",2879,6
"ABS-7-1",6.5,"B1",2879,6
"ABS-69-1",7.2,"C4",3186,5
"ABN-37-1",6.3,"D3",3405,1
"ABC-149-1",7.3,"C3",3185,0
"ABC-13-1",6.2,"Boynewood Deep Phase",10336,0
"ABC-138-1",5.9,"K2",3987,3
"ABN-663-1",6.1,"D2",3404,2
"ABC-142-1",5.9,"D3",3405,3
"ABN-37-1",6.4,"D3",3405,1
"ABN-1-1",7.4,"D3",3405,0
"ABS-51-1",6.8,"B1",2879,0
"ABS-54-1",7.4,"U1",5154,0
"ABN-64-1",6.8,"P2",4551,1
"ABC-121-1",6.6,"C5",3187,3
"ABC-125-1",5.5,"D3",3405,1
"ABN-669-1",6.6,"C4",3186,2
"ABN-669-1",6.5,"C4",3186,2
"ABN-1-1",7.1,"D3",3405,0
"ABN-102-1",5.4,"D3",3405,0
"ABN-102-1",5.3,"D3",3405,0
"ABN-170-1",7.1,"B2",2880,1
"ABN-161-1",6.4,"B1",2879,3
"ABN-161-1",6.5,"B1",2879,3
"ABN-13-1",6,"P2",4551,0
"CCL-55-1",5,"Bulburin",8051,3
"CCL-55-1",4.9,"Bulburin",8051,3
"ABN-170-1",7.6,"B2",2880,1
"ABN-13-1",6.1,"P2",4551,0
"ABN-663-1",5.8,"D2",3404,2
"ABN-364-1",7,"B2",2880,3
"ABN-364-1",6.8,"B2",2880,3
"ABN-67-1",5.5,"D3",3405,0
"3MC-153-1",7.3,"Monto 4",4409,1
"ABC-328-1",6.8,"E2",3543,4
"EIM-6004-1",8.2,"Krongie",7740,6
"ABC-1-1",6.5,"Wooroolin",5330,3
"ABS-68-1",6.3,"R1",4671,3
"ABC-397-1",7.8,"C4",3186,3
"ABC-333-1",5.9,"K1",3986,4
"ABC-327-1",6.6,"C5",3187,1
"ABS-269-1",5.4,"E3",3544,0
"FSE-108-1",6.2,"Springwood",4855,2
"3MC-219-1",6.5,"D3",3405,4
"3MC-153-1",6.8,"Monto 4",4409,1
"EIM-6004-1",7.5,"Krongie",7740,6
"ABC-327-1",6.4,"C5",3187,1
"EIM-6003-1",8.4,"Krongie",7740,6
"ABS-269-1",5.5,"E3",3544,0
"3MC-219-1",6.1,"D3",3405,4
"ABN-637-1",6.6,"C4",3186,4
"ABS-290-1",6.7,"T1",4904,4
"CCL-1291-1",7.1,"Belbroughton",8099,5
"CCL-1292-1",7.4,"Ramillies",8060,1
"ABS-262-1",6,"T1",4904,0
"ABS-265-1",5.8,"T1",4904,0
"ABS-266-1",6.4,"T1",4904,2
"ABS-267-1",6,"T1",4904,0
"ABS-73-1",6,"D3",3405,3
"3MC-6001-1",8.2,"Threemoon 1",5013,7
"ABC-326-1",7.5,"R1",4671,2
"ABN-637-1",6.4,"C4",3186,4
"ABS-26-1",7,"U1",5154,0
"ABC-112-1",7,"B1",2879,4
"ABS-29-1",6.1,"U1",5154,6
"ABS-290-1",6.4,"T1",4904,4
"CCL-1291-1",7.1,"Belbroughton",8099,5
"ABC-396-1",7,"Wooroolin",5330,4
"ABC-114-1",5.7,"D3",3405,1
"ABC-116-1",6.7,"B1",2879,3
"ABC-116-1",6.4,"B1",2879,3
"ABC-450-1",5.8,"D3",3405,1
"ABC-450-1",5.9,"D3",3405,1
"ABC-75-1",6.4,"D3",3405,3
"ABS-289-1",6.5,"C4",3186,3
"ABC-40-1",6.7,"Wooroolin",5330,3
"ABC-403-1",6.6,"K2",3987,1
"ABC-397-1",7.8,"C4",3186,3
"ABC-391-1",6.1,"C4",3186,2
"ABC-326-1",6.5,"R1",4671,2
"ABC-111-1",5.8,"R1",4671,4
"ABC-435-1",7.3,"N1",4445,1
"ABN-194-1",6,"K3",3988,NA
"ABC-272-1",6.6,"C5",3187,0
"ABC-431-1",7.2,"C4",3186,4
"CCL-1292-1",7,"Ramillies",8060,1
"ABC-390-1",6.1,"C4",3186,0
"ABC-391-1",6,"C4",3186,2
"3MC-231-1",5.7,"R1",4671,3
"3MC-231-1",5.9,"R1",4671,3
"ABC-103-1",6.3,"B2",2880,1
"ABC-109-1",5.9,"T3",4906,4
"ABC-431-1",7.4,"C4",3186,4
"ABC-110-1",6.2,"D3",3405,4
"ABC-111-1",6.3,"R1",4671,4
"FSE-103-1",7.6,"Teviot",5136,4
"ABC-117-1",6,"K2",3987,3
"ABC-271-1",6.9,"E3",3544,0
"ABC-414-1",6.5,"D3",3405,3
"ABC-416-1",6.7,"Wooroolin",5330,4
"ABC-419-1",6.2,"C4",3186,3
"ABN-48-1",4.9,"E2",3543,0
"ABS-211-1",6,"D2",3404,0
"ABS-211-1",5.9,"D2",3404,0
"ABC-41-1",7.9,"C4",3186,4
"ABC-413-1",6.2,"D3",3405,3
"ABS-27-1",6.3,"U1",5154,6
"ABS-273-1",5.5,"D3",3405,2
"ABS-275-1",6.9,"B1",2879,4
"ABC-271-1",6.5,"E3",3544,0
"ABN-673-1",6.6,"D3",3405,4
"ABS-275-1",7,"B1",2879,4
"ABS-207-1",5.9,"D2",3404,3
"ABS-208-1",6.2,"D2",3404,3
"ABS-209-1",6.5,"T3",4906,1
"ABC-1-1",6.7,"Wooroolin",5330,3
"CCL-78-1",6.4,"Diglum (CCL)",8107,NA
"ABC-398-1",8,"C4",3186,1
"ABC-398-1",7.8,"C4",3186,1
"ABN-768-1",6.4,"P2",4551,3
"ABS-76-1",5.4,"D3",3405,3
"ABS-78-1",5.8,"D2",3404,6
"ABN-768-1",6.5,"P2",4551,3
"ABN-830-1",7.1,"D3",3405,2
"ABS-78-1",5.9,"D2",3404,6
"EIM-6058-1",8.5,"Krongie",7740,6
"ABS-288-1",6.7,"B1",2879,3
"ABN-812-1",6.9,"T3",4906,2
"MON-6091-1",6.8,"Greycliffe",3692,3
"ABS-288-1",6.9,"B1",2879,3
"FSE-227-1",6.4,"Cheshire",3264,3
"ABN-19-1",8.2,"B2",2880,1
"ABS-280-1",6.3,"B1",2879,4
"ABS-282-1",6.9,"B2",2880,4
"ABS-283-1",6.5,"B2",2880,4
"ABS-285-1",6.6,"T1",4904,4
"ABN-779-1",6.1,"N1",4445,3
"ABN-80-1",6.9,"B2",2880,3
"ABS-28-1",6.4,"K1",3986,4
"ABN-19-1",8.4,"B2",2880,1
"PZS-1-1",7.4,"Ramillies",8060,2
"PZS-1-1",7.4,"Ramillies",8060,2
"ABC-27-1",6.2,"D3",3405,1
"PZS-8-1",6.9,"Ramillies",8060,NA
"PZS-8-1",6.7,"Ramillies",8060,NA
"ABN-761-1",6.8,"B1",2879,NA
"EIM-6016-1",7.6,"Krongie",7740,6
"ABN-803-1",5.8,"D2",3404,3
"ABC-258-1",5,"N1",4445,2
"ABC-26-1",6.6,"C4",3186,4
"EIM-6043-1",8.4,"Rankin",4719,6
"ABN-812-1",6.7,"T3",4906,2
"ABN-803-1",5.8,"D2",3404,3
"ABS-125-1",5.7,"T3",4906,1
"CCL-149-1",6.5,"Nullegai",8096,4
"ABN-829-1",7.2,"C3",3185,4
"ABN-80-1",7,"B2",2880,3
"CCL-149-1",6.4,"Nullegai",8096,4
"CCL-1452-1",6.1,"Larcom (CCL)",8097,NA
"ATE-9-1",4.9,"Rolleston",4739,1
"EIM-6037-1",8.6,"Rankin",4719,6
"ABN-829-1",7.3,"C3",3185,4
"ABS-125-1",4.5,"T3",4906,1
"ABS-85-1",6.5,"U1",5154,6
"EIM-6041-1",8.3,"Krongie",7740,6
"CCL-1452-1",6.3,"Larcom (CCL)",8097,NA
"EIM-6059-1",7.9,"Krongie",7740,6
"ABS-127-1",6.2,"D2",3404,4
"ABS-126-1",5.8,"T3",4906,0
"ABS-84-1",6.7,"U1",5154,6
"ABS-84-1",6.5,"U1",5154,6
"ATE-9-1",5.4,"Rolleston",4739,1
"ABS-126-1",5.8,"T3",4906,0
"EIM-6013-1",8.4,"Rankin",4719,6
"ABS-243-1",6.3,"D3",3405,3
"CCL-1290-1",7.8,"Pegunny (CCL)",8088,4
"ABS-201-1",5.2,"D3",3405,0
"ABS-205-1",6.3,"T3",4906,3
"ABS-206-1",6.4,"D2",3404,1
"ABS-295-1",5.9,"T3",4906,0
"ABS-3-1",6.4,"B2",2880,6
"EIM-6053-1",8.6,"Krongie",7740,6
"ABS-24-1",6.3,"D1",3403,3
"CVM-6020-1",7,"Vermont",5199,1
"EIM-6022-1",8.6,"Krongie",7740,6
"PZS-32-1",6.1,"Nullegai",8096,2
"ABS-246-1",6,"D1",3403,1
"ABS-247-1",5.7,"D3",3405,0
"ABS-248-1",6.5,"D3",3405,2
"PZS-3-1",6.7,"Ramillies",8060,2
"ABC-325-1",5.7,"P2",4551,1
"ABS-100-1",6.5,"X1",5361,6
"ABN-831-1",5.7,"D3",3405,3
"CVM-6019-1",6.5,"Warrinilla",5216,1
"ABS-100-1",6.6,"X1",5361,6
"ABS-255-1",6.3,"K3",3988,0
"ABS-257-1",6.4,"T1",4904,1
"ABS-259-1",6.6,"B1",2879,3
"ABS-250-1",6.9,"K3",3988,0
"MON-6092-1",6.9,"Callide",3231,3
"EIM-6019-1",8.4,"Rankin",4719,6
"MON-6091-1",6.5,"Greycliffe",3692,3
"ABN-830-1",7.1,"D3",3405,2
"CCL-1288-1",8,"Wangabry",8105,4
"ABS-119-1",6.6,"K1",3986,4
"ABS-1-1",5.8,"B1",2879,0
"ABS-10-1",6.3,"B1",2879,4
"ABS-250-1",6.5,"K3",3988,0
"ABN-419-1",7.2,"Boynewood Deep Phase",10336,3
"MON-6092-1",6.9,"Callide",3231,3
"CCL-1288-1",8,"Wangabry",8105,4
"ABS-118-1",6.9,"D2",3404,4
"PZS-21-1",6.7,"Ramillies",8060,2
"ABS-119-1",6.6,"K1",3986,4
"PZS-21-1",6.7,"Ramillies",8060,2
"ATE-14-1",7.6,"Arcturus",2788,6
"EIM-6020-1",7.6,"Arcturus",2788,NA
"PZS-34-1",6.6,"Ramillies",8060,2
"ATE-11-1",8.4,"Vermont",5199,0
"ABC-311-1",6.1,"K1",3986,1
"ABS-117-1",6.7,"B1",2879,4
"ABS-232-1",4.6,"B2",2880,3
"FSE-197-1",7.1,"Broadmedow",3013,4
"PZS-34-1",6.6,"Ramillies",8060,2
"ATE-14-1",7.9,"Arcturus",2788,6
"ATE-11-1",8.4,"Vermont",5199,0
"ABS-214-1",6.2,"D3",3405,0
"ATE-15-1",7.7,"Bruce",3065,6
"ATE-15-1",8,"Bruce",3065,6
"ABC-319-1",6.2,"C5",3187,1
"ABC-321-1",6,"D3",3405,4
"ABC-325-1",5.6,"P2",4551,1
"ABS-117-1",6.8,"B1",2879,4
"ABS-234-1",6.8,"K1",3986,3
"ABS-238-1",7,"D3",3405,3
"ABS-238-1",6.8,"D3",3405,3
"ZDK-6014-1",5.5,"Broadmedow",3013,1
"ZDK-6015-1",8.8,"Pegunny",4587,1
"ZDK-6016-1",5.9,"Broadmedow",3013,1
"ZDK-6017-1",7.3,"Pegunny",4587,1
"ZDK-6018-1",6.5,"Taurus",4919,1
"ABC-312-1",6.1,"Wooroolin",5330,2
"ABS-212-1",5.7,"D3",3405,0
"ABN-831-1",6.2,"D3",3405,3
"ABC-60-1",6.9,"C4",3186,3
"CNM-1-1",8,"Rolleston",4739,0
"ABC-178-1",6.1,"K2",3987,0
"CCL-755-1",6.7,"Oscar",8052,7
"CCL-755-1",6.7,"Oscar",8052,7
"ABS-89-1",6.4,"X1",5361,6
"ABC-169-1",5.2,"B2",2880,1
"CIS-9013-1",6.6,"Bilboolan",2908,6
"CIS-9013-1",6.8,"Bilboolan",2908,6
"FSE-237-1",7.6,"Springwood",4855,1
"ABS-95-1",7,"D3",3405,6
"ABS-97-1",5.8,"E2",3543,3
"ABS-98-1",6.2,"D2",3404,5
"ABS-99-1",6.2,"Bushnell Eroded Phase",10282,6
"ABS-88-1",5.6,"U1",5154,6
"ABC-60-1",7,"C4",3186,3
"ABS-88-1",5.3,"U1",5154,6
"ABC-203-1",6.2,"K2",3987,2
"ABC-161-1",5.9,"K2",3987,0
"ABC-162-1",6.1,"K2",3987,0
"ABS-86-1",6.2,"K1",3986,6
"ABS-87-1",6.3,"K1",3986,6
"ABC-204-1",6.6,"U1",5154,4
"ABC-204-1",6.5,"U1",5154,4
"ABC-162-1",5.9,"K2",3987,0
"ATE-6-1",6.7,"Moolayember",4364,NA
"ABS-85-1",6.2,"U1",5154,6
"ABC-199-1",5.5,"B2",2880,0
"EIM-6056-1",8.2,"May Downs",4266,NA
"ABC-2-1",6.9,"K1",3986,3
"ABC-196-1",6.5,"K2",3987,0
"ABC-196-1",6.4,"K2",3987,0
"ABS-73-1",6.2,"D3",3405,3
"ABS-74-1",5.6,"D3",3405,3
"ABN-16-1",5.9,"D3",3405,0
"EIM-6055-1",8.3,"Rankin",4719,6
"ABS-81-1",6.7,"C3",3185,3
"ABC-211-1",6.8,"R1",4671,1
"ABC-190-1",6.9,"B2",2880,1
"ABC-195-1",6.5,"C5",3187,0
"ABS-80-1",6.6,"C3",3185,3
"CNM-18-1",8.3,"Glenora",3741,4
"CNM-22-1",8.2,"Teviot",5136,1
"ABC-6-1",6.7,"Wooroolin",5330,0
"ABC-6-1",6.9,"Wooroolin",5330,0
"ABC-220-1",7.2,"Wooroolin",5330,4
"ABC-285-1",7.3,"C3",3185,1
"ABC-211-1",6.2,"R1",4671,1
"ABN-16-1",6,"D3",3405,0
"ABC-213-1",6.8,"C5",3187,3
"ABC-22-1",5.8,"T3",4906,1
"ABC-205-1",7.1,"U1",5154,4
"ABS-80-1",7.9,"C3",3185,3
"ABC-187-1",6.7,"C5",3187,0
"WAN-8-1",6.2,"Bruce",3065,2
"ABC-364-1",5.9,"N1",4445,1
"ABC-370-1",6.6,"U1",5154,4
"ABC-371-1",5.1,"E2",3543,4
"ABC-374-1",5.3,"K2",3987,3
"ABC-275-1",6.4,"Wooroolin",5330,4
"ABC-277-1",6.2,"C5",3187,1
"ABC-281-1",6.7,"Wooroolin",5330,3
"ABC-283-1",7.1,"E2",3543,3
"ABC-285-1",6.4,"C3",3185,1
"BLS-9000-1",6.9,"Hodge (BAN)",3835,6
"BLS-9000-1",6.9,"Hodge (BAN)",3835,6
"ABN-73-1",5.5,"P2",4551,0
"CCL-1290-1",7.1,"Pegunny (CCL)",8088,4
"ABC-7-1",6.6,"B1",2879,0
"ABC-7-1",6.6,"B1",2879,0
"ABS-90-1",6.6,"B1",2879,6
"ABS-8-1",6.5,"B1",2879,6
"ABN-72-1",5.6,"T3",4906,0
"ABC-67-1",5.8,"D3",3405,0
"EIM-6025-1",8.6,"Rankin",4719,6
"ABS-90-1",6.6,"B1",2879,6
"ABS-79-1",6.3,"C5",3187,6
"BLS-9005-1",7,"Hodge (BAN)",3835,5
"BLS-9005-1",7,"Hodge (BAN)",3835,5
"ABN-70-1",6.3,"P1",4550,0
"ABC-61-1",6,"D3",3405,4
"EIM-6026-1",8.1,"Arcturus",2788,NA
"ABC-25-1",5.7,"D3",3405,3
"ABC-254-1",5,"C3",3185,1
"ABC-230-1",6.5,"U1",5154,4
"ABC-220-1",7.1,"Wooroolin",5330,4
"PZS-3-1",6.9,"Ramillies",8060,2
"FSE-218-1",6.2,"Luxor",4208,2
"ABC-245-1",6.7,"D3",3405,2
"ABC-246-1",6.5,"D2",3404,2
"ABC-248-1",5.1,"E2",3543,1
"ABC-244-1",6.4,"P1",4550,1
"EIM-6010-1",7.1,"Krongie",7740,6
"CIS-9012-1",6.8,"Ceratodus",3233,7
"BLS-9001-1",7.6,"Melton",4402,7
"EIM-6029-1",8.2,"Krongie",7740,6
"CIS-9012-1",7,"Ceratodus",3233,7
"CIS-9011-1",5.9,"Ceratodus",3233,6
"CIS-9011-1",5.8,"Ceratodus",3233,6
"BLS-9001-1",7.4,"Melton",4402,7
"ABS-81-1",6.9,"C3",3185,3
"ABC-235-1",7.1,"C4",3186,0
"ABC-235-1",6.6,"C4",3186,0
"ABC-288-1",6.4,"U1",5154,4
"EIM-6031-1",8.5,"Rankin",4719,6
"EIM-6028-1",7.6,"Krongie",7740,6
"ABC-23-1",6,"N1",4445,4
"ABC-230-1",6.6,"U1",5154,4
"ABN-42-1",7.5,"B2",2880,1
"ABS-148-1",5.6,"E2",3543,0
"ABN-194-1",6,"K3",3988,NA
"CCL-214-1",6.7,"Strathmuir",8093,1
"EIM-6032-1",8,"Rankin",4719,NA
"ABN-42-1",7.8,"B2",2880,1
"3MC-233-1",7.6,"B2",2880,4
"ABS-321-1",6.6,"T1",4904,0
"CCL-1282-1",8.4,"Hoogly (Ccl)",8115,2
"CCL-214-1",6.7,"Strathmuir",8093,1
"ABS-321-1",6.2,"T1",4904,0
"ABN-194-1",6.1,"K3",3988,NA
"ABN-194-1",6.1,"K3",3988,NA
"ABC-16-1",6.4,"B1",2879,0
"ABN-419-1",7.3,"Boynewood Deep Phase",10336,3
"3MC-233-1",6.5,"B2",2880,4
"EIM-6034-1",8.4,"Krongie",7740,6
"MON-6003-1",5.6,"Auburn",2769,NA
"MON-6003-1",5.6,"Auburn",2769,NA
"ABC-16-1",6.4,"B1",2879,0
"ABC-300-1",5.7,"T3",4906,1
"PZS-15-1",6.5,"Ramillies",8060,3
"CCL-89-1",6.6,"Oscar",8052,5
"ABC-29-1",5.7,"D2",3404,1
"ABS-133-1",5.9,"E2",3543,0
"ABS-13-1",5.9,"T4",4907,3
"PZS-15-1",6.7,"Ramillies",8060,3
"EIM-6017-1",7.2,"Krongie",7740,6
"ABN-436-1",6.4,"U1",5154,4
"ABC-294-1",6.8,"Boynewood Deep Phase",10336,4
"ABC-303-1",6.5,"C5",3187,4
"ABC-304-1",6.4,"B2",2880,1
"ABC-305-1",6.3,"B2",2880,5
"ABN-436-1",6.4,"U1",5154,4
"ABC-305-1",6,"B2",2880,5
"ABS-133-1",5.9,"E2",3543,0
"EIM-6035-1",7.5,"Krongie",7740,6
"EIM-6011-1",8.3,"Krongie",7740,6
"CIS-9004-1",7.7,"Belvedere",3151,2
"ABS-134-1",6.3,"R1",4671,0
"ABS-135-1",6,"D3",3405,3
"ABS-137-1",6.9,"C5",3187,3
"ABS-139-1",6.6,"X1",5361,0
"EIM-6008-1",7.9,"May Downs",4266,NA
"CCL-89-1",6.6,"Oscar",8052,5
"ABS-323-1",6.2,"B2",2880,1
"EIM-6049-1",8.4,"Rankin",4719,6
"EIM-6050-1",7.8,"May Downs",4266,NA
"ABS-326-1",6.9,"C4",3186,1
"ABS-328-1",6.6,"D3",3405,0
"ABS-328-1",6.7,"D3",3405,0
"ABS-145-1",5.9,"P2",4551,0
"ABS-147-1",5.6,"T3",4906,0
"ABS-147-1",6,"T3",4906,0
"CCL-144-1",6,"Diglum (CCL)",8107,5
"CCL-144-1",5.7,"Diglum (CCL)",8107,5
"CCL-87-1",6.7,"Larcom (CCL)",8097,4
"ABN-430-1",7.3,"B2",2880,5
"ABS-14-1",6.6,"B2",2880,6
"FSE-199-1",6.5,"Clematis",3290,3
"ABN-430-1",8.1,"B2",2880,5
"ABS-149-1",5.3,"E1",3542,0
"ABS-15-1",7.1,"B2",2880,6
"ABS-151-1",6.2,"T3",4906,3
"ABS-152-1",6.2,"E2",3543,0
"ABS-153-1",6.3,"E2",3543,4
"ABS-153-1",6,"E2",3543,4
"ABN-23-1",8.3,"B2",2880,4
"ABN-23-1",8.4,"B2",2880,4
"CCL-1286-1",7.7,"Pegunny (CCL)",8088,4
"ATE-20-1",8.2,"Battery",7976,6
"ATE-28-1",8.2,"May Downs",4266,6
"ATE-28-1",7.8,"May Downs",4266,6
"ABN-749-1",6.1,"T3",4906,3
"ATE-2-1",8.2,"Sullivan",7738,6
"ABN-41-1",8.7,"C5",3187,1
"ABN-41-1",8.8,"C5",3187,1
"ABN-749-1",6.2,"T3",4906,3
"ABC-381-1",5.8,"Ceratodus 2",3240,1
"ABC-374-1",5.7,"K2",3987,3
"ABN-4-1",6.9,"R1",4671,0
"ABN-40-1",6.6,"D3",3405,1
"ABN-760-1",6.2,"D2",3404,3
"ABN-760-1",6.1,"D2",3404,3
"ABN-40-1",6.4,"D3",3405,1
"ABN-39-1",6.9,"T1",4904,1
"ABC-376-1",5.5,"K2",3987,2
"ABC-378-1",6.6,"D3",3405,4
"ABN-39-1",6.5,"T1",4904,1
"CIS-9014-1",6.3,"Yarrol",5384,NA
"ABC-72-1",6.1,"B1",2879,4
"ABC-75-1",6.8,"D3",3405,3
"CCL-111-1",6.7,"Degalgil",8103,7
"ATE-1-1",7.7,"Bruce",3065,6
"ATE-18-1",7.5,"Vermont",5199,5
"FSE-235-1",8.5,"Rolleston",4739,4
"FSE-238-1",7.3,"Cheshire",3264,4
"CCL-111-1",6.6,"Degalgil",8103,7
"FSE-203-1",6.1,"Clematis",3290,2
"ATE-17-1",8.1,"Vermont",5199,6
"ATE-17-1",8.2,"Vermont",5199,6
"CIS-9014-1",6.5,"Yarrol",5384,NA
"FSE-223-1",7.2,"Rolleston",4739,4
"CNM-17-1",8.3,"Glenora",3741,4
"CCL-1285-1",7,"Muldoon (CCL)",8055,4
"CCL-1286-1",7.2,"Pegunny (CCL)",8088,4
"FSE-221-1",6.5,"Retro",4748,4
"CNM-17-1",8.4,"Glenora",3741,4
"ATE-29-1",7.5,"Vermont",5199,NA
"ABS-121-1",7.3,"T1",4904,0
"ABS-122-1",6.9,"K1",3986,4
"ABS-123-1",6.5,"K1",3986,1
"CIS-9001-1",6.1,"Yarrol",5384,3
"CIS-9003-1",7.5,"Dalgangal",3448,6
"ABN-251-1",6.3,"D3",3405,3
"CCL-1272-1",6.9,"Wangabry",8105,5
"ATE-30-1",7.7,"May Downs",4266,NA
"ABN-250-1",7,"Boynewood Deep Phase",10336,3
"CCL-1272-1",6.9,"Wangabry",8105,5
"ATE-30-1",7.8,"May Downs",4266,NA
"ABN-29-1",7.2,"T1",4904,1
"ABN-29-1",7.1,"T1",4904,1
"ABN-250-1",7.3,"Boynewood Deep Phase",10336,3
"CCL-1267-1",6.3,"Hilldale",8108,4
"CCL-1273-1",8.2,"Pegunny (CCL)",8088,4
"CCL-1267-1",6.2,"Hilldale",8108,4
"ABS-289-1",6.4,"C4",3186,3
"ABS-92-1",7,"X1",5361,6
"ABS-93-1",6.8,"B2",2880,6
"ABS-94-1",6.7,"X1",5361,6
"ABS-91-1",7,"C4",3186,6
"ABN-31-1",6.4,"P2",4551,1
"ABN-304-1",6.7,"B1",2879,5
"ABN-304-1",6.6,"B1",2879,5
"MON-6093-1",7.2,"Retro (BAN)",4747,4
"MON-6093-1",6.8,"Retro (BAN)",4747,4
"ABS-91-1",7.3,"C4",3186,6
"CCL-1268-1",6.3,"Figtree",8104,5
"CCL-1268-1",6.5,"Figtree",8104,5
"SWRES-744-1",6.7,"Bogandilla",2954,7
"MON-6095-1",8.1,"Rolleston",4739,6
"MON-6095-1",8.1,"Rolleston",4739,6
"ATE-5-1",7.4,"Arcturus",2788,6
"ABN-301-1",8.1,"C3",3185,NA
"ABN-301-1",8,"C3",3185,NA
"ATE-4-1",8.3,"May Downs",4266,6
"CIS-9003-1",7.4,"Dalgangal",3448,6
"MGR-9004-1",7.4,"Burnett Coarse Sandy Variant",3029,7
"MGR-9004-1",7.6,"Burnett Coarse Sandy Variant",3029,7
"CNM-9-1",8.7,"Rolleston",4739,4
"ABS-19-1",6.5,"A1",2756,3
"CCL-290-1",7.4,"Halivale (CCL)",8101,4
"CNM-9-1",8.9,"Rolleston",4739,4
"CNM-52-1",6.6,"Wyseby",5358,4
"ABS-226-1",6.6,"D2",3404,3
"ABS-227-1",6.2,"T1",4904,1
"ABS-228-1",6.6,"T1",4904,1
"ABS-23-1",6.1,"P1",4550,3
"ABS-230-1",6.7,"T3",4906,0
"ABS-232-1",5.8,"B2",2880,3
"ABS-36-1",6.1,"E2",3543,6
"ABS-38-1",5.8,"D3",3405,5
"ABS-39-1",6.8,"D3",3405,0
"ABS-35-1",6.2,"T4",4907,3
"ABN-34-1",6.4,"D3",3405,1
"ABS-217-1",6.1,"P2",4551,3
"ABS-224-1",6.7,"D2",3404,0
"MGR-9008-1",7,"Red Flank",4709,3
"MGR-9003-1",7.6,"Bonnie Crofts",2918,2
"MGR-9003-1",7.3,"Bonnie Crofts",2918,2
"ABN-243-1",8.8,"K1",3986,7
"ABS-224-1",5.8,"D2",3404,0
"ABS-214-1",6.5,"D3",3405,0
"ABN-99-1",5.9,"U1",5154,0
"ABN-99-1",5.3,"U1",5154,0
"ABS-20-1",6.5,"A1",2756,3
"ABS-332-1",6.9,"B1",2879,0
"MGR-9008-1",6.8,"Red Flank",4709,3
"MGR-9002-1",8.1,"Bonnie Crofts",2918,2
"MGR-9002-1",8.1,"Bonnie Crofts",2918,2
"ABN-93-1",7.1,"C4",3186,0
"ABN-251-1",7,"D3",3405,3
"ABS-195-1",6.3,"E1",3542,0
"ABS-332-1",6.9,"B1",2879,0
"ABS-330-1",6.4,"B1",2879,4
"EIM-6000-1",8.4,"Rankin",4719,6
"ABS-196-1",6.8,"T3",4906,0
"ABS-2-1",6.1,"B1",2879,3
"ABS-194-1",8,"C3",3185,0
"ABS-194-1",8.5,"C3",3185,0
"ABS-185-1",6,"D2",3404,0
"ABS-183-1",6.1,"R1",4671,0
"MGR-9007-1",6.6,"Fison",3640,4
"MGR-9007-1",7.4,"Fison",3640,4
"MGR-9001-1",8,"Bovekel",2977,6
"ABN-9-1",6.6,"T1",4904,0
"ABN-93-1",7,"C4",3186,0
"ABS-330-1",6.3,"B1",2879,4
"ABS-329-1",6.9,"B1",2879,4
"CCL-1450-1",7.6,"Belbroughton",8099,4
"ABS-33-1",6.8,"P2",4551,5
"ABS-187-1",6.6,"D3",3405,2
"ABS-188-1",5.3,"K2",3987,2
"ABS-181-1",6,"D2",3404,3
"ABS-180-1",6,"D2",3404,3
"MGR-9001-1",7.8,"Bovekel",2977,6
"CCL-1450-1",6.7,"Belbroughton",8099,4
"ABN-84-1",6.4,"Boynewood Deep Phase",10336,0
"ABS-46-1",6.6,"D3",3405,6
"ABS-47-1",5.8,"P1",4550,3
"ABS-189-1",5.8,"K2",3987,4
"ABS-180-1",6.3,"D2",3404,3
"CNM-52-1",7.3,"Wyseby",5358,4
"ABC-15-1",6.2,"Wooroolin",5330,0
"ABC-152-1",5.7,"D3",3405,2
"ABS-45-1",6,"D2",3404,3
"ABS-176-1",5.4,"X1",5361,0
"ABS-177-1",6,"T1",4904,3
"ABS-178-1",6.3,"N1",4445,3
"ABS-179-1",6,"D2",3404,3
"ABS-18-1",6.1,"D3",3405,3
"ABS-44-1",6.3,"P1",4550,3
"MON-6094-1",6.9,"Spier",4853,5
"MON-6094-1",6.7,"Spier",4853,5
"ABS-193-1",6.5,"C3",3185,0
"ABN-3-1",6.5,"B2",2880,0
"ABN-3-1",6.4,"B2",2880,0
"ABS-193-1",6.5,"C3",3185,0
"ABS-40-1",6.1,"K1",3986,2
"ABS-42-1",6.4,"D3",3405,4
"MGR-9005-1",6.6,"Flagstone",3649,6
"MGR-9005-1",6.5,"Flagstone",3649,6
"ABS-190-1",5.9,"K2",3987,0
"ABS-191-1",6.6,"U1",5154,4
"CIS-9000-1",6.3,"Anyarro",2878,NA
"CCL-298-1",6.3,"Figtree",8104,3
"CCL-290-1",7.2,"Halivale (CCL)",8101,4
"CCL-298-1",6.5,"Figtree",8104,3
"CNM-49-1",6.8,"Wyseby",5358,4
"CNM-49-1",7,"Wyseby",5358,4
"CCL-78-1",6.4,"Diglum (CCL)",8107,NA
"CNM-29-1",7.1,"Retro",4748,4
"CNM-30-1",8.1,"Bruce",3065,4
"CCL-1447-1",8.4,"Hoogly (Ccl)",8115,1
"EIM-6001-1",8.2,"May Downs",4266,NA
"CIS-9009-1",6.8,"Ceratodus",3233,6
"CCL-1447-1",8.2,"Hoogly (Ccl)",8115,1
"CIS-9009-1",7,"Ceratodus",3233,6
"CIS-9010-1",6.7,"Ceratodus",3233,4
"CCL-1541-1",6.4,"Nullegai",8096,1
"CIS-9010-1",6.6,"Ceratodus",3233,4
"CNM-25-1",8.4,"Pegunny",4587,1
"CNM-25-1",8.7,"Pegunny",4587,1
"CNM-41-1",7.2,"Rolleston",4739,1
"CIS-9000-1",6.5,"Anyarro",2878,NA
"CCL-110-1",7,"Hilldale",8108,3
"CIS-9004-1",7.1,"Belvedere",3151,2
"ABS-163-1",6.6,"D2",3404,3
"ABS-164-1",6.3,"N1",4445,4
"CIS-9006-1",6.2,"Abercorn",2783,3
"ABS-164-1",6.3,"N1",4445,4
"ABS-160-1",6.3,"N1",4445,2
"ABS-154-1",6.5,"D2",3404,3
"ABS-155-1",6.6,"D2",3404,3
"CIS-9006-1",6.1,"Abercorn",2783,3
"ABS-157-1",6.3,"T3",4906,1
"ABS-159-1",5.8,"T3",4906,2
"ABS-159-1",5.9,"T3",4906,2
"ABN-45-1",6.3,"R1",4671,4
"ABN-46-1",6.7,"D3",3405,0
"CCL-80-1",6.8,"Degalgil",8103,7
"CCL-80-1",6.8,"Degalgil",8103,7
"CIS-9008-1",6.5,"Anyarro",2878,4
"ABN-46-1",6.4,"D3",3405,0
"CIS-9005-1",6.4,"Abercorn",2783,6
"CIS-9005-1",5.9,"Abercorn",2783,6
"CIS-9008-1",6.4,"Anyarro",2878,4
"ABN-44-1",7.3,"B2",2880,5
"ABC-158-1",7.7,"B2",2880,3
"ABN-44-1",7.6,"B2",2880,5
"ABC-158-1",7.8,"B2",2880,3
"CIS-9007-1",7,"Anyarro",2878,6
"ABS-171-1",6.7,"R1",4671,0
"ABS-174-1",5.7,"R1",4671,0
"ABS-31-1",7,"P1",4550,2
"ABS-32-1",5.8,"D2",3404,3
"ABC-157-1",7.7,"U1",5154,1
"ABC-157-1",7.9,"U1",5154,1
"ABS-175-1",5.8,"K3",3988,0
"CCL-1167-1",6.9,"Diglum (CCL)",8107,6
"CVM-6007-1",8.2,"Pegunny",4588,1
"CIS-9007-1",6.8,"Anyarro",2878,6
"ABS-165-1",6.2,"B2",2880,3
"ABS-166-1",6.6,"N1",4445,3
"ABS-168-1",5.2,"T3",4906,0
"CCL-1173-1",6.2,"Ramillies",8060,NA
"CVM-6016-1",7.2,"Bruce",3065,1
"MWD-5-1",6.6,"Boonenne",3032,NA
"MWD-5-1",5.8,"Boonenne",3032,NA
"SALTN-511-1",7.8,"Well, Footslope Variant",5291,5
"MWD-10-1",6.7,"Chinchilla",3220,NA
"MWD-10-1",6.9,"Chinchilla",3220,NA
"SALTN-513-1",7,"Vermont",5199,NA
"SALTN-503-1",8.5,"Glenora",3741,6
"MWD-7-1",5,"Cadarga",3246,NA
"MWD-7-1",5,"Cadarga",3246,NA
"SALTN-514-1",6.8,"Maraconda",4248,5
"SALTN-505-1",8.4,"May Downs",4266,6
"SALTN-506-1",7.4,"Glenora",3741,4
"SALTN-507-1",8.6,"Eleanor",3578,6
"MWD-4-1",8.3,"Bogandilla",2954,NA
"SALTN-508-1",8.2,"Eleanor, Mottled Phase",3579,6
"MWD-4-1",6.7,"Bogandilla",2954,NA
"SALTN-509-1",8.4,"Vicenza",5187,NA
"SALTN-553-1",8.6,"Glenora",3741,6
"SALTN-555-1",8.6,"Glenora",3741,1
"SALTN-556-1",8.3,"Glenora",3741,1
"CQH-822-1",6.8,"Muldoon",7901,NA
"NCD-882-1",6.6,"1CHa",7534,4
"NCD-882-1",6.5,"1CHa",7534,4
"NCD-845-1",9,"2VEb",7549,6
"CQH-746-1",6.4,"Ruby",7912,NA
"NCD-888-1",7.2,"2VEb",7549,5
"CQH-295-1",5.6,"Keppel",7875,3
"NCD-888-1",7,"2VEb",7549,5
"NCD-877-1",7.6,"3VEa",7564,4
"NCD-877-1",7.7,"3VEa",7564,4
"NCD-68-1",9.1,"3VEc",7566,3
"NCD-68-1",8.9,"3VEc",7566,3
"NCD-70-1",8.9,"3VEc",7566,3
"NCD-70-1",9.2,"3VEc",7566,3
"NCD-59-1",8.6,"2VEb",7549,3
"NCD-59-1",9,"2VEb",7549,3
"CQH-248-1",6.3,"Elizabeth",7847,5
"CQH-1358-1",6.7,"Muldoon",7901,NA
"CQH-1364-1",6.2,"Darts",7611,1
"CQH-128-1",5.9,"Yaringa",7919,2
"CQH-1321-1",6.6,"Muldoon",7901,NA
"NCD-885-1",8.2,"3VEc",7566,7
"NCD-885-1",8.1,"3VEc",7566,7
"EIE-437-1",9.2,"Rolleston",4739,4
"CQH-1201-1",5.8,"Lorna",7920,NA
"LFZ-78-1",6.4,"1AVE6",8133,2
"LFZ-461-1",9.5,"CVE2",8152,6
"CQH-1019-1",6.2,"Awoonga",7877,2
"NCD-872-1",6.6,"2VEa",7548,7
"CQH-922-1",5.1,"Lizard",7848,NA
"CQH-944-1",6.6,"Lizard",7848,NA
"BAN-835-1",7.2,"Jambin",3953,2
"BAN-2265-1",7.7,"Tarramba",5045,3
"BAN-2265-1",7.4,"Tarramba",5045,3
"BAN-2128-1",8.1,"Tarramba",5045,4
"CCL-1679-1",6.4,"Vermont (CCL)",8109,3
"BAN-790-1",6.3,"Greycliffe Melonhole Phase",9519,4
"BAN-2105-1",8.3,"Earlsfield",3556,4
"BAN-1977-1",5.8,"Greycliffe",3692,4
"CCL-1680-1",6.5,"Muldoon (CCL)",8055,3
"BAN-1996-1",7.1,"Jambin",3953,5
"BAN-1906-1",6.9,"Greycliffe",3692,3
"BAN-1940-1",7.5,"Tarramba",5045,4
"BAN-1945-1",7.9,"Earlsfield",3556,6
"BAN-1949-1",6.7,"Greycliffe",3692,5
"BAN-1147-1",6.5,"Police Camp",4574,3
"BAN-682-1",7.2,"Harris",3878,1
"BAN-1956-1",8.7,"Earlsfield",3556,6
"BAN-6-1",7.3,"Grevillea",3778,4
"BAN-657-1",7.5,"Santo",4827,2
"BAN-513-1",7.4,"Tarramba",5045,3
"BAN-185-1",8.6,"Earlsfield",3556,6
"BAN-1142-1",7.1,"Kokutungo",4104,5
"BAN-522-1",8.1,"Kilburnie",3999,4
"BAN-507-1",7.5,"Goovigen",3803,3
"BAN-510-1",8.1,"Earlsfield",3556,6
"BAN-513-1",7.7,"Tarramba",5045,3
"BAN-474-1",7.9,"Bauhinia",2898,5
"BAN-5-1",6,"Tarramba",5045,5
"BAN-181-1",6.5,"Santo",4827,3
"BAN-1625-1",6.9,"Powerhouse",4600,4
"BAN-2598-1",7,"Greycliffe Melonhole Phase",9519,3
"BAN-1648-1",6.4,"Greycliffe",3692,5
"CCL-786-1",7,"Muldoon (CCL)",8055,4
"BAN-1601-1",8.5,"Kooingal",4062,4
"SALTC-400-1",6.4,"Rankin",4719,6
"BAN-2597-1",6.7,"Greycliffe Melonhole Phase",9519,3
"BAN-2298-1",6.6,"Grevillea",3778,4
"BAN-150-1",5.7,"Spier",4853,1
"CCL-480-1",6.1,"Nullegai",8096,4
"BAN-95-1",6.3,"Greycliffe Melonhole Phase",9519,2
"BAN-97-1",6.8,"Greycliffe Melonhole Phase",9519,3
"KCM-9050-1",7.2,"Cheeseboro",3208,1
"KCM-9050-1",7.2,"Cheeseboro",3208,1
"KCM-9051-1",8.3,"Diamond (Kcm), Footslope Variant",3481,1
"KCM-9051-1",8.4,"Diamond (Kcm), Footslope Variant",3481,1
"KCM-9052-1",6.7,"Well, Footslope Variant",5291,1
"KCM-9052-1",6.8,"Well, Footslope Variant",5291,1
"KCM-9047-1",8.4,"Cattle",3376,3
"KCM-9028-1",8.7,"Aroa",9522,1
"KCM-9047-1",8.7,"Cattle",3376,3
"KCM-9054-1",8,"Moramana",4347,1
"KCM-9054-1",7.9,"Moramana",4347,1
"KCM-9024-1",5.8,"Apron",2847,1
"KCM-9027-1",8.8,"Aroa",9522,1
"KCM-9031-1",8.5,"Midden",4272,4
"KCM-9027-1",8.8,"Aroa",9522,1
"KCM-9030-1",7.6,"Kenmar",9524,4
"KCM-9030-1",8.4,"Kenmar",9524,4
"KCM-9029-1",7.5,"Fletcher",3630,4
"KCM-9032-1",8.4,"Midden",4272,4
"KCM-9029-1",7.4,"Fletcher",3630,4
"KCM-9036-1",8.6,"Kenmar",9524,4
"KCM-9036-1",8.6,"Kenmar",9524,4
"KCM-9035-1",7.8,"Solferino",4830,2
"KCM-9033-1",7.8,"Well",5287,2
"KCM-9033-1",7.9,"Well",5287,2
"KCM-9035-1",8.4,"Solferino",4830,2
"KCM-9041-1",8.5,"Windradene",5232,3
"KCM-9041-1",8.6,"Windradene",5232,3
"KCM-9042-1",8,"Moramana, Gilgai Phase",4349,1
"KCM-9042-1",8.2,"Moramana, Gilgai Phase",4349,1
"KCM-9046-1",7.8,"Russell",4725,1
"KCM-9046-1",7.9,"Russell",4725,1
"KCM-9045-1",8.3,"Niagara",4475,1
"KCM-9044-1",8.3,"Well",5287,2
"KCM-9048-1",8,"Yackadoo",5368,4
"KCM-9049-1",6.1,"Violet",5198,3
"KCM-9044-1",7.7,"Well",5287,2
"KCM-9031-1",8.5,"Midden",4272,4
"KCM-9032-1",8.4,"Midden",4272,4
"KCM-9040-1",8.6,"Rankin",4719,6
"KCM-9040-1",8.7,"Rankin",4719,6
"SALTC-404-1",8.9,"Wyseby",5358,8
"KCM-9045-1",8.4,"Niagara",4475,1
"SALTC-404-1",9.2,"Wyseby",5358,8
"KCM-9043-1",7.7,"Moramana, Gilgai Phase",4349,1
"KCM-9043-1",8.1,"Moramana, Gilgai Phase",4349,1
"KCM-9048-1",8.2,"Yackadoo",5368,4
"KCM-9053-1",7.4,"Vicenza",5187,2
"KCM-9053-1",7.3,"Vicenza",5187,2
"KCM-9028-1",8.5,"Aroa",9522,1
"NCD-1028-1",8.8,"2VEx",7553,7
"EIR-1003-1",8.2,"1AUg-12",2091,7
"NCD-1029-1",9,"2VEx",7553,7
"EIR-1004-1",5,"6AUg-12",2744,5
"NCD-1030-1",8.8,"2VEx",7553,6
"NCD-1031-1",8.9,"2VEx",7553,7
"NCD-1032-1",8.5,"3VEy",7569,7
"NCD-1034-1",8.6,"3VEy",7569,6
"NCD-1035-1",8.7,"3VEw",7567,7
"NCD-1019-1",7.9,"2VEx",7553,7
"NCD-1020-1",8.4,"2VEx",7553,7
"NCD-1021-1",8.6,"2VEx",7553,7
"NCD-1036-1",8,"3VEw",7567,7
"NCD-1037-1",8.5,"2VEx",7553,7
"NCD-1023-1",8.4,"3VEy",7569,7
"NCD-1024-1",8.6,"3VEy",7569,7
"NCD-1038-1",8.1,"2VEx",7553,5
"EIR-1005-1",8.2,"6AUg-12",2744,3
"NCD-1025-1",8.4,"2VEx",7553,7
"NCD-1026-1",8.9,"2VEx",7553,7
"EIR-1000-1",8.5,"TsUgg-2",5118,7
"EIR-1001-1",7.7,"1AUg-12",2091,7
"NCD-1027-1",8.8,"2VEx",7553,7
"EIR-1002-1",7.3,"6AUg-12",2744,7
"PAS-104-1",8,"Dunrobin - CQ",3520,1
"PAS-104-1",8.1,"Dunrobin - CQ",3520,1
"PAS-105-1",7.1,"Dunrobin - CQ",3520,1
"PAS-105-1",7.1,"Dunrobin - CQ",3520,1
"P2REEF-5-1",7,"Dalrymple",3408,1
"P2REEF-5-1",7.1,"Dalrymple",3408,1
"P2REEF-9-1",6.4,"Dotswood",3409,1
"P2REEF-9-1",6.1,"Dotswood",3409,1
"SFS-51-1",8.5,"Rolleston",4739,6
"SFS-229-1",7.1,"Bonwell",3157,6
"SFS-515-1",7.2,"Oombabeer",7615,6
"SFS-31-1",8,"Tarramba",5045,6
"CCL-87-1",6.8,"Larcom (CCL)",8097,4
"BAN-1378-1",6.4,"Santo",4827,5
"BAN-2023-1",6.4,"Ulogie",5169,5
"WDH-9106-1",6.3,"Roper",8031,1
"WDH-9104-1",7.3,"Lindsay",8008,1
"BAN-271-1",7.4,"Kokutungo",4104,4
"BAN-224-1",7.1,"Santo",4827,4
"BAN-2141-1",6.7,"Melton",4402,5
"NCD-44-1",7.2,"1KTa",7539,3
"BAN-516-1",8.2,"Banana",3017,3
"BAN-474-1",7.9,"Bauhinia",2898,5
"NCD-272-1",8,"3VEw",7567,NA
"NCD-285-1",8.1,"2VEx",7553,6
"BAN-2097-1",8.3,"Kilburnie",3999,2
"BAN-1975-1",5.8,"Spier",4853,1
"BAN-1914-1",7.6,"Kokutungo",4104,5
"BAN-1829-1",5.6,"Spier",4853,2
"ABN-499-1",6.1,"D2",3404,3
"CIS-9001-1",6,"Yarrol",5384,3
"BPS-9015-1",6.2,"Banban",2903,3
"ATE-20-1",8.2,"Battery",7976,6
"ABS-37-1",6.4,"T4",4907,3
"ABS-333-1",6.4,"B2",2880,4
"ABC-244-1",6.8,"P1",4550,1
"CQH-435-1",6.3,"Selina",7947,1
"ATE-18-1",7.5,"Vermont",5199,5
"SALTN-510-1",8,"Well",5287,5
"ABC-403-1",6.8,"K2",3987,1
"CCL-1276-1",6,"Strathmuir",8093,2
"EIM-6040-1",7.4,"Krongie",7740,6
"CCL-1284-1",6.5,"Nullegai",8096,4
"ABS-4-1",8.3,"B2",2880,6
"CCL-1276-1",5.9,"Strathmuir",8093,2
"CCL-330-1",6.7,"Degalgil",8103,NA
"ABC-231-1",5.8,"E2",3543,0
"ABS-9-1",6.7,"B2",2880,6
"NCD-6-1",7.1,"1SOb",7541,2
"ABC-311-1",6.2,"K1",3986,1
"ATE-29-1",7.4,"Vermont",5199,NA
"BAN-2128-1",7.4,"Tarramba",5045,4
"ABC-330-1",5.7,"D3",3405,4
"ABN-243-1",6.5,"K1",3986,7
"ABC-117-1",5.9,"K2",3987,3
"WDH-1291-1",6.5,"Racetrack",8026,4
"BAN-1945-1",6.7,"Earlsfield",3556,6
"BAN-1756-1",5.9,"Greycliffe Melonhole Phase",9519,4
"ABC-19-1",6.1,"D3",3405,0
"ABS-175-1",5.7,"K3",3988,0
"BAN-440-1",7.9,"Fairview",3664,6
"BAN-275-1",6.9,"Tognolini",5028,3
"EIM-6014-1",8.3,"Arcturus",2788,NA
"ABC-369-1",4.6,"K1",3986,1
"SFS-1-1",7.4,"Falkner",3637,6
"LFZ-6-1",6.5,"1AVE1",8123,2
"CQC-36-1",7.9,"Glenora",3741,6
"NCD-1033-1",8.6,"2VEx",7553,7
"CQH-946-1",5.3,"Lizard",7848,NA
"BAN-790-1",6.4,"Greycliffe Melonhole Phase",9519,4
"ABS-6-1",6.1,"B1",2879,6
"ABS-63-1",6.3,"D2",3404,3
"WDH-1063-1",6.6,"Foxleigh",7992,1
"WDH-721-1",8.2,"Tralee",8037,4
"ABC-142-1",5.8,"D3",3405,3
"WDH-9033-1",8.5,"Carfax",7986,1
"BAN-121-1",7.4,"Police Camp",4574,4
"WDH-9091-1",7.6,"Burradoo",7984,4
"BAN-914-1",7.3,"Cottonham",3269,4
"BAN-1812-1",5.9,"Ulogie",5169,1
"DLR-111-1",6.2,"Burdekin",2889,2
"DLR-114-1",6.2,"Rangeside",4676,1
"DLR-117-1",6.5,"Conjuboy",3188,1
"DLR-11-1",7.4,"Burdekin",2889,1
"DLR-122-1",6.7,"Hillgrove",3814,1
"DLR-123-1",6.1,"Pentland",4558,1
"DLR-124-1",7.2,"Conjuboy",3188,1
"DLR-149-1",6.3,"Dotswood",3409,3
"DLR-15-1",6.6,"Burdekin",2889,2
"DLR-152-1",6.4,"Pentland",4558,1
"DLR-153-1",6.5,"Rishton",4674,1
"DLR-121-1",8.8,"Maryvale",4213,1
"DLR-154-1",6.9,"Creek",3191,1
"DLR-143-1",6.8,"Burdekin",2889,1
"DLR-119-1",6.9,"Dotswood",3409,1
"DLR-159-1",6.2,"Conjuboy",3188,1
"DLR-144-1",6.2,"Cape",3193,1
"DLR-199-1",7.2,"Mingela",4218,1
"DLR-2-1",6.9,"Dotswood",3409,1
"DLR-200-1",6.4,"Amity",2761,1
"DLR-202-1",7.3,"Amity",2761,1
"DLR-207-1",6.2,"Dalrymple",3408,1
"DLR-208-1",6.5,"Dalrymple",3408,1
"DLR-21-1",6.5,"Pallamana",4561,2
"DLR-210-1",6.7,"Dalrymple",3408,1
"DLR-211-1",6.3,"Mingela",4218,8
"DLR-217-1",6.8,"Dalrymple",3408,8
"DLR-222-1",6.8,"Dalrymple",3408,1
"DLR-254-1",6,"Yarraman",5363,2
"DLR-205-1",6.6,"Mingela",4218,1
"DLR-256-1",8.3,"Maryvale",4213,1
"DLR-257-1",6.4,"Fanning River",3609,3
"DLR-22-1",7.2,"Dalrymple",3408,3
"DLR-263-1",6.1,"Burdekin",2889,1
"DLR-264-1",6.1,"Dalrymple",3408,1
"DLR-266-1",5.8,"Dalrymple",3408,1
"DLR-224-1",8.7,"Dalrymple",3408,1
"DLR-269-1",6.1,"Mingela",4218,1
"DLR-27-1",9.7,"Myrtlevale",4223,2
"DLR-233-1",6.9,"Dalrymple",3408,1
"DLR-327-1",6.7,"Dalrymple",3408,1
"DLR-33-1",7.2,"Powlathanga",4563,2
"DLR-335-1",6.6,"Bluff",2884,1
"DLR-35-1",7.7,"Powlathanga",4563,2
"DLR-275-1",6.9,"Amity",2761,1
"DLR-276-1",6.8,"Dalrymple",3408,1
"DLR-278-1",6.3,"Dalrymple",3408,1
"DLR-28-1",7.5,"Dalrymple",3408,1
"DLR-267-1",6.1,"Dalrymple",3408,1
"DLR-286-1",7.6,"Dalrymple",3408,1
"DLR-29-1",7.2,"Dalrymple",3408,2
"DLR-321-1",9,"Cape",3193,5
"DLR-322-1",6.8,"Myrtlevale",4223,1
"DLR-324-1",7.7,"Amity",2761,4
"DLR-325-1",6.9,"Dalrymple",3408,1
"DLR-37-1",7.4,"Pallamana",4561,1
"DLR-472-1",6.8,"Cape",3193,1
"DLR-489-1",6,"Dotswood",3409,1
"DLR-496-1",8,"Amity",2761,1
"DLR-279-1",6.5,"Bluff",2884,1
"DLR-50-1",6.8,"Rangeside",4676,1
"DLR-282-1",6.2,"Boston",2886,1
"DLR-501-1",6.9,"Dalrymple",3408,1
"DLR-504-1",6,"Mingela",4218,1
"DLR-289-1",7.2,"Dalrymple",3408,1
"DLR-508-1",7.5,"Gainsford",3666,1
"DLR-510-1",7.6,"Myrtlevale",4223,1
"DLR-386-1",8.4,"Yarraman",5363,4
"DLR-513-1",6.5,"Fanning River",3609,3
"DLR-326-1",7.3,"Mingela",4218,1
"DLR-630-1",6.1,"Dotswood",3409,5
"DLR-637-1",5.6,"Dotswood",3409,2
"DLR-64-1",6.1,"Boston",2886,1
"DLR-48-1",7.1,"Rangeside",4676,2
"DLR-646-1",6.5,"Amity",2761,2
"DLR-65-1",6.5,"Boston",2886,1
"DLR-668-1",5.1,"Pentland",4558,1
"DLR-67-1",6.7,"Powlathanga",4563,1
"DLR-672-1",6.4,"Dotswood",3409,3
"DLR-673-1",6,"Dotswood",3409,1
"DLR-675-1",6.9,"Myrtlevale",4223,6
"DLR-676-1",8.6,"Amity",2761,3
"DLR-678-1",7.2,"Pentland",4558,1
"DLR-505-1",6.9,"Dalrymple",3408,1
"DLR-511-1",7.3,"Dalrymple",3408,1
"DLR-536-1",7.8,"Mingela",4218,4
"DLR-537-1",6.7,"Dalrymple",3408,4
"DLR-539-1",6.8,"Myrtlevale",4223,1
"DLR-544-1",5.8,"Pallamana",4561,1
"DLR-547-1",6.1,"Pentland",4558,2
"DLR-548-1",7.5,"Egera",3545,2
"DLR-365-1",6.8,"Cape",3193,1
"DLR-627-1",5.8,"Bluff",2884,2
"DLR-78-1",5.8,"Boston",2886,1
"DLR-693-1",6.5,"Yarraman",5363,1
"DLR-694-1",7.2,"Myrtlevale",4223,4
"DLR-695-1",6.5,"Mingela",4218,1
"DLR-698-1",6.5,"Dotswood",3409,3
"DLR-699-1",6.8,"Cape",3193,2
"DLR-535-1",5.9,"Mingela",4218,1
"DLR-83-1",7.9,"Rishton",4674,1
"DLR-841-1",7.5,"Egera",3545,2
"DLR-85-1",7,"Bluff",2884,1
"DLR-970-1",6.1,"Creek",3191,1
"DLR-971-1",5.8,"Yarraman",5363,1
"DLR-972-1",5.4,"Gainsford",3666,1
"DLR-973-1",6.7,"Boston",2886,1
"DLR-984-1",5.4,"Boston",2886,1
"DLR-994-1",6.2,"Rangeside",4676,1
"DLR-996-1",6.4,"Cape",3193,1
"DLR-998-1",6.4,"Fanning River",3609,1
"DLR-789-1",6.4,"Boston",2886,4
"DLR-79-1",6.1,"Rangeview",4672,1
"DLR-790-1",5.4,"Rangeside",4676,1
"DLR-799-1",6.8,"Burdekin",2889,1
"DLR-80-1",5.7,"Pentland",4558,8
"DLR-814-1",5.3,"Pallamana",4561,1
"DLR-95-1",6.5,"Cape",3193,1
"DLR-951-1",5.7,"Rishton",4674,1
"DLR-955-1",6.3,"Pentland",4558,1
"DLR-956-1",6.1,"Cape",3193,1
"DLR-96-1",8.7,"Egera",3545,3
"DLR-964-1",6.3,"Rishton",4674,1
"DLR-966-1",5.6,"Burdekin",2889,1
"DLR-968-1",6.5,"Hillgrove",3814,1
"DLR-969-1",6.5,"Pentland",4558,1
"DLR-82-1",7.5,"Amity",2761,1
"DLR-108-1",7.1,"Dotswood",3409,1
"DLR-1034-1",6,"Rangeside",4676,1
"DLR-1035-1",6,"Pentland",4558,1
"DLR-127-1",6.4,"Thorpe - Dlr",4909,1
"DLR-128-1",6.5,"Dalrymple",3408,8
"DLR-13-1",7,"Rishton",4674,1
"DLR-136-1",6.9,"Pentland",4558,1
"DLR-101-1",6.9,"Cape",3193,2
"DLR-138-1",6.5,"Burdekin",2889,1
"DLR-14-1",5.2,"Pentland",4558,2
"DLR-140-1",6.1,"Cape",3193,1
"DLR-133-1",6.1,"Conjuboy",3188,1
"DLR-1024-1",6.4,"Amity",2761,1
"DLR-155-1",6.6,"Gainsford",3666,1
"DLR-156-1",5.6,"Pentland",4558,1
"DLR-157-1",6.6,"Bluff",2884,1
"DLR-161-1",7.9,"Maryvale",4213,1
"DLR-163-1",8,"Maryvale",4213,1
"DLR-164-1",7,"Conjuboy",3188,1
"DLR-168-1",7,"Conjuboy",3188,1
"DLR-139-1",5.9,"Cape",3193,1
"DLR-17-1",6.6,"Bluff",2884,2
"DLR-134-1",8.2,"Maryvale",4213,1
"DLR-225-1",6.1,"Dalrymple",3408,3
"DLR-226-1",6,"Dalrymple",3408,1
"DLR-227-1",6.6,"Dalrymple",3408,1
"DLR-229-1",7.2,"Dalrymple",3408,1
"DLR-182-1",6.5,"Burdekin",2889,1
"DLR-183-1",6.3,"Conjuboy",3188,1
"DLR-186-1",8.2,"Egera",3545,1
"DLR-187-1",7.4,"Cape",3193,2
"DLR-188-1",8.8,"Egera",3545,1
"DLR-189-1",5.6,"Pallamana",4561,1
"DLR-169-1",6.7,"Hillgrove",3814,1
"DLR-235-1",6.6,"Dalrymple",3408,1
"DLR-236-1",6.8,"Dalrymple",3408,1
"DLR-237-1",6.9,"Burdekin",2889,1
"DLR-238-1",6.7,"Dalrymple",3408,1
"DLR-240-1",7.1,"Bluff",2884,1
"DLR-244-1",6.6,"Dalrymple",3408,1
"DLR-246-1",6.9,"Rangeview",4672,1
"DLR-249-1",5.9,"Rangeview",4672,1
"DLR-25-1",8.6,"Maryvale",4213,1
"DLR-1045-1",6.2,"Powlathanga",4563,1
"DLR-1064-1",5.9,"Dotswood",3409,1
"DLR-1061-1",6.9,"Dotswood",3409,1
"DLR-1051-1",5.6,"Rishton",4674,1
"DLR-274-1",6,"Dalrymple",3408,1
"DLR-185-1",7.9,"Maryvale",4213,1
"DLR-251-1",7.2,"Dalrymple",3408,1
"DLR-252-1",6.7,"Pentland",4558,1
"DLR-253-1",6.2,"Pallamana",4561,1
"DLR-195-1",6.4,"Dalrymple",3408,1
"DLR-290-1",5.9,"Bluff",2884,1
"DLR-307-1",7.1,"Amity",2761,3
"DLR-247-1",6.3,"Rangeview",4672,1
"DLR-31-1",8,"Dalrymple",3408,3
"DLR-250-1",6.8,"Mingela",4218,1
"DLR-316-1",6.2,"Gainsford",3666,1
"DLR-317-1",6.9,"Gainsford",3666,1
"DLR-1117-1",7.5,"Fanning River",3609,1
"DLR-1127-1",6.2,"Boston",2886,1
"DLR-1135-1",6.8,"Cape",3193,1
"DLR-1140-1",6.5,"Pentland",4558,1
"DLR-39-1",7.8,"Pallamana",4561,1
"DLR-391-1",6.1,"Cape",3193,1
"DLR-4-1",7.9,"Dalrymple",3408,3
"DLR-407-1",6.5,"Cape",3193,1
"DLR-409-1",6.5,"Fanning River",3609,8
"DLR-414-1",6.8,"Burdekin",2889,5
"DLR-415-1",5.6,"Cape",3193,1
"DLR-429-1",5.9,"Powlathanga",4563,1
"DLR-433-1",5.9,"Powlathanga",4563,1
"DLR-435-1",5.9,"Creek",3191,1
"DLR-437-1",6.1,"Creek",3191,1
"DLR-444-1",6.1,"Rishton",4674,1
"DLR-1057-1",8.6,"Egera",3545,1
"DLR-1216-1",6.3,"Thorpe - Dlr",4909,1
"DLR-1218-1",7.3,"Bluff",2884,1
"DLR-1224-1",7.4,"Pentland",4558,1
"DLR-1234-1",6.2,"Cape",3193,1
"DLR-1238-1",5.9,"Bluff",2884,1
"DLR-1262-1",6.5,"Rangeside",4676,1
"DLR-1113-1",7.1,"Hillgrove",3814,1
"DLR-1267-1",6.5,"Pentland",4558,1
"DLR-1122-1",7.6,"Creek",3191,1
"DLR-1285-1",6.7,"Rangeview",4672,1
"DLR-1288-1",5.9,"Boston",2886,1
"DLR-1296-1",6.1,"Cape",3193,1
"DLR-1298-1",5.8,"Yarraman",5363,1
"DLR-1300-1",6.2,"Rangeview",4672,1
"DLR-1305-1",6.4,"Creek",3191,1
"DLR-516-1",6.6,"Dalrymple",3408,1
"DLR-517-1",6.5,"Dalrymple",3408,3
"DLR-519-1",6.9,"Amity",2761,8
"DLR-426-1",6.1,"Creek",3191,4
"DLR-430-1",5.6,"Cape",3193,1
"DLR-452-1",7.3,"Yarraman",5363,2
"DLR-459-1",7.2,"Cape",3193,1
"DLR-465-1",7.1,"Boston",2886,1
"DLR-445-1",6.4,"Pentland",4558,2
"DLR-581-1",6.8,"Myrtlevale",4223,1
"DLR-582-1",6.8,"Myrtlevale",4223,2
"DLR-591-1",6.5,"Dalrymple",3408,3
"DLR-6-1",6.1,"Dalrymple",3408,1
"DLR-603-1",7,"Amity",2761,3
"DLR-604-1",6.4,"Dalrymple",3408,3
"DLR-1209-1",6.3,"Thorpe - Dlr",4909,1
"DLR-1222-1",7.6,"Pentland",4558,1
"DLR-1334-1",6.1,"Dotswood",3409,1
"DLR-1233-1",6.6,"Pentland",4558,1
"DLR-1437-1",5.9,"Boston",2886,1
"DLR-1442-1",6,"Powlathanga",4563,1
"DLR-1447-1",6.4,"Pentland",4558,1
"DLR-1459-1",6.6,"Powlathanga",4563,1
"DLR-1505-1",6,"Pentland",4558,1
"DLR-1511-1",6.2,"Cape",3193,1
"DLR-1513-1",7.3,"Powlathanga",4563,1
"DLR-1521-1",5.9,"Boston",2886,1
"DLR-1523-1",6.2,"Creek",3191,1
"DLR-1524-1",6.3,"Boston",2886,1
"DLR-1526-1",6,"Pentland",4558,1
"DLR-1532-1",6.7,"Boston",2886,1
"DLR-1543-1",6.5,"Cape",3193,1
"DLR-1545-1",7.5,"Yarraman",5363,1
"DLR-1425-1",5.7,"Boston",2886,1
"DLR-1430-1",6.4,"Boston",2886,1
"DLR-1432-1",6.4,"Powlathanga",4563,1
"DLR-1434-1",6.3,"Boston",2886,1
"DLR-549-1",6.5,"Burdekin",2889,2
"DLR-550-1",6.3,"Fanning River",3609,2
"DLR-526-1",6.7,"Myrtlevale",4223,1
"DLR-703-1",6.1,"Amity",2761,1
"DLR-708-1",6.7,"Dalrymple",3408,1
"DLR-711-1",4.7,"Pentland",4558,1
"DLR-72-1",5.8,"Mingela",4218,1
"DLR-725-1",6.6,"Fanning River",3609,1
"DLR-73-1",6.1,"Cape",3193,3
"DLR-730-1",6.6,"Burdekin",2889,1
"DLR-733-1",7.2,"Cape",3193,1
"DLR-592-1",7.1,"Amity",2761,2
"DLR-75-1",6.1,"Boston",2886,1
"DLR-76-1",5.5,"Cape",3193,1
"DLR-1479-1",5.4,"Pentland",4558,1
"DLR-1484-1",5.9,"Gainsford",3666,1
"DLR-2340-1",6.5,"Creek",3191,1
"DLR-2341-1",6.2,"Gainsford",3666,1
"DLR-2342-1",6.1,"Gainsford",3666,1
"DLR-2343-1",6.1,"Pentland",4558,1
"DLR-2346-1",6.2,"Conjuboy",3188,1
"DLR-2347-1",6.3,"Hillgrove",3814,1
"DLR-2348-1",8.8,"Maryvale",4213,1
"DLR-2349-1",8.2,"Maryvale",4213,1
"DLR-1538-1",7.5,"Rishton",4674,1
"MISSE-627-1",7.8,"Threemoon 1",5013,7
"DLR-2356-1",7.1,"Amity",2761,1
"DLR-2358-1",5.3,"Boston",2886,1
"DLR-2360-1",6.2,"Dalrymple",3408,2
"DLR-2362-1",4.9,"Boston",2886,1
"DLR-2364-1",6.5,"Hillgrove",3814,1
"DLR-2367-1",6.8,"Yarraman",5363,2
"DLR-2371-1",7,"Gainsford",3666,2
"DLR-2372-1",6,"Dalrymple",3408,1
"DLR-2373-1",6.3,"Dotswood",3409,1
"DLR-2376-1",6.1,"Conjuboy",3188,8
"DLR-2377-1",6.5,"Amity",2761,8
"DLR-86-1",6.4,"Yarraman",5363,2
"DLR-715-1",6.4,"Bluff",2884,1
"DLR-880-1",7,"Bluff",2884,1
"DLR-885-1",5.9,"Dotswood",3409,1
"DLR-89-1",6.6,"Creek",3191,2
"DLR-905-1",6.5,"Pallamana",4561,2
"DLR-74-1",6.4,"Burdekin",2889,1
"DLR-911-1",5.9,"Boston",2886,1
"DLR-916-1",6.4,"Burdekin",2889,1
"DLR-92-1",5.7,"Rangeside",4676,2
"DLR-930-1",7.3,"Egera",3545,1
"DLR-938-1",8.3,"Powlathanga",4563,1
"DLR-939-1",8,"Egera",3545,1
"DLR-763-1",5.7,"Rangeside",4676,1
"DLR-940-1",7.6,"Egera",3545,4
"DLR-942-1",6.4,"Boston",2886,1
"DLR-944-1",5.6,"Burdekin",2889,1
"DLR-1331-1",6.5,"Creek",3191,1
"DLR-1654-1",5.7,"Conjuboy",3188,1
"DLR-2344-1",6.2,"Creek",3191,1
"DLR-2368-1",6.3,"Rangeview",4672,1
"DLR-1788-1",6.4,"Boston",2886,1
"DLR-2379-1",4.7,"Boston",2886,1
"DLR-1772-1",7,"Pentland",4558,1
"DLR-888-1",7.2,"Gainsford",3666,1
"DLR-90-1",6.8,"Cape",3193,1
"DLR-928-1",8.3,"Egera",3545,1
"DLR-945-1",5.6,"Pentland",4558,1
"DLR-946-1",5.6,"Boston",2886,1
"DLR-1769-1",7.2,"Rangeview",4672,2
"DLR-1776-1",8.3,"Maryvale",4213,1
"DLR-1777-1",6.7,"Hillgrove",3814,1
"DLR-1778-1",6.6,"Conjuboy",3188,1
"DLR-1780-1",7.8,"Dalrymple",3408,1
"DLR-1018-1",6.1,"Mingela",4218,1
"DLR-1013-1",6.3,"Burdekin",2889,1
"DLR-1015-1",6.1,"Bluff",2884,1
"DLR-1037-1",6.4,"Powlathanga",4563,1
"DLR-1019-1",7.4,"Amity",2761,1
"DLR-1022-1",6.2,"Bluff",2884,1
"DLR-1023-1",7.3,"Fanning River",3609,1
"DLR-1039-1",5.6,"Cape",3193,1
"DLR-1042-1",5.9,"Cape",3193,1
"DLR-1028-1",6.9,"Bluff",2884,1
"DLR-1044-1",6,"Boston",2886,1
"DLR-1047-1",6.3,"Powlathanga",4563,1
"DLR-1033-1",6.2,"Bluff",2884,1
"DLR-1027-1",6.6,"Pentland",4558,2
"DLR-1081-1",7.7,"Conjuboy",3188,1
"DLR-1082-1",6.5,"Hillgrove",3814,1
"DLR-1085-1",8.3,"Cape",3193,1
"DLR-1086-1",7.8,"Yarraman",5363,1
"DLR-1087-1",7.2,"Cape",3193,1
"DLR-1066-1",5.4,"Rishton",4674,1
"DLR-1068-1",5.8,"Pallamana",4561,1
"DLR-1088-1",5.5,"Fanning River",3609,1
"DLR-1089-1",6.4,"Burdekin",2889,1
"DLR-1072-1",5.1,"Rangeside",4676,1
"DLR-1076-1",6,"Rishton",4674,1
"DLR-1077-1",5.2,"Pallamana",4561,1
"DLR-1078-1",5.3,"Boston",2886,1
"DLR-1079-1",7.2,"Egera",3545,2
"DLR-1053-1",6.3,"Pallamana",4561,1
"DLR-1083-1",6.9,"Hillgrove",3814,1
"DLR-1065-1",6.5,"Rishton",4674,1
"DLR-1141-1",6.3,"Rangeside",4676,3
"DLR-1142-1",5.5,"Pentland",4558,2
"DLR-1148-1",7.7,"Maryvale",4213,1
"DLR-1149-1",6.8,"Hillgrove",3814,1
"DLR-1154-1",7,"Hillgrove",3814,1
"DLR-1155-1",6.9,"Hillgrove",3814,1
"DLR-1156-1",6.5,"Hillgrove",3814,1
"DLR-1158-1",6,"Hillgrove",3814,1
"DLR-1162-1",6.4,"Pentland",4558,1
"DLR-1165-1",6.5,"Rangeview",4672,1
"DLR-1166-1",6.4,"Creek",3191,1
"DLR-1167-1",6.9,"Pentland",4558,1
"DLR-1169-1",6.4,"Pallamana",4561,1
"DLR-1170-1",6.8,"Powlathanga",4563,1
"DLR-1091-1",6.5,"Rishton",4674,1
"DLR-1054-1",5.9,"Pentland",4558,1
"DLR-1096-1",6.5,"Egera",3545,1
"DLR-1098-1",6.9,"Boston",2886,1
"DLR-1103-1",6.5,"Conjuboy",3188,1
"DLR-1104-1",8.1,"Maryvale",4213,1
"DLR-1175-1",6.9,"Boston",2886,1
"DLR-1176-1",6.1,"Pallamana",4561,1
"DLR-1177-1",6.4,"Rishton",4674,1
"DLR-1190-1",6.7,"Burdekin",2889,1
"DLR-1194-1",5,"Burdekin",2889,1
"DLR-1201-1",6.3,"Boston",2886,1
"DLR-1205-1",7.1,"Rishton",4674,1
"DLR-1153-1",7,"Hillgrove",3814,1
"DLR-1311-1",5.7,"Rangeview",4672,1
"DLR-1316-1",5.7,"Rangeview",4672,1
"DLR-1321-1",6,"Rangeview",4672,1
"DLR-1323-1",6.8,"Dalrymple",3408,1
"DLR-1324-1",6.4,"Creek",3191,1
"DLR-1093-1",6.8,"Rishton",4674,1
"DLR-1245-1",6.1,"Pallamana",4561,1
"DLR-1251-1",6.3,"Hillgrove",3814,1
"DLR-1253-1",8,"Myrtlevale",4223,1
"DLR-1340-1",6.5,"Pentland",4558,1
"DLR-1348-1",6.6,"Conjuboy",3188,1
"DLR-1357-1",6.3,"Rangeview",4672,2
"DLR-1364-1",6.4,"Dalrymple",3408,1
"DLR-1370-1",6.2,"Fanning River",3609,1
"DLR-1371-1",5.9,"Mingela",4218,1
"DLR-1372-1",6.6,"Dalrymple",3408,1
"DLR-1379-1",7.6,"Maryvale",4213,1
"DLR-1380-1",6.6,"Hillgrove",3814,1
"DLR-1383-1",6.5,"Conjuboy",3188,1
"DLR-1385-1",6.6,"Conjuboy",3188,1
"DLR-1206-1",6.2,"Pallamana",4561,1
"DLR-1395-1",5.4,"Pallamana",4561,4
"DLR-1406-1",6,"Boston",2886,1
"DLR-1409-1",6.8,"Rishton",4674,1
"DLR-1319-1",5.7,"Pentland",4558,1
"DLR-1574-1",6,"Conjuboy",3188,1
"DLR-1244-1",6.5,"Rishton",4674,1
"DLR-1601-1",7.2,"Rangeview",4672,1
"DLR-1546-1",6,"Creek",3191,1
"DLR-1549-1",4.4,"Boston",2886,1
"DLR-1391-1",5.8,"Boston",2886,1
"DLR-1565-1",5.5,"Rangeview",4672,1
"DLR-1569-1",6.4,"Pentland",4558,1
"DLR-1578-1",5.8,"Conjuboy",3188,1
"DLR-1579-1",5.6,"Boston",2886,1
"DLR-2382-1",6.3,"Rangeside",4676,1
"DLR-2441-1",5.2,"Boston",2886,1
"DLR-2330-1",6.5,"Pentland",4558,1
"DLR-2332-1",5,"Powlathanga",4563,1
"DLR-1783-1",6.8,"Cape",3193,1
"DLR-1785-1",6.9,"Boston",2886,1
"DLR-1768-1",7,"Bluff",2884,1
"DLR-2331-1",6.1,"Boston",2886,1
"DLR-1789-1",7.5,"Yarraman",5363,1
"DLR-2338-1",6.4,"Rangeside",4676,1
"DLR-1773-1",7.5,"Maryvale",4213,1
"DLR-1090-1",6.6,"Rishton",4674,1
"DLR-1225-1",7.1,"Amity",2761,2
"DLR-1050-1",6.5,"Yarraman",5363,1
"DLR-1220-1",8.3,"Yarraman",5363,1
"DLR-1010-1",6.4,"Dalrymple",3408,1
"DLR-1020-1",8.2,"Amity",2761,1
"UBRISS-195-1",6.5,"Creek",3191,2
"UBRISS-195-1",5.9,"Creek",3191,2
"UBRISS-196-1",6.6,"Cape",3193,1
"UBRISS-198-1",7.7,"Yarraman",5363,NA
"UBRISS-198-1",8,"Yarraman",5363,NA
"UBRISS-196-1",6.3,"Cape",3193,1
"EIM-6023-1",7.6,"Krongie",7740,6
"CCL-1285-1",7.3,"Muldoon (CCL)",8055,4
"CVM-6007-1",8.5,"Pegunny",4588,1
"ABS-59-1",6.7,"U1",5154,6
"ABS-21-1",5.5,"D1",3403,3
"3MC-6001-1",8.1,"Threemoon 1",5013,7
"CVM-6020-1",6.5,"Vermont",5199,1
"ABS-197-1",5,"U1",5154,4
"ABS-189-1",5.8,"K2",3987,4
"ABS-183-1",6.3,"R1",4671,0
"CCL-110-1",6.9,"Hilldale",8108,3
"BAN-93-1",8.1,"Earlsfield",3556,3
"CCL-1273-1",7.6,"Pegunny (CCL)",8088,4
"CCL-1424-1",6.4,"Muldoon (CCL)",8055,NA
"BAN-368-1",6.5,"Police Camp",4574,4
"BAN-1640-1",7,"Earlsfield",3556,5
"BAN-1601-1",7.9,"Kooingal",4062,4
"WDH-1024-1",6.7,"Racetrack",8026,4
"WDH-907-1",8.3,"Langley-Wdh",8006,1
"WDH-874-1",7.9,"Picardy",8021,4
"WDH-702-1",6.5,"Foxleigh",7992,1
"WDH-334-1",6.6,"Burradoo",7984,4
"WDH-331-1",6.4,"Foxleigh",7992,1
"ABS-48-1",6,"N1",4445,3
"ABS-30-1",6,"K1",3986,3
"ABS-60-1",6,"D3",3405,3
"CCL-325-1",6,"Voewood",7852,7
"CCL-324-1",6,"Lizard (CCL)",8061,5
"EIM-6044-1",7.9,"May Downs",4266,NA
"ABN-83-1",6.3,"D3",3405,0
"ABS-243-1",6.2,"D3",3405,3
"ABN-73-1",5.7,"P2",4551,0
"ABC-210-1",7.4,"N1",4445,0
"UBRISS-197-1",7.6,"Burdekin",2889,2
"UBRISS-200-1",6.7,"Hillgrove",3814,1
"ABS-333-1",6.5,"B2",2880,4
"ABS-173-1",6.3,"N1",4445,0
"UBRISS-202-1",6.7,"Conjuboy",3188,1
"WDH-1272-1",7.1,"Tralee",8037,4
"WDH-760-1",7.1,"Racetrack",8026,NA
"WDH-347-1",6.4,"Foxleigh",7992,4
"UBRISS-199-1",6.3,"Fanning River",3609,1
"UBRISS-206-1",7,"Hillgrove",3814,1
"NCD-872-1",6.8,"2VEa",7548,7
"BAN-2015-1",6.3,"Greycliffe",3692,5
"BAN-1829-1",5.6,"Spier",4853,2
"UBRISS-206-1",6.8,"Hillgrove",3814,1
"EIM-6047-1",8.4,"Krongie",7740,6
"UBRISS-198-2",7.8,"Yarraman",5363,NA
"UBRISS-199-1",6.4,"Fanning River",3609,1
"UBRISS-202-1",6.8,"Conjuboy",3188,1
"UBRISS-205-1",7.2,"Hillgrove",3814,1
"UBRISS-207-2",7.1,"Yarraman",5363,NA
"UBRISS-197-1",7.8,"Burdekin",2889,2
"MISSE-626-1",7.5,"Threemoon 1",5013,7
"MISSE-628-1",7.2,"Threemoon 1",5013,7
"BAN-2390-1",6.4,"Spier",4853,2
"BAN-1811-1",7.1,"Kokutungo",4104,1
"BAN-1615-1",7.2,"Powerhouse",4600,5
"SFS-26-1",7.2,"Retro",4746,6
"SFS-20-1",8.5,"Earlsfield",3556,6
"WDH-9029-1",8.6,"Lindsay",8008,1
"BAN-881-1",7.6,"Bonwell",3157,3
"BAN-291-1",7,"Callide",3231,2
"MISSE-629-1",7,"Threemoon 1",5013,7
"UBRISS-200-1",6.7,"Hillgrove",3814,1
"UBRISS-205-1",7.2,"Hillgrove",3814,1
"CQH-821-1",6.4,"Muldoon",7901,NA
"CQH-412-1",5.8,"Conway (Cqh)",7872,3
"ABC-80-1",6.4,"N1",4445,0
"ABC-82-1",6.3,"D3",3405,0
"ABC-359-1",5.6,"T3",4906,1
"P2REEF-65-1",7.8,"Teviot",5136,NA
"QCS-77-1",8.3,"Teviot",5136,6
"QCS-77-1",7.9,"Teviot",5136,6
"QCS-78-1",8.2,"Teviot",5136,4
"QCS-78-1",7.8,"Teviot",5136,4
"QCS-80-1",5.5,"Broadmedow",3013,NA
"P2REEF-67-1",7.6,"Arcturus",2788,NA
"QCS-75-1",7.6,"Glenora",3741,6
"QCS-75-1",7.3,"Glenora",3741,6
"QCS-76-1",7.2,"Rolleston",4739,4
"QCS-76-1",7,"Rolleston",4739,4
"QCS-74-1",7.7,"Arcturus",2788,7
"QCS-74-1",8,"Arcturus",2788,7
"QCS-72-1",7.9,"May Downs",4266,6
"QCS-73-1",7.6,"Arcturus",2788,5
"QCS-73-1",7.2,"Arcturus",2788,5
"QCS-71-1",8.5,"Glenora",3741,6
"QCS-71-1",8.4,"Glenora",3741,6
"P2REEF-66-1",7.5,"Arcturus",2788,NA
"CGL-45-1",7.2,"Bruce",3065,1
"CGL-38-1",7.2,"Bruce",3065,1
"CGL-1-1",6.2,"Glenora",3741,1
"CGL-30-1",5.3,"Shotover",4805,2
"QCS-80-1",6.1,"Broadmedow",3013,NA
"QCS-79-1",8.4,"Krongie",7740,6
"QCS-79-1",7.4,"Krongie",7740,6
"CGL-86-1",5.4,"Luxor",4208,2
"CGL-87-1",7.9,"Glenora",3741,1
"EIR-9031-1",7.5,"6AUg-5",2748,4
"EIR-9001-1",7.9,"TsUgg-2",5118,1
"EIR-9001-1",6.3,"TsUgg-2",5118,1
"EIR-9002-1",6.8,"TsUgg-2",5118,1
"SPY-22-1",6,"Pentland",4558,1
"EIR-9003-1",7.6,"TsUgg-2",5118,2
"EIR-9005-1",6.6,"TsGn-6",5095,4
"EIR-9002-1",6.6,"TsUgg-2",5118,1
"EIR-9005-1",6.5,"TsGn-6",5095,4
"EIR-9006-1",7.2,"TsGn-5",5093,1
"EIR-9014-1",6.7,"TsUc-2",5102,4
"EIR-9013-1",7.6,"6AUg-6",2869,1
"EIR-9006-1",7.2,"TsGn-5",5093,1
"EIR-9012-1",8.4,"1AUg-13",2092,1
"EIR-9012-1",8.5,"1AUg-13",2092,1
"EIR-9019-1",7.4,"TsUg-7",5113,4
"EIR-9016-1",6.2,"TsDy-1",5072,1
"EIR-9013-1",7.7,"6AUg-6",2869,1
"EIR-9015-1",6.5,"TsGn-3",5090,4
"MISCQ-423-1",6.3,"Cape",3193,3
"EIR-9019-1",6.9,"TsUg-7",5113,4
"EIR-9020-1",6.6,"TsUf-3",5106,4
"EIR-9024-1",7.3,"TsUg-7",5113,2
"EIR-9027-1",6.9,"6ADb-1",2721,4
"EIR-9025-1",9,"TsUg-7",5113,2
"EIR-9022-1",6.7,"TsDy-1",5072,2
"EIR-9023-1",8.5,"TsUg-7",5113,4
"EIR-9027-1",7.1,"6ADb-1",2721,4
"EIR-9023-1",8.1,"TsUg-7",5113,4
"MISCQ-417-1",6.9,"Dalrymple",3408,2
"EIR-9031-1",7.8,"6AUg-5",2748,4
"EIR-9037-1",7.6,"6AUg-4",2747,1
"EIR-9046-1",7.3,"6AUg-10",2742,4
"EIR-9043-1",7.5,"TsUg-7",5113,2
"EIR-9044-1",6.5,"TsUg-7",5113,2
"EIR-9046-1",8.7,"6AUg-10",2742,4
"EIR-9044-1",6.5,"TsUg-7",5113,2
"EIR-9042-1",8,"TsUf-6",5108,2
"EIR-9037-1",7.2,"6AUg-4",2747,1
"EIR-9030-1",7.3,"6ADb-4",2724,3
"EIR-9034-1",6.7,"6ADb-1",2721,3
"EIR-9034-1",6.4,"6ADb-1",2721,3
"ZCQ-6009-1",8.2,"Arcturus",2788,NA
"ZCQ-6013-1",7.8,"Retro",4748,NA
"EIR-9004-1",7.7,"TsUgg-2",5118,1
"EIR-9004-1",6.8,"TsUgg-2",5118,1
"ZCQ-6010-1",6.1,"Retro",4748,NA
"ZCQ-6005-1",8.5,"Pegunny",4588,NA
"ZCQ-6020-1",7.9,"Teviot",5136,NA
"EIR-9015-1",6.7,"TsGn-3",5090,4
"EIR-9050-1",8.3,"6AUg-8",2750,6
"EIR-9050-1",8.4,"6AUg-8",2750,6
"EIR-9020-1",6.6,"TsUf-3",5106,4
"EIR-9007-1",6.8,"TsGn-4",5092,4
"EIR-9008-1",7.1,"TsGn-6",5095,4
"EIR-9017-1",6.4,"TsDr-1",5069,1
"ZCQ-6006-1",7.3,"Pegunny",4588,NA
"EIR-9007-1",7.2,"TsGn-4",5092,4
"EIR-9008-1",7,"TsGn-6",5095,4
"EIR-9009-1",6.6,"TsGn-5",5093,4
"EIR-9009-1",6.7,"TsGn-5",5093,4
"EIR-9016-1",6.3,"TsDy-1",5072,1
"EIR-9017-1",6.5,"TsDr-1",5069,1
"EIR-9047-1",7.8,"6AUg-12",2744,6
"ZCQ-6021-1",8.8,"Vermont",5199,2
"EIR-9014-1",6.7,"TsUc-2",5102,4
"ZCQ-6022-1",8,"Arcturus",2788,6
"EIR-9052-1",7.4,"1AUg-12",2091,2
"EIR-9052-1",7.9,"1AUg-12",2091,2
"EIR-9042-1",7,"TsUf-6",5108,2
"EIR-9024-1",6.7,"TsUg-7",5113,2
"EIR-9025-1",8,"TsUg-7",5113,2
"EIR-9028-1",6.3,"6ADy-3",2732,4
"ZCQ-6000-1",7.4,"Logan",4147,NA
"ZCQ-6001-1",8.6,"Natal",4453,NA
"ZCQ-6007-1",8.2,"Natal",4453,NA
"ZCQ-6008-1",6.6,"Logan",4147,NA
"EIR-9028-1",6.6,"6ADy-3",2732,4
"EIR-9047-1",8,"6AUg-12",2744,6
"EIR-9030-1",8.3,"6ADb-4",2724,3
"EIR-9048-1",8,"6AUg-8",2750,2
"EIR-9049-1",8.1,"6AUg-10",2742,2
"EIR-9035-1",6.9,"1ADb-7",2066,1
"EIR-9048-1",7.9,"6AUg-8",2750,2
"EIR-9043-1",8.5,"TsUg-7",5113,2
"EIR-9035-1",7,"1ADb-7",2066,1
"ZCQ-6011-1",6.7,"Wyseby",5358,NA
"EIR-9022-1",6.7,"TsDy-1",5072,2
"ZCQ-6002-1",5.9,"Dunrobin - CQ",3520,NA
"ZCQ-6003-1",6.6,"Dunrobin - CQ",3520,NA
"ZCQ-6012-1",6.5,"Retro",4748,NA
"EIR-9003-1",8.2,"TsUgg-2",5118,2
"EIR-9049-1",7.6,"6AUg-10",2742,2
"SPY-95-1",6.3,"Pentland",4558,2
"CQC-102-1",8.3,"Arcturus",2788,6
"CQC-102-1",8.2,"Arcturus",2788,6
"CQC-117-1",7.7,"Bruce",3065,0
"CQC-117-1",7.8,"Bruce",3065,0
"CQC-28-1",7.6,"May Downs",4266,6
"CQC-28-1",7.7,"May Downs",4266,6
"CQC-29-1",7.8,"Arcturus",2788,4
"CQC-29-1",7.8,"Arcturus",2788,4
"CQC-43-1",6.6,"Bruce",3065,1
"CQC-43-1",6.6,"Bruce",3065,1
"CQC-76-1",7.7,"May Downs",4266,6
"CQC-76-1",7.8,"May Downs",4266,6
"CQC-85-1",7,"Bruce",3065,6
"CQC-85-1",6.9,"Bruce",3065,6
"CQC-103-1",8,"May Downs",4266,6
"CQC-103-1",7.9,"May Downs",4266,6
"CQC-30-1",8.2,"May Downs",4266,0
"CQC-30-1",8,"May Downs",4266,0
"CQC-44-1",6.7,"Bruce",3065,4
"CQC-44-1",6.8,"Bruce",3065,4
"CQC-47-1",7.6,"Bruce",3065,6
"CQC-47-1",7.6,"Bruce",3065,6
"CQC-48-1",8.1,"Arcturus",2788,6
"CQC-53-1",7,"Bruce",3065,6
"CQC-53-1",7.1,"Bruce",3065,6
"CQC-64-1",7,"Arcturus",2788,6
"CQC-64-1",6.9,"Arcturus",2788,6
"CQC-86-1",7.2,"Arcturus",2788,6
"CQC-86-1",6.9,"Arcturus",2788,6
"CQC-118-1",8,"Arcturus",2788,0
"CQC-118-1",7.9,"Arcturus",2788,0
"CQC-31-1",7.8,"May Downs",4266,0
"CQC-31-1",7.9,"May Downs",4266,0
"CQC-45-1",7.5,"May Downs",4266,6
"CQC-45-1",7.8,"May Downs",4266,6
"CQC-48-1",8,"Arcturus",2788,6
"CQC-54-1",7.6,"Arcturus",2788,6
"CQC-54-1",7.7,"Arcturus",2788,6
"CQC-65-1",7.8,"Glenora",3741,6
"CQC-65-1",7.9,"Glenora",3741,6
"CQC-77-1",7.7,"May Downs",4266,6
"CQC-77-1",7.6,"May Downs",4266,6
"CQC-87-1",7.1,"May Downs",4266,6
"CQC-87-1",7,"May Downs",4266,6
"CQC-104-1",7.4,"Arcturus",2788,6
"CQC-104-1",7.3,"Arcturus",2788,6
"CQC-119-1",8.1,"May Downs",4266,0
"CQC-119-1",8.2,"May Downs",4266,0
"CQC-32-1",7.8,"Glenora",3741,6
"CQC-33-1",7.9,"Arcturus",2788,6
"SPY-95-1",6.2,"Pentland",4558,2
"CQC-32-1",7.5,"Glenora",3741,6
"CQC-33-1",7.9,"Arcturus",2788,6
"CQC-46-1",7.9,"May Downs",4266,6
"CQC-49-1",7.4,"Arcturus",2788,6
"CQC-49-1",7.5,"Arcturus",2788,6
"CQC-55-1",7.5,"Consuelo",3342,0
"CQC-55-1",7.3,"Consuelo",3342,0
"CQC-66-1",7.5,"Glenora",3741,6
"CQC-66-1",7.6,"Glenora",3741,6
"CQC-78-1",7.6,"May Downs",4266,6
"CQC-88-1",7.6,"May Downs",4266,6
"CQC-105-1",8,"Arcturus",2788,6
"CQC-105-1",7.8,"Arcturus",2788,6
"CQC-34-1",7.8,"Glenora",3741,6
"CQC-34-1",7.7,"Glenora",3741,6
"CQC-46-1",7.7,"May Downs",4266,6
"CQC-50-1",7.9,"May Downs",4266,6
"CQC-50-1",7.9,"May Downs",4266,6
"CQC-56-1",7.4,"Vermont",5199,0
"CQC-56-1",7.6,"Vermont",5199,0
"CQC-67-1",7.1,"Arcturus",2788,0
"CQC-67-1",7.4,"Arcturus",2788,0
"CQC-78-1",7.6,"May Downs",4266,6
"CQC-89-1",7.4,"May Downs",4266,6
"CQC-90-1",7.4,"May Downs",4266,0
"CQC-91-1",7.4,"May Downs",4266,6
"CQC-106-1",7.8,"Bruce",3065,6
"CQC-106-1",7.8,"Bruce",3065,6
"CQC-35-1",7.9,"Glenora",3741,6
"CQC-35-1",7.8,"Glenora",3741,6
"CQC-52-1",7.2,"Bruce",3065,0
"CQC-52-1",7.3,"Bruce",3065,0
"CQC-57-1",7.9,"Vermont",5199,6
"CQC-92-1",8,"Arcturus",2788,6
"CQC-92-1",8,"Arcturus",2788,6
"CQC-68-1",7.5,"May Downs",4266,0
"CQC-68-1",7.4,"May Downs",4266,0
"CQC-93-1",8,"Arcturus",2788,6
"CQC-93-1",7.9,"Arcturus",2788,6
"CQC-107-1",8,"Arcturus",2788,6
"CQC-121-1",7.7,"May Downs",4266,0
"CQC-57-1",7.9,"Vermont",5199,6
"CQC-69-1",7.3,"Glenora",3741,0
"CQC-69-1",7.7,"Glenora",3741,0
"CQC-94-1",7.9,"Arcturus",2788,6
"CQC-94-1",7.9,"Arcturus",2788,6
"CQC-107-1",8,"Arcturus",2788,6
"CQC-108-1",7.6,"Arcturus",2788,6
"CQC-122-1",7.9,"May Downs",4266,6
"CQC-123-1",7.6,"May Downs",4266,0
"CQC-124-1",7.4,"Bruce",3065,0
"CQC-36-1",7.8,"Glenora",3741,6
"CQC-58-1",7.1,"Vermont",5199,6
"CQC-95-1",8,"Arcturus",2788,6
"CQC-95-1",7.8,"Arcturus",2788,6
"CQC-108-1",7.8,"Arcturus",2788,6
"CQC-109-1",7.5,"Bruce",3065,6
"CQC-125-1",7.5,"Bruce",3065,6
"CQC-126-1",7.6,"Bruce",3065,0
"CQC-126-1",7.7,"Bruce",3065,0
"CQC-37-1",7.8,"Arcturus",2788,1
"CQC-37-1",7.7,"Arcturus",2788,1
"CQC-58-1",7.2,"Vermont",5199,6
"CQC-70-1",7.2,"Arcturus",2788,0
"CQC-70-1",7.4,"Arcturus",2788,0
"CQC-79-1",7.3,"Bruce",3065,6
"CQC-79-1",7.3,"Bruce",3065,6
"CQC-80-1",7.5,"Bruce",3065,6
"CQC-109-1",7.7,"Bruce",3065,6
"CQC-127-1",7.7,"Arcturus",2788,0
"CQC-127-1",7.6,"Arcturus",2788,0
"CQC-71-1",7.9,"May Downs",4266,6
"CQC-71-1",8,"May Downs",4266,6
"CQC-80-1",7.4,"Bruce",3065,6
"CQC-96-1",8,"May Downs",4266,6
"CQC-96-1",7.9,"May Downs",4266,6
"CQC-110-1",7.8,"Bruce",3065,6
"CQC-110-1",7.7,"Bruce",3065,6
"CQC-128-1",7.7,"Arcturus",2788,0
"CQC-128-1",7.4,"Arcturus",2788,0
"CQC-38-1",6.9,"Arcturus",2788,1
"CQC-38-1",7.5,"Arcturus",2788,1
"CQC-18-1",7.7,"Arcturus",2788,6
"CQC-18-1",7.8,"Arcturus",2788,6
"CQC-72-1",7.5,"May Downs",4266,6
"CQC-72-1",7.6,"May Downs",4266,6
"CQC-81-1",7.5,"Bruce",3065,6
"CQC-81-1",7.4,"Bruce",3065,6
"CQC-97-1",7.9,"May Downs",4266,6
"CQC-97-1",7.7,"May Downs",4266,6
"CQC-98-1",7.9,"May Downs",4266,6
"CQC-112-1",7.7,"Bruce",3065,6
"CQC-112-1",7.6,"Bruce",3065,6
"CQC-113-1",7.9,"Bruce",3065,6
"CQC-129-1",7.9,"May Downs",4266,0
"CQC-129-1",7.7,"May Downs",4266,0
"CQC-39-1",7.5,"Arcturus",2788,6
"CQC-39-1",7.3,"Arcturus",2788,6
"CQC-19-1",6.9,"Arcturus",2788,4
"CQC-19-1",7.2,"Arcturus",2788,4
"CQC-73-1",7.4,"Bruce",3065,6
"CQC-73-1",7.5,"Bruce",3065,6
"CQC-82-1",7.3,"Arcturus",2788,6
"CQC-82-1",7.2,"Arcturus",2788,6
"CQC-98-1",7.8,"May Downs",4266,6
"CQC-113-1",7.7,"Bruce",3065,6
"CQC-114-1",7.8,"Arcturus",2788,6
"CQC-114-1",7.8,"Arcturus",2788,6
"CQC-40-1",7.4,"May Downs",4266,6
"CQC-40-1",7.2,"May Downs",4266,6
"CQC-21-1",7.5,"May Downs",4266,5
"CQC-21-1",7.9,"May Downs",4266,5
"CQC-20-1",7.4,"Arcturus",2788,4
"CQC-20-1",7.5,"Arcturus",2788,4
"CQC-74-1",7.8,"Bruce",3065,6
"CQC-74-1",7.9,"Bruce",3065,6
"CQC-99-1",8.2,"Arcturus",2788,6
"CQC-99-1",8.2,"Arcturus",2788,6
"CQC-115-1",7.8,"Bruce",3065,6
"CQC-115-1",7.8,"Bruce",3065,6
"CQC-27-1",7.5,"May Downs",4266,6
"CQC-41-1",7.8,"Bruce",3065,6
"CQC-41-1",7.8,"Bruce",3065,6
"CQC-75-1",7.7,"Glenora",3741,2
"CQC-100-1",7.9,"Arcturus",2788,6
"CQC-100-1",7.9,"Arcturus",2788,6
"CQC-116-1",7.7,"Bruce",3065,0
"CQC-116-1",7.7,"Bruce",3065,0
"CQC-27-1",7.7,"May Downs",4266,6
"CQC-42-1",7.7,"Bruce",3065,6
"CQC-42-1",7.6,"Bruce",3065,6
"CQC-63-1",7.9,"May Downs",4266,6
"CQC-63-1",7.9,"May Downs",4266,6
"CQC-75-1",7.5,"Glenora",3741,2
"CQC-83-1",7.3,"May Downs",4266,0
"CQC-84-1",7.1,"Bruce",3065,6
"CQC-84-1",7.1,"Bruce",3065,6
"CQC-101-1",7.8,"Bruce",3065,6
"CQC-101-1",7.7,"Bruce",3065,6
"FSE-36-1",5.7,"Shotover",4805,1
"FSE-49-1",8.1,"May Downs",4266,4
"FSE-50-1",7.8,"Bruce",3065,4
"FSE-46-1",7,"Bruce",3065,1
"FSE-47-1",7,"Taurus",4919,1
"BSS-1-1",5.5,"Auburn",2769,4
"FSE-27-1",5.4,"Shotover",4805,1
"FSE-28-1",6.3,"Shotover",4805,1
"FSE-31-1",7.1,"Rolleston",4739,4
"FSE-53-1",8.2,"May Downs",4266,4
"FSE-55-1",8.1,"Glenora",3741,4
"FSE-43-1",7.6,"Rolleston",4739,4
"FSE-51-1",7.5,"Arcturus",2788,4
"IPB-4-1",6.6,"Byee",3178,4
"IPB-7-1",6.6,"Wheatlands",5264,6
"IPB-2-1",6.2,"Weir",5240,6
"IPB-10-1",6.4,"Byee",3178,6
"IPB-6-1",7.2,"Eastgate",3549,6
"FSE-41-1",7.6,"Wyseby",5358,4
"IPB-9-1",6.9,"Gueena",3798,2
"BSS-17-1",5.6,"Auburn",2769,1
"BSS-41-1",5.4,"Auburn",2769,NA
"FSE-29-1",6.4,"Shotover",4805,1
"FSE-54-1",7,"Wyseby",5358,4
"IPB-1-1",6.4,"Weir",5240,3
"BSS-9-1",6.1,"Auburn",2769,4
"FSE-56-1",8.2,"May Downs",4266,4
"IPB-5-1",6.3,"Gueena",3798,6
"IPB-8-1",6.2,"Eastgate",3549,4
"FSE-34-1",5.8,"Shotover",4805,1
"FSE-117-1",6.2,"Luxor",4208,1
"CTAP-1-1",8.8,"Powlathanga",4563,4
"FSE-105-1",6.2,"Luxor",4208,2
"CTAP-59-1",6.3,"Egera",3545,1
"CTAP-59-1",8.6,"Egera",3545,1
"FSE-119-1",7.1,"Teviot",5136,4
"CTAP-119-1",6.7,"Fanning River",3609,3
"CTAP-119-1",6.6,"Fanning River",3609,3
"FSE-122-1",6.4,"Taurus",4919,4
"CTAP-146-1",7.5,"Myrtlevale",4223,3
"FSE-129-1",5.6,"Petrona",4647,2
"FSE-135-1",5.3,"Petrona",4647,4
"CTAP-177-1",8.2,"Amity",2761,0
"CTAP-189-1",7,"Burdekin",2889,1
"CTAP-211-1",7.4,"Maryvale",4213,1
"FSE-147-1",7.7,"May Downs",4266,4
"FSE-102-1",6.7,"Medway",4428,4
"FSE-109-1",5.6,"Retro",4748,2
"CTAP-146-1",7,"Myrtlevale",4223,3
"FSE-120-1",7,"Retro",4748,4
"FSE-123-1",7.4,"Bruce",3065,4
"FSE-124-1",7.1,"Wyseby",5358,3
"CTAP-177-1",8.1,"Amity",2761,0
"FSE-125-1",6.6,"Petrona",4647,4
"CTAP-189-1",7,"Burdekin",2889,1
"CTAP-8-1",6.6,"Ellis",9947,7
"FSE-130-1",5.7,"Luxor",4208,2
"CTAP-211-1",6.7,"Maryvale",4213,1
"FSE-134-1",5.6,"Luxor",4208,3
"CTAP-8-1",6.6,"Ellis",9947,7
"FSE-133-1",5.7,"Broadmedow",3013,4
"FSE-217-1",5.3,"Luxor",4208,2
"FSE-276-1",7.8,"Retro",4748,4
"FSE-219-1",5.9,"Retro",4748,4
"FSE-167-1",7.9,"Bruce",3065,4
"FSE-166-1",8.2,"Vermont",5199,4
"FSE-183-1",5.3,"Carraba",3204,2
"FSE-261-1",7,"Shotover",4805,1
"FSE-263-1",5.4,"Luxor",4208,1
"FSE-285-1",5.5,"Broadmedow",3013,2
"FSE-187-1",5.5,"Luxor",4208,1
"FSE-265-1",5.7,"Taurus",4919,3
"FSE-234-1",7.7,"Cheshire",3264,4
"FSE-270-1",7.1,"Cheshire",3264,4
"FSE-200-1",7.5,"Rolleston",4739,4
"FSE-195-1",7.7,"Cheshire",3264,3
"FSE-272-1",5.1,"Shotover",4805,0
"FSE-206-1",6.2,"Luxor",4208,2
"FSE-198-1",7.7,"Pegunny",4587,4
"FSE-275-1",6.7,"Retro",4748,4
"FSE-204-1",6.6,"Luxor",4208,4
"FSE-242-1",6.7,"Retro",4748,4
"FSE-243-1",7,"Retro",4748,4
"FSE-278-1",8.4,"Cheshire",3264,4
"FSE-246-1",8.2,"Cheshire",3264,3
"FSE-249-1",5.7,"Springwood",4855,1
"FSE-233-1",7.8,"Cheshire",3264,4
"FSE-244-1",6.2,"Retro",4748,2
"FSE-252-1",8.6,"Bruce",3065,4
"FSE-236-1",5.7,"Retro",4748,1
"FSE-196-1",7.3,"Arcturus",2788,NA
"FSE-248-1",7.9,"Cheshire",3264,4
"FSE-232-1",6.7,"Vermont",5199,3
"FSE-24-1",7.8,"Cheshire",3264,2
"FSE-250-1",5.4,"Medway",4428,1
"FSE-287-1",7,"Cheshire",3264,4
"FSE-155-1",6.6,"May Downs",4266,4
"FSE-254-1",5.8,"Luxor",4208,4
"FSE-273-1",6.1,"Rolleston",4739,1
"FSE-275-1",6.5,"Retro",4748,4
"FSE-210-1",7,"Rolleston",4739,5
"FSE-180-1",7,"Cheshire",3264,4
"FSE-98-1",6.3,"Taurus",4919,4
"FSE-173-1",7.6,"Teviot",5136,3
"FSE-176-1",6.1,"Springwood",4855,1
"FSE-174-1",7.3,"Petrona",4647,3
"FSE-175-1",6.5,"Medway",4428,4
"FSE-277-1",6.8,"Cheshire",3264,4
"FSE-100-1",8.3,"Bruce",3065,3
"FSE-182-1",6.1,"Dunrobin - CQ",3520,1
"FSE-73-1",6.6,"Retro",4748,4
"FSE-226-1",6.5,"Springwood",4855,2
"FSE-184-1",7.3,"Rolleston",4739,4
"FSE-283-1",8.9,"Teviot",5136,4
"FSE-286-1",8.8,"Cheshire",3264,5
"FSE-195-2",6.9,"Pegunny",4587,3
"FSE-290-1",7.4,"Retro",4748,1
"FSE-291-1",5.7,"Taurus",4919,4
"FSE-193-1",6,"Broadmedow",3013,2
"FSE-68-1",4.5,"Springwood",4855,3
"FSE-240-1",5.7,"Springwood",4855,2
"SPY-149-1",6.4,"Burdekin",2889,2
"FSE-241-1",8.2,"Bruce",3065,4
"FSE-81-1",7.3,"Rolleston",4739,4
"FSE-75-1",8,"May Downs",4266,4
"FSE-83-1",6.2,"Petrona",4647,3
"FSE-77-1",7.3,"Arcturus",2788,5
"FSE-256-1",6.6,"Retro",4748,2
"FSE-258-1",5.6,"Medway",4428,2
"FSE-150-1",6.8,"Retro",4748,4
"FSE-154-1",6.7,"Shotover",4805,4
"FSE-157-1",7.2,"Bruce",3065,4
"FSE-262-1",5.4,"Shotover",4805,1
"FSE-264-1",6.9,"Springwood",4855,4
"FSE-269-1",5.5,"Petrona",4647,2
"FSE-158-1",6.5,"Retro",4748,2
"FSE-87-1",6.9,"Wyseby",5358,1
"FSE-91-1",7.3,"Clematis",3290,3
"FSE-168-1",7.2,"Retro",4748,4
"FSE-169-1",7.4,"Cheshire",3264,4
"FSE-274-1",7.5,"Vermont",5199,2
"FSE-95-1",5.8,"Luxor",4208,2
"FSE-90-1",8.1,"Cheshire",3264,1
"FSE-97-1",6.4,"Shotover",4805,4
"FSE-99-1",6.1,"Broadmedow",3013,3
"FSE-96-1",7.7,"Medway",4428,4
"FSE-64-1",8.5,"May Downs",4266,4
"FSE-74-1",7.3,"Cheshire",3264,4
"FSE-70-1",6.3,"Medway",4428,4
"FSE-80-1",6.9,"Teviot",5136,4
"FSE-86-1",6.3,"Cheshire",3264,4
"FSE-94-1",6.8,"Cheshire",3264,3
"WAN-23-1",6.8,"Retro",4746,0
"WAN-12-1",8.6,"Cheshire",3264,4
"WAN-20-1",8.7,"Teviot",5136,1
"PAS-501-1",7,"Belbroughton",8099,5
"PAS-501-1",6.6,"Belbroughton",8099,5
"SWRES-781-1",7.4,"Tara",4918,4
"PAS-603-1",7.2,"Nullegai",8096,4
"PAS-603-1",6.7,"Nullegai",8096,4
"SWRES-745-1",7,"Bogandilla",2954,7
"WAN-3-1",8.9,"Downfall",3440,6
"WAN-6-1",8.6,"Rolleston",4739,6
"SALTE-744-1",6.4,"Goodger",3710,6
"SALTE-738-1",5.5,"Coolabunia",3296,6
"MISCQ-112-1",7.3,"Bruce",3065,3
"CTAP-238-1",6.5,"Bluff",2884,2
"CTAP-238-1",6.6,"Bluff",2884,2
"CTAP-245-1",7.4,"Maryvale",4213,4
"CTAP-245-1",8.2,"Maryvale",4213,4
"CTAP-228-1",7.3,"Burdekin",2889,2
"CTAP-228-1",7.2,"Burdekin",2889,2
"MISCQ-107-1",7.7,"Arcturus",2788,3
"MISCQ-119-1",7.8,"Bruce",3065,3
"SBT-9001-1",6,"Archookoora",2787,3
"SBT-9001-1",6.6,"Archookoora",2787,3
"SBT-9001-1",6.6,"Archookoora",2787,3
"SBT-9000-1",6.2,"Memerambi",4345,2
"SBT-9002-1",6,"Mondure",4274,3
"SBT-9000-1",5.2,"Memerambi",4345,2
"SBT-9000-1",5.5,"Memerambi",4345,2
"SBT-9002-1",6,"Mondure",4274,3
"SBT-9002-1",6.3,"Mondure",4274,3
"MBN-61-1",7.7,"Belbroughton",8099,0
"MBN-53-1",6.8,"Ramillies",8060,2
"MBN-61-1",7.6,"Belbroughton",8099,0
"MBN-54-1",7.2,"Belbroughton",8099,NA
"MBN-54-1",7.5,"Belbroughton",8099,NA
"MBN-51-1",7.3,"Ramillies",8060,0
"MBN-51-1",7.6,"Ramillies",8060,0
"MBN-56-1",7,"Halivale (CCL)",8101,0
"MBN-56-1",6.4,"Halivale (CCL)",8101,0
"EIL-35-1",8.3,"2AUg-7",2293,6
"EIL-3-1",7.5,"BUg-2",3126,6
"EIL-26-1",6.9,"1ADd-3",2072,4
"EIL-22-1",6.7,"1AUg-4",7596,1
"EIL-31-1",8.6,"2AUf-Ug-3",2279,4
"EIL-36-1",8.5,"2AUg-8m",2295,4
"EIL-4-1",7.7,"BUg-2",3126,1
"EIL-15-1",8.1,"TbUg-2",4946,1
"EIL-27-1",6.5,"1ADd-4",2073,1
"EIL-23-1",7.2,"1ADb",2058,1
"EIL-5-1",7.6,"BUg-2",3126,6
"EIL-38-1",9,"2AUg-8m",2295,4
"EIL-19-1",7.8,"TbUg-2",4946,4
"EIL-20-1",7.8,"TbUg-2",4946,4
"EIL-16-1",7.8,"TbUg-2",4946,1
"EIL-24-1",7,"1ADb-2",2796,1
"EIL-28-1",7.1,"1ADb-2",2796,4
"EIL-6-1",7.3,"BUg-2",3126,1
"EIL-21-1",7.9,"TbUg-2",4946,4
"EIL-33-1",7.3,"2AUg-3",2289,4
"EIL-1-1",7.1,"BUg-2",3126,6
"EIL-7-1",7.6,"BUg-2",3126,1
"EIL-17-1",7.5,"TbUg-2",4946,1
"EIL-34-1",7,"2AUg-7",2293,1
"EIL-25-1",6.6,"1ADb-Dd",2069,1
"EIL-2-1",7.5,"BUg-2",3126,6
"EIL-18-1",8.1,"TbUg-2",4946,4
"MBN-6-1",7,"2AVE2",8138,4
"CQCS-103-1",6.4,"Annandale",2835,7
"CQCS-103-1",5.9,"Annandale",2835,7
"CQCS-104-1",7.2,"Arcturus",2788,3
"CQCS-104-1",7.3,"Arcturus",2788,3
"MISSE-150-1",6.9,"Riverleigh",4722,6
"MISSE-164-1",6.5,"Witton",5345,6
"MISSE-151-1",7.2,"Nail",4484,7
"MISSE-106-1",6.8,"Ceratodus 3",3241,NA
"MISSE-101-1",7,"Pearlinga",4613,7
"MISSE-111-1",7,"Burnett",3025,3
"MISSE-162-1",6.1,"Toondoon",4959,7
"MISSE-102-1",6.1,"Hawkwood",3915,7
"MISSE-163-1",7.4,"Hind",3834,6
"ATD-22-1",7.2,"May Downs",4266,1
"ATD-22-1",7.2,"May Downs",4266,1
"EIL-65-1",8.2,"BUg-4",3130,1
"EIL-79-1",8.6,"2AUg-3",2289,6
"EIL-84-1",6.9,"TbUg-13",4942,1
"EIL-51-1",5.5,"3AUf-Ug-1m",2369,4
"EIL-66-1",8,"BUg-6",3132,6
"EIL-46-1",6.5,"2AUgg-2m",2303,1
"EIL-62-1",8.1,"BUg-3",3129,1
"EIL-75-1",8,"TbUg-1",4938,1
"EIL-80-1",7.8,"2AUg-8m",2295,4
"EIL-53-1",7.4,"3AUf-Ug-2m",2371,1
"EIL-42-1",8.5,"2AUgg-1m",2301,1
"EIL-68-1",8,"1AUg-3",2104,1
"EIL-58-1",8.1,"3AUg-2",2384,1
"EIL-76-1",7.8,"TbUg-4",4948,1
"EIL-59-1",8,"4AUf",2456,1
"MISNQ-147-1",7.1,"Hillgrove",3814,2
"EIL-69-1",8.5,"1AUg-3",2104,1
"EIL-77-1",7.9,"TbUg-4",4948,1
"EIL-48-1",6.5,"2ADb-1",2261,4
"EIL-82-1",8.4,"TbUg-11",4940,6
"EIL-55-1",6.7,"3AUf-Ug-3d",2372,1
"EIL-44-1",8.8,"2AUgg-1m",2301,1
"EIL-63-1",7.6,"BUg-3",3129,1
"EIL-71-1",7.9,"BUg-10",3117,1
"EIL-78-1",8.5,"TbUg-6",4950,6
"EIL-83-1",8.3,"3AUg-2",2384,1
"EIL-40-1",8.7,"2AUg-9m",2296,4
"EIL-64-1",8,"BUg-3",3129,1
"EIL-72-1",8.3,"BUg-10",3117,1
"EIL-56-1",7.2,"3AUf-Ug-6m",2377,1
"EIL-50-1",7.1,"3AUf",2364,4
"MISCQ-471-1",5.9,"Broadmedow",3013,3
"MISCQ-468-1",7,"Dotswood",3409,3
"MISCQ-432-1",7.2,"Muldoon",7901,1
"MISCQ-470-1",7.2,"Arcturus",2788,3
"MISCQ-466-1",6.9,"Arcturus",2788,3
"SBT-9013-1",6.4,"Memerambi",4345,4
"SBT-9017-1",6.7,"Gordonbrook",3698,2
"SBT-9019-1",6,"Haly",3856,4
"SBT-9019-1",5.9,"Haly",3856,4
"SBT-9025-1",6.7,"Kawl Kawl",4034,2
"SBT-9037-1",6.5,"Archookoora",2787,2
"SBT-9037-1",6.5,"Archookoora",2787,2
"SBT-9010-1",6.6,"Chelmsford",3250,4
"SBT-9022-1",8.1,"Kawl Kawl",4034,2
"SBT-9025-1",7.6,"Kawl Kawl",4034,2
"SBT-9025-1",7.7,"Kawl Kawl",4034,2
"SBT-9029-1",5.3,"Coolabunia",3296,2
"SBT-9029-1",5.9,"Coolabunia",3296,2
"SBT-9006-1",5.6,"Goodger",3710,2
"SBT-9010-1",6,"Chelmsford",3250,4
"SBT-9010-1",7.3,"Chelmsford",3250,4
"SBT-9022-1",8.1,"Kawl Kawl",4034,2
"SBT-9022-1",8.1,"Kawl Kawl",4034,2
"SBT-9029-1",5.7,"Coolabunia",3296,2
"SBT-9006-1",5.7,"Goodger",3710,2
"SBT-9006-1",5.9,"Goodger",3710,2
"SBT-9014-1",5.5,"Wooroolin",5330,3
"SBT-9014-1",5.7,"Wooroolin",5330,3
"SBT-9018-1",5,"Memerambi",4345,NA
"SBT-9020-1",6.2,"Fairdale",3611,2
"SBT-9014-1",6.3,"Wooroolin",5330,3
"SBT-9018-1",6.1,"Memerambi",4345,NA
"SBT-9018-1",5.4,"Memerambi",4345,NA
"SBT-9020-1",6.3,"Fairdale",3611,2
"SBT-9020-1",6.5,"Fairdale",3611,2
"SBT-9026-1",6.9,"Kawl Kawl",4034,4
"SBT-9023-1",5.8,"Boonenne",3022,2
"SBT-9026-1",8.4,"Kawl Kawl",4034,4
"SBT-9026-1",8.8,"Kawl Kawl",4034,4
"SBT-9034-1",7.1,"Mondure",4274,3
"SBT-9039-1",6.7,"Tureen",5029,2
"SBT-9039-1",6.6,"Tureen",5029,2
"SBT-9003-1",6.3,"Goodger",3710,0
"SBT-9007-1",6.4,"Mceuen",4358,4
"SBT-9023-1",5.9,"Boonenne",3022,2
"SBT-9034-1",6.9,"Mondure",4274,3
"SBT-9034-1",6.8,"Mondure",4274,3
"SBT-9003-1",5.6,"Goodger",3710,0
"SBT-9003-1",5.5,"Goodger",3710,0
"SBT-9007-1",6.7,"Mceuen",4358,4
"SBT-9011-1",6.1,"Fairdale",3611,2
"SBT-9011-1",6.2,"Fairdale",3611,2
"SBT-9011-1",6.5,"Fairdale",3611,2
"SBT-9015-1",5.7,"Tarong",5044,2
"SBT-9021-1",6,"Memerambi",4345,2
"SBT-9015-1",5.6,"Tarong",5044,2
"SBT-9021-1",6,"Memerambi",4345,2
"SBT-9021-1",5.7,"Memerambi",4345,2
"SBT-9027-1",6.5,"Memerambi",4345,2
"SBT-9027-1",6.4,"Memerambi",4345,2
"SBT-9027-1",5.8,"Memerambi",4345,2
"SBT-9031-1",7,"Palouse",4612,2
"SBT-9031-1",7.1,"Palouse",4612,2
"SBT-9035-1",6.2,"Marshlands",4328,3
"SBT-9004-1",5.4,"Memerambi",4345,3
"SBT-9008-1",6.4,"Iona",3941,2
"SBT-9008-1",6.6,"Iona",3941,2
"SBT-9031-1",7.7,"Palouse",4612,2
"SBT-9035-1",6.8,"Marshlands",4328,3
"SBT-9035-1",7.5,"Marshlands",4328,3
"SBT-9004-1",5.6,"Memerambi",4345,3
"SBT-9004-1",5.3,"Memerambi",4345,3
"SBT-9008-1",7,"Iona",3941,2
"SBT-9012-1",5.9,"Kumbia",4004,2
"SBT-9012-1",6.2,"Kumbia",4004,2
"SBT-9016-1",5.4,"Goodger",3710,2
"SBT-9016-1",5.6,"Goodger",3710,2
"SBT-9012-1",6.4,"Kumbia",4004,2
"SBT-9016-1",5.5,"Goodger",3710,2
"SBT-9024-1",6.4,"Memerambi",4345,1
"SBT-9024-1",6,"Memerambi",4345,1
"SBT-9024-1",5.9,"Memerambi",4345,1
"SBT-9028-1",4.9,"Memerambi",4345,3
"SBT-9028-1",4.4,"Memerambi",4345,3
"SBT-9028-1",4.8,"Memerambi",4345,3
"SBT-9032-1",6.5,"Bushnell",2999,4
"SBT-9036-1",6.5,"Kaber",4096,2
"SBT-9005-1",5.9,"Hopevale",3911,4
"SBT-9009-1",7.1,"Palouse",4612,2
"SBT-9032-1",6.4,"Bushnell",2999,4
"SBT-9032-1",7.1,"Bushnell",2999,4
"SBT-9036-1",6.5,"Kaber",4096,2
"SBT-9005-1",5.6,"Hopevale",3911,4
"SBT-9009-1",6.5,"Palouse",4612,2
"SBT-9009-1",6.6,"Palouse",4612,2
"SBT-9013-1",5.9,"Memerambi",4345,4
"SBT-9013-1",6.2,"Memerambi",4345,4
"SBT-9017-1",5.9,"Gordonbrook",3698,2
"SBT-9017-1",6.1,"Gordonbrook",3698,2
"SBT-9019-1",5.2,"Haly",3856,4
"ROSL-31-1",8.4,"Arcturus",2788,6
"ROSL-31-1",8.4,"Arcturus",2788,6
"ROSL-32-1",8.1,"May Downs",4266,6
"ROSL-32-1",8.5,"May Downs",4266,6
"ROSL-23-1",8,"Arcturus",2788,6
"ROSL-23-1",7.8,"Arcturus",2788,6
"ROSL-28-1",8.2,"Arcturus",2788,6
"ROSL-28-1",8.2,"Arcturus",2788,6
"ROSL-29-1",7.9,"Arcturus",2788,6
"ROSL-29-1",8,"Arcturus",2788,6
"ROSL-30-1",8.1,"Arcturus",2788,6
"ROSL-30-1",8.2,"Arcturus",2788,6
"ATD-17-1",6.2,"Retro",4748,2
"ATD-20-1",8,"Retro",4748,3
"ATD-20-1",7.7,"Retro",4748,3
"ATD-21-1",6.6,"Retro",4748,4
"ATD-21-1",7.5,"Retro",4748,4
"MISCQ-330-1",6.7,"Dalrymple",3408,1
"MISCQ-327-1",6.7,"Luxor",4208,1
"MISCQ-335-1",7,"Muldoon",7901,1
"ATD-16-1",6.5,"Annandale",2835,NA
"ATD-4-1",7,"Arcturus",2788,2
"ATD-4-1",7.1,"Arcturus",2788,2
"ATD-11-1",8.1,"Pegunny",4587,6
"ATD-11-1",7.9,"Pegunny",4587,6
"ATD-5-1",7.7,"Rolleston",4739,NA
"ATD-5-1",8,"Rolleston",4739,NA
"ATD-12-1",7.1,"Cheshire",3264,6
"ATD-6-1",7.9,"Teviot",5136,6
"ATD-12-1",7.5,"Cheshire",3264,6
"ATD-6-1",7.8,"Teviot",5136,6
"ATD-13-1",6.8,"Vermont",5199,6
"ATD-13-1",7,"Vermont",5199,6
"ATD-14-1",6.9,"Warrinilla",5216,6
"ATD-8-1",5.7,"Luxor",4208,NA
"ATD-8-1",5.4,"Luxor",4208,NA
"ATD-14-1",6.8,"Warrinilla",5216,6
"ATD-9-1",7.7,"Retro",4748,6
"ATD-9-1",8.2,"Retro",4748,6
"ATD-3-1",6.7,"May Downs",4266,6
"ATD-3-1",6.9,"May Downs",4266,6
"ATD-10-1",7,"May Downs",4266,NA
"ATD-10-1",7.3,"May Downs",4266,NA
"ATD-16-1",6.4,"Annandale",2835,NA
"ESH-6010-1",6.7,"TsDy-1",5072,1
"ESH-6004-1",6.5,"6AUg-9",2737,1
"SFS-8-1",8,"Falkner",3637,6
"SFS-8-1",8.1,"Falkner",3637,6
"ESH-6005-1",7.4,"6AUg-3",2746,6
"SFS-9-1",8,"Falkner",3637,6
"ESH-6000-1",7.8,"6AUg-3",2746,2
"SFS-9-1",8,"Falkner",3637,6
"ESH-6006-1",8.4,"6AUg-3",2746,5
"ESH-6001-1",7.2,"1AUg-13",2092,1
"ESH-6012-1",7.5,"TsUg-7",5113,4
"ESH-6002-1",6.9,"6AUg-12",2744,1
"ESH-6020-1",8.4,"1AUg-2",2097,6
"ESH-6013-1",7.8,"TsUg-7",5113,4
"ESH-6016-1",7.1,"BUg-2",3126,NA
"ESH-6014-1",7.1,"TsUg-7",5113,4
"ESH-6003-1",6.6,"6AUg-9",2737,1
"ESH-6017-1",8.4,"TbUg-1",4938,NA
"ESH-6019-1",7.5,"2AUg-7",2293,NA
"ESH-6015-1",7.2,"TsUg-7",5113,3
"MISCQ-600-1",6.7,"Taurus",4919,2
"MISCQ-369-1",8.3,"Teviot",5136,3
"MISCQ-625-1",7.3,"Arcturus",2788,3
"MISCQ-373-1",7,"Dickson, Shallow Variant",3512,1
"MISCQ-678-1",5.6,"Dunrobin - CQ",3520,NA
"MISCQ-394-1",6.3,"Petrona",4647,1
"MISCQ-504-1",7.9,"Teviot",5136,NA
"MISCQ-396-1",4.3,"Shotover",4805,1
"MISCQ-504-1",8,"Teviot",5136,NA
"MISCQ-593-1",5.7,"Cheshire",3264,2
"MISCQ-680-1",5.8,"Luxor",4208,3
"MISCQ-595-1",7.5,"Cheshire",3264,2
