"","ADMC","Cat_Ca","Cat_CEC","Cat_Na","Chloride","Clay","CS","DataOC","EC","FS","m15_bar","pHw","Silt","ESP","Clay_Act"
"MIN",0.001,0.01,0.04,0.01,0.001,1,1,0,0.01,1,0.1,0.5,1,0.01,0.01
"MAX",83.9,132,261.71,198,114000,95,97,46,77,94,55,12.3,75,157.14,7.15
"MEAN",3.39,9.02,17.88,2.01,457.14,36.79,19.54,1.42,0.4,29.66,14.92,6.93,14.05,8.42,0.41
"MEDIAN",2.7,5.7,13.4,0.5,50,37,14,0.963,0.09,28,14.6,6.8,13,3.07,0.42
