"","NAME","sit_runoff","count_sites"
"1","1ACH2",2,2
"2","1ADE1",2,4
"3","1AKA1",1,4
"4","1ASO1",2,1
"5","1AUg-12",2,2
"6","1AVE1",2,13
"7","1AVE2",2,7
"8","1AVE3",2,1
"9","1AVE4",2,3
"10","1AVE6",2,1
"11","1CHa",1,3
"12","1CHb",3,2
"13","1DEa",2,2
"14","1Dyc",2,2
"15","1KTa",1,2
"16","1SOa",2,1
"17","1Ugc",3,1
"18","1Ugd",3,10
"19","2AVE2",2,1
"20","2Ddb",2,1
"21","2Ddd",1,1
"22","2Dyb",2,2
"23","2Ugc",3,31
"24","2Ugd",2,8
"25","2Uge",3,20
"26","2Uge2",2,1
"27","2UgeS",2,2
"28","2Ugf",3,3
"29","2Ugg",2,1
"30","2Ugj",2,6
"31","2VEa",2,1
"32","2VEb",2,13
"33","2VEx",2,15
"34","2VEy",2,2
"35","3ASO2",2,1
"36","3AVE1",2,1
"37","3VEa",2,1
"38","3VEb",2,1
"39","3VEc",2,1
"40","3VEw",2,2
"41","3VEy",2,6
"42","3VEz",2,3
"43","4Dyb",3,1
"44","4Dyd",2,1
"45","4Dyd3",3,2
"46","4Dyg",3,2
"47","4Dyk",3,4
"48","5Dra",1,3
"49","5SOy",2,1
"50","5UgaS",1,2
"51","6AUg-12",2,2
"52","6AUg-8",2,1
"53","6Dbb",2,1
"54","6Dbi",3,1
"55","6Drb",2,1
"56","6Dya",2,2
"57","6Dya5",2,1
"58","6Dyb",2,1
"59","6Dyc",2,2
"60","6Dyd",2,6
"61","6Dyd2",2,1
"62","6Dye",2,1
"63","6Dye3",2,1
"64","6Dyf",2,4
"65","6Dyf2",2,4
"66","6Dyg",2,7
"67","6Uca",2,3
"68","6Ucc",2,3
"69","6Ufa",2,3
"70","6Ufc",2,4
"71","6Ufd",2,24
"72","6Ufe",2,4
"73","6Uga",3,3
"74","6Uma",2,26
"75","6Umb",2,16
"76","Abbot",2,2
"77","Abergowrie",2,4
"78","Albert",2,1
"79","Aldershot",2,9
"80","Alloway",2,3
"81","Andromache",2,1
"82","Annandale",1,1
"83","Anyarro",3,1
"84","Arcturus",3,18
"85","Aroa",2,7
"86","Arriga",2,3
"87","Auburn",3,3
"88","Avondale",0,23
"89","Babinda",1,32
"90","Baddow",1,3
"91","Balberra",2,2
"92","Bambave A Horizon Variant",2,1
"93","Banana",2,2
"94","Banban",3,2
"95","Banyan",2,1
"96","Barrack",3,1
"97","Barron",2,3
"98","Barubbra",1,3
"99","Basel",1,21
"100","Battery",2,2
"101","BDba",1,5
"102","Beauaraba",3,9
"103","Beecher",3,2
"104","Bell",2,54
"105","Belmunda",3,6
"106","Benholme",2,58
"107","Berris",2,2
"108","BGna",2,3
"109","BGnb",2,4
"110","BGnc",1,1
"111","Bicton",3,3
"112","Bilboolan",2,1
"113","Black",2,2
"114","Blackburn",2,26
"115","Blackburn Shallow Phase",2,2
"116","Blair",2,1
"117","Bluewater",1,3
"118","Bonavista",2,4
"119","Bonnie Crofts",1,1
"120","Bonwell",4,15
"121","Boongary",3,8
"122","Bovekel",3,3
"123","Boyanda",2,1
"124","Boynewood",4,2
"125","Brae",1,2
"126","Breen",4,9
"127","Brightley",1,9
"128","Brooyar",3,5
"129","Brosnan",2,2
"130","Bruce",3,9
"131","Bubbler",2,4
"132","BUca",0,8
"133","BUcb",1,4
"134","Bucca",3,2
"135","BUfa",2,15
"136","BUfb",2,28
"137","BUfc",2,74
"138","BUfd",1,15
"139","BUfe",2,16
"140","BUga",1,5
"141","Bulgun",2,30
"142","Bulguru",2,1
"143","Bullhead",2,11
"144","BUma",1,12
"145","BUmb",1,16
"146","BUmd",1,13
"147","Bungadoo",0,2
"148","Burdekin",2,2
"149","Burnett",3,3
"150","Burnett Coarse Sandy Variant",2,2
"151","Burnett Shallow Phase",2,3
"152","Burrum",0,1
"153","Bushnell Eroded Phase",3,1
"154","Butcher",2,4
"155","BVE1",2,2
"156","Byee",2,3
"157","Cabbage Tree",2,9
"158","Calavos",2,1
"159","Calen",2,43
"160","Callide",1,42
"161","Cameron",2,11
"162","Cameron (Gleyed Subsoil Phase)",2,3
"163","Campbell Plains",2,3
"164","Canoe",2,25
"165","Cape",2,1
"166","Carmila",3,3
"167","Cassidy",2,1
"168","Catherina",2,10
"169","CDba",2,8
"170","CDbb",2,6
"171","CDra",2,3
"172","Ceduna",2,1
"173","Ceratodus",2,2
"174","Cherry Tree",2,25
"175","Childers",2,17
"176","Chin",4,1
"177","Clifton",0,1
"178","Cliftonville",2,25
"179","Cole",1,4
"180","Colvin",1,1
"181","Condor",3,3
"182","Conway",2,3
"183","Coolabunia",1,2
"184","Coom",2,51
"185","Coonoon",3,16
"186","Cottonham",1,5
"187","Crystalbrook",2,2
"188","CSO2",3,1
"189","CUca",0,5
"190","Cudmore",2,1
"191","CUfa",2,23
"192","CUfb",2,17
"193","CUfc",2,15
"194","CUma",2,2
"195","CUma2",2,1
"196","CUmb",2,7
"197","CVE1",2,2
"198","CVE2",2,7
"199","CVE3",2,2
"200","CVE4",2,4
"201","CVE5",2,4
"202","Dagun",2,1
"203","Derra (CWL)",2,4
"204","Diamond (Kcm)",2,5
"205","Diamond (Kcm), Footslope Variant",2,3
"206","Dillan",2,1
"207","Dittmer",3,4
"208","Don",2,3
"209","Doonside",4,10
"210","Dryander",2,12
"211","Dudgeon",1,1
"212","Dundula",2,6
"213","Dunwold",2,4
"214","Earlsfield",2,85
"215","Eastgate",2,3
"216","Eden",2,5
"217","Edgecumbe",3,6
"218","Edmonton",0,1
"219","Egera",1,1
"220","Eleanor",2,5
"221","Eleanor, Mottled Phase",3,1
"222","Elizabeth",3,6
"223","Emerald",2,1
"224","Eton",2,36
"225","Etowrie",2,15
"226","Etowrie (Neutral Variant)",2,8
"227","Etowrie, Neutral Duplex Variant",2,2
"228","Eubenangee",2,2
"229","Eversleigh",1,3
"230","Fairview",2,12
"231","Fairydale",2,6
"232","Fairymead",1,3
"233","Falkner",3,11
"234","Fanning River",3,1
"235","Farnsfield",1,11
"236","Farnsfield Sandy Variant",1,3
"237","Feluga",2,2
"238","Finch Hatton",4,2
"239","Finch Hatton (Alluvial - Colluvial Variant)",2,2
"240","Finch Hatton, Alluvial-Colluvial Variant",2,2
"241","Finley",3,1
"242","Fison",2,4
"243","Flagstone",3,3
"244","Flanders",1,2
"245","Foxdale",2,12
"246","Freddy",3,38
"247","Gahan",2,1
"248","Galmara",3,1
"249","Galway",2,1
"250","Gander",3,1
"251","Gargett",1,1
"252","Garradunga",1,1
"253","Garrett",3,1
"254","Gillinbin",2,22
"255","Glen Isla",2,5
"256","Glenora",3,9
"257","Glenrock",3,5
"258","Gooburrum",2,8
"259","Gooburrum Mottled Variant",2,2
"260","Goodbye",3,1
"261","Goodger",1,1
"262","Goolboo",3,9
"263","Goorganga",2,9
"264","Gracemere",3,3
"265","Graham",2,1
"266","Granville",2,1
"267","Grevillea",1,3
"268","Greycliffe",1,19
"269","Greycliffe Melonhole Phase",0,2
"270","Gueena",1,3
"271","Gwynne",2,1
"272","Habana",3,12
"273","Haden",2,2
"274","Halivale",2,6
"275","Hamleigh",1,3
"276","Hannan",2,51
"277","Hawkins",4,1
"278","Hector (PCS)",3,52
"279","Herbert",2,12
"280","Hewitt",2,36
"281","Highbury",3,2
"282","Hillsborough",2,11
"283","Hind",0,1
"284","Hodge (BAN)",1,7
"285","Holding",2,1
"286","Honeycomb",2,3
"287","Howes",2,4
"288","Ilbilbie",1,13
"289","Ingham",2,15
"290","Inlet",0,1
"291","Innisfail",1,18
"292","Isis",1,18
"293","Jambin",2,9
"294","Jedda",3,1
"295","Julian",3,4
"296","Jumper",2,5
"297","Kaban",2,2
"298","Kabra",3,1
"299","Kalah",0,2
"300","Karloo",1,45
"301","Kaygaroo",2,1
"302","Kenmar",2,5
"303","Kepnock",1,23
"304","Keppel",3,3
"305","Kilburnie",2,4
"306","Kimberley",4,2
"307","Kinchant",2,1
"308","Kinkuna",2,4
"309","Kirrama",0,1
"310","Kokutungo",2,6
"311","Kolan",0,9
"312","Kolbore",0,1
"313","Koolachu",2,8
"314","Koumala",3,11
"315","Krongie",3,4
"316","Langley-Wdh",2,8
"317","Lascelles",2,1
"318","Laura",2,14
"319","Leach",1,1
"320","Leadingham",2,2
"321","Lee",2,7
"322","Leichhardt",3,20
"323","Lily",2,11
"324","Littabella",2,5
"325","Liverpool",2,4
"326","Lizard",3,2
"327","Louisa",3,14
"328","Lucy",2,8
"329","Lugger",2,8
"330","Luxor",2,1
"331","Macknade",3,6
"332","Mahogany",0,1
"333","Maidavale",2,1
"334","Malbon",2,5
"335","Malchi",3,7
"336","Maraconda",1,1
"337","Maria",1,1
"338","Marian",2,18
"339","Marian, Yellow B Horizon Variant",2,1
"340","Marlow",3,4
"341","Martin",3,2
"342","Martyr",2,2
"343","Marwood",3,7
"344","Mary",2,63
"345","May",2,1
"346","May Downs",2,19
"347","MDE1",4,1
"348","Meadowvale",2,12
"349","Melton",1,24
"350","Memerambi",2,2
"351","Mentmore",3,1
"352","Midden",2,3
"353","Midway",2,1
"354","Mirani",2,5
"355","Mirriwinni",2,7
"356","Miskin Buried Soils Or D Horizons Vary",2,1
"357","Moffat",4,7
"358","Molonga",2,1
"359","Monsildale",2,79
"360","Moore Park",2,4
"361","Moosie",2,1
"362","Moramana",1,8
"363","Mossman",2,2
"364","Mulei",3,1
"365","Mulligan",2,2
"366","Munbura",3,1
"367","Mundoo",2,2
"368","Mungar",1,6
"369","Murphy Pan Phase",3,1
"370","Murray",2,6
"371","Myrtle",2,10
"372","Nabilla",3,6
"373","Nail",1,1
"374","Narpi",2,9
"375","Niagara",3,4
"376","Nicotine Yellow",1,1
"377","Nind",1,2
"378","Ninemile",2,1
"379","Normanby",1,3
"380","Norwich",2,3
"381","Nursery",2,1
"382","Oakwood",2,6
"383","Ossa",2,6
"384","Ossa (Cobbly Variant)",2,6
"385","Otoo",1,8
"386","Palm",2,7
"387","Palmyra",3,1
"388","Pearlinga",1,1
"389","Peep",2,5
"390","Pegunny",1,1
"391","Penman",2,2
"392","Perry",3,3
"393","Peterson",2,2
"394","Picardy",2,18
"395","Pin Gin",2,29
"396","Pindi",3,1
"397","Pioneer",2,14
"398","Pioneer, Red B Horizon Variant",1,1
"399","Pluto",1,1
"400","Police Camp",3,1
"401","Powerhouse",2,1
"402","Prendergast",2,9
"403","Preston",3,3
"404","Pring",3,1
"405","Prior",2,11
"406","Proserpine",2,27
"407","Quart",2,1
"408","Ram",3,5
"409","Ramleh",1,1
"410","Rankin",2,1
"411","Raven",2,1
"412","RDya",2,1
"413","Red Flank",3,1
"414","Retro",3,11
"415","Retro (BAN)",1,26
"416","Riordanvale",3,7
"417","Ripple",1,2
"418","Riverleigh",1,1
"419","Robur",0,12
"420","Rolleston",3,19
"421","Ronnoc",2,25
"422","Rosslyn",3,3
"423","Rothchild",1,5
"424","Ruby",2,2
"425","RUfe",1,1
"426","Rugb",2,25
"427","RUgbS",2,15
"428","RUgc",2,22
"429","RUgcS",2,2
"430","RUgd",2,25
"431","Russell",2,36
"432","Saddle",4,9
"433","Samourgassi",3,9
"434","Sandiford",2,7
"435","Sandiford (Silty Topsoil Variant)",2,2
"436","SDE1",3,1
"437","Seaview",3,2
"438","Septimus",2,5
"439","Silent Grove",2,6
"440","Slater",2,13
"441","Spanos",2,5
"442","St Helens",2,25
"443","Stone",1,3
"444","Strathdickie",3,3
"445","Sugarmill",2,2
"446","Sullivan",2,7
"447","Sunnyside",1,45
"448","SVE1",1,1
"449","Tabletop",2,1
"450","Tailing",2,3
"451","Tanby",3,19
"452","Tantitha",1,4
"453","Tarramba",1,67
"454","Tawalla",1,1
"455","Te_El_Kabir",3,1
"456","Tedlands",1,22
"457","Tenmile",2,1
"458","Teralba",1,1
"459","Teviot",2,2
"460","Thompson - Mrc",1,31
"461","Thorpe",1,10
"462","Tiaro",3,2
"463","Timara",2,29
"464","Tingoora",3,1
"465","Tinkle",2,3
"466","Tiny",2,8
"467","Tirroan",2,7
"468","Tognolini",1,45
"469","Tolga",2,109
"470","Toobanna",2,8
"471","Toondoon",2,1
"472","Tralee",2,3
"473","Trebonne",2,3
"474","TsDy-1",3,1
"475","TsGn-3",3,1
"476","TsGn-5",3,5
"477","TsUg-7",3,1
"478","TsUgg-2",2,1
"479","Tully",2,7
"480","Turnor",2,19
"481","Turpad",3,9
"482","Turpin",2,7
"483","Tyson",3,1
"484","Ulogie",2,2
"485","Urannah",4,6
"486","Uruba",2,4
"487","Uruba Alluvial-Colluvial Variant",2,2
"488","Utchee",2,1
"489","Valetta",1,6
"490","Vermont",3,5
"491","Vicenza",2,10
"492","Victoria Plains",2,18
"493","Virgil",1,1
"494","Voewood",2,2
"495","Wagoora",3,22
"496","Wagoora, Basic Parent Material Variant",3,2
"497","Walker (Majck)",2,1
"498","Walsh",2,2
"499","Watalgan",0,14
"500","Weir",3,4
"501","Weithew",2,3
"502","Wheatlands",2,2
"503","Whiptail",3,5
"504","Windradene",2,2
"505","Winfield",1,6
"506","Witton",2,1
"507","Woco",0,11
"508","Wollingford",3,8
"509","Wongabel",2,1
"510","Woober",0,8
"511","Woolmer",1,4
"512","Woongarra",2,2
"513","Wyseby",3,1
"514","Yandaran",2,12
"515","Yeppoon",2,1
