"","NAME","sit_runoff","count_sites"
"1","1ACH2",2,2
"2","1ADE1",2,4
"3","1AKA1",1,4
"4","1ASO1",2,1
"5","1AUg-12",2,2
"6","1AVE1",2,13
"7","1AVE2",2,7
"8","1AVE3",2,1
"9","1AVE4",2,3
"10","1AVE6",2,1
"11","1CHa",1,2
"12","1CHb",3,2
"13","1DEa",2,1
"14","1Dyc",2,2
"15","1KTa",1,2
"16","1SOa",2,1
"17","1Ugc",3,1
"18","1Ugd",3,10
"19","2AVE2",2,1
"20","2Ddb",2,1
"21","2Ddd",1,1
"22","2Dyb",2,2
"23","2Ugc",3,31
"24","2Ugd",2,8
"25","2Uge",3,20
"26","2Uge2",2,1
"27","2UgeS",2,2
"28","2Ugf",3,3
"29","2Ugg",2,1
"30","2Ugj",2,6
"31","2VEa",2,1
"32","2VEb",2,13
"33","2VEx",2,11
"34","3ASO2",2,1
"35","3VEa",2,1
"36","3VEb",2,1
"37","3VEc",2,1
"38","3VEw",2,2
"39","3VEy",2,6
"40","4Dyb",3,1
"41","4Dyd",2,1
"42","4Dyd3",3,2
"43","4Dyg",3,2
"44","4Dyk",3,4
"45","5Dra",1,3
"46","5UgaS",1,2
"47","6AUg-12",2,2
"48","6AUg-8",2,1
"49","6Dbb",2,1
"50","6Dbi",3,1
"51","6Drb",2,1
"52","6Dya",2,2
"53","6Dya5",2,1
"54","6Dyb",2,1
"55","6Dyc",2,2
"56","6Dyd",2,6
"57","6Dyd2",2,1
"58","6Dye",2,1
"59","6Dye3",2,1
"60","6Dyf",2,4
"61","6Dyf2",2,4
"62","6Dyg",2,7
"63","6Uca",2,3
"64","6Ucc",2,3
"65","6Ufa",2,3
"66","6Ufc",2,4
"67","6Ufd",2,24
"68","6Ufe",2,4
"69","6Uga",3,3
"70","6Uma",2,26
"71","6Umb",2,16
"72","Abbot",2,2
"73","Abergowrie",2,4
"74","Albert",2,1
"75","Aldershot",2,9
"76","Alloway",2,3
"77","Andromache",2,1
"78","Anyarro",3,1
"79","Aroa",2,7
"80","Arriga",2,3
"81","Auburn",3,3
"82","Avondale",0,23
"83","Babinda",1,25
"84","Balberra",2,1
"85","Bambave A Horizon Variant",2,1
"86","Banana",2,2
"87","Banban",3,2
"88","Banyan",2,1
"89","Barron",2,3
"90","Barubbra",1,3
"91","BDba",1,5
"92","Beecher",3,2
"93","Bell",2,54
"94","Belmunda",3,6
"95","Benholme",2,57
"96","Berris",2,1
"97","BGna",2,3
"98","BGnb",2,4
"99","BGnc",1,1
"100","Bicton",3,3
"101","Bilboolan",2,1
"102","Black",2,2
"103","Blackburn",2,26
"104","Blackburn Shallow Phase",2,2
"105","Bluewater",1,3
"106","Bonavista",2,4
"107","Bonnie Crofts",1,1
"108","Bonwell",4,15
"109","Boongary",3,8
"110","Bovekel",3,3
"111","Boyanda",2,1
"112","Boynewood",4,2
"113","Brae",1,2
"114","Breen",4,9
"115","Brightley",1,9
"116","Brooyar",3,5
"117","Brosnan",2,2
"118","Bubbler",2,4
"119","BUca",0,8
"120","BUcb",1,4
"121","Bucca",3,2
"122","BUfa",2,15
"123","BUfb",2,28
"124","BUfc",2,74
"125","BUfd",1,15
"126","BUfe",2,16
"127","BUga",1,5
"128","Bulgun",2,28
"129","Bulguru",2,1
"130","Bullhead",2,11
"131","BUma",1,12
"132","BUmb",1,16
"133","BUmd",1,13
"134","Bungadoo",0,2
"135","Burdekin",2,2
"136","Burnett",3,3
"137","Burnett Coarse Sandy Variant",2,2
"138","Burnett Shallow Phase",2,3
"139","Burrum",0,1
"140","Bushnell Eroded Phase",3,1
"141","Butcher",2,1
"142","BVE1",2,2
"143","Byee",2,3
"144","Cabbage Tree",2,9
"145","Calavos",2,1
"146","Calen",2,42
"147","Callide",1,42
"148","Cameron",2,11
"149","Cameron (Gleyed Subsoil Phase)",2,3
"150","Campbell Plains",2,3
"151","Canoe",2,21
"152","Cape",2,1
"153","Carmila",3,3
"154","Cassidy",2,1
"155","Catherina",2,10
"156","CDba",2,8
"157","CDbb",2,6
"158","CDra",2,3
"159","Ceratodus",2,2
"160","Cherry Tree",2,25
"161","Childers",2,17
"162","Chin",4,1
"163","Clifton",0,1
"164","Cliftonville",2,25
"165","Cole",1,4
"166","Colvin",1,1
"167","Condor",3,3
"168","Conway",2,2
"169","Coolabunia",1,2
"170","Coom",2,41
"171","Coonoon",3,16
"172","Cottonham",1,5
"173","Crystalbrook",2,2
"174","CUca",0,5
"175","Cudmore",2,1
"176","CUfa",2,23
"177","CUfb",2,17
"178","CUfc",2,15
"179","CUma",2,2
"180","CUma2",2,1
"181","CUmb",2,7
"182","CVE1",2,2
"183","CVE2",2,7
"184","CVE3",2,2
"185","CVE4",2,3
"186","CVE5",2,4
"187","Dagun",2,1
"188","Derra (CWL)",2,5
"189","Diamond (Kcm)",2,5
"190","Diamond (Kcm), Footslope Variant",2,3
"191","Dillan",2,1
"192","Dittmer",3,4
"193","Don",2,3
"194","Doonside",4,9
"195","Dryander",2,11
"196","Dudgeon",1,1
"197","Dundula",2,6
"198","Dunwold",2,4
"199","Dwyer",2,5
"200","Earlsfield",2,83
"201","Eastgate",2,3
"202","Edgecumbe",3,5
"203","Edmonton",0,1
"204","Eerwah",2,23
"205","Egera",1,1
"206","Eleanor",2,5
"207","Eleanor, Mottled Phase",3,1
"208","Elizabeth",3,4
"209","Emerald",2,1
"210","Eton",2,36
"211","Etowrie",2,15
"212","Etowrie (Neutral Variant)",2,8
"213","Etowrie, Neutral Duplex Variant",2,2
"214","Eubenangee",2,2
"215","Eversleigh",1,2
"216","Fairview",2,11
"217","Fairydale",2,6
"218","Fairymead",1,3
"219","Falkner",3,11
"220","Fanning River",3,1
"221","Farnsfield",1,11
"222","Farnsfield Sandy Variant",1,3
"223","Feluga",2,2
"224","Finch Hatton (Alluvial - Colluvial Variant)",2,2
"225","Finch Hatton, Alluvial-Colluvial Variant",2,2
"226","Finley",3,1
"227","Fison",2,4
"228","Flagstone",3,3
"229","Foxdale",2,12
"230","Freddy",3,38
"231","Gahan",2,1
"232","Galmara",4,1
"233","Gander",3,1
"234","Gargett",1,1
"235","Garradunga",1,1
"236","Gillinbin",2,22
"237","Glen Isla",2,5
"238","Glenrock",3,5
"239","Gooburrum",2,8
"240","Gooburrum Mottled Variant",2,2
"241","Goodbye",3,1
"242","Goodger",1,1
"243","Goolboo",2,2
"244","Goorganga",2,8
"245","Gracemere",3,3
"246","Graham",2,1
"247","Granville",2,1
"248","Grevillea",1,3
"249","Greycliffe",1,19
"250","Greycliffe Melonhole Phase",0,2
"251","Gueena",1,3
"252","Gwynne",2,1
"253","Habana",3,12
"254","Haden",2,2
"255","Halivale",2,6
"256","Hamleigh",1,3
"257","Hannan",2,51
"258","Hawkins",4,1
"259","Hector (PCS)",3,51
"260","Herbert",2,12
"261","Hewitt",2,37
"262","Highbury",3,2
"263","Hillsborough",2,11
"264","Hind",0,1
"265","Hodge (BAN)",1,7
"266","Holding",2,1
"267","Howes",2,4
"268","Ilbilbie",1,13
"269","Ingham",2,11
"270","Inlet",0,1
"271","Innisfail",1,9
"272","Isis",1,18
"273","Jambin",2,9
"274","Julian",3,4
"275","Jumper",2,5
"276","Kaban",2,2
"277","Kabra",3,1
"278","Kalah",0,2
"279","Karloo",1,45
"280","Kaygaroo",2,1
"281","Kenmar",2,5
"282","Kepnock",1,23
"283","Keppel",3,3
"284","Kilburnie",2,4
"285","Kinchant",2,1
"286","Kinkuna",2,4
"287","Kirrama",0,1
"288","Kokutungo",2,6
"289","Kolan",0,9
"290","Kolbore",0,1
"291","Koolachu",2,8
"292","Koumala",3,11
"293","Langley-Wdh",2,8
"294","Lascelles",2,1
"295","Laura",2,14
"296","Leach",1,1
"297","Leadingham",2,2
"298","Lee",2,1
"299","Leichhardt",3,20
"300","Lily",2,11
"301","Littabella",2,5
"302","Liverpool",2,1
"303","Lizard",3,2
"304","Louisa",3,14
"305","Lucy",2,8
"306","Lugger",2,2
"307","Macknade",3,6
"308","Maclean (Lak)",1,1
"309","Mahogany",0,1
"310","Malbon",1,3
"311","Malchi",3,7
"312","Maraconda",1,1
"313","Maria",1,1
"314","Marian",2,18
"315","Marian, Yellow B Horizon Variant",2,1
"316","Marlow",3,4
"317","Martin",3,2
"318","Martyr",2,2
"319","Mary",2,63
"320","MDE1",4,1
"321","Meadowvale",2,12
"322","Melton",1,24
"323","Memerambi",2,2
"324","Mentmore",3,1
"325","Midden",2,3
"326","Midway",2,1
"327","Mirani",2,5
"328","Mirriwinni",2,6
"329","Miskin Buried Soils Or D Horizons Vary",2,1
"330","Moffat",4,7
"331","Molonga",2,1
"332","Monkland",1,7
"333","Moore Park",2,4
"334","Moosie",2,1
"335","Moramana",1,8
"336","Mossman",2,2
"337","Mulei",3,1
"338","Mulligan",2,2
"339","Munbura",3,1
"340","Mundoo",2,2
"341","Murphy Pan Phase",3,1
"342","Murray",2,6
"343","Myrtle",2,9
"344","Nabilla",3,6
"345","Nail",1,1
"346","Narpi",2,9
"347","Niagara",3,4
"348","Nicotine Yellow",1,1
"349","Nind",1,2
"350","Ninemile",2,1
"351","Normanby",1,3
"352","Nursery",2,1
"353","Oakwood",2,6
"354","Ossa",2,6
"355","Ossa (Cobbly Variant)",2,6
"356","Otoo",1,8
"357","Palm",2,7
"358","Palmyra",3,1
"359","Pearlinga",1,1
"360","Peep",2,5
"361","Penman",2,2
"362","Perry",3,3
"363","Peterson",2,2
"364","Picardy",2,18
"365","Pin Gin",2,29
"366","Pindi",3,1
"367","Pioneer",2,14
"368","Pioneer, Red B Horizon Variant",1,1
"369","Police Camp",3,1
"370","Powerhouse",2,1
"371","Prendergast",2,9
"372","Preston",3,3
"373","Pring",3,1
"374","Prior",2,10
"375","Proserpine",2,27
"376","Quart",2,1
"377","Ram",3,5
"378","Ramleh",1,1
"379","Raven",2,1
"380","RDya",2,1
"381","Red Flank",3,1
"382","Retro",3,9
"383","Retro (BAN)",1,26
"384","Riordanvale",3,7
"385","Ripple",1,2
"386","Riverleigh",1,1
"387","Robur",0,12
"388","Rolleston",3,18
"389","Ronnoc",2,25
"390","Rothchild",1,5
"391","Ruby",2,2
"392","RUfe",1,1
"393","Rugb",2,25
"394","RUgbS",2,15
"395","RUgc",2,22
"396","RUgcS",2,2
"397","RUgd",2,25
"398","Russell",2,36
"399","Saddle",4,9
"400","Samourgassi",3,9
"401","Sandiford",2,7
"402","Sandiford (Silty Topsoil Variant)",2,2
"403","Seaview",3,2
"404","Septimus",2,5
"405","Silent Grove",2,6
"406","Slater",2,13
"407","Spanos",1,3
"408","St Helens",2,25
"409","Stone",1,3
"410","Strathdickie",3,3
"411","Sugarmill",2,2
"412","Sumalee",1,2
"413","Sunnyside",1,19
"414","SVE1",1,1
"415","Tabletop",2,1
"416","Tailing",2,3
"417","Tanby",3,19
"418","Tantitha",1,4
"419","Tarramba",1,67
"420","Tawalla",1,1
"421","Te_El_Kabir",3,1
"422","Tedlands",1,22
"423","Tenmile",2,1
"424","Teralba",1,1
"425","Thompson - Mrc",1,31
"426","Thorpe",3,9
"427","Tiaro",3,1
"428","Timara",2,22
"429","Tinkle",2,3
"430","Tiny",2,8
"431","Tirroan",2,7
"432","Tognolini",1,44
"433","Tolga",2,109
"434","Toobanna",2,8
"435","Toondoon",2,1
"436","Tralee",2,3
"437","Trebonne",2,3
"438","TsUgg-2",2,1
"439","Tully",2,7
"440","Turnor",2,19
"441","Turpad",3,9
"442","Turpin",2,7
"443","Tyson",2,2
"444","Ulogie",2,2
"445","Urannah",4,6
"446","Uruba Alluvial-Colluvial Variant",2,2
"447","Utchee",2,1
"448","Valetta",1,6
"449","Vicenza",2,10
"450","Victoria Plains",2,18
"451","Virgil",1,1
"452","Voewood",3,1
"453","Wagoora",3,21
"454","Wagoora, Basic Parent Material Variant",3,2
"455","Walsh",2,2
"456","Watalgan",0,14
"457","Weir",3,4
"458","Weithew",2,3
"459","Wheatlands",2,2
"460","Whiptail",3,5
"461","Windradene",2,2
"462","Winfield",1,6
"463","Witton",2,1
"464","Woco",0,11
"465","Wollingford",3,8
"466","Wongabel",2,1
"467","Woober",0,8
"468","Woolmer",1,4
"469","Woongarra",1,1
"470","Yandaran",2,12
"471","Yeppoon",2,1
