"","NAME","sit_cult_sc","sit_all_sc","spc_sc","sc_final","data_src"
"1","1ACH2","soft","soft",NA,"soft","cult site"
"2","1ADE1","hard","hard",NA,"hard","cult site"
"3","1AKA1","firm",NA,NA,"firm","cult site"
"4","1ASO1","soft","soft",NA,"soft","cult site"
"5","1AUg-12","mulch","mulch","mulch","mulch","cult site"
"6","1AVE1","mulch","mulch","mulch","mulch","cult site"
"7","1AVE2","hard","hard",NA,"hard","cult site"
"8","1AVE4","mulch","mulch",NA,"mulch","cult site"
"9","1AVE6","mulch","mulch",NA,"mulch","cult site"
"10","1CHb","hard","hard","hard","hard","cult site"
"11","1DEa","crust","hard","hard","crust","cult site"
"12","1Dyc","hard","hard","hard","hard","cult site"
"13","1KTa","hard","soft","loose","hard","cult site"
"14","1SOa","hard","hard","hard","hard","cult site"
"15","1Uga","mulch","mulch","mulch","mulch","cult site"
"16","1Ugd","hard","mulch","mulch","hard","cult site"
"17","2AUg-3","mulch","mulch",NA,"mulch","cult site"
"18","2AVE2","mulch","mulch","mulch","mulch","cult site"
"19","2Dba5","hard","hard",NA,"hard","cult site"
"20","2Dbb","hard","hard","hard","hard","cult site"
"21","2Dbc","hard","hard","hard","hard","cult site"
"22","2Dbd","hard","hard","hard","hard","cult site"
"23","2Dbe","hard","hard","hard","hard","cult site"
"24","2Ddb","hard","hard","hard","hard","cult site"
"25","2Ddd","hard","hard","hard","hard","cult site"
"26","2Dya","hard","hard","hard","hard","cult site"
"27","2Dya2","hard","hard",NA,"hard","cult site"
"28","2Dyb","hard","hard","hard","hard","cult site"
"29","2Dyb2","hard","hard",NA,"hard","cult site"
"30","2Dyc3","hard","hard",NA,"hard","cult site"
"31","2Ugc","hard","hard","hard","hard","cult site"
"32","2Ugd","hard","hard","hard","hard","cult site"
"33","2Ugd5","firm","hard",NA,"firm","cult site"
"34","2Uge","hard","hard","hard","hard","cult site"
"35","2Uge2","hard","hard",NA,"hard","cult site"
"36","2UgeS","hard","hard",NA,"hard","cult site"
"37","2Ugf","mulch","mulch","hard","mulch","cult site"
"38","2Ugg","mulch","mulch","mulch","mulch","cult site"
"39","2Ugg5","mulch","mulch",NA,"mulch","cult site"
"40","2Ugh","mulch","mulch","mulch","mulch","cult site"
"41","2Ugj","hard","hard","hard","hard","cult site"
"42","2VEb","mulch","mulch","mulch","mulch","cult site"
"43","2VEx","mulch","mulch","mulch","mulch","cult site"
"44","3ASO2","firm","hard",NA,"firm","cult site"
"45","3VEa","mulch","mulch","mulch","mulch","cult site"
"46","3VEb","mulch","mulch","mulch","mulch","cult site"
"47","3VEc","hard","mulch","mulch","hard","cult site"
"48","3VEw","hard","mulch","mulch","hard","cult site"
"49","3VEy","mulch","mulch","mulch","mulch","cult site"
"50","4Dyb","firm","hard","hard","firm","cult site"
"51","4Dyd","hard","hard","hard","hard","cult site"
"52","4Dyd3","hard","hard",NA,"hard","cult site"
"53","4Dyg","hard","hard","hard","hard","cult site"
"54","4Dyk","hard","hard","hard","hard","cult site"
"55","5Dra","hard","hard","hard","hard","cult site"
"56","5Dyb","hard","hard","hard","hard","cult site"
"57","5Dyc","hard","hard","hard","hard","cult site"
"58","5Ugc  Depression","mulch","mulch","hard","mulch","cult site"
"59","6AUg-12","mulch","mulch","mulch","mulch","cult site"
"60","6AUg-8","mulch","mulch","mulch","mulch","cult site"
"61","6Dbb","hard","hard","hard","hard","cult site"
"62","6Dbi","hard","hard","hard","hard","cult site"
"63","6Dra","hard","hard","hard","hard","cult site"
"64","6Drb","hard","hard","hard","hard","cult site"
"65","6Drc","hard","hard","hard","hard","cult site"
"66","6Dy","hard","hard",NA,"hard","cult site"
"67","6Dya","hard","hard","hard","hard","cult site"
"68","6Dya5","hard","hard",NA,"hard","cult site"
"69","6Dyb","hard","hard","hard","hard","cult site"
"70","6Dyc","hard","hard","hard","hard","cult site"
"71","6Dyd","hard","hard","hard","hard","cult site"
"72","6Dyd2","hard","hard",NA,"hard","cult site"
"73","6Dye","hard","hard","hard","hard","cult site"
"74","6Dye3","hard","hard",NA,"hard","cult site"
"75","6Dyf","hard","hard","hard","hard","cult site"
"76","6Dyf2","hard","hard",NA,"hard","cult site"
"77","6Dyf3","hard","hard",NA,"hard","cult site"
"78","6Dyg","hard","hard","hard","hard","cult site"
"79","6Gna","mulch","hard","hard","mulch","cult site"
"80","6Uca","hard","hard","hard","hard","cult site"
"81","6Ucc","hard","hard","hard","hard","cult site"
"82","6Ufa","hard","hard","hard","hard","cult site"
"83","6Ufc","hard","hard","hard","hard","cult site"
"84","6Ufd","hard","hard","hard","hard","cult site"
"85","6Ufe","hard","hard","hard","hard","cult site"
"86","6Uga","hard","mulch","hard","hard","cult site"
"87","6Uma","hard","hard","hard","hard","cult site"
"88","6Uma2","mulch","hard",NA,"mulch","cult site"
"89","6Umb","hard","hard","hard","hard","cult site"
"90","Abbot","hard","hard","mulch","hard","cult site"
"91","Abercorn","hard","hard","hard","hard","cult site"
"92","Abergowrie","hard","hard","hard","hard","cult site"
"93","Albert","hard","hard","hard","hard","cult site"
"94","Aldershot","hard","hard","hard","hard","cult site"
"95","Alloway","hard","hard",NA,"hard","cult site"
"96","Andergrove","loose","loose","loose","loose","cult site"
"97","Andromache","loose",NA,NA,"loose","cult site"
"98","Anyarro","firm",NA,"hard","firm","cult site"
"99","Appaloosa","hard","hard","hard","hard","cult site"
"100","Apron","soft","hard","hard","soft","cult site"
"101","Archookoora","hard","hard","hard","hard","cult site"
"102","Archookoora Nodular Phase","hard","hard","hard","hard","cult site"
"103","Arnot Dark Phase","loose","loose",NA,"loose","cult site"
"104","Aroa","mulch","mulch","mulch","mulch","cult site"
"105","Arriga","hard","hard",NA,"hard","cult site"
"106","Ashgrove","mulch","mulch","hard","mulch","cult site"
"107","Auburn","hard","hard","hard","hard","cult site"
"108","Avondale","hard","hard",NA,"hard","cult site"
"109","Babinda","loose","loose",NA,"loose","cult site"
"110","Baddow","loose","soft","loose","loose","cult site"
"111","Balberra","firm","hard","hard","firm","cult site"
"112","Bambave A Horizon Variant","hard","hard",NA,"hard","cult site"
"113","Banana","mulch","mulch","mulch","mulch","cult site"
"114","Barubbra","loose","loose","hard","loose","cult site"
"115","BDba","firm","hard",NA,"firm","cult site"
"116","Beecher","firm",NA,NA,"firm","cult site"
"117","Beeron","hard","hard","hard","hard","cult site"
"118","Bell","hard","hard","mulch","hard","cult site"
"119","Belmunda","hard","hard","hard","hard","cult site"
"120","Benholme","hard","hard",NA,"hard","cult site"
"121","Berris","firm",NA,NA,"firm","cult site"
"122","BGna","firm",NA,NA,"firm","cult site"
"123","BGnb","firm",NA,NA,"firm","cult site"
"124","BGnc","firm","hard",NA,"firm","cult site"
"125","Bicton","soft",NA,"hard","soft","cult site"
"126","Bidwill","hard","hard","hard","hard","cult site"
"127","Bilboolan","hard","hard","mulch","hard","cult site"
"128","Bingera","hard","hard","hard","hard","cult site"
"129","Black","firm",NA,"soft","firm","cult site"
"130","Blackburn","firm",NA,"hard","firm","cult site"
"131","Blackburn Shallow Phase","hard","hard",NA,"hard","cult site"
"132","Bluewater","hard","hard","hard","hard","cult site"
"133","Bonavista","hard","hard","hard","hard","cult site"
"134","Bonnie Crofts","firm","mulch",NA,"firm","cult site"
"135","Bonwell","firm",NA,"hard","firm","cult site"
"136","Booloongie","hard","hard","hard","hard","cult site"
"137","Boonenne","hard","hard","hard","hard","cult site"
"138","Boongary","hard","hard",NA,"hard","cult site"
"139","Botherm","loose","hard",NA,"loose","cult site"
"140","Bovekel","mulch","mulch","mulch","mulch","cult site"
"141","Boyanda","firm","soft","soft","firm","cult site"
"142","Boyne","hard","hard","hard","hard","cult site"
"143","Boynewood","hard","hard","hard","hard","cult site"
"144","Brae","hard","hard","hard","hard","cult site"
"145","Breen","hard","hard","hard","hard","cult site"
"146","Brightley","mulch","mulch","mulch","mulch","cult site"
"147","Brooyar","hard","hard","hard","hard","cult site"
"148","Brosnan","loose","loose","soft","loose","cult site"
"149","Bubbler","loose","hard","hard","loose","cult site"
"150","BUca","soft","soft",NA,"soft","cult site"
"151","BUcb","soft","soft",NA,"soft","cult site"
"152","Bucca","hard","hard","hard","hard","cult site"
"153","BUfa","hard","hard",NA,"hard","cult site"
"154","BUfb","hard","hard",NA,"hard","cult site"
"155","BUfc","hard","hard",NA,"hard","cult site"
"156","BUfd","hard","hard",NA,"hard","cult site"
"157","BUfe","hard","hard",NA,"hard","cult site"
"158","BUg-2","mulch","mulch","mulch","mulch","cult site"
"159","BUg-6","mulch","mulch","mulch","mulch","cult site"
"160","BUga","hard","hard",NA,"hard","cult site"
"161","Bulgun","firm",NA,NA,"firm","cult site"
"162","Bulguru","soft","soft",NA,"soft","cult site"
"163","Bullhead","loose","hard","hard","loose","cult site"
"164","BUma","hard","hard",NA,"hard","cult site"
"165","BUmb","hard","hard",NA,"hard","cult site"
"166","BUmb2","firm",NA,NA,"firm","cult site"
"167","BUmd","hard","hard",NA,"hard","cult site"
"168","Bungadoo","hard","hard",NA,"hard","cult site"
"169","Burdekin","firm","hard",NA,"firm","cult site"
"170","Burnett","soft","hard","hard","soft","cult site"
"171","Burnett Coarse Sandy Variant","soft","soft","soft","soft","cult site"
"172","Burnett Shallow Phase","hard",NA,"hard","hard","cult site"
"173","Burrum","firm","soft","loose","firm","cult site"
"174","Bushnell","hard","hard","hard","hard","cult site"
"175","Bushnell Eroded Phase","hard","hard","hard","hard","cult site"
"176","Butcher","hard","hard","hard","hard","cult site"
"177","BVE1","mulch","mulch","mulch","mulch","cult site"
"178","Byee","mulch","mulch","mulch","mulch","cult site"
"179","Cabbage Tree","hard","hard","hard","hard","cult site"
"180","Calavos","hard","hard","hard","hard","cult site"
"181","Calen","hard","hard","hard","hard","cult site"
"182","Callide","soft","hard","hard","soft","cult site"
"183","Cameron","hard","hard","hard","hard","cult site"
"184","Cameron (Gleyed Subsoil Phase)","firm",NA,"loose","firm","cult site"
"185","Campbell Plains","hard","hard",NA,"hard","cult site"
"186","Canoe","hard","hard","hard","hard","cult site"
"187","Cape","firm","hard",NA,"firm","cult site"
"188","Carmila","hard","hard","hard","hard","cult site"
"189","Cassidy","loose","loose","loose","loose","cult site"
"190","Catherina","hard","hard",NA,"hard","cult site"
"191","CDba","hard","hard",NA,"hard","cult site"
"192","CDbb","hard","hard",NA,"hard","cult site"
"193","CDra","soft","soft",NA,"soft","cult site"
"194","Ceratodus","hard","hard","hard","hard","cult site"
"195","Cheeseboro","mulch","mulch","hard","mulch","cult site"
"196","Chelmsford","hard","hard","hard","hard","cult site"
"197","Cherry Tree","hard","hard","hard","hard","cult site"
"198","Childers","hard","hard",NA,"hard","cult site"
"199","Chin","hard","hard",NA,"hard","cult site"
"200","Clayton","hard","hard",NA,"hard","cult site"
"201","Clifton","soft","hard","hard","soft","cult site"
"202","Cliftonville","hard","hard","hard","hard","cult site"
"203","Cobra","hard","hard",NA,"hard","cult site"
"204","Cole","hard",NA,"hard","hard","cult site"
"205","Colvin","loose","loose","hard","loose","cult site"
"206","Condor","hard","hard","hard","hard","cult site"
"207","Conway","firm",NA,"hard","firm","cult site"
"208","Coolabunia","hard","hard","hard","hard","cult site"
"209","Coom","hard","hard",NA,"hard","cult site"
"210","Coonoon","firm",NA,"hard","firm","cult site"
"211","Copenhagen","soft",NA,"soft","soft","cult site"
"212","Corfield","hard","hard",NA,"hard","cult site"
"213","Cottonham","mulch","mulch","mulch","mulch","cult site"
"214","Crawford","hard","hard",NA,"hard","cult site"
"215","Crossing","hard","hard",NA,"hard","cult site"
"216","Crystalbrook","hard","hard","hard","hard","cult site"
"217","CUca","soft","soft",NA,"soft","cult site"
"218","Cudmore","hard","loose","hard","hard","cult site"
"219","CUfa","hard","hard",NA,"hard","cult site"
"220","CUfb","hard","hard",NA,"hard","cult site"
"221","CUfc","hard","hard",NA,"hard","cult site"
"222","CUma","firm",NA,NA,"firm","cult site"
"223","CUma2","soft","soft",NA,"soft","cult site"
"224","CUmb","hard","hard",NA,"hard","cult site"
"225","Cushnie","hard","hard","hard","hard","cult site"
"226","CVE1","mulch","mulch","mulch","mulch","cult site"
"227","CVE2","mulch","mulch","mulch","mulch","cult site"
"228","CVE3","mulch","mulch","mulch","mulch","cult site"
"229","CVE4","mulch","mulch",NA,"mulch","cult site"
"230","CVE5","mulch","mulch",NA,"mulch","cult site"
"231","Dagun","firm",NA,"hard","firm","cult site"
"232","Dalgangal","hard","hard","hard","hard","cult site"
"233","Dawes","mulch","mulch",NA,"mulch","cult site"
"234","Derra (CWL)","loose","loose","mulch","loose","cult site"
"235","Diamond (Kcm)","mulch","mulch","mulch","mulch","cult site"
"236","Diamond (Kcm), Footslope Variant","mulch","mulch","mulch","mulch","cult site"
"237","Dickson","mulch","mulch","hard","mulch","cult site"
"238","Dickson, Shallow Variant","mulch","mulch","hard","mulch","cult site"
"239","Dillan","soft","hard",NA,"soft","cult site"
"240","Dingo (Pss)","firm","loose",NA,"firm","cult site"
"241","Dittmer","hard","hard","hard","hard","cult site"
"242","Don","hard","hard","hard","hard","cult site"
"243","Doonside","firm","hard",NA,"firm","cult site"
"244","Drinan","hard","hard",NA,"hard","cult site"
"245","Dryander","hard","hard","hard","hard","cult site"
"246","Dudgeon","hard","hard","hard","hard","cult site"
"247","Dunbas Deep Phase","mulch","mulch","mulch","mulch","cult site"
"248","Dundula","hard","hard",NA,"hard","cult site"
"249","Dunwold","firm","loose","loose","firm","cult site"
"250","Dwyer","hard","hard",NA,"hard","cult site"
"251","Earlsfield","mulch","mulch","mulch","mulch","cult site"
"252","Eastgate","mulch","mulch","hard","mulch","cult site"
"253","Edgecumbe","hard","hard","hard","hard","cult site"
"254","Edmonton","firm",NA,NA,"firm","cult site"
"255","Eerwah","hard","hard",NA,"hard","cult site"
"256","Eleanor","mulch","mulch","mulch","mulch","cult site"
"257","Eleanor, Mottled Phase","mulch","mulch",NA,"mulch","cult site"
"258","Elizabeth","firm",NA,NA,"firm","cult site"
"259","Ellis","soft","hard",NA,"soft","cult site"
"260","Emerald","soft","soft",NA,"soft","cult site"
"261","Eton","hard","hard","hard","hard","cult site"
"262","Etowrie","hard","hard","hard","hard","cult site"
"263","Etowrie (Neutral Variant)","hard","hard","hard","hard","cult site"
"264","Etowrie, Neutral Duplex Variant","hard","hard",NA,"hard","cult site"
"265","Eubenangee","loose","loose",NA,"loose","cult site"
"266","Eversleigh","hard","hard",NA,"hard","cult site"
"267","Fairdale","mulch","mulch","mulch","mulch","cult site"
"268","Fairview","mulch","mulch","mulch","mulch","cult site"
"269","Fairydale","firm","hard","hard","firm","cult site"
"270","Fairymead","firm","hard","mulch","firm","cult site"
"271","Falkner","mulch","mulch","mulch","mulch","cult site"
"272","Fanning River","firm","hard",NA,"firm","cult site"
"273","Farleigh","hard","hard","hard","hard","cult site"
"274","Farnsfield","hard","hard",NA,"hard","cult site"
"275","Farnsfield Sandy Variant","soft","soft",NA,"soft","cult site"
"276","Feluga","firm","hard","hard","firm","cult site"
"277","Finch Hatton","hard","hard","hard","hard","cult site"
"278","Finch Hatton (Alluvial - Colluvial Variant)","hard","hard","hard","hard","cult site"
"279","Finch Hatton, Alluvial-Colluvial Variant","firm",NA,NA,"firm","cult site"
"280","Finley","hard","hard","hard","hard","cult site"
"281","Fison","hard","hard","hard","hard","cult site"
"282","Flagstone","hard","hard","hard","hard","cult site"
"283","Fletcher","hard","hard","hard","hard","cult site"
"284","Foxdale","loose","hard","hard","loose","cult site"
"285","Freddy","hard","hard","hard","hard","cult site"
"286","Gahan","firm",NA,"hard","firm","cult site"
"287","Galmara","firm",NA,"soft","firm","cult site"
"288","Gander","hard","hard","hard","hard","cult site"
"289","Gargett","firm","loose",NA,"firm","cult site"
"290","Gibson - Bab","hard","hard","hard","hard","cult site"
"291","Gillen","hard","hard","hard","hard","cult site"
"292","Gillinbin","hard","hard","hard","hard","cult site"
"293","Givelda","hard","hard","hard","hard","cult site"
"294","Glen Isla","hard","hard","hard","hard","cult site"
"295","Glenrock","firm",NA,"hard","firm","cult site"
"296","Gooburrum","hard","hard","hard","hard","cult site"
"297","Gooburrum Mottled Variant","hard","hard",NA,"hard","cult site"
"298","Goodbye","firm","hard","hard","firm","cult site"
"299","Goodger","hard","soft","loose","hard","cult site"
"300","Goolboo","soft","soft",NA,"soft","cult site"
"301","Goorganga","hard","hard","hard","hard","cult site"
"302","Gordonbrook","firm","hard","hard","firm","cult site"
"303","Gracemere","hard","hard",NA,"hard","cult site"
"304","Graham","mulch","mulch","mulch","mulch","cult site"
"305","Granville","hard","hard","hard","hard","cult site"
"306","Grevillea","soft","soft","hard","soft","cult site"
"307","Greycliffe","mulch","soft","mulch","mulch","cult site"
"308","Greycliffe Melonhole Phase","crust",NA,NA,"crust","cult site"
"309","Habana","hard",NA,"hard","hard","cult site"
"310","Haden","firm",NA,NA,"firm","cult site"
"311","Halivale","hard","hard",NA,"hard","cult site"
"312","Haly","hard",NA,"hard","hard","cult site"
"313","Hamleigh","crust","hard","hard","crust","cult site"
"314","Hannan","hard","hard","hard","hard","cult site"
"315","Hawkins","loose","loose","loose","loose","cult site"
"316","Hawkwood","hard","hard","hard","hard","cult site"
"317","Hector (PCS)","hard","hard","hard","hard","cult site"
"318","Herbert","crust",NA,"hard","crust","cult site"
"319","Hewitt","loose","loose",NA,"loose","cult site"
"320","Highbury","hard","hard",NA,"hard","cult site"
"321","Hillsborough","hard","hard","hard","hard","cult site"
"322","Hillsdale","hard","hard","hard","hard","cult site"
"323","Hind","mulch","mulch",NA,"mulch","cult site"
"324","Hodge (BAN)","hard","hard","hard","hard","cult site"
"325","Holding","mulch","mulch","mulch","mulch","cult site"
"326","Homestead","firm","hard","hard","firm","cult site"
"327","Howes","hard","hard","hard","hard","cult site"
"328","Ilbilbie","hard","hard","hard","hard","cult site"
"329","Ingham","hard","hard",NA,"hard","cult site"
"330","Inlet","hard","hard",NA,"hard","cult site"
"331","Isis","hard","hard","hard","hard","cult site"
"332","Jambin","mulch","mulch","mulch","mulch","cult site"
"333","Jaro","firm","soft","soft","firm","cult site"
"334","Jarra","firm",NA,NA,"firm","cult site"
"335","Julian","firm",NA,"hard","firm","cult site"
"336","Jumper","hard","hard",NA,"hard","cult site"
"337","Jumpo","hard","hard","hard","hard","cult site"
"338","Kaban","mulch",NA,"hard","mulch","cult site"
"339","Kaber","mulch","mulch","mulch","mulch","cult site"
"340","Kabra","hard","hard",NA,"hard","cult site"
"341","Kalah","hard","hard","hard","hard","cult site"
"342","Karloo","hard","hard","hard","hard","cult site"
"343","Kaygaroo","soft","soft",NA,"soft","cult site"
"344","Kelona A Horizon Variant","hard","hard",NA,"hard","cult site"
"345","Kelona Buried Soils Or D Horizons Vary","hard","hard",NA,"hard","cult site"
"346","Kenlogan","mulch","mulch","mulch","mulch","cult site"
"347","Kenmar","mulch","mulch","mulch","mulch","cult site"
"348","Kepnock","hard","hard",NA,"hard","cult site"
"349","Keppel","hard","hard","hard","hard","cult site"
"350","Kilburnie","soft","soft","hard","soft","cult site"
"351","Kinkuna","loose","loose","hard","loose","cult site"
"352","Kirrama","loose","loose",NA,"loose","cult site"
"353","Kokutungo","hard","hard","hard","hard","cult site"
"354","Kolan","hard","hard","hard","hard","cult site"
"355","Kolan Red Variant","hard","hard","hard","hard","cult site"
"356","Kolbore","hard","hard","hard","hard","cult site"
"357","Koolachu","loose","loose","hard","loose","cult site"
"358","Kooringa","firm",NA,"soft","firm","cult site"
"359","Koumala","hard","hard","hard","hard","cult site"
"360","Kumbia","hard","hard","hard","hard","cult site"
"361","Kungurri","mulch","mulch","hard","mulch","cult site"
"362","Kunioon","hard","hard","hard","hard","cult site"
"363","Kuttabul","hard","hard","hard","hard","cult site"
"364","Kuttabul, Alluvial-Colluvial Variant","hard","hard",NA,"hard","cult site"
"365","Lancer Buried Soils Or D Horizons Vary (6drb2)","hard","hard",NA,"hard","cult site"
"366","Langley-Wdh","mulch","mulch","mulch","mulch","cult site"
"367","Lascelles","firm","hard",NA,"firm","cult site"
"368","Laura","loose",NA,"hard","loose","cult site"
"369","Leach","hard","hard",NA,"hard","cult site"
"370","Lee","hard","hard","hard","hard","cult site"
"371","Leichhardt","hard","hard","hard","hard","cult site"
"372","Lily","loose",NA,"hard","loose","cult site"
"373","Littabella","hard","hard",NA,"hard","cult site"
"374","Liverpool","firm",NA,"hard","firm","cult site"
"375","Lizard","soft",NA,NA,"soft","cult site"
"376","Louisa","hard","hard","hard","hard","cult site"
"377","Lucy","hard","hard","hard","hard","cult site"
"378","Lugger","firm","loose","hard","firm","cult site"
"379","Macknade","hard",NA,"hard","hard","cult site"
"380","Maclean (Lak)","loose",NA,"hard","loose","cult site"
"381","Mahogany","hard","loose","hard","hard","cult site"
"382","Malbon","firm",NA,NA,"firm","cult site"
"383","Malchi","hard","hard",NA,"hard","cult site"
"384","Manar","mulch","mulch","mulch","mulch","cult site"
"385","Manor","hard","hard","hard","hard","cult site"
"386","Maraconda","mulch","mulch","mulch","mulch","cult site"
"387","Mareeba 1","hard","hard","hard","hard","cult site"
"388","Marian","hard","hard",NA,"hard","cult site"
"389","Marian, Yellow B Horizon Variant","loose","loose",NA,"loose","cult site"
"390","Marlow","firm","hard","hard","firm","cult site"
"391","Maroondan","mulch","mulch","hard","mulch","cult site"
"392","Martin","firm","hard",NA,"firm","cult site"
"393","Martyr","mulch","mulch",NA,"mulch","cult site"
"394","Mary","hard",NA,"hard","hard","cult site"
"395","Mary Dark Variant","firm",NA,NA,"firm","cult site"
"396","Mceuen","mulch","mulch","mulch","mulch","cult site"
"397","MDE1","soft","hard",NA,"soft","cult site"
"398","Meadowvale","hard","hard","hard","hard","cult site"
"399","Melton","soft",NA,NA,"soft","cult site"
"400","Memerambi","hard","hard",NA,"hard","cult site"
"401","Mentmore","hard","hard",NA,"hard","cult site"
"402","Midden","mulch","mulch",NA,"mulch","cult site"
"403","Mirani","firm","hard","hard","firm","cult site"
"404","Mirriwinni","hard",NA,NA,"hard","cult site"
"405","Miskin Buried Soils Or D Horizons Vary","hard","hard",NA,"hard","cult site"
"406","Miva","hard",NA,NA,"hard","cult site"
"407","Moffat","hard","hard","hard","hard","cult site"
"408","Molonga","hard",NA,NA,"hard","cult site"
"409","Mondure","hard","hard","hard","hard","cult site"
"410","Monkland","hard",NA,NA,"hard","cult site"
"411","Moore Park","hard","loose","hard","hard","cult site"
"412","Moorland","hard","hard","hard","hard","cult site"
"413","Moosie","firm","hard","hard","firm","cult site"
"414","Moramana","mulch","mulch","mulch","mulch","cult site"
"415","Moramana, Gilgai Phase","mulch","mulch",NA,"mulch","cult site"
"416","Morganbury","hard","hard",NA,"hard","cult site"
"417","Mossman","soft",NA,"hard","soft","cult site"
"418","Mulei","loose","loose","hard","loose","cult site"
"419","Mulligan","soft","hard",NA,"soft","cult site"
"420","Mulligan Gravelly Phase","firm",NA,NA,"firm","cult site"
"421","Munbura","loose","loose",NA,"loose","cult site"
"422","Mundoo","firm",NA,NA,"firm","cult site"
"423","Mungar","hard","hard","hard","hard","cult site"
"424","Murphy","firm",NA,NA,"firm","cult site"
"425","Murphy Pan Phase","soft","soft",NA,"soft","cult site"
"426","Murray","hard",NA,"loose","hard","cult site"
"427","Myrtle","hard","hard","hard","hard","cult site"
"428","Nabilla","firm",NA,"hard","firm","cult site"
"429","Nail","crust",NA,NA,"crust","cult site"
"430","Narpi","hard","hard","hard","hard","cult site"
"431","Niagara","mulch","mulch","mulch","mulch","cult site"
"432","Nicotine Yellow","soft","soft",NA,"soft","cult site"
"433","Ninemile","mulch","mulch","mulch","mulch","cult site"
"434","Normanby","mulch","mulch","hard","mulch","cult site"
"435","Nullinga","loose","hard",NA,"loose","cult site"
"436","Nursery","mulch","mulch","mulch","mulch","cult site"
"437","Oakwood","hard","hard","hard","hard","cult site"
"438","Oombabeer","mulch","mulch","hard","mulch","cult site"
"439","Ossa","hard","hard","hard","hard","cult site"
"440","Ossa (Cobbly Variant)","hard","hard","hard","hard","cult site"
"441","Otoo","hard","hard","hard","hard","cult site"
"442","Otoo Sandy Variant","hard","hard","hard","hard","cult site"
"443","Owanyilla","hard","hard","hard","hard","cult site"
"444","Palm","hard","hard","hard","hard","cult site"
"445","Palmyra","hard","hard","hard","hard","cult site"
"446","Palouse","hard","hard","hard","hard","cult site"
"447","Peep","hard","hard","hard","hard","cult site"
"448","Peep Sandy Variant","hard","hard","hard","hard","cult site"
"449","Pelion","hard","mulch","mulch","hard","cult site"
"450","Penman","hard","hard",NA,"hard","cult site"
"451","Perry","hard","hard",NA,"hard","cult site"
"452","Picardy","mulch","mulch","mulch","mulch","cult site"
"453","Pin Gin","loose",NA,"loose","loose","cult site"
"454","Pindi","hard","hard",NA,"hard","cult site"
"455","Pinnacle - Cq","hard","hard","hard","hard","cult site"
"456","Pioneer","hard",NA,"hard","hard","cult site"
"457","Pioneer, Red B Horizon Variant","soft","soft","hard","soft","cult site"
"458","Powerhouse","firm","soft","soft","firm","cult site"
"459","Prendergast","hard","hard","hard","hard","cult site"
"460","Preston","hard","hard","hard","hard","cult site"
"461","Price","loose","soft",NA,"loose","cult site"
"462","Prior","firm",NA,NA,"firm","cult site"
"463","Proserpine","loose","loose",NA,"loose","cult site"
"464","Quart","hard","hard",NA,"hard","cult site"
"465","Qunaba","soft","soft","hard","soft","cult site"
"466","Ram","hard","hard","hard","hard","cult site"
"467","Ramleh","hard","hard",NA,"hard","cult site"
"468","Rankin","mulch","mulch","mulch","mulch","cult site"
"469","Raven","soft","soft",NA,"soft","cult site"
"470","RDya","firm","hard",NA,"firm","cult site"
"471","Redbank","hard","hard","hard","hard","cult site"
"472","Retro","mulch","mulch","hard","mulch","cult site"
"473","Retro (BAN)","hard","hard","hard","hard","cult site"
"474","Riordanvale","hard",NA,NA,"hard","cult site"
"475","Ripple","hard","hard","hard","hard","cult site"
"476","Riverleigh","hard","hard","hard","hard","cult site"
"477","Robur","soft","hard",NA,"soft","cult site"
"478","Rolleston","mulch","mulch","mulch","mulch","cult site"
"479","Ronnoc","mulch","mulch","mulch","mulch","cult site"
"480","Rothchild","loose","soft","hard","loose","cult site"
"481","Royston","hard","hard","hard","hard","cult site"
"482","Ruby","firm",NA,NA,"firm","cult site"
"483","Rubyanna","mulch","mulch","mulch","mulch","cult site"
"484","RUfe","firm","hard",NA,"firm","cult site"
"485","Rugb","hard","hard",NA,"hard","cult site"
"486","RUgbS","hard","hard",NA,"hard","cult site"
"487","RUgc","hard","hard",NA,"hard","cult site"
"488","RUgcS","hard","hard",NA,"hard","cult site"
"489","RUgd","hard","hard",NA,"hard","cult site"
"490","Russell","mulch","mulch","mulch","mulch","cult site"
"491","Russell, Gilgai Phase","mulch","mulch","mulch","mulch","cult site"
"492","Russell, Stony Phase","mulch","mulch","mulch","mulch","cult site"
"493","Saddle","hard","hard","hard","hard","cult site"
"494","Samourgassi","hard","hard","hard","hard","cult site"
"495","Sandiford","hard","hard","hard","hard","cult site"
"496","Sandiford (Silty Topsoil Variant)","hard","hard","hard","hard","cult site"
"497","Seaforth","hard","hard",NA,"hard","cult site"
"498","Seaview","mulch","mulch","hard","mulch","cult site"
"499","Septimus","loose","loose","loose","loose","cult site"
"500","Silent Grove","mulch","mulch","mulch","mulch","cult site"
"501","Silkwood","soft","soft",NA,"soft","cult site"
"502","Slater","hard","hard","hard","hard","cult site"
"503","Solferino","mulch","mulch","mulch","mulch","cult site"
"504","Spanos","soft","loose","loose","soft","cult site"
"505","Springs","soft","soft","loose","soft","cult site"
"506","St Helens","firm",NA,NA,"firm","cult site"
"507","Strathdickie","hard","hard","mulch","hard","cult site"
"508","Sugarmill","hard","hard","hard","hard","cult site"
"509","Sugarmill Gravelly Variant","soft","loose",NA,"soft","cult site"
"510","Sumalee","soft","soft",NA,"soft","cult site"
"511","Summerville","hard","soft","hard","hard","cult site"
"512","Sunnyside","hard","hard","hard","hard","cult site"
"513","SVE1","mulch","mulch",NA,"mulch","cult site"
"514","Tabletop","hard","hard","mulch","hard","cult site"
"515","Tailing","hard","hard",NA,"hard","cult site"
"516","Tanby","firm",NA,NA,"firm","cult site"
"517","Tandora","hard","hard","hard","hard","cult site"
"518","Tantitha","loose","loose","loose","loose","cult site"
"519","Tarong","hard","hard","hard","hard","cult site"
"520","Tarramba","soft","soft","mulch","soft","cult site"
"521","Tawalla","loose","loose",NA,"loose","cult site"
"522","TbUg-11","mulch","mulch",NA,"mulch","cult site"
"523","TbUg-6","mulch","mulch",NA,"mulch","cult site"
"524","Te_El_Kabir","mulch","mulch","mulch","mulch","cult site"
"525","Teddington","hard","hard","hard","hard","cult site"
"526","Tedlands","hard","hard","hard","hard","cult site"
"527","Telegraph","soft","soft","hard","soft","cult site"
"528","Tenmile","hard","loose","loose","hard","cult site"
"529","Teralba","firm",NA,NA,"firm","cult site"
"530","Terrace","hard","hard","hard","hard","cult site"
"531","Theodolite","hard","loose","loose","hard","cult site"
"532","Thompson - Mrc","hard",NA,NA,"hard","cult site"
"533","Thorpe","firm","hard","hard","firm","cult site"
"534","Timara","firm",NA,NA,"firm","cult site"
"535","Timbrell","hard","hard","hard","hard","cult site"
"536","Tinana","loose",NA,"loose","loose","cult site"
"537","Tingoora","mulch","mulch","mulch","mulch","cult site"
"538","Tinkle","hard","hard","hard","hard","cult site"
"539","Tiny","mulch","mulch","mulch","mulch","cult site"
"540","Tirrabella","hard","hard","hard","hard","cult site"
"541","Tirroan","hard","hard","hard","hard","cult site"
"542","Tognolini","mulch","mulch","mulch","mulch","cult site"
"543","Tolga","firm",NA,"loose","firm","cult site"
"544","Toobanna","hard","hard","hard","hard","cult site"
"545","Toondoon","hard","hard","hard","hard","cult site"
"546","Tralee","mulch","hard","hard","mulch","cult site"
"547","Trebonne","hard","hard","hard","hard","cult site"
"548","TsUgg-2","mulch","mulch",NA,"mulch","cult site"
"549","Tully","soft","soft","soft","soft","cult site"
"550","Turnor","hard","hard","hard","hard","cult site"
"551","Turpad","hard","hard","hard","hard","cult site"
"552","Turpin","hard","hard","hard","hard","cult site"
"553","Ulogie","hard","hard","hard","hard","cult site"
"554","Urannah","hard","hard","hard","hard","cult site"
"555","Utchee","hard",NA,"hard","hard","cult site"
"556","Valetta","soft",NA,NA,"soft","cult site"
"557","Vicenza","mulch","mulch","mulch","mulch","cult site"
"558","Victoria Plains","mulch","mulch","mulch","mulch","cult site"
"559","Virgil","soft","soft",NA,"soft","cult site"
"560","Voewood","hard","hard","hard","hard","cult site"
"561","Wagoora","hard","hard","hard","hard","cult site"
"562","Wagoora, Basic Parent Material Variant","firm","mulch","hard","firm","cult site"
"563","Walkamin","hard","hard",NA,"hard","cult site"
"564","Walkamin Sandy Phase","firm",NA,NA,"firm","cult site"
"565","Walker - Mhb","hard","hard","hard","hard","cult site"
"566","Walla","hard","hard",NA,"hard","cult site"
"567","Wallum","hard","loose","hard","hard","cult site"
"568","Walsh","hard","hard",NA,"hard","cult site"
"569","Watalgan","hard","hard","hard","hard","cult site"
"570","Watalgan Mottled Variant","hard","hard",NA,"hard","cult site"
"571","Weir","hard","hard","hard","hard","cult site"
"572","Weithew","hard","hard","hard","hard","cult site"
"573","Well","mulch","mulch","mulch","mulch","cult site"
"574","Whiptail","hard","hard","hard","hard","cult site"
"575","Whymere","loose","loose","hard","loose","cult site"
"576","Windermere","mulch","mulch","mulch","mulch","cult site"
"577","Windradene","mulch","mulch","mulch","mulch","cult site"
"578","Winfield","soft","soft","loose","soft","cult site"
"579","Witton","hard","hard",NA,"hard","cult site"
"580","Woco","hard","hard",NA,"hard","cult site"
"581","Wollingford","hard","hard","hard","hard","cult site"
"582","Wondai","mulch","mulch","mulch","mulch","cult site"
"583","Woober","hard","hard","hard","hard","cult site"
"584","Woolmer","hard","hard",NA,"hard","cult site"
"585","Woongarra","loose","loose",NA,"loose","cult site"
"586","Wooroolin","hard","hard",NA,"hard","cult site"
"587","Yackadoo","mulch","hard","hard","mulch","cult site"
"588","Yandaran","hard","hard",NA,"hard","cult site"
"589","1ACH1",NA,"hard",NA,"hard","all sites (not firm/crust)"
"590","1ADb",NA,"hard","hard","hard","all sites (not firm/crust)"
"591","1ADb-2",NA,"hard",NA,"hard","all sites (not firm/crust)"
"592","1ADb-7",NA,"hard",NA,"hard","all sites (not firm/crust)"
"593","1ADb-Dd",NA,"hard",NA,"hard","all sites (not firm/crust)"
"594","1ADd-3",NA,"hard",NA,"hard","all sites (not firm/crust)"
"595","1ADd-4",NA,"hard",NA,"hard","all sites (not firm/crust)"
"596","1ADE2",NA,"hard",NA,"hard","all sites (not firm/crust)"
"597","1ARU1",NA,"hard",NA,"hard","all sites (not firm/crust)"
"598","1ATE1",NA,"soft",NA,"soft","all sites (not firm/crust)"
"599","1AUg-13",NA,"mulch","mulch","mulch","all sites (not firm/crust)"
"600","1AUg-3",NA,"mulch",NA,"mulch","all sites (not firm/crust)"
"601","1AUg-4",NA,"mulch",NA,"mulch","all sites (not firm/crust)"
"602","1AVE3",NA,"hard",NA,"hard","all sites (not firm/crust)"
"603","1AVE5",NA,"mulch",NA,"mulch","all sites (not firm/crust)"
"604","1CHa",NA,"hard","hard","hard","all sites (not firm/crust)"
"605","1Dbb",NA,"hard","hard","hard","all sites (not firm/crust)"
"606","1Dda3",NA,"hard",NA,"hard","all sites (not firm/crust)"
"607","1Dyd",NA,"hard","hard","hard","all sites (not firm/crust)"
"608","1SOb",NA,"hard","hard","hard","all sites (not firm/crust)"
"609","1Ug",NA,"mulch",NA,"mulch","all sites (not firm/crust)"
"610","1Uga1",NA,"mulch",NA,"mulch","all sites (not firm/crust)"
"611","1Ugc",NA,"hard","hard","hard","all sites (not firm/crust)"
"612","1Ugf",NA,"hard","hard","hard","all sites (not firm/crust)"
"613","2ADb-1",NA,"hard",NA,"hard","all sites (not firm/crust)"
"614","2AUg-7",NA,"mulch",NA,"mulch","all sites (not firm/crust)"
"615","2AUg-8m",NA,"mulch",NA,"mulch","all sites (not firm/crust)"
"616","2AUgg-1m",NA,"mulch",NA,"mulch","all sites (not firm/crust)"
"617","2AUgg-2m",NA,"mulch",NA,"mulch","all sites (not firm/crust)"
"618","2Dba",NA,"hard","hard","hard","all sites (not firm/crust)"
"619","2Dbb2",NA,"hard",NA,"hard","all sites (not firm/crust)"
"620","2Dda",NA,"hard","hard","hard","all sites (not firm/crust)"
"621","2Dda2",NA,"hard",NA,"hard","all sites (not firm/crust)"
"622","2Ddb2",NA,"hard",NA,"hard","all sites (not firm/crust)"
"623","2Ddc",NA,"hard","hard","hard","all sites (not firm/crust)"
"624","2Dya3",NA,"hard",NA,"hard","all sites (not firm/crust)"
"625","2Dyc",NA,"hard","hard","hard","all sites (not firm/crust)"
"626","2Dyc2",NA,"hard",NA,"hard","all sites (not firm/crust)"
"627","2Uga",NA,"mulch","mulch","mulch","all sites (not firm/crust)"
"628","2Ugb",NA,"mulch","mulch","mulch","all sites (not firm/crust)"
"629","2UgcW",NA,"hard",NA,"hard","all sites (not firm/crust)"
"630","2ugd2",NA,"hard",NA,"hard","all sites (not firm/crust)"
"631","2UgdW",NA,"hard",NA,"hard","all sites (not firm/crust)"
"632","2Uge7",NA,"mulch",NA,"mulch","all sites (not firm/crust)"
"633","2UgfW",NA,"mulch",NA,"mulch","all sites (not firm/crust)"
"634","2UggW",NA,"mulch",NA,"mulch","all sites (not firm/crust)"
"635","2Ugk",NA,"mulch","mulch","mulch","all sites (not firm/crust)"
"636","2Ugk2",NA,"mulch",NA,"mulch","all sites (not firm/crust)"
"637","2VEa",NA,"soft",NA,"soft","all sites (not firm/crust)"
"638","2VEe",NA,"mulch","mulch","mulch","all sites (not firm/crust)"
"639","2VEy",NA,"mulch","mulch","mulch","all sites (not firm/crust)"
"640","3ASO1",NA,"hard",NA,"hard","all sites (not firm/crust)"
"641","3AUf",NA,"hard","hard","hard","all sites (not firm/crust)"
"642","3AUf-Ug-1m",NA,"hard",NA,"hard","all sites (not firm/crust)"
"643","3AUf-Ug-2m",NA,"mulch",NA,"mulch","all sites (not firm/crust)"
"644","3AUf-Ug-3d",NA,"mulch",NA,"mulch","all sites (not firm/crust)"
"645","3AUg-2",NA,"mulch",NA,"mulch","all sites (not firm/crust)"
"646","3SOb",NA,"hard",NA,"hard","all sites (not firm/crust)"
"647","3Uga",NA,"mulch","mulch","mulch","all sites (not firm/crust)"
"648","3Ugc",NA,"mulch","mulch","mulch","all sites (not firm/crust)"
"649","3Ugd",NA,"mulch","mulch","mulch","all sites (not firm/crust)"
"650","3Uge",NA,"mulch","mulch","mulch","all sites (not firm/crust)"
"651","3Ugk",NA,"mulch","mulch","mulch","all sites (not firm/crust)"
"652","3VEz",NA,"mulch","mulch","mulch","all sites (not firm/crust)"
"653","4AUf",NA,"hard",NA,"hard","all sites (not firm/crust)"
"654","4Dga",NA,"hard","hard","hard","all sites (not firm/crust)"
"655","4Dyj",NA,"hard","hard","hard","all sites (not firm/crust)"
"656","4Gnb",NA,"hard","hard","hard","all sites (not firm/crust)"
"657","4Ucc",NA,"hard","hard","hard","all sites (not firm/crust)"
"658","5Dra3",NA,"hard",NA,"hard","all sites (not firm/crust)"
"659","5Dya",NA,"hard","hard","hard","all sites (not firm/crust)"
"660","5Dye",NA,"hard","hard","hard","all sites (not firm/crust)"
"661","5SOy",NA,"loose",NA,"loose","all sites (not firm/crust)"
"662","5Uga",NA,"mulch","mulch","mulch","all sites (not firm/crust)"
"663","5Ugb",NA,"hard","hard","hard","all sites (not firm/crust)"
"664","5VEy",NA,"mulch","mulch","mulch","all sites (not firm/crust)"
"665","6ADb-1",NA,"hard","hard","hard","all sites (not firm/crust)"
"666","6ADb-4",NA,"hard",NA,"hard","all sites (not firm/crust)"
"667","6ADy-3",NA,"hard","hard","hard","all sites (not firm/crust)"
"668","6AUg-10",NA,"mulch",NA,"mulch","all sites (not firm/crust)"
"669","6AUg-3",NA,"mulch","mulch","mulch","all sites (not firm/crust)"
"670","6AUg-4",NA,"mulch","mulch","mulch","all sites (not firm/crust)"
"671","6AUg-6",NA,"mulch","mulch","mulch","all sites (not firm/crust)"
"672","6Db",NA,"hard",NA,"hard","all sites (not firm/crust)"
"673","6Dba",NA,"hard","hard","hard","all sites (not firm/crust)"
"674","6Dbb2",NA,"hard",NA,"hard","all sites (not firm/crust)"
"675","6Dbc",NA,"hard","hard","hard","all sites (not firm/crust)"
"676","6Dbc2",NA,"hard",NA,"hard","all sites (not firm/crust)"
"677","6Dbd",NA,"hard","hard","hard","all sites (not firm/crust)"
"678","6Dbe",NA,"hard","hard","hard","all sites (not firm/crust)"
"679","6Dbe2",NA,"hard",NA,"hard","all sites (not firm/crust)"
"680","6Dbf",NA,"hard","hard","hard","all sites (not firm/crust)"
"681","6Dbg",NA,"hard","hard","hard","all sites (not firm/crust)"
"682","6Dbh",NA,"hard","hard","hard","all sites (not firm/crust)"
"683","6Dbh2",NA,"hard",NA,"hard","all sites (not firm/crust)"
"684","6Dda",NA,"hard","hard","hard","all sites (not firm/crust)"
"685","6Dyc2",NA,"hard",NA,"hard","all sites (not firm/crust)"
"686","6Dyd7",NA,"hard",NA,"hard","all sites (not firm/crust)"
"687","6Dyg4",NA,"hard",NA,"hard","all sites (not firm/crust)"
"688","6Dyh",NA,"hard","hard","hard","all sites (not firm/crust)"
"689","6Dyj",NA,"hard","hard","hard","all sites (not firm/crust)"
"690","6E",NA,"hard",NA,"hard","all sites (not firm/crust)"
"691","6Gnc",NA,"hard","hard","hard","all sites (not firm/crust)"
"692","6Gnd",NA,"hard","hard","hard","all sites (not firm/crust)"
"693","6Gne",NA,"hard","hard","hard","all sites (not firm/crust)"
"694","6UfdA",NA,"hard",NA,"hard","all sites (not firm/crust)"
"695","Abergowrie Sandy Phase",NA,"loose",NA,"loose","all sites (not firm/crust)"
"696","Alice",NA,"hard",NA,"hard","all sites (not firm/crust)"
"697","Allandale",NA,"hard",NA,"hard","all sites (not firm/crust)"
"698","Allandale, Strongly Sodic Variant",NA,"hard",NA,"hard","all sites (not firm/crust)"
"699","Alluvial Complex - Lower, Cracking Clays",NA,"mulch",NA,"mulch","all sites (not firm/crust)"
"700","Althaus",NA,"hard","hard","hard","all sites (not firm/crust)"
"701","Althaus (Zed)",NA,"hard",NA,"hard","all sites (not firm/crust)"
"702","Amity",NA,"mulch","mulch","mulch","all sites (not firm/crust)"
"703","Andergrove (Alkaline Variant)",NA,"loose","loose","loose","all sites (not firm/crust)"
"704","Andergrove Water Table Variant",NA,"loose","loose","loose","all sites (not firm/crust)"
"705","Arnolds",NA,"soft",NA,"soft","all sites (not firm/crust)"
"706","Arnot",NA,"hard","hard","hard","all sites (not firm/crust)"
"707","Ashton",NA,"hard","hard","hard","all sites (not firm/crust)"
"708","Auburn Red Variant",NA,"hard","hard","hard","all sites (not firm/crust)"
"709","Avondale Tenic Variant",NA,"hard",NA,"hard","all sites (not firm/crust)"
"710","Awoonga",NA,"hard","hard","hard","all sites (not firm/crust)"
"711","Balark",NA,"mulch","mulch","mulch","all sites (not firm/crust)"
"712","Banban",NA,"hard","hard","hard","all sites (not firm/crust)"
"713","Barrack",NA,"hard",NA,"hard","all sites (not firm/crust)"
"714","Basalt Rock",NA,"soft",NA,"soft","all sites (not firm/crust)"
"715","Bauhinia",NA,"soft","mulch","soft","all sites (not firm/crust)"
"716","Bauple",NA,"soft","soft","soft","all sites (not firm/crust)"
"717","Beelbi",NA,"loose","hard","loose","all sites (not firm/crust)"
"718","Beenham",NA,"hard","hard","hard","all sites (not firm/crust)"
"719","Bells",NA,"hard",NA,"hard","all sites (not firm/crust)"
"720","Bluewater (Zed)",NA,"hard","soft","hard","all sites (not firm/crust)"
"721","Bluff",NA,"hard",NA,"hard","all sites (not firm/crust)"
"722","Booyal",NA,"hard",NA,"hard","all sites (not firm/crust)"
"723","Boston",NA,"hard","hard","hard","all sites (not firm/crust)"
"724","Boynewood Rocky Phase",NA,"hard",NA,"hard","all sites (not firm/crust)"
"725","Brooweena",NA,"hard",NA,"hard","all sites (not firm/crust)"
"726","Bucca Red Variant",NA,"hard",NA,"hard","all sites (not firm/crust)"
"727","Buckley",NA,"hard","hard","hard","all sites (not firm/crust)"
"728","Buffel",NA,"hard","hard","hard","all sites (not firm/crust)"
"729","BUg-10",NA,"mulch","mulch","mulch","all sites (not firm/crust)"
"730","BUg-3",NA,"mulch",NA,"mulch","all sites (not firm/crust)"
"731","BUg-4",NA,"mulch","mulch","mulch","all sites (not firm/crust)"
"732","Bullhead Shallow Phase",NA,"hard",NA,"hard","all sites (not firm/crust)"
"733","Burdekin Buried Soils Or D Horizons Vary",NA,"hard",NA,"hard","all sites (not firm/crust)"
"734","Burradoo",NA,"hard","hard","hard","all sites (not firm/crust)"
"735","Byabra",NA,"hard","hard","hard","all sites (not firm/crust)"
"736","Caley",NA,"loose","soft","loose","all sites (not firm/crust)"
"737","Carew",NA,"mulch","mulch","mulch","all sites (not firm/crust)"
"738","Carfax",NA,"mulch","mulch","mulch","all sites (not firm/crust)"
"739","Carinya",NA,"hard",NA,"hard","all sites (not firm/crust)"
"740","Carmine",NA,"soft",NA,"soft","all sites (not firm/crust)"
"741","Castleview",NA,"hard","hard","hard","all sites (not firm/crust)"
"742","Cattle",NA,"mulch","mulch","mulch","all sites (not firm/crust)"
"743","Cherbourg",NA,"hard","loose","hard","all sites (not firm/crust)"
"744","Clemant",NA,"hard","loose","hard","all sites (not firm/crust)"
"745","Colenso",NA,"hard",NA,"hard","all sites (not firm/crust)"
"746","Commissioner",NA,"hard","hard","hard","all sites (not firm/crust)"
"747","Conjuboy",NA,"hard",NA,"hard","all sites (not firm/crust)"
"748","Conway (Cqh)",NA,"hard","hard","hard","all sites (not firm/crust)"
"749","Cooyar",NA,"hard","hard","hard","all sites (not firm/crust)"
"750","Creek",NA,"hard","hard","hard","all sites (not firm/crust)"
"751","Dale",NA,"hard",NA,"hard","all sites (not firm/crust)"
"752","Dalrymple",NA,"hard",NA,"hard","all sites (not firm/crust)"
"753","Dangore",NA,"hard","hard","hard","all sites (not firm/crust)"
"754","Dargy",NA,"mulch","mulch","mulch","all sites (not firm/crust)"
"755","Dayman",NA,"hard","hard","hard","all sites (not firm/crust)"
"756","Derra",NA,"hard","mulch","hard","all sites (not firm/crust)"
"757","Dixie",NA,"hard","hard","hard","all sites (not firm/crust)"
"758","Doolbi",NA,"hard",NA,"hard","all sites (not firm/crust)"
"759","Dotswood",NA,"hard",NA,"hard","all sites (not firm/crust)"
"760","Dove",NA,"mulch",NA,"mulch","all sites (not firm/crust)"
"761","Drape",NA,"mulch","mulch","mulch","all sites (not firm/crust)"
"762","Drysdale",NA,"hard","hard","hard","all sites (not firm/crust)"
"763","Egera",NA,"mulch","mulch","mulch","all sites (not firm/crust)"
"764","Elliot",NA,"loose","hard","loose","all sites (not firm/crust)"
"765","Farencer Buried Soils Or D Horizons Vary",NA,"hard",NA,"hard","all sites (not firm/crust)"
"766","Fourmile",NA,"hard",NA,"hard","all sites (not firm/crust)"
"767","Foxleigh",NA,"hard","hard","hard","all sites (not firm/crust)"
"768","Gainsford",NA,"hard",NA,"hard","all sites (not firm/crust)"
"769","Gayfield",NA,"soft",NA,"soft","all sites (not firm/crust)"
"770","Gibson Clay Loam Phase",NA,"hard","hard","hard","all sites (not firm/crust)"
"771","Gigoon",NA,"hard",NA,"hard","all sites (not firm/crust)"
"772","Gillian",NA,"mulch",NA,"mulch","all sites (not firm/crust)"
"773","Glenalder Buried Soils Or D Horizons Vary",NA,"hard",NA,"hard","all sites (not firm/crust)"
"774","Glenroc",NA,"hard","hard","hard","all sites (not firm/crust)"
"775","Goodbye (MAJCK)",NA,"hard","hard","hard","all sites (not firm/crust)"
"776","Goovigen",NA,"soft",NA,"soft","all sites (not firm/crust)"
"777","Granite",NA,"loose","loose","loose","all sites (not firm/crust)"
"778","Gueena",NA,"mulch","mulch","mulch","all sites (not firm/crust)"
"779","Gutchy",NA,"hard",NA,"hard","all sites (not firm/crust)"
"780","Harris",NA,"mulch","mulch","mulch","all sites (not firm/crust)"
"781","Harwood",NA,"hard","hard","hard","all sites (not firm/crust)"
"782","Hillgrove",NA,"hard",NA,"hard","all sites (not firm/crust)"
"783","Hillview",NA,"hard","hard","hard","all sites (not firm/crust)"
"784","Hillview (Zed)",NA,"hard",NA,"hard","all sites (not firm/crust)"
"785","Hillview Fine Variant",NA,"hard","hard","hard","all sites (not firm/crust)"
"786","Hinkler",NA,"mulch","mulch","mulch","all sites (not firm/crust)"
"787","Hodge",NA,"hard","hard","hard","all sites (not firm/crust)"
"788","Holloway",NA,"hard","hard","hard","all sites (not firm/crust)"
"789","Hollywell",NA,"hard","hard","hard","all sites (not firm/crust)"
"790","Hopevale",NA,"hard","loose","hard","all sites (not firm/crust)"
"791","Hull",NA,"loose","loose","loose","all sites (not firm/crust)"
"792","Hunter",NA,"mulch","mulch","mulch","all sites (not firm/crust)"
"793","Huxley",NA,"mulch",NA,"mulch","all sites (not firm/crust)"
"794","Innisfail",NA,"hard","hard","hard","all sites (not firm/crust)"
"795","Innot",NA,"hard","hard","hard","all sites (not firm/crust)"
"796","Inverdon",NA,"hard","hard","hard","all sites (not firm/crust)"
"797","Iona",NA,"mulch","mulch","mulch","all sites (not firm/crust)"
"798","Isis Rocky Phase",NA,"soft",NA,"soft","all sites (not firm/crust)"
"799","Johnson",NA,"hard",NA,"hard","all sites (not firm/crust)"
"800","Kaber Red Variant",NA,"hard","hard","hard","all sites (not firm/crust)"
"801","Kailla",NA,"soft","soft","soft","all sites (not firm/crust)"
"802","Kairi",NA,"hard","hard","hard","all sites (not firm/crust)"
"803","Kawl Kawl",NA,"mulch","hard","mulch","all sites (not firm/crust)"
"804","Kiama",NA,"loose","loose","loose","all sites (not firm/crust)"
"805","Kinchant",NA,"loose",NA,"loose","all sites (not firm/crust)"
"806","Kinchant, Coarse Sandy Variant",NA,"loose",NA,"loose","all sites (not firm/crust)"
"807","Kingjack",NA,"hard","hard","hard","all sites (not firm/crust)"
"808","Koberinga Mottled Phase (3uga9)",NA,"mulch","mulch","mulch","all sites (not firm/crust)"
"809","Koberinga Pebbly Phase (3uga8)",NA,"mulch","mulch","mulch","all sites (not firm/crust)"
"810","Koberinga Pebbly Phase (3uge8)",NA,"mulch",NA,"mulch","all sites (not firm/crust)"
"811","Kolan Rocky Phase",NA,"hard","hard","hard","all sites (not firm/crust)"
"812","Kooingal",NA,"mulch","mulch","mulch","all sites (not firm/crust)"
"813","Kowari",NA,"hard","hard","hard","all sites (not firm/crust)"
"814","Kowbi",NA,"hard","hard","hard","all sites (not firm/crust)"
"815","Kulburn",NA,"hard",NA,"hard","all sites (not firm/crust)"
"816","Kunipipi",NA,"hard","hard","hard","all sites (not firm/crust)"
"817","Lacon",NA,"hard","mulch","hard","all sites (not firm/crust)"
"818","Lannercost",NA,"hard","hard","hard","all sites (not firm/crust)"
"819","Lascelles (Alkaline Variant)",NA,"hard",NA,"hard","all sites (not firm/crust)"
"820","Leadingham",NA,"hard","hard","hard","all sites (not firm/crust)"
"821","Leitrim",NA,"mulch","mulch","mulch","all sites (not firm/crust)"
"822","Lillypool",NA,"hard",NA,"hard","all sites (not firm/crust)"
"823","Lily Shallow Phase",NA,"hard",NA,"hard","all sites (not firm/crust)"
"824","Limeview",NA,"hard","hard","hard","all sites (not firm/crust)"
"825","Lindsay",NA,"mulch","mulch","mulch","all sites (not firm/crust)"
"826","Lingilor",NA,"mulch",NA,"mulch","all sites (not firm/crust)"
"827","Logcamp",NA,"hard","hard","hard","all sites (not firm/crust)"
"828","Long Peter",NA,"hard","hard","hard","all sites (not firm/crust)"
"829","Lorna",NA,"hard",NA,"hard","all sites (not firm/crust)"
"830","Luce",NA,"hard","hard","hard","all sites (not firm/crust)"
"831","Magnan",NA,"hard",NA,"hard","all sites (not firm/crust)"
"832","Maiden",NA,"hard","hard","hard","all sites (not firm/crust)"
"833","Mandam",NA,"loose","hard","loose","all sites (not firm/crust)"
"834","Manoa Red Variant",NA,"hard",NA,"hard","all sites (not firm/crust)"
"835","Manton",NA,"hard","hard","hard","all sites (not firm/crust)"
"836","Marshlands",NA,"hard","hard","hard","all sites (not firm/crust)"
"837","Marwood",NA,"loose","hard","loose","all sites (not firm/crust)"
"838","Maryvale",NA,"mulch","mulch","mulch","all sites (not firm/crust)"
"839","May",NA,"mulch","mulch","mulch","all sites (not firm/crust)"
"840","May Shallow Phase",NA,"mulch","mulch","mulch","all sites (not firm/crust)"
"841","Midway",NA,"hard","hard","hard","all sites (not firm/crust)"
"842","Mingela",NA,"hard",NA,"hard","all sites (not firm/crust)"
"843","Mission",NA,"hard","hard","hard","all sites (not firm/crust)"
"844","Moosie (MAJCK)",NA,"hard","hard","hard","all sites (not firm/crust)"
"845","Morecambe",NA,"hard","hard","hard","all sites (not firm/crust)"
"846","MUca",NA,"soft",NA,"soft","all sites (not firm/crust)"
"847","MUcb",NA,"loose",NA,"loose","all sites (not firm/crust)"
"848","Mulgildie Eroded Phase",NA,"hard",NA,"hard","all sites (not firm/crust)"
"849","Mulgildie Snuffy Variant",NA,"loose",NA,"loose","all sites (not firm/crust)"
"850","Mullaburra",NA,"hard","hard","hard","all sites (not firm/crust)"
"851","Myrtlevale",NA,"hard",NA,"hard","all sites (not firm/crust)"
"852","Narcotic",NA,"loose",NA,"loose","all sites (not firm/crust)"
"853","Needep",NA,"hard",NA,"hard","all sites (not firm/crust)"
"854","Nessvale",NA,"hard","hard","hard","all sites (not firm/crust)"
"855","Netherdale",NA,"hard","hard","hard","all sites (not firm/crust)"
"856","Neugildie",NA,"hard",NA,"hard","all sites (not firm/crust)"
"857","Neugildie Colluvial, Clayey Variant",NA,"hard",NA,"hard","all sites (not firm/crust)"
"858","Nicotine",NA,"soft",NA,"soft","all sites (not firm/crust)"
"859","Nilotica",NA,"hard","hard","hard","all sites (not firm/crust)"
"860","Nind",NA,"soft",NA,"soft","all sites (not firm/crust)"
"861","Normanby Rocky Phase",NA,"hard",NA,"hard","all sites (not firm/crust)"
"862","Norville",NA,"hard","hard","hard","all sites (not firm/crust)"
"863","O'Bil Bil",NA,"hard","hard","hard","all sites (not firm/crust)"
"864","Orient",NA,"hard","hard","hard","all sites (not firm/crust)"
"865","Ossa, Cobbly Variant",NA,"hard","hard","hard","all sites (not firm/crust)"
"866","Pakington",NA,"soft",NA,"soft","all sites (not firm/crust)"
"867","Pallamana",NA,"hard",NA,"hard","all sites (not firm/crust)"
"868","Pattel",NA,"hard",NA,"hard","all sites (not firm/crust)"
"869","Pennsfield",NA,"hard","hard","hard","all sites (not firm/crust)"
"870","Pennsfield (Shallow Variant)",NA,"hard",NA,"hard","all sites (not firm/crust)"
"871","Pentland",NA,"hard",NA,"hard","all sites (not firm/crust)"
"872","Picardy Surface Seal Phase",NA,"mulch","mulch","mulch","all sites (not firm/crust)"
"873","Pluto",NA,"hard","hard","hard","all sites (not firm/crust)"
"874","Police Camp",NA,"hard","hard","hard","all sites (not firm/crust)"
"875","Ponzo",NA,"hard","hard","hard","all sites (not firm/crust)"
"876","Pope",NA,"hard","hard","hard","all sites (not firm/crust)"
"877","Porter",NA,"hard","hard","hard","all sites (not firm/crust)"
"878","Powlathanga",NA,"hard",NA,"hard","all sites (not firm/crust)"
"879","Pring",NA,"hard","hard","hard","all sites (not firm/crust)"
"880","Proston",NA,"hard",NA,"hard","all sites (not firm/crust)"
"881","Purono",NA,"hard","hard","hard","all sites (not firm/crust)"
"882","Racetrack",NA,"hard","hard","hard","all sites (not firm/crust)"
"883","Rangeside",NA,"hard",NA,"hard","all sites (not firm/crust)"
"884","Rangeview",NA,"hard","hard","hard","all sites (not firm/crust)"
"885","Red Flank",NA,"hard",NA,"hard","all sites (not firm/crust)"
"886","Rishton",NA,"hard","loose","hard","all sites (not firm/crust)"
"887","Roper",NA,"hard","hard","hard","all sites (not firm/crust)"
"888","Rudd",NA,"hard","hard","hard","all sites (not firm/crust)"
"889","RUff",NA,"hard",NA,"hard","all sites (not firm/crust)"
"890","RUga",NA,"hard",NA,"hard","all sites (not firm/crust)"
"891","Rungoo",NA,"hard","hard","hard","all sites (not firm/crust)"
"892","Sachs",NA,"mulch","mulch","mulch","all sites (not firm/crust)"
"893","Sadie",NA,"mulch","mulch","mulch","all sites (not firm/crust)"
"894","Sandalwood",NA,"hard",NA,"hard","all sites (not firm/crust)"
"895","Scatterbrain",NA,"loose",NA,"loose","all sites (not firm/crust)"
"896","Scrubby (Zed)",NA,"hard",NA,"hard","all sites (not firm/crust)"
"897","SDE2",NA,"hard",NA,"hard","all sites (not firm/crust)"
"898","SDE4",NA,"hard",NA,"hard","all sites (not firm/crust)"
"899","Sister",NA,"soft","hard","soft","all sites (not firm/crust)"
"900","Spier",NA,"hard","hard","hard","all sites (not firm/crust)"
"901","SSO1",NA,"hard",NA,"hard","all sites (not firm/crust)"
"902","Stanley",NA,"hard",NA,"hard","all sites (not firm/crust)"
"903","Stockyard (Zed)",NA,"hard",NA,"hard","all sites (not firm/crust)"
"904","Stockyard loam",NA,"hard","hard","hard","all sites (not firm/crust)"
"905","Sugarbag",NA,"hard","hard","hard","all sites (not firm/crust)"
"906","Sugarmill Acid Variant",NA,"hard","hard","hard","all sites (not firm/crust)"
"907","Sunter",NA,"hard",NA,"hard","all sites (not firm/crust)"
"908","Sylvia",NA,"hard","hard","hard","all sites (not firm/crust)"
"909","Taabinga",NA,"hard","hard","hard","all sites (not firm/crust)"
"910","Taughboyne",NA,"hard",NA,"hard","all sites (not firm/crust)"
"911","TbUg-1",NA,"mulch",NA,"mulch","all sites (not firm/crust)"
"912","TbUg-13",NA,"mulch","mulch","mulch","all sites (not firm/crust)"
"913","TbUg-2",NA,"mulch","mulch","mulch","all sites (not firm/crust)"
"914","TbUg-4",NA,"mulch","mulch","mulch","all sites (not firm/crust)"
"915","Thalberg",NA,"hard","hard","hard","all sites (not firm/crust)"
"916","Thorpe - Dlr",NA,"hard","hard","hard","all sites (not firm/crust)"
"917","Tiaro",NA,"hard","hard","hard","all sites (not firm/crust)"
"918","Tirroan Non-Sodic Variant",NA,"hard","hard","hard","all sites (not firm/crust)"
"919","Tirroan Rocky Phase",NA,"loose",NA,"loose","all sites (not firm/crust)"
"920","TsDr-1",NA,"hard",NA,"hard","all sites (not firm/crust)"
"921","TsDy-1",NA,"hard",NA,"hard","all sites (not firm/crust)"
"922","TsGn-3",NA,"loose",NA,"loose","all sites (not firm/crust)"
"923","TsGn-5",NA,"hard",NA,"hard","all sites (not firm/crust)"
"924","TsGn-6",NA,"hard",NA,"hard","all sites (not firm/crust)"
"925","TsUc-2",NA,"loose",NA,"loose","all sites (not firm/crust)"
"926","TsUf-3",NA,"hard",NA,"hard","all sites (not firm/crust)"
"927","TsUf-6",NA,"hard",NA,"hard","all sites (not firm/crust)"
"928","TsUg-7",NA,"mulch",NA,"mulch","all sites (not firm/crust)"
"929","Tyson",NA,"loose",NA,"loose","all sites (not firm/crust)"
"930","UDE1",NA,"hard",NA,"hard","all sites (not firm/crust)"
"931","Up River",NA,"loose","loose","loose","all sites (not firm/crust)"
"932","Utchee - Dlr",NA,"hard","hard","hard","all sites (not firm/crust)"
"933","Violet",NA,"hard","hard","hard","all sites (not firm/crust)"
"934","Walkamin Grey Variant",NA,"hard",NA,"hard","all sites (not firm/crust)"
"935","Walsch",NA,"hard","hard","hard","all sites (not firm/crust)"
"936","Wandarra",NA,"hard","hard","hard","all sites (not firm/crust)"
"937","Warrami",NA,"hard","hard","hard","all sites (not firm/crust)"
"938","Washpool",NA,"hard","hard","hard","all sites (not firm/crust)"
"939","Weatherby",NA,"hard","hard","hard","all sites (not firm/crust)"
"940","Whelan",NA,"hard","hard","hard","all sites (not firm/crust)"
"941","Wigton Association",NA,"hard",NA,"hard","all sites (not firm/crust)"
"942","Wivenhoe",NA,"loose","hard","loose","all sites (not firm/crust)"
"943","Wongabel",NA,"hard","hard","hard","all sites (not firm/crust)"
"944","Woodleigh",NA,"mulch","mulch","mulch","all sites (not firm/crust)"
"945","Woodridge",NA,"hard",NA,"hard","all sites (not firm/crust)"
"946","Woonton",NA,"hard","hard","hard","all sites (not firm/crust)"
"947","Wygong",NA,"mulch","mulch","mulch","all sites (not firm/crust)"
"948","Yaringa",NA,"hard","hard","hard","all sites (not firm/crust)"
"949","Yarraman",NA,"mulch","mulch","mulch","all sites (not firm/crust)"
"950","Yarrol",NA,"hard","hard","hard","all sites (not firm/crust)"
"951","Yarwun",NA,"hard",NA,"hard","all sites (not firm/crust)"
"952","Yeppoon",NA,"hard",NA,"hard","all sites (not firm/crust)"
"953","Yuruga",NA,"hard","hard","hard","all sites (not firm/crust)"
"954","1ADb-1",NA,NA,"hard","hard","spc"
"955","1ADd-5",NA,NA,"hard","hard","spc"
"956","1AUf-7",NA,NA,"hard","hard","spc"
"957","1AUg-18",NA,NA,"mulch","mulch","spc"
"958","1SOx",NA,NA,"hard","hard","spc"
"959","2ADy",NA,NA,"hard","hard","spc"
"960","3ADr-2",NA,NA,"hard","hard","spc"
"961","3AGn-1",NA,NA,"hard","hard","spc"
"962","3AGn-Dr",NA,NA,"hard","hard","spc"
"963","3AUc-1",NA,NA,"hard","hard","spc"
"964","3AUf-Ug-8m",NA,NA,"hard","hard","spc"
"965","3AVE2",NA,NA,"hard","hard","spc"
"966","6ADy-2",NA,NA,"hard","hard","spc"
"967","6AUf-3",NA,NA,"hard","hard","spc"
"968","6AUg-5",NA,NA,"mulch","mulch","spc"
"969","6AUg-7",NA,NA,"mulch","mulch","spc"
"970","6AUg-9",NA,NA,"mulch","mulch","spc"
"971","6Gnb",NA,NA,"hard","hard","spc"
"972","Archookoora Rocky Phase",NA,NA,"hard","hard","spc"
"973","Archookoora Saline Phase",NA,NA,"hard","hard","spc"
"974","Avon",NA,NA,"hard","hard","spc"
"975","Avondale Yellow Variant",NA,NA,"hard","hard","spc"
"976","Bally",NA,NA,"loose","loose","spc"
"977","Belvedere",NA,NA,"mulch","mulch","spc"
"978","Bidwill Rocky Phase",NA,NA,"hard","hard","spc"
"979","Booie",NA,NA,"loose","loose","spc"
"980","Boonenne Rocky Phase",NA,NA,"hard","hard","spc"
"981","Buchan",NA,NA,"hard","hard","spc"
"982","BUg-1",NA,NA,"mulch","mulch","spc"
"983","BUg-11",NA,NA,"mulch","mulch","spc"
"984","BUg-17",NA,NA,"mulch","mulch","spc"
"985","BUg-20",NA,NA,"mulch","mulch","spc"
"986","BUg-5",NA,NA,"mulch","mulch","spc"
"987","BUg-7",NA,NA,"mulch","mulch","spc"
"988","BUgg-1m",NA,NA,"mulch","mulch","spc"
"989","Bullhead Rocky Phase",NA,NA,"hard","hard","spc"
"990","Carbeen",NA,NA,"hard","hard","spc"
"991","Central",NA,NA,"soft","soft","spc"
"992","Chessborough",NA,NA,"hard","hard","spc"
"993","Coolabunia Nodular Phase",NA,NA,"hard","hard","spc"
"994","Curlewis",NA,NA,"hard","hard","spc"
"995","Darts",NA,NA,"hard","hard","spc"
"996","Derrick Steep And Broken Phase",NA,NA,"hard","hard","spc"
"997","Dunstan",NA,NA,"hard","hard","spc"
"998","Durong",NA,NA,"mulch","mulch","spc"
"999","Glenella",NA,NA,"hard","hard","spc"
"1000","Glenrock Grey Variant",NA,NA,"hard","hard","spc"
"1001","Gumlu",NA,NA,"hard","hard","spc"
"1002","Gwynne",NA,NA,"loose","loose","spc"
"1003","Hopevale eroded phase",NA,NA,"loose","loose","spc"
"1004","Koberinga Secondary Salinisation (3uges)",NA,NA,"mulch","mulch","spc"
"1005","Kumbia Rocky Phase",NA,NA,"hard","hard","spc"
"1006","Kurrimine",NA,NA,"loose","loose","spc"
"1007","Mceuen Rocky Phase",NA,NA,"mulch","mulch","spc"
"1008","Midden, Melonhole Phase",NA,NA,"mulch","mulch","spc"
"1009","Millstream",NA,NA,"hard","hard","spc"
"1010","Miskin",NA,NA,"hard","hard","spc"
"1011","Newell",NA,NA,"hard","hard","spc"
"1012","Pearlinga",NA,NA,"hard","hard","spc"
"1013","REPR",NA,NA,"hard","hard","spc"
"1014","REPT",NA,NA,"hard","hard","spc"
"1015","Roundback Level Phase",NA,NA,"hard","hard","spc"
"1016","Santo",NA,NA,"mulch","mulch","spc"
"1017","Seaforth, Dark B Horizon Variant",NA,NA,"hard","hard","spc"
"1018","Severin - Tab",NA,NA,"hard","hard","spc"
"1019","TbUg-12",NA,NA,"mulch","mulch","spc"
"1020","TbUg-5",NA,NA,"mulch","mulch","spc"
"1021","TbUg-7",NA,NA,"mulch","mulch","spc"
"1022","TbUg-8",NA,NA,"mulch","mulch","spc"
"1023","TbUg-9",NA,NA,"mulch","mulch","spc"
"1024","Theodolite Saline Phase",NA,NA,"loose","loose","spc"
"1025","Thorpe Fine Variant",NA,NA,"hard","hard","spc"
"1026","Trebonne Sandy Phase",NA,NA,"hard","hard","spc"
"1027","TsUg-2",NA,NA,"mulch","mulch","spc"
"1028","Uruba",NA,NA,"hard","hard","spc"
"1029","Walsh Coarse Sandy Phase",NA,NA,"hard","hard","spc"
"1030","Watalgan Rocky Phase",NA,NA,"hard","hard","spc"
"1031","Wathana Heavier-Textured Var",NA,NA,"hard","hard","spc"
"1032","Well, Footslope Variant",NA,NA,"mulch","mulch","spc"
"1033","Well, Sandy Surface Variant",NA,NA,"mulch","mulch","spc"
"1034","Wheatlands",NA,NA,"hard","hard","spc"
"1035","Wollingford, Intrusive Parent Material Variant",NA,NA,"hard","hard","spc"
"1036","Wollingford, Yellow B Horizon Variant",NA,NA,"hard","hard","spc"
