"","NAME","sit_all_sc","spc_sc","sc_final","data_src"
"1","1ACH1","hard",NA,"hard","site"
"2","1ACH2","soft",NA,"soft","site"
"3","1ADb","hard","hard","hard","site"
"4","1ADb-2","hard",NA,"hard","site"
"5","1ADb-7","hard",NA,"hard","site"
"6","1ADb-Dd","hard",NA,"hard","site"
"7","1ADd-3","hard",NA,"hard","site"
"8","1ADd-4","hard",NA,"hard","site"
"9","1ADE1","hard",NA,"hard","site"
"10","1ADE2","hard",NA,"hard","site"
"11","1AKA1","firm",NA,"firm","site"
"12","1ARU1","hard",NA,"hard","site"
"13","1ASO1","soft",NA,"soft","site"
"14","1ATE1","soft",NA,"soft","site"
"15","1AUg-12","mulch","mulch","mulch","site"
"16","1AUg-13","mulch","mulch","mulch","site"
"17","1AUg-3","mulch",NA,"mulch","site"
"18","1AUg-4","mulch",NA,"mulch","site"
"19","1AVE1","mulch","mulch","mulch","site"
"20","1AVE2","hard",NA,"hard","site"
"21","1AVE3","hard",NA,"hard","site"
"22","1AVE4","mulch",NA,"mulch","site"
"23","1AVE5","mulch",NA,"mulch","site"
"24","1AVE6","mulch",NA,"mulch","site"
"25","1CHa","hard","hard","hard","site"
"26","1CHb","hard","hard","hard","site"
"27","1DEa","hard","hard","hard","site"
"28","1KTa","soft","loose","soft","site"
"29","1SOa","hard","hard","hard","site"
"30","1SOb","hard","hard","hard","site"
"31","2ADb-1","hard",NA,"hard","site"
"32","2AUf-Ug-3","crust",NA,"crust","site"
"33","2AUg-3","mulch",NA,"mulch","site"
"34","2AUg-7","mulch",NA,"mulch","site"
"35","2AUg-8m","mulch",NA,"mulch","site"
"36","2AUg-9m","crust",NA,"crust","site"
"37","2AUgg-1m","mulch",NA,"mulch","site"
"38","2AUgg-2m","mulch",NA,"mulch","site"
"39","2AVE2","mulch","mulch","mulch","site"
"40","2VEa","soft",NA,"soft","site"
"41","2VEb","mulch","mulch","mulch","site"
"42","2VEe","mulch","mulch","mulch","site"
"43","2VEx","mulch","mulch","mulch","site"
"44","2VEy","mulch","mulch","mulch","site"
"45","3ASO1","hard",NA,"hard","site"
"46","3ASO2","hard",NA,"hard","site"
"47","3AUf","hard","hard","hard","site"
"48","3AUf-Ug-1m","hard",NA,"hard","site"
"49","3AUf-Ug-2m","mulch",NA,"mulch","site"
"50","3AUf-Ug-3d","mulch",NA,"mulch","site"
"51","3AUf-Ug-6m","crust",NA,"crust","site"
"52","3AUg-2","mulch",NA,"mulch","site"
"53","3CHx","firm",NA,"firm","site"
"54","3SOb","hard",NA,"hard","site"
"55","3VEa","mulch","mulch","mulch","site"
"56","3VEb","mulch","mulch","mulch","site"
"57","3VEc","mulch","mulch","mulch","site"
"58","3VEw","mulch","mulch","mulch","site"
"59","3VEy","mulch","mulch","mulch","site"
"60","3VEz","mulch","mulch","mulch","site"
"61","4AUf","hard",NA,"hard","site"
"62","5SOy","loose",NA,"loose","site"
"63","5VEy","mulch","mulch","mulch","site"
"64","6ADb-1","hard","hard","hard","site"
"65","6ADb-4","hard",NA,"hard","site"
"66","6ADy-3","hard","hard","hard","site"
"67","6AUg-10","mulch",NA,"mulch","site"
"68","6AUg-12","mulch","mulch","mulch","site"
"69","6AUg-3","mulch","mulch","mulch","site"
"70","6AUg-4","mulch","mulch","mulch","site"
"71","6AUg-5","crust","mulch","crust","site"
"72","6AUg-6","mulch","mulch","mulch","site"
"73","6AUg-8","mulch","mulch","mulch","site"
"74","A1","loose","hard","loose","site"
"75","Abercorn","hard","hard","hard","site"
"76","Alluvial Complex - Lower, Cracking Clays","mulch",NA,"mulch","site"
"77","Amity","mulch","mulch","mulch","site"
"78","Annandale","soft","firm","soft","site"
"79","Anyarro","firm","hard","firm","site"
"80","Appaloosa","hard","hard","hard","site"
"81","Apron","hard","hard","hard","site"
"82","Archookoora","hard","hard","hard","site"
"83","Archookoora Nodular Phase","hard","hard","hard","site"
"84","Arcturus","mulch","mulch","mulch","site"
"85","Arnolds","soft",NA,"soft","site"
"86","Aroa","mulch","mulch","mulch","site"
"87","Auburn","hard","hard","hard","site"
"88","Auburn Red Variant","hard","hard","hard","site"
"89","Awoonga","hard","hard","hard","site"
"90","B1","mulch","mulch","mulch","site"
"91","B2","mulch","mulch","mulch","site"
"92","Balark","mulch","mulch","mulch","site"
"93","Banana","mulch","mulch","mulch","site"
"94","Banban","hard","hard","hard","site"
"95","Barrack","hard",NA,"hard","site"
"96","Basalt Rock","soft",NA,"soft","site"
"97","Battery","mulch","mulch","mulch","site"
"98","Bauhinia","soft","mulch","soft","site"
"99","Beauaraba","soft","soft","soft","site"
"100","Beecher","firm",NA,"firm","site"
"101","Beeron","hard","hard","hard","site"
"102","Belbroughton","mulch","mulch","mulch","site"
"103","Belvedere","crust","mulch","crust","site"
"104","Bilboolan","hard","mulch","hard","site"
"105","Bluff","hard",NA,"hard","site"
"106","Bogandilla","hard","hard","hard","site"
"107","Bonnie Crofts","mulch",NA,"mulch","site"
"108","Bonwell","firm","hard","firm","site"
"109","Boonenne","hard","hard","hard","site"
"110","Boongary","hard",NA,"hard","site"
"111","Boston","hard","hard","hard","site"
"112","Bovekel","mulch","mulch","mulch","site"
"113","Boyanda","soft","soft","soft","site"
"114","Boyles","firm",NA,"firm","site"
"115","Boyne","hard","hard","hard","site"
"116","Boynewood","hard","hard","hard","site"
"117","Boynewood Deep Phase","hard","hard","hard","site"
"118","Boynewood Rocky Phase","hard","firm","hard","site"
"119","Broadmedow","hard","hard","hard","site"
"120","Bruce","mulch","mulch","mulch","site"
"121","Buffel","hard","hard","hard","site"
"122","BUg-10","mulch","mulch","mulch","site"
"123","BUg-2","mulch","mulch","mulch","site"
"124","BUg-3","mulch",NA,"mulch","site"
"125","BUg-4","mulch","mulch","mulch","site"
"126","BUg-6","mulch","mulch","mulch","site"
"127","Bulburin","firm","soft","firm","site"
"128","Bullaroo","loose","soft","loose","site"
"129","Burdekin","hard",NA,"hard","site"
"130","Burnett","firm","hard","firm","site"
"131","Burnett Coarse Sandy Variant","soft","soft","soft","site"
"132","Burnett Shallow Phase","firm","hard","firm","site"
"133","Burradoo","hard","hard","hard","site"
"134","Bushnell","hard","hard","hard","site"
"135","Bushnell Eroded Phase","hard","hard","hard","site"
"136","BVE1","mulch","mulch","mulch","site"
"137","Byee","mulch","mulch","mulch","site"
"138","C2","mulch","hard","mulch","site"
"139","C3","mulch","hard","mulch","site"
"140","C4","mulch","mulch","mulch","site"
"141","C5","mulch","mulch","mulch","site"
"142","Cadarga","hard","hard","hard","site"
"143","Callide","hard","hard","hard","site"
"144","Cape","hard",NA,"hard","site"
"145","Carfax","mulch","mulch","mulch","site"
"146","Carmine","soft",NA,"soft","site"
"147","Carraba","soft","soft","soft","site"
"148","Cattle","mulch","mulch","mulch","site"
"149","Ceduna","hard",NA,"hard","site"
"150","Ceratodus","hard","hard","hard","site"
"151","Ceratodus 2","hard","hard","hard","site"
"152","Ceratodus 3","mulch","mulch","mulch","site"
"153","Cheeseboro","mulch","hard","mulch","site"
"154","Chelmsford","hard","hard","hard","site"
"155","Cherbourg","hard","loose","hard","site"
"156","Cheshire","mulch","soft","mulch","site"
"157","Chessborough","firm","hard","firm","site"
"158","Chessborough Rubbly, Shallow And Rocky Phase","firm",NA,"firm","site"
"159","Chinchilla","loose","loose","loose","site"
"160","Clematis","firm","hard","firm","site"
"161","Colenso","hard",NA,"hard","site"
"162","Commissioner","hard","hard","hard","site"
"163","Conjuboy","hard",NA,"hard","site"
"164","Consuelo","mulch","hard","mulch","site"
"165","Conway (Cqh)","hard","hard","hard","site"
"166","Coolabunia","hard","hard","hard","site"
"167","Coorooman","firm","firm","firm","site"
"168","Cooyar","hard","hard","hard","site"
"169","Corduroy","firm",NA,"firm","site"
"170","Cottonham","mulch","mulch","mulch","site"
"171","Crawford","hard","firm","hard","site"
"172","Creek","hard","hard","hard","site"
"173","Cushnie","hard","hard","hard","site"
"174","CVE1","mulch","mulch","mulch","site"
"175","CVE2","mulch","mulch","mulch","site"
"176","CVE3","mulch","mulch","mulch","site"
"177","CVE4","mulch",NA,"mulch","site"
"178","CVE5","mulch",NA,"mulch","site"
"179","D1","loose","hard","loose","site"
"180","D2","hard","hard","hard","site"
"181","D3","hard","hard","hard","site"
"182","Dale","hard",NA,"hard","site"
"183","Dalgangal","hard","hard","hard","site"
"184","Dalrymple","hard",NA,"hard","site"
"185","Dangore","hard","hard","hard","site"
"186","Dargy","mulch","mulch","mulch","site"
"187","Darts","firm","hard","firm","site"
"188","Degalgil","firm","hard","firm","site"
"189","Derra","hard","mulch","hard","site"
"190","Diamond (Kcm)","mulch","mulch","mulch","site"
"191","Diamond (Kcm), Footslope Variant","mulch","mulch","mulch","site"
"192","Dickson","mulch","hard","mulch","site"
"193","Dickson, Shallow Variant","mulch","hard","mulch","site"
"194","Diglum (CCL)","hard","hard","hard","site"
"195","Dillan","hard",NA,"hard","site"
"196","Doonside","hard",NA,"hard","site"
"197","Dotswood","hard",NA,"hard","site"
"198","Dove","mulch",NA,"mulch","site"
"199","Downfall","mulch","mulch","mulch","site"
"200","Drape","mulch","mulch","mulch","site"
"201","Dunbas Deep Phase","mulch","mulch","mulch","site"
"202","Dunrobin - CQ","hard","hard","hard","site"
"203","Durong","crust","mulch","crust","site"
"204","E1","hard","hard","hard","site"
"205","E2","loose","hard","loose","site"
"206","E3","hard","hard","hard","site"
"207","Earlsfield","mulch","mulch","mulch","site"
"208","Eastgate","mulch","hard","mulch","site"
"209","Eden","firm","firm","firm","site"
"210","Egera","mulch","mulch","mulch","site"
"211","Eleanor","mulch","mulch","mulch","site"
"212","Eleanor, Mottled Phase","mulch",NA,"mulch","site"
"213","Elizabeth","firm","firm","firm","site"
"214","Ellis","hard",NA,"hard","site"
"215","Fairdale","mulch","mulch","mulch","site"
"216","Fairview","mulch","mulch","mulch","site"
"217","Falkner","mulch","mulch","mulch","site"
"218","Fanning River","hard",NA,"hard","site"
"219","Figtree","hard","hard","hard","site"
"220","Fison","hard","hard","hard","site"
"221","Flagstone","hard","hard","hard","site"
"222","Fletcher","hard","hard","hard","site"
"223","Fletcher - Brcl","firm","firm","firm","site"
"224","Fourmile","hard",NA,"hard","site"
"225","Fowler","firm",NA,"firm","site"
"226","Foxleigh","hard","hard","hard","site"
"227","Gainsford","hard",NA,"hard","site"
"228","Galway","hard","hard","hard","site"
"229","Gayfield","soft",NA,"soft","site"
"230","Gindie","soft","soft","soft","site"
"231","Glenora","mulch","mulch","mulch","site"
"232","Glenrock","firm","hard","firm","site"
"233","Goodger","soft","loose","soft","site"
"234","Goovigen","soft","firm","soft","site"
"235","Gordonbrook","hard","hard","hard","site"
"236","Gracemere","hard",NA,"hard","site"
"237","Graham","mulch","mulch","mulch","site"
"238","Grevillea","soft","hard","soft","site"
"239","Greycliffe","soft","mulch","soft","site"
"240","Greycliffe Melonhole Phase","crust",NA,"crust","site"
"241","Gueena","mulch","mulch","mulch","site"
"242","Halivale","hard",NA,"hard","site"
"243","Halivale (CCL)","hard","hard","hard","site"
"244","Haly","crust","hard","crust","site"
"245","Harris","mulch","mulch","mulch","site"
"246","Harwood","hard","hard","hard","site"
"247","Hawkwood","hard","hard","hard","site"
"248","Hilldale","hard","hard","hard","site"
"249","Hillgrove","hard",NA,"hard","site"
"250","Hillsdale","hard","hard","hard","site"
"251","Hind","mulch",NA,"mulch","site"
"252","Hodge (BAN)","hard","hard","hard","site"
"253","Holding","mulch","mulch","mulch","site"
"254","Hollywell","hard","hard","hard","site"
"255","Hoogly (Ccl)","hard","soft","hard","site"
"256","Hopevale","hard","loose","hard","site"
"257","Hunter","mulch","mulch","mulch","site"
"258","IDE1","firm",NA,"firm","site"
"259","Iona","mulch","mulch","mulch","site"
"260","Jambin","mulch","mulch","mulch","site"
"261","K1","loose","hard","loose","site"
"262","K2","loose","hard","loose","site"
"263","K3","loose","hard","loose","site"
"264","Kaber","mulch","mulch","mulch","site"
"265","Kaber Red Variant","hard","hard","hard","site"
"266","Kabra","hard",NA,"hard","site"
"267","Kawl Kawl","mulch","hard","mulch","site"
"268","Kenlogan","mulch","mulch","mulch","site"
"269","Kenmar","mulch","mulch","mulch","site"
"270","Keppel","hard","hard","hard","site"
"271","Kilburnie","soft","hard","soft","site"
"272","Kokutungo","hard","hard","hard","site"
"273","Kooingal","mulch","mulch","mulch","site"
"274","Krongie","mulch","mulch","mulch","site"
"275","Kumbia","hard","hard","hard","site"
"276","Kunioon","hard","hard","hard","site"
"277","Lacon","hard","mulch","hard","site"
"278","Langley-Wdh","mulch","mulch","mulch","site"
"279","Larcom (CCL)","firm","hard","firm","site"
"280","Leitrim","mulch","mulch","mulch","site"
"281","Lindsay","mulch","mulch","mulch","site"
"282","Lizard","firm","firm","firm","site"
"283","Lizard (CCL)","firm","hard","firm","site"
"284","Long Peter","hard","hard","hard","site"
"285","Lorna","hard",NA,"hard","site"
"286","Luxor","hard","hard","hard","site"
"287","Magnan","hard",NA,"hard","site"
"288","Malchi","hard",NA,"hard","site"
"289","Manar","mulch","mulch","mulch","site"
"290","Manoa Red Variant","hard",NA,"hard","site"
"291","Maraconda","mulch","mulch","mulch","site"
"292","Marshlands","hard","hard","hard","site"
"293","Martyr","mulch",NA,"mulch","site"
"294","Maryvale","mulch","mulch","mulch","site"
"295","May","mulch","mulch","mulch","site"
"296","May Downs","mulch","mulch","mulch","site"
"297","May Shallow Phase","mulch","mulch","mulch","site"
"298","Mceuen","mulch","mulch","mulch","site"
"299","MDE1","hard",NA,"hard","site"
"300","Medway","hard","hard","hard","site"
"301","Meilland","firm",NA,"firm","site"
"302","Melton","firm",NA,"firm","site"
"303","Memerambi","hard","firm","hard","site"
"304","Midden","mulch",NA,"mulch","site"
"305","Midden, Melonhole Phase","crust","mulch","crust","site"
"306","Mingela","hard",NA,"hard","site"
"307","Minnabilla","hard","hard","hard","site"
"308","Mondure","hard","hard","hard","site"
"309","Monto 4","mulch","mulch","mulch","site"
"310","Moramana","mulch","mulch","mulch","site"
"311","Moramana, Gilgai Phase","mulch",NA,"mulch","site"
"312","Muldoon","firm",NA,"firm","site"
"313","Muldoon (CCL)","firm","hard","firm","site"
"314","Mulgildie Eroded Phase","hard",NA,"hard","site"
"315","Mulgildie Snuffy Variant","loose",NA,"loose","site"
"316","Muncon 1.3","mulch","hard","mulch","site"
"317","Myrtlevale","hard",NA,"hard","site"
"318","N1","hard","hard","hard","site"
"319","Nail","crust","crust","crust","site"
"320","Neugildie","hard",NA,"hard","site"
"321","Neugildie Colluvial, Clayey Variant","hard",NA,"hard","site"
"322","Niagara","mulch","mulch","mulch","site"
"323","Ninemile","mulch","mulch","mulch","site"
"324","Nullegai","hard","hard","hard","site"
"325","Nursery","mulch","mulch","mulch","site"
"326","O'Bil Bil","hard","hard","hard","site"
"327","Oombabeer","mulch","hard","mulch","site"
"328","Oscar","mulch","mulch","mulch","site"
"329","P1","hard","hard","hard","site"
"330","P2","hard","hard","hard","site"
"331","Pakington","soft",NA,"soft","site"
"332","Pallamana","hard",NA,"hard","site"
"333","Palouse","hard","hard","hard","site"
"334","Pegunny","mulch","mulch","mulch","site"
"335","Pegunny (CCL)","mulch","hard","mulch","site"
"336","Pentland","hard",NA,"hard","site"
"337","Petrona","loose","loose","loose","site"
"338","Picardy","mulch","mulch","mulch","site"
"339","Picardy Surface Seal Phase","mulch","mulch","mulch","site"
"340","Police Camp","hard","hard","hard","site"
"341","Powerhouse","soft","soft","soft","site"
"342","Powlathanga","hard",NA,"hard","site"
"343","Proston","hard","firm","hard","site"
"344","R1","hard","hard","hard","site"
"345","Racetrack","hard","hard","hard","site"
"346","Ramillies","hard","hard","hard","site"
"347","Rangeside","hard",NA,"hard","site"
"348","Rangeview","hard","hard","hard","site"
"349","Rankin","mulch","mulch","mulch","site"
"350","Raven","soft",NA,"soft","site"
"351","Red Flank","hard",NA,"hard","site"
"352","Retro","hard","hard","hard","site"
"353","Retro (BAN)","hard","hard","hard","site"
"354","Rishton","hard","loose","hard","site"
"355","Riverleigh","hard","hard","hard","site"
"356","Rolleston","mulch","mulch","mulch","site"
"357","Ronnoc","mulch","mulch","mulch","site"
"358","Roper","hard","hard","hard","site"
"359","Ruby","firm",NA,"firm","site"
"360","Russell","mulch","mulch","mulch","site"
"361","Russell, Gilgai Phase","mulch","mulch","mulch","site"
"362","Russell, Stony Phase","mulch","mulch","mulch","site"
"363","Sadie","mulch","mulch","mulch","site"
"364","Sandy","firm",NA,"firm","site"
"365","Santo","firm","mulch","firm","site"
"366","SDE2","hard",NA,"hard","site"
"367","SDE4","hard",NA,"hard","site"
"368","Selina","loose",NA,"loose","site"
"369","Shotover","soft","loose","soft","site"
"370","Solferino","mulch","mulch","mulch","site"
"371","Spier","hard","hard","hard","site"
"372","Springwood","hard","hard","hard","site"
"373","SSO1","hard",NA,"hard","site"
"374","Stanage","firm",NA,"firm","site"
"375","Strathmuir","hard","hard","hard","site"
"376","Struan (CCL)","hard","hard","hard","site"
"377","Sullivan","mulch","mulch","mulch","site"
"378","SVE1","mulch",NA,"mulch","site"
"379","T1","hard","hard","hard","site"
"380","T3","hard","hard","hard","site"
"381","T4","loose","soft","loose","site"
"382","Taabinga","hard","hard","hard","site"
"383","Tanby","firm",NA,"firm","site"
"384","Tara","firm",NA,"firm","site"
"385","Tarong","hard","hard","hard","site"
"386","Tarramba","soft","mulch","soft","site"
"387","Taughboyne","hard",NA,"hard","site"
"388","Taurus","hard","hard","hard","site"
"389","TbUg-1","mulch",NA,"mulch","site"
"390","TbUg-11","mulch",NA,"mulch","site"
"391","TbUg-13","mulch","mulch","mulch","site"
"392","TbUg-2","mulch","mulch","mulch","site"
"393","TbUg-4","mulch","mulch","mulch","site"
"394","TbUg-6","mulch",NA,"mulch","site"
"395","Te_El_Kabir","mulch","mulch","mulch","site"
"396","Teralba","firm",NA,"firm","site"
"397","Terrace","hard","hard","hard","site"
"398","Teviot","mulch","mulch","mulch","site"
"399","Thalberg","hard","hard","hard","site"
"400","Thorpe - Dlr","hard","hard","hard","site"
"401","Threemoon 1","mulch","mulch","mulch","site"
"402","Tingoora","mulch","mulch","mulch","site"
"403","Tiny","mulch","mulch","mulch","site"
"404","Todds","firm",NA,"firm","site"
"405","Tognolini","mulch","mulch","mulch","site"
"406","Toondoon","hard","hard","hard","site"
"407","Tralee","hard","hard","hard","site"
"408","TsDr-1","hard",NA,"hard","site"
"409","TsDy-1","hard",NA,"hard","site"
"410","TsGn-3","loose",NA,"loose","site"
"411","TsGn-4","firm",NA,"firm","site"
"412","TsGn-5","hard",NA,"hard","site"
"413","TsGn-6","hard",NA,"hard","site"
"414","TsUc-2","loose",NA,"loose","site"
"415","TsUf-3","hard",NA,"hard","site"
"416","TsUf-6","hard",NA,"hard","site"
"417","TsUg-7","mulch","crust","mulch","site"
"418","TsUgg-2","mulch",NA,"mulch","site"
"419","Tureen","firm","firm","firm","site"
"420","U1","loose","hard","loose","site"
"421","UDE1","hard",NA,"hard","site"
"422","Ulogie","hard","hard","hard","site"
"423","Utchee - Dlr","hard","hard","hard","site"
"424","Valetta","firm",NA,"firm","site"
"425","Vermont","mulch","mulch","mulch","site"
"426","Vermont (CCL)","mulch","mulch","mulch","site"
"427","Vicenza","mulch","mulch","mulch","site"
"428","Violet","hard","hard","hard","site"
"429","Voewood","hard","hard","hard","site"
"430","Wangabry","hard","hard","hard","site"
"431","Warrinilla","hard","hard","hard","site"
"432","Washpool","hard","hard","hard","site"
"433","Weir","hard","hard","hard","site"
"434","Well","mulch","mulch","mulch","site"
"435","Well, Footslope Variant","crust","mulch","crust","site"
"436","White","firm",NA,"firm","site"
"437","Wigton Association","hard",NA,"hard","site"
"438","Windradene","mulch","mulch","mulch","site"
"439","Witton","hard",NA,"hard","site"
"440","Wivenhoe","loose","hard","loose","site"
"441","Wondai","mulch","mulch","mulch","site"
"442","Wooroolin","hard","firm","hard","site"
"443","Wyseby","hard","hard","hard","site"
"444","X1","loose","hard","loose","site"
"445","Yackadoo","hard","hard","hard","site"
"446","Yaringa","hard","hard","hard","site"
"447","Yarraman","mulch","mulch","mulch","site"
"448","Yarrol","hard","hard","hard","site"
"449","Yarwun","hard",NA,"hard","site"
"450","Yeppoon","hard",NA,"hard","site"
"451","1ADb-1",NA,"hard","hard","spc"
"452","1ADd-5",NA,"hard","hard","spc"
"453","1AUf-7",NA,"hard","hard","spc"
"454","1AUg-18",NA,"mulch","mulch","spc"
"455","1SOx",NA,"hard","hard","spc"
"456","2ADy",NA,"hard","hard","spc"
"457","3ADr-2",NA,"hard","hard","spc"
"458","3AGn-1",NA,"hard","hard","spc"
"459","3AGn-Dr",NA,"hard","hard","spc"
"460","3AUc-1",NA,"hard","hard","spc"
"461","3AUf-Ug-8m",NA,"hard","hard","spc"
"462","3AVE2",NA,"hard","hard","spc"
"463","6ADy-2",NA,"hard","hard","spc"
"464","6AUf-3",NA,"hard","hard","spc"
"465","6AUg-7",NA,"mulch","mulch","spc"
"466","6AUg-9",NA,"mulch","mulch","spc"
"467","Archookoora Rocky Phase",NA,"hard","hard","spc"
"468","Archookoora Saline Phase",NA,"hard","hard","spc"
"469","Avon",NA,"hard","hard","spc"
"470","Blair",NA,"firm","firm","spc"
"471","Booie",NA,"loose","loose","spc"
"472","Boonenne Rocky Phase",NA,"hard","hard","spc"
"473","BUg-1",NA,"mulch","mulch","spc"
"474","BUg-11",NA,"mulch","mulch","spc"
"475","BUg-17",NA,"mulch","mulch","spc"
"476","BUg-20",NA,"mulch","mulch","spc"
"477","BUg-5",NA,"mulch","mulch","spc"
"478","BUg-7",NA,"mulch","mulch","spc"
"479","BUgg-1m",NA,"mulch","mulch","spc"
"480","Coolabunia Nodular Phase",NA,"hard","hard","spc"
"481","Crater",NA,"firm","firm","spc"
"482","Davy - CQ",NA,"hard","hard","spc"
"483","Derrick Steep And Broken Phase",NA,"hard","hard","spc"
"484","Glenrock Grey Variant",NA,"hard","hard","spc"
"485","Hopevale eroded phase",NA,"loose","loose","spc"
"486","Kapaldo 8",NA,"hard","hard","spc"
"487","Kumbia Rocky Phase",NA,"hard","hard","spc"
"488","Logan",NA,"mulch","mulch","spc"
"489","Mceuen Rocky Phase",NA,"mulch","mulch","spc"
"490","Memerambi Eroded Phase",NA,"firm","firm","spc"
"491","Moolayember",NA,"firm","firm","spc"
"492","Pearlinga",NA,"hard","hard","spc"
"493","REPR",NA,"hard","hard","spc"
"494","TbUg-12",NA,"mulch","mulch","spc"
"495","TbUg-5",NA,"mulch","mulch","spc"
"496","TbUg-7",NA,"mulch","mulch","spc"
"497","TbUg-8",NA,"mulch","mulch","spc"
"498","TbUg-9",NA,"mulch","mulch","spc"
"499","TsUg-2",NA,"mulch","mulch","spc"
"500","Well, Sandy Surface Variant",NA,"mulch","mulch","spc"
"501","Wheatlands",NA,"hard","hard","spc"
"502","Wooroolin Eroded Phase",NA,"firm","firm","spc"
