"SPC_NO","NAME","Recode"
2006,"1Dbb","H"
2007,"1Dbb","H"
2011,"1Dda","H"
2012,"1Dda","H"
2013,"1Dda","H"
2016,"1Dya","H"
2017,"1Dya","H"
2024,"1Dyc","H"
2025,"1Dyc","H"
2026,"1Dyc","H"
2029,"1Dyd","H"
2031,"1Uga","M"
2032,"1Uga","M"
2033,"1Uga","M"
2038,"1Ugc","H"
2039,"1Ugc","H"
2042,"1Ugd","M"
2043,"1Ugd","M"
2055,"1Ugf","H"
2055,"1Ugf","M"
2058,"1ADb","H"
2059,"1ADb-1","H"
2060,"1ADb-1","H"
2075,"1ADd-5","H"
2087,"1AUf-7","H"
2091,"1AUg-12","crust"
2091,"1AUg-12","M"
2092,"1AUg-13","M"
2096,"1AUg-18","M"
2120,"2Dba","H"
2121,"2Dba","H"
2122,"2Dba","H"
2123,"2Dba","H"
2124,"2Dba","H"
2128,"2Dbb","H"
2129,"2Dbb","H"
2136,"2Dbc","H"
2137,"2Dbc","H"
2145,"2Dbd","H"
2146,"2Dbd","H"
2153,"2Dbe","H"
2154,"2Dbe","H"
2161,"2Dda","H"
2162,"2Dda","H"
2167,"2Ddb","H"
2168,"2Ddb","H"
2172,"2Ddc","H"
2173,"2Ddc","H"
2176,"2Ddd","H"
2178,"2Dya","H"
2179,"2Dya","H"
2185,"2Dyb","H"
2186,"2Dyb","H"
2192,"2Dyc","H"
2193,"2Dyc","H"
2200,"2Uga","M"
2201,"2Uga","M"
2204,"2Ugb","M"
2205,"2Ugb","M"
2207,"2Ugc","H"
2207,"2Ugc","M"
2208,"2Ugc","H"
2208,"2Ugc","M"
2216,"2Ugd","H"
2216,"2Ugd","M"
2217,"2Ugd","H"
2217,"2Ugd","M"
2220,"2Uge","H"
2220,"2Uge","M"
2221,"2Uge","H"
2221,"2Uge","M"
2228,"2Ugf","H"
2228,"2Ugf","M"
2229,"2Ugf","H"
2229,"2Ugf","M"
2237,"2Ugg","M"
2238,"2Ugg","M"
2239,"2Ugg","M"
2240,"2Ugg","M"
2245,"2Ugh","M"
2246,"2Ugh","M"
2255,"2Ugj","H"
2255,"2Ugj","M"
2257,"2Ugk","M"
2258,"2Ugk","M"
2315,"3Uga","M"
2316,"3Uga","M"
2324,"3Ugc","M"
2325,"3Ugc","M"
2327,"3Ugd","M"
2328,"3Ugd","M"
2331,"3Uge","M"
2332,"3Uge","M"
2348,"3Ugk","M"
2355,"3ADr-2","H"
2357,"3AGn-1","H"
2360,"3AGn-Dr","H"
2362,"3AUc-1","H"
2380,"3AUf-Ug-8m","H"
2394,"4Dga","H"
2395,"4Dga","H"
2402,"4Dyb","H"
2406,"4Dyd","H"
2407,"4Dyd","H"
2417,"4Dyg","H"
2418,"4Dyg","H"
2428,"4Dyj","H"
2429,"4Dyj","H"
2432,"4Dyk","H"
2433,"4Dyk","H"
2439,"4Gnb","H"
2445,"4Ucc","H"
2445,"4Ucc","L"
2446,"4Ucc","H"
2446,"4Ucc","L"
2461,"5Dra","H"
2462,"5Dra","H"
2467,"5Dya","H"
2468,"5Dya","H"
2472,"5Dyb","H"
2473,"5Dyb","H"
2477,"5Dyc","H"
2478,"5Dyc","H"
2486,"5Dye","H"
2487,"5Dye","H"
2492,"5Dyf Shelf","H"
2493,"5Dyf Shelf","H"
2495,"5Uga","M"
2496,"5Uga","M"
2499,"5Ugb","H"
2499,"5Ugb","M"
2501,"5Ugc  Depression","H"
2501,"5Ugc  Depression","M"
2515,"6Dba","H"
2516,"6Dba","H"
2523,"6Dbb","H"
2524,"6Dbb","H"
2530,"6Dbc","H"
2531,"6Dbc","H"
2537,"6Dbd","H"
2538,"6Dbd","H"
2544,"6Dbe","H"
2545,"6Dbe","H"
2551,"6Dbf","H"
2552,"6Dbf","H"
2555,"6Dbg","H"
2556,"6Dbg","H"
2558,"6Dbh","H"
2559,"6Dbh","H"
2561,"6Dbi","H"
2562,"6Dda","H"
2563,"6Dda","H"
2575,"6Dra","H"
2576,"6Dra","H"
2581,"6Drb","H"
2582,"6Drb","H"
2587,"6Drc","H"
2588,"6Drc","H"
2593,"6Dya","H"
2594,"6Dya","H"
2598,"6Dyb","H"
2599,"6Dyb","H"
2607,"6Dyc","H"
2608,"6Dyc","H"
2614,"6Dyd","H"
2615,"6Dyd","H"
2622,"6Dye","H"
2623,"6Dye","H"
2631,"6Dyf","H"
2632,"6Dyf","H"
2639,"6Dyg","H"
2640,"6Dyg","H"
2643,"6Dyh","H"
2644,"6Dyh","H"
2649,"6Dyj","H"
2650,"6Dyj","H"
2655,"6Gna","H"
2656,"6Gna","H"
2662,"6Gnb","H"
2663,"6Gnb","H"
2666,"6Gnc","H"
2667,"6Gnc","H"
2670,"6Gnd","H"
2671,"6Gnd","H"
2674,"6Gne","H"
2676,"6Uca","H"
2677,"6Uca","H"
2684,"6Ucc","H"
2684,"6Ucc","L"
2685,"6Ucc","H"
2685,"6Ucc","L"
2687,"6Ufa","H"
2688,"6Ufa","H"
2695,"6Ufc","H"
2696,"6Ufc","H"
2699,"6Ufd","H"
2700,"6Ufd","H"
2703,"6Ufe","H"
2703,"6Ufe","M"
2705,"6Uga","H"
2705,"6Uga","M"
2706,"6Uga","H"
2706,"6Uga","M"
2711,"6Uma","H"
2711,"6Uma","L"
2712,"6Uma","H"
2712,"6Uma","L"
2715,"6Umb","H"
2716,"6Umb","H"
2721,"6ADb-1","H"
2729,"6ADr","crust"
2729,"6ADr","H"
2731,"6ADy-2","H"
2732,"6ADy-3","H"
2737,"6AUg-9","M"
2739,"6AUf-3","H"
2744,"6AUg-12","crust"
2744,"6AUg-12","M"
2746,"6AUg-3","crust"
2746,"6AUg-3","M"
2747,"6AUg-4","M"
2748,"6AUg-5","M"
2749,"6AUg-7","M"
2750,"6AUg-8","M"
2763,"Abbot","L"
2763,"Abbot","M"
2766,"Albert","H"
2769,"Auburn","H"
2770,"Auburn","H"
2779,"Auburn Red Variant","H"
2783,"Abercorn","H"
2787,"Archookoora","F"
2787,"Archookoora","H"
2788,"Arcturus","M"
2790,"Aldershot","H"
2791,"Aldershot","H"
2794,"Andromache","F"
2800,"Abergowrie","H"
2803,"Ashgrove","H"
2803,"Ashgrove","M"
2813,"Alloway","H"
2813,"Alloway","L"
2818,"Althaus","H"
2831,"Arnot","H"
2831,"Arnot","L"
2833,"Andergrove","L"
2835,"Annandale","F"
2837,"Arnot","H"
2837,"Arnot","L"
2841,"Andergrove (Alkaline Variant)","L"
2844,"Appaloosa","H"
2844,"Appaloosa","M"
2845,"Appaloosa","H"
2845,"Appaloosa","M"
2847,"Apron","H"
2860,"Ashton","H"
2860,"Ashton","L"
2869,"6AUg-6","M"
2871,"Avon","H"
2872,"Avon","crust"
2872,"Avon","H"
2873,"Avondale","H"
2878,"Anyarro","F"
2878,"Anyarro","H"
2886,"Boston","H"
2895,"Baddow","L"
2895,"Baddow","soft"
2898,"Bauhinia","M"
2903,"Banban","H"
2903,"Banban","M"
2906,"Balberra","H"
2907,"Barubbra","H"
2908,"Bilboolan","M"
2912,"Byabra","H"
2914,"Buchan","H"
2921,"Bucca","H"
2928,"Bidwill","H"
2931,"Beauaraba","soft"
2932,"Beauaraba","soft"
2933,"Beauaraba","soft"
2934,"Beauaraba","M"
2934,"Beauaraba","soft"
2954,"Bogandilla","H"
2958,"Bungadoo","H"
2966,"Beenham","F"
2966,"Beenham","H"
2971,"Beelbi","H"
2977,"Bovekel","M"
2984,"Buckley","H"
2985,"Balark","crust"
2985,"Balark","M"
2992,"Belmunda","H"
2999,"Bushnell","H"
3013,"Broadmedow","F"
3013,"Broadmedow","H"
3013,"Broadmedow","soft"
3016,"Barron","F"
3017,"Banana","M"
3021,"Boonenne","H"
3022,"Boonenne","F"
3022,"Boonenne","H"
3025,"Burnett","F"
3025,"Burnett","H"
3025,"Burnett","L"
3025,"Burnett","soft"
3029,"Burnett Coarse Sandy Variant","soft"
3030,"Burnett Shallow Phase","F"
3030,"Burnett Shallow Phase","H"
3032,"Boonenne","H"
3037,"Booie","F"
3037,"Booie","L"
3038,"Booloongie","H"
3040,"Boyne","H"
3043,"Bauple","soft"
3050,"Brosnan","soft"
3054,"Beeron","H"
3055,"Beeron","H"
3057,"Bingera","H"
3058,"Blair","F"
3059,"Brae","H"
3059,"Brae","soft"
3065,"Bruce","M"
3069,"Burrum","L"
3077,"Beeron Rocky Phase","H"
3081,"Basel","F"
3081,"Basel","H"
3081,"Basel","M"
3090,"Bicton","F"
3091,"Bicton","F"
3091,"Bicton","H"
3098,"Brightley","M"
3100,"Butcher","H"
3101,"Butcher","H"
3102,"Butcher","H"
3108,"Buffel","H"
3113,"Bullaroo","F"
3113,"Bullaroo","soft"
3116,"BUg-1","M"
3117,"BUg-10","M"
3118,"BUg-11","M"
3124,"BUg-17","M"
3126,"BUg-2","M"
3127,"BUg-2","M"
3128,"BUg-20","M"
3130,"BUg-4","M"
3131,"BUg-5","M"
3132,"BUg-6","M"
3133,"BUg-7","M"
3137,"BUgg-1m","M"
3151,"Belvedere","M"
3152,"Bonavista","H"
3154,"Bluewater","H"
3154,"Bluewater","L"
3157,"Bonwell","F"
3157,"Bonwell","H"
3158,"Boynewood","H"
3159,"Boynewood","crust"
3159,"Boynewood","F"
3164,"Boynewood Rocky Phase","crust"
3164,"Boynewood Rocky Phase","F"
3167,"Bell","M"
3169,"Bally","L"
3169,"Bally","soft"
3170,"Bally","F"
3170,"Bally","L"
3170,"Bally","soft"
3173,"Boyne","H"
3176,"Breen","H"
3177,"Brooyar","F"
3177,"Brooyar","H"
3178,"Byee","M"
3191,"Creek","F"
3191,"Creek","H"
3196,"Caley","soft"
3199,"Calavos","H"
3208,"Cheeseboro","H"
3208,"Cheeseboro","M"
3209,"Chessborough","H"
3216,"Crystalbrook","H"
3220,"Chinchilla","L"
3231,"Callide","H"
3233,"Ceratodus","H"
3236,"Condor","H"
3237,"Crawford","F"
3246,"Cadarga","H"
3250,"Chelmsford","H"
3255,"Cherbourg","F"
3255,"Cherbourg","L"
3263,"Cherry Tree","crust"
3263,"Cherry Tree","H"
3269,"Cottonham","M"
3278,"Curlewis","H"
3280,"Calen","H"
3287,"Clayton","H"
3290,"Clematis","F"
3290,"Clematis","H"
3293,"Cole","F"
3293,"Cole","H"
3293,"Cole","soft"
3295,"Coolabunia","L"
3296,"Coolabunia","F"
3296,"Coolabunia","H"
3301,"Cudmore","H"
3303,"Cameron","F"
3303,"Cameron","H"
3303,"Cameron","soft"
3307,"Cameron (Gleyed Subsoil Phase)","F"
3307,"Cameron (Gleyed Subsoil Phase)","L"
3309,"Canoe","H"
3311,"Carrington","F"
3313,"Canoe","H"
3324,"Coonoon","F"
3324,"Coonoon","H"
3334,"Coom","F"
3342,"Consuelo","H"
3342,"Consuelo","L"
3342,"Consuelo","soft"
3343,"Conway","H"
3344,"Conway","H"
3347,"Copenhagen","F"
3347,"Copenhagen","soft"
3355,"Carew","M"
3356,"Carmila","H"
3362,"Crater","F"
3369,"Cassidy","L"
3370,"Commissioner","H"
3371,"Cushnie","H"
3374,"Clifton","H"
3375,"Cabbage Tree","H"
3376,"Cattle","M"
3380,"Clifton","F"
3386,"Castleview","H"
3388,"Cliftonville","H"
3389,"Colvin","H"
3402,"Cooyar","H"
3412,"Dargy","M"
3423,"Dunbas Deep Phase","M"
3447,"Dagun","F"
3447,"Dagun","H"
3448,"Dalgangal","H"
3449,"Dangore","H"
3450,"Dingo (Pss)","F"
3454,"Durong","M"
3455,"Durong","crust"
3455,"Durong","M"
3458,"Dittmer","H"
3461,"Derrick Steep And Broken Phase","F"
3461,"Derrick Steep And Broken Phase","H"
3471,"Dayman","H"
3476,"Diamond (Kcm)","M"
3481,"Diamond (Kcm), Footslope Variant","M"
3482,"Don","H"
3493,"Don","F"
3499,"Derra","M"
3500,"Derra","crust"
3500,"Derra","M"
3502,"Derra (CWL)","M"
3510,"Dickson","F"
3510,"Dickson","H"
3510,"Dickson","M"
3512,"Dickson, Shallow Variant","H"
3512,"Dickson, Shallow Variant","M"
3515,"Dunstan","F"
3515,"Dunstan","H"
3520,"Dunrobin - CQ","F"
3520,"Dunrobin - CQ","H"
3522,"Dunwold","L"
3530,"Dixie","H"
3530,"Dixie","L"
3534,"Dryander","H"
3535,"Dryander","H"
3545,"Egera","M"
3549,"Eastgate","crust"
3549,"Eastgate","H"
3549,"Eastgate","M"
3552,"Edgecumbe","H"
3553,"Edgecumbe","H"
3554,"Endeavour","F"
3556,"Earlsfield","M"
3578,"Eleanor","M"
3580,"Elliot","H"
3580,"Elliot","L"
3581,"Eton","H"
3594,"Etowrie","H"
3594,"Etowrie","M"
3595,"Etowrie","F"
3597,"Etowrie (Neutral Variant)","H"
3611,"Fairdale","M"
3612,"Fairydale","H"
3612,"Fairydale","M"
3615,"Freddy","H"
3615,"Freddy","L"
3617,"Feluga","H"
3621,"Farnsfield","F"
3621,"Farnsfield","L"
3626,"Finley","H"
3628,"Farleigh","H"
3628,"Farleigh","L"
3629,"Finley","F"
3630,"Fletcher","F"
3630,"Fletcher","H"
3631,"Fletcher - Brcl","F"
3632,"Fairymead","M"
3637,"Falkner","M"
3638,"Finch Hatton","H"
3640,"Fison","F"
3640,"Fison","H"
3640,"Fison","soft"
3642,"Finch Hatton (Alluvial - Colluvial Variant)","H"
3645,"Foxdale","H"
3646,"Foxdale","H"
3648,"Flagstone","F"
3648,"Flagstone","H"
3662,"Flinton","H"
3663,"Flinton","H"
3664,"Fairview","M"
3671,"Galmara","soft"
3672,"Galmara","F"
3681,"Gillinbin","H"
3682,"Gooburrum","H"
3682,"Gooburrum","L"
3683,"Gooburrum","H"
3683,"Gooburrum","L"
3686,"Goodbye","H"
3688,"Gordonbrook","H"
3692,"Greycliffe","F"
3692,"Greycliffe","M"
3693,"Gander","F"
3693,"Gander","H"
3697,"Gordonbrook","H"
3698,"Gordonbrook","H"
3706,"Glengordon","F"
3706,"Glengordon","H"
3709,"Goodger","H"
3710,"Goodger","L"
3718,"Gahan","H"
3722,"Gillies","F"
3722,"Gillies","H"
3726,"Gillen","H"
3727,"Gindie","F"
3727,"Gindie","soft"
3728,"Glen Isla","H"
3740,"Glenella","H"
3741,"Glenora","M"
3750,"Gwynne","F"
3750,"Gwynne","L"
3765,"Goorganga","H"
3769,"Glenroc","H"
3771,"Glenrock","H"
3772,"Glenrock","H"
3774,"Graham","M"
3775,"Granville","H"
3776,"Granville","H"
3778,"Grevillea","F"
3778,"Grevillea","H"
3778,"Grevillea","soft"
3781,"Glenrock Grey Variant","H"
3787,"Gibson - Bab","H"
3795,"Gumlu","H"
3798,"Gueena","M"
3800,"Givelda","H"
3803,"Goovigen","F"
3806,"Gunnawarra","F"
3806,"Gunnawarra","L"
3808,"Gowrie - Tab","F"
3812,"Gutchy","F"
3820,"Habana","H"
3822,"Herbert","H"
3832,"Hillsdale","H"
3833,"Hillsdale","H"
3835,"Hodge (BAN)","F"
3835,"Hodge (BAN)","H"
3852,"Hawkins","L"
3854,"Hinkler","M"
3855,"Haly","crust"
3855,"Haly","L"
3856,"Haly","F"
3856,"Haly","H"
3857,"Hamleigh","H"
3865,"Hannan","H"
3868,"Holloway","H"
3878,"Harris","M"
3882,"Hillsborough","H"
3885,"Howes","H"
3890,"Hector (PCS)","H"
3902,"Hull","L"
3905,"Hunter","F"
3905,"Hunter","M"
3906,"Hillview","H"
3906,"Hillview","L"
3909,"Hillview","H"
3909,"Hillview","L"
3910,"Hopevale","L"
3911,"Hopevale","L"
3912,"Hillview Fine Variant","H"
3914,"Hawkwood","H"
3915,"Hawkwood","H"
3922,"Ilbilbie","H"
3927,"Inverdon","H"
3934,"Innisfail","H"
3934,"Innisfail","soft"
3941,"Iona","M"
3946,"Isis","H"
3946,"Isis","L"
3947,"Isis","H"
3947,"Isis","L"
3953,"Jambin","M"
3956,"Jedda","M"
3962,"Julian","H"
3978,"Jumpo","H"
3981,"Jaro","F"
3981,"Jaro","soft"
3993,"Kaber","M"
3994,"Kailla","soft"
3996,"Kaban","F"
3996,"Kaban","H"
3996,"Kaban","L"
3996,"Kaban","M"
3997,"Kaban","F"
3997,"Kaban","M"
3999,"Kilburnie","F"
3999,"Kilburnie","H"
3999,"Kilburnie","M"
4004,"Kumbia","H"
4024,"Kalah","H"
4025,"Kalah","H"
4033,"Kingjack","F"
4033,"Kingjack","H"
4034,"Kawl Kawl","H"
4036,"Kailla","soft"
4038,"Karloo","H"
4040,"Kenlogan","M"
4042,"Kolbore","H"
4046,"Kiama","F"
4046,"Kiama","L"
4051,"Koumala","H"
4056,"Kinkuna","F"
4056,"Kinkuna","H"
4056,"Kinkuna","L"
4056,"Kinkuna","soft"
4057,"Kinkuna","F"
4057,"Kinkuna","H"
4057,"Kinkuna","L"
4057,"Kinkuna","soft"
4064,"Kungurri","H"
4064,"Kungurri","M"
4065,"Kunioon","H"
4067,"Kolan","F"
4067,"Kolan","H"
4068,"Kolan","H"
4069,"Kolan","H"
4070,"Kolan","H"
4072,"Koolachu","H"
4075,"Kolan Red Variant","H"
4077,"Kepnock","H"
4081,"Kunipipi","H"
4081,"Kunipipi","L"
4096,"Kaber","M"
4100,"Kooringa","F"
4100,"Kooringa","soft"
4104,"Kokutungo","H"
4105,"Kurrimine","L"
4107,"Kurrimine","L"
4109,"Kuttabul","H"
4111,"Kowari","H"
4112,"Kowari","F"
4125,"Logcamp","F"
4125,"Logcamp","H"
4126,"Lacon","crust"
4126,"Lacon","M"
4128,"Lascelles","F"
4129,"Lucy","H"
4135,"Leadingham","crust"
4135,"Leadingham","F"
4135,"Leadingham","H"
4140,"Lee","H"
4142,"Lee","H"
4149,"Leach","F"
4150,"Leichhardt","H"
4150,"Leichhardt","L"
4154,"Liverpool","F"
4154,"Liverpool","H"
4154,"Liverpool","L"
4154,"Liverpool","soft"
4169,"Lannercost","H"
4179,"Lillypool","F"
4180,"Long Peter","H"
4187,"Louisa","H"
4190,"Littabella","L"
4190,"Littabella","soft"
4192,"Luce","H"
4193,"Lugger","H"
4193,"Lugger","L"
4196,"Lugger","H"
4197,"Luce","H"
4199,"Lugger","H"
4199,"Lugger","L"
4208,"Luxor","F"
4208,"Luxor","H"
4208,"Luxor","soft"
4213,"Maryvale","M"
4241,"Mullaburra","F"
4241,"Mullaburra","H"
4241,"Mullaburra","soft"
4243,"Minnabilla","H"
4244,"Minnabilla","F"
4244,"Minnabilla","H"
4246,"Morecambe","F"
4246,"Morecambe","H"
4246,"Morecambe","L"
4246,"Morecambe","soft"
4248,"Maraconda","M"
4262,"Maiden","H"
4264,"Mandam","H"
4264,"Mandam","soft"
4266,"May Downs","M"
4269,"Meadowvale","F"
4269,"Meadowvale","H"
4269,"Meadowvale","soft"
4273,"Mondure","crust"
4273,"Mondure","H"
4274,"Mondure","F"
4274,"Mondure","H"
4275,"Monsildale","F"
4275,"Monsildale","H"
4281,"Midden, Melonhole Phase","M"
4293,"Moffat","H"
4294,"Morgan","F"
4294,"Morgan","M"
4298,"Morgan","M"
4301,"Mungar","H"
4313,"Mahogany","H"
4313,"Mahogany","L"
4320,"Mirani","H"
4320,"Mirani","L"
4324,"Macknade","H"
4327,"Miskin","H"
4328,"Marshlands","H"
4329,"Molonga","F"
4334,"Moorland","H"
4335,"Mulei","H"
4335,"Mulei","L"
4342,"Mossman","F"
4342,"Mossman","H"
4345,"Memerambi","F"
4347,"Moramana","M"
4352,"Maalan","F"
4353,"Manar","M"
4354,"Manor","H"
4357,"Mceuen","M"
4358,"Mceuen","M"
4359,"Monsildale","crust"
4363,"Marlow","H"
4364,"Moolayember","F"
4372,"Moore Park","H"
4372,"Moore Park","L"
4377,"Maroondan","H"
4377,"Maroondan","M"
4388,"Millstream","F"
4388,"Millstream","H"
4389,"Millstream","F"
4391,"Mission","H"
4394,"Moosie","H"
4397,"Mission","H"
4421,"Murray","L"
4426,"Marwood","L"
4427,"Marwood","H"
4429,"Midway","H"
4434,"Mary","H"
4435,"Mary","H"
4436,"Mary","F"
4436,"Mary","H"
4436,"Mary","L"
4436,"Mary","soft"
4438,"Myrtle","H"
4450,"Nabilla","H"
4459,"Nobby","F"
4459,"Nobby","H"
4475,"Niagara","M"
4482,"Newell","H"
4482,"Newell","M"
4483,"Nilotica","H"
4484,"Nail","crust"
4501,"Narpi","H"
4510,"Netherdale","H"
4512,"Nursery","M"
4513,"Nessvale","H"
4514,"Norville","H"
4515,"Nanyeta","F"
4515,"Nanyeta","H"
4515,"Nanyeta","L"
4515,"Nanyeta","soft"
4518,"O'Bil Bil","H"
4519,"Obi","F"
4525,"Oakwood","H"
4526,"Oakwood","H"
4531,"Orient","H"
4535,"Ossa","H"
4537,"Ossa, Cobbly Variant","H"
4538,"Ossa (Cobbly Variant)","H"
4539,"Otoo","H"
4545,"Otoo Sandy Variant","H"
4545,"Otoo Sandy Variant","soft"
4549,"Owanyilla","H"
4565,"Palmyra","H"
4572,"Pinnacle - Cq","H"
4574,"Police Camp","H"
4586,"Pennsfield","H"
4587,"Pegunny","F"
4587,"Pegunny","M"
4588,"Pegunny","F"
4588,"Pegunny","M"
4590,"Pin Gin","soft"
4594,"Pin Gin","F"
4594,"Pin Gin","L"
4597,"Prendergast","H"
4600,"Powerhouse","soft"
4608,"Palm","H"
4611,"Palouse","H"
4612,"Palouse","H"
4613,"Pearlinga","H"
4613,"Pearlinga","L"
4614,"Pluto","H"
4615,"Pluto","F"
4615,"Pluto","H"
4623,"Pioneer","H"
4624,"Pioneer, Red B Horizon Variant","H"
4625,"Ponzo","H"
4626,"Proserpine","crust"
4628,"Peep","H"
4633,"Peep Sandy Variant","H"
4634,"Pring","H"
4644,"Peterson","F"
4645,"Porter","H"
4647,"Petrona","L"
4649,"Porter","H"
4651,"Preston","H"
4652,"Proston","F"
4660,"Qunaba","H"
4663,"Quincan","F"
4666,"Quart","L"
4674,"Rishton","L"
4674,"Rishton","soft"
4680,"Rubyanna","M"
4689,"Robur","H"
4689,"Robur","L"
4697,"Roundback Level Phase","H"
4702,"Rudd","crust"
4702,"Rudd","F"
4702,"Rudd","H"
4702,"Rudd","L"
4703,"Redbank","H"
4712,"Rungoo","H"
4717,"Rungoo","H"
4719,"Rankin","M"
4722,"Riverleigh","H"
4725,"Russell","M"
4726,"Russell, Stony Phase","M"
4729,"Russell, Gilgai Phase","M"
4730,"Ram","F"
4730,"Ram","H"
4739,"Rolleston","M"
4740,"Royston","H"
4740,"Royston","M"
4742,"Ripple","H"
4746,"Retro","H"
4747,"Retro (BAN)","H"
4748,"Retro","H"
4749,"Rothchild","H"
4750,"Rothchild","H"
4753,"Riordanvale","F"
4769,"Sandiford","H"
4770,"Sandiford","F"
4772,"Sandiford (Silty Topsoil Variant)","H"
4774,"Shurback","H"
4784,"Saddle","H"
4785,"Sadie","M"
4789,"Strathdickie","M"
4796,"Seaforth, Dark B Horizon Variant","H"
4800,"Sugarbag","crust"
4800,"Sugarbag","F"
4800,"Sugarbag","H"
4800,"Sugarbag","L"
4800,"Sugarbag","soft"
4801,"Silent Grove","M"
4805,"Shotover","L"
4810,"Samourgassi","H"
4810,"Samourgassi","L"
4815,"Slater","H"
4823,"Sugarmill","H"
4825,"Sugarmill Acid Variant","H"
4827,"Santo","F"
4827,"Santo","M"
4829,"Severin - Tab","F"
4829,"Severin - Tab","H"
4830,"Solferino","M"
4831,"Stone","M"
4833,"Sunter","F"
4844,"Spanos","L"
4848,"Septimus","L"
4853,"Spier","H"
4854,"Springs","L"
4854,"Springs","soft"
4855,"Springwood","H"
4879,"Sunnyside","H"
4880,"Sunnyside","H"
4881,"Sunnyside","F"
4885,"Summerville","H"
4887,"Seaview","H"
4887,"Seaview","M"
4897,"Sylvia","F"
4897,"Sylvia","H"
4909,"Thorpe - Dlr","H"
4919,"Taurus","H"
4921,"Tiaro","F"
4922,"Tiaro","F"
4922,"Tiaro","H"
4926,"Tirrabella","F"
4926,"Tirrabella","H"
4926,"Tirrabella","L"
4926,"Tirrabella","soft"
4927,"Taabinga","H"
4928,"Tabletop","M"
4931,"Thalberg","H"
4932,"Timbrell","H"
4934,"Toobanna","H"
4941,"TbUg-12","M"
4942,"TbUg-13","M"
4946,"TbUg-2","M"
4948,"TbUg-4","M"
4949,"TbUg-5","M"
4951,"TbUg-7","M"
4952,"TbUg-8","M"
4953,"TbUg-9","M"
4954,"Terrace","H"
4958,"Teddington","H"
4959,"Toondoon","H"
4960,"Te_El_Kabir","M"
4961,"Telegraph","H"
4962,"Tingoora","M"
4966,"Thorpe","H"
4966,"Thorpe","L"
4967,"Thorpe","H"
4967,"Thorpe","L"
4974,"Theodolite","L"
4980,"Thorpe","H"
4980,"Thorpe","L"
4987,"Thorpe Fine Variant","H"
4992,"Tailing","F"
4996,"Tinana","F"
4996,"Tinana","L"
5006,"Tinkle","H"
5006,"Tinkle","L"
5009,"Tedlands","H"
5011,"Tenmile","L"
5026,"Tandora","F"
5026,"Tandora","H"
5028,"Tognolini","M"
5029,"Tureen","F"
5030,"Turnor","H"
5031,"Tolga","F"
5031,"Tolga","L"
5031,"Tolga","soft"
5037,"Turpad","H"
5037,"Turpad","L"
5038,"Turpin","H"
5040,"Turpin","H"
5043,"Tranters","F"
5044,"Tarong","H"
5045,"Tarramba","F"
5045,"Tarramba","M"
5045,"Tarramba","soft"
5050,"Tirroan","H"
5052,"Trebonne","H"
5055,"Tirroan Non-Sodic Variant","F"
5055,"Tirroan Non-Sodic Variant","H"
5057,"Trebonne Sandy Phase","H"
5113,"TsUg-7","crust"
5122,"Tabletop","M"
5123,"Tantitha","L"
5123,"Tantitha","soft"
5128,"Tully","soft"
5130,"Tully","F"
5131,"Tully","soft"
5136,"Teviot","M"
5157,"Utchee - Dlr","H"
5160,"Uruba","H"
5169,"Ulogie","H"
5173,"Uramo","F"
5173,"Uramo","H"
5173,"Uramo","L"
5176,"Umala - Tab","F"
5178,"Urannah","H"
5178,"Urannah","L"
5179,"Up River","L"
5180,"Utchee","H"
5185,"Utchee","F"
5185,"Utchee","H"
5187,"Vicenza","M"
5190,"Victoria Plains","M"
5191,"Victoria Plains","M"
5198,"Violet","F"
5198,"Violet","H"
5199,"Vermont","M"
5214,"Wandarra","H"
5220,"Woober","H"
5221,"Woober","H"
5232,"Windradene","F"
5232,"Windradene","M"
5233,"Wondai","M"
5236,"Weatherby","F"
5236,"Weatherby","H"
5240,"Weir","H"
5240,"Weir","M"
5245,"Winfield","F"
5245,"Winfield","L"
5246,"Winfield","F"
5246,"Winfield","L"
5249,"Wongabel","F"
5249,"Wongabel","H"
5249,"Wongabel","L"
5250,"Wygong","M"
5251,"Wagoora","H"
5258,"Wagoora, Basic Parent Material Variant","H"
5258,"Wagoora, Basic Parent Material Variant","M"
5260,"Whelan","H"
5260,"Whelan","L"
5261,"Whelan","H"
5262,"Weithew","crust"
5264,"Wheatlands","H"
5265,"Wheatlands","H"
5266,"Whiptail","H"
5274,"Windermere","M"
5277,"Walkamin","F"
5280,"Walker - Mhb","H"
5281,"Walker - Mhb","H"
5283,"Woodleigh","M"
5287,"Well","M"
5291,"Well, Footslope Variant","M"
5292,"Well, Sandy Surface Variant","M"
5292,"Well, Sandy Surface Variant","soft"
5293,"Warrami","H"
5294,"Warrami","M"
5296,"Wallum","H"
5296,"Wallum","L"
5296,"Wallum","soft"
5309,"Woco","H"
5312,"Wollingford","H"
5313,"Wollingford","H"
5316,"Wollingford, Intrusive Parent Material Variant","H"
5317,"Wollingford, Yellow B Horizon Variant","H"
5318,"Washpool","H"
5321,"Wagoora","F"
5326,"Woolmer","H"
5330,"Wooroolin","F"
5332,"Walsch","H"
5339,"Watalgan","H"
5340,"Watalgan","H"
5346,"Wathana Heavier-Textured Var","H"
5351,"Wivenhoe","H"
5356,"Whymere","H"
5358,"Wyseby","H"
5363,"Yarraman","F"
5363,"Yarraman","M"
5368,"Yackadoo","F"
5368,"Yackadoo","H"
5384,"Yarrol","H"
5385,"Yuruga","H"
7534,"1CHa","H"
7535,"1CHb","H"
7537,"1DEa","H"
7539,"1KTa","F"
7539,"1KTa","L"
7540,"1SOa","H"
7541,"1SOb","H"
7549,"2VEb","M"
7552,"2VEe","M"
7553,"2VEx","M"
7554,"2VEy","M"
7564,"3VEa","M"
7565,"3VEb","M"
7566,"3VEc","M"
7567,"3VEw","M"
7569,"3VEy","M"
7570,"3VEz","M"
7577,"5VEy","M"
7611,"Darts","H"
7615,"Oombabeer","F"
7615,"Oombabeer","H"
7616,"Andergrove Water Table Variant","L"
7621,"Althaus (Zed)","F"
7629,"Black","soft"
7632,"Bluewater (Zed)","soft"
7637,"Clemant","L"
7640,"Central","soft"
7654,"Granite","L"
7676,"Manton","H"
7686,"Purono","H"
7689,"Ross","F"
7691,"Scrubby (Zed)","F"
7692,"Stockyard (Zed)","F"
7693,"Sachs","M"
7697,"Stanley","F"
7714,"Ronnoc","M"
7718,"Galway","H"
7727,"Eden","F"
7738,"Sullivan","M"
7740,"Krongie","M"
7765,"Koberinga Pebbly Phase (3uga8)","M"
7766,"Koberinga Mottled Phase (3uga9)","M"
7769,"Koberinga Secondary Salinisation (3ugas)","M"
7777,"Koberinga Secondary Salinisation (3uges)","M"
7844,"Coorooman","F"
7847,"Elizabeth","F"
7848,"Lizard","F"
7852,"Voewood","H"
7872,"Conway (Cqh)","H"
7875,"Keppel","H"
7877,"Awoonga","H"
7883,"Rosslyn","H"
7919,"Yaringa","H"
7930,"Boyanda","F"
7930,"Boyanda","soft"
7936,"Harwood","H"
7974,"Adeline","F"
7974,"Adeline","H"
7976,"Battery","M"
7984,"Burradoo","F"
7984,"Burradoo","H"
7984,"Burradoo","M"
7986,"Carfax","M"
7990,"Emoh","F"
7990,"Emoh","H"
7992,"Foxleigh","F"
7992,"Foxleigh","H"
7992,"Foxleigh","soft"
7999,"Honeycomb","H"
8004,"Kirkcaldy","F"
8004,"Kirkcaldy","H"
8004,"Kirkcaldy","M"
8005,"Knockane","F"
8005,"Knockane","H"
8005,"Knockane","M"
8006,"Langley-Wdh","M"
8007,"Leitrim","M"
8008,"Lindsay","M"
8009,"May","M"
8010,"May Shallow Phase","M"
8018,"Ninemile","M"
8019,"Norwich","M"
8021,"Picardy","M"
8022,"Picardy Surface Seal Phase","M"
8026,"Racetrack","H"
8031,"Roper","F"
8031,"Roper","H"
8031,"Roper","soft"
8032,"Stateschool","H"
8033,"Stephens","H"
8036,"Tiny","F"
8036,"Tiny","M"
8037,"Tralee","F"
8037,"Tralee","H"
8037,"Tralee","M"
8038,"Turon","F"
8038,"Turon","H"
8038,"Turon","M"
8039,"Warwick","F"
8039,"Warwick","H"
8039,"Warwick","M"
8123,"1AVE1","M"
8138,"2AVE2","M"
8142,"3AVE1","M"
8143,"3AVE2","F"
8143,"3AVE2","H"
8151,"CVE1","M"
8152,"CVE2","M"
8153,"CVE3","M"
8163,"BVE1","M"
8492,"Clemant - red subsoil horizons","F"
8506,"Dalrymple (MAJCK)","F"
8506,"Dalrymple (MAJCK)","H"
8507,"Gillian","crust"
8509,"Goodbye (MAJCK)","H"
8510,"Limeview","F"
8510,"Limeview","H"
8513,"Moosie (MAJCK)","crust"
8513,"Moosie (MAJCK)","H"
8534,"Stockyard loam","F"
8534,"Stockyard loam","H"
8793,"Walker (Majck)","F"
8793,"Walker (Majck)","H"
8836,"Tolga Rocky Phase","F"
8841,"Walkamin Rocky Phase","F"
8845,"Walsh Coarse Sandy Phase","F"
8845,"Walsh Coarse Sandy Phase","H"
8850,"Garrett","crust"
8851,"Eversleigh","crust"
8854,"Haden","F"
8856,"Dudgeon","H"
8858,"Berris","F"
9216,"PHG","L"
9231,"REDR","H"
9234,"REPR","H"
9235,"REPT","H"
9250,"SCAN","H"
9268,"YERT","H"
9299,"Althaus (Zed)","F"
9300,"Black","soft"
9303,"Clemant","L"
9309,"Thorpe - Dlr","H"
9314,"Granite","L"
9316,"Manton","H"
9318,"Purono","H"
9319,"Ross","F"
9320,"Scrubby (Zed)","F"
9321,"Stockyard (Zed)","F"
9322,"Sachs","M"
9324,"Stanley","F"
9388,"Kairi","H"
9388,"Kairi","L"
9390,"Pope","H"
9390,"Pope","L"
9391,"Drysdale","H"
9391,"Drysdale","L"
9409,"Blackburn","F"
9409,"Blackburn","H"
9409,"Blackburn","L"
9409,"Blackburn","M"
9410,"Laura","crust"
9410,"Laura","F"
9410,"Laura","H"
9410,"Laura","L"
9412,"Bullhead","crust"
9412,"Bullhead","F"
9412,"Bullhead","H"
9412,"Bullhead","L"
9412,"Bullhead","M"
9413,"Bubbler","F"
9413,"Bubbler","H"
9413,"Bubbler","L"
9413,"Bubbler","soft"
9414,"Normanby","F"
9414,"Normanby","H"
9414,"Normanby","L"
9414,"Normanby","M"
9415,"Lily","crust"
9415,"Lily","F"
9415,"Lily","H"
9415,"Lily","L"
9419,"Kolan Rocky Phase","H"
9522,"Aroa","M"
9523,"Holding","M"
9524,"Kenmar","M"
9568,"Carbeen","F"
9568,"Carbeen","H"
9708,"Sister","F"
9708,"Sister","H"
9708,"Sister","soft"
9820,"Mareeba 1","H"
9877,"Monsildale","F"
9877,"Monsildale","H"
9906,"Avondale Yellow Variant","H"
9917,"Theodolite Saline Phase","L"
9980,"Weithew","H"
9988,"Winfield","F"
9988,"Winfield","L"
10058,"Homestead","F"
10058,"Homestead","H"
10063,"Blackburn Shallow Phase","F"
10066,"Bullhead Rocky Phase","F"
10066,"Bullhead Rocky Phase","H"
10278,"Archookoora Rocky Phase","F"
10278,"Archookoora Rocky Phase","H"
10279,"Archookoora Nodular Phase","F"
10279,"Archookoora Nodular Phase","H"
10280,"Archookoora Saline Phase","F"
10280,"Archookoora Saline Phase","H"
10282,"Bushnell Eroded Phase","H"
10283,"Boonenne Rocky Phase","F"
10283,"Boonenne Rocky Phase","H"
10286,"Coolabunia Nodular Phase","F"
10286,"Coolabunia Nodular Phase","H"
10295,"Kumbia Rocky Phase","H"
10297,"Kaber Red Variant","H"
10297,"Kaber Red Variant","M"
10299,"Hopevale eroded phase","L"
10300,"Memerambi Eroded Phase","F"
10301,"Mceuen Rocky Phase","M"
10303,"Wooroolin Eroded Phase","F"
10311,"Bidwill Rocky Phase","H"
