"","SC_1","SC_2","count"
"1","crust","F",61
"2","crust","H",221
"3","crust","L",16
"4","crust","M",368
"5","crust","soft",11
"6","crust",NA,659
"7","F","H",258
"8","F","L",39
"9","F","M",29
"10","F","soft",108
"11","F",NA,5197
"12","H","L",29
"13","H","M",13
"14","H","soft",43
"15","H",NA,19036
"16","L","M",9
"17","L","soft",28
"18","L",NA,1544
"19","M","soft",80
"20","M",NA,4696
"21","soft",NA,1700
