"NAME","Area_ha","Clay85_90","ESP25_30","ESP85_90","drain","scond","PPAWC"
"Natal",6470,51,NA,NA,3,NA,NA
"Logan",4413,57,NA,NA,3,"mulch",NA
"Gindie",3934,56,NA,NA,4,"soft",97
"BUg-2",2789,42,0.63,1.88,NA,"mulch",161
"Consuelo",2658,29,NA,NA,4,"mulch",NA
"D1",1983,51,6.8,NA,3,"loose",48
"Cheeseboro",1945,NA,NA,NA,4,"mulch",NA
"Moolayember",1923,42,NA,NA,4,"firm",NA
"Mceuen",1897,29,1.07,NA,4,"mulch",73
"Taabinga",1561,29,NA,NA,5,"hard",NA
"Threemoon 1",1282,66,9.61,15.74,NA,"mulch",112
"Ceratodus 2",1281,51,NA,NA,5,"hard",NA
"TbUg-2",1235,68,2.2,6.81,NA,"mulch",135
"E1",1083,42,NA,NA,5,"hard",NA
