"","ID","tax_code_1","tax_code_n","rep_site_1","rep_site_1n"
"1","ABN-41-1",3185,"C3",3187,"C5"
"2","ABS-99-1",3404,"D2",10282,"Bushnell Eroded Phase"
"3","ATE-4-1",5199,"Vermont",4266,"May Downs"
"4","CCL-325-1",8093,"Strathmuir",7852,"Voewood"
"5","CQC-129-1",5199,"Vermont",4266,"May Downs"
"6","CQCS-104-1",3741,"Glenora",2788,"Arcturus"
"7","CQCS-43-1",4266,"May Downs",7738,"Sullivan"
"8","EIR-9050-1",2750,"6AUg-8",2869,"6AUg-6"
"9","FSE-197-1",4208,"Luxor",3013,"Broadmedow"
"10","MRA-7-1",3741,"Glenora",4266,"May Downs"
"11","NCD-517-1",7549,"2VEb",7548,"2VEa"
"12","SALTN-504-1",3510,"Dickson",7718,"Galway"
"13","SBT-9011-1",4274,"Mondure",3611,"Fairdale"
"14","SFS-29-1",3556,"Earlsfield",3953,"Jambin"
