"NAME","Area_ha","Clay85_90","ESP25_30","ESP85_90","drain","scond","PPAWC","ClustReg22"
"BUg-2",7423,42,0.63,1.88,NA,"mulch",161,"Fitzroy and inland Burdekin"
"Consuelo",5424,29,NA,NA,4,"mulch",NA,"Fitzroy and inland Burdekin"
"Gindie",4894,56,NA,NA,4,"soft",97,"Fitzroy and inland Burdekin"
"Taabinga",4570,29,NA,NA,5,"hard",NA,"Inland Burnett"
"Mceuen",2711,29,1.07,NA,4,"mulch",73,"Inland Burnett"
"Cheeseboro",2533,NA,NA,NA,4,"mulch",NA,"Fitzroy and inland Burdekin"
"Glenrock",2467,16,0.01,NA,5,"hard",88,"Inland Burnett"
"Windradene",1637,51,0.01,NA,3,"mulch",69,"Fitzroy and inland Burdekin"
"Bullaroo",1553,42,NA,NA,4,"loose",NA,"Fitzroy and inland Burdekin"
"Crawford",1483,42,NA,NA,5,"hard",NA,"Inland Burnett"
"TbUg-2",1199,68,2.2,6.81,NA,"mulch",135,"Fitzroy and inland Burdekin"
"BUg-6",1044,73,1.57,5.05,NA,"mulch",187,"Fitzroy and inland Burdekin"
