"ID","UD","LD","Clay","CS","FS","m3rd_bar","Silt"
"ABC-1-1",0,10,58,3,7,35,32
"ABC-220-1",0,10,33,41,13,25,13
"ABC-48-1",0,10,50,22,10,34,19
"ABC-52-1",0,10,35,15,27,36,23
"ABC-6-1",0,10,53,3,16,29,28
"ACL-127-1",0,10,5,18,67,8,10
"ACL-137-1",0,10,6,9,67,11,18
"ACL-138-1",0,10,7,25,57,10,11
"ACL-63-1",0,10,1,44,42,7,14
"ARD-507-1",0,10,34,25,25,NA,16
"ARD-9000-1",0,10,21,39,20,NA,21
"ARD-9001-1",0,10,12,41,33,NA,14
"ARD-9002-1",0,10,34,25,25,NA,16
"ARD-9003-1",0,10,25,30,34,NA,11
"ARD-9005-1",0,10,36,10,26,NA,28
"ARD-9006-1",0,10,28,20,26,NA,27
"ARD-9007-1",0,10,32,18,30,NA,20
"ARD-9008-1",0,10,50,14,22,NA,14
"ARD-9009-1",0,10,51,12,17,NA,20
"ARD-9010-1",0,10,53,16,14,NA,16
"ARD-9011-1",0,10,8,31,53,NA,8
"ARD-9012-1",0,10,12,16,62,NA,10
"ARD-9013-1",0,10,24,4,53,NA,19
"ARD-9014-1",0,10,9,46,34,NA,10
"ASOM-10-1",0,5,23,31,28,NA,18
"ASOM-12-1",0,5,15,10,55,NA,19
"ASOM-13-1",0,5,20,16,41,NA,23
"ASOM-14-1",0,5,15,15,50,NA,19
"ASOM-15-1",0,5,21,4,55,NA,21
"ASOM-16-1",0,5,9,46,32,NA,13
"ASOM-17-1",0,5,9,29,47,NA,16
"ASOM-23-1",0,5,10,17,47,NA,26
"ASOM-24-1",0,5,8,28,48,NA,17
"ASOM-25-1",0,5,7,23,62,NA,9
"ASOM-26-1",0,5,21,6,40,NA,33
"ASOM-27-1",0,5,33,11,26,NA,31
"ASOM-29-1",0,5,65,4,17,NA,14
"ASOM-30-1",0,5,46,14,28,NA,11
"ASOM-9-1",0,5,22,24,36,NA,18
"ATB-6000-1",0,10,11,7,70,NA,12
"ATB-6001-1",0,10,9,38,47,NA,5
"ATB-6002-1",0,10,17,27,34,NA,22
"ATB-6003-1",0,10,37,13,32,NA,18
"ATB-6004-1",0,10,43,14,25,NA,17
"ATB-6007-1",0,10,11,44,35,NA,10
"ATB-6008-1",0,10,7,13,61,NA,19
"ATB-6010-1",0,10,9,14,72,NA,5
"ATB-6011-1",0,10,7,15,71,NA,8
"ATB-6012-1",0,10,43,20,17,32,19
"ATB-6013-1",0,10,60,20,9,NA,10
"ATB-6016-1",0,10,65,5,10,61,20
"ATB-6017-1",0,10,70,5,11,NA,14
"ATB-6018-1",0,10,63,12,11,22,14
"ATB-6019-1",0,10,66,8,12,NA,15
"ATB-6020-1",0,10,7,29,43,NA,22
"ATB-6021-1",0,10,15,45,35,NA,5
"ATB-6022-1",0,10,1,53,34,NA,12
"ATB-6024-1",0,10,6,48,38,NA,7
"ATB-6025-1",0,10,5,16,49,NA,30
"ATB-6026-1",0,10,9,14,72,NA,5
"ATB-6028-1",0,10,7,13,61,NA,19
"ATB-6029-1",0,10,14,12,55,20,19
"ATB-6030-1",0,12,1,95,3,NA,1
"ATB-6031-1",0,10,7,53,34,NA,6
"BAB-440-1",0,20,34,5,19,NA,42
"BAB-9001-1",0,10,10,26,58,NA,6
"BAB-9002-1",0,10,49,4,25,NA,22
"BAB-9003-1",0,10,9,44,36,NA,11
"BAB-9004-1",0,10,10,24,54,NA,12
"BAB-9005-1",0,5,27,1,49,NA,24
"BAB-9006-1",0,10,43,18,15,NA,24
"BAB-9007-1",0,10,73,7,2,NA,18
"BAB-9008-1",0,10,47,10,16,NA,27
"BAB-9009-1",0,10,43,29,8,NA,21
"BAB-9010-1",0,10,45,8,28,NA,19
"BAB-9011-1",0,10,29,23,29,NA,19
"BAB-9012-1",0,10,11,5,70,NA,13
"BAB-9013-1",0,10,15,10,59,NA,15
"BAB-9014-1",0,5,35,11,21,NA,33
"BAN-1088-1",0,10,39,6,16,NA,39
"BAN-1093-1",0,12,32,32,15,NA,21
"BAN-1142-1",0,10,34,21,28,NA,17
"BAN-1147-1",0,10,34,31,12,NA,23
"BAN-150-1",0,10,23,25,36,NA,16
"BAN-1601-1",0,10,73,4,5,NA,18
"BAN-1625-1",0,10,34,22,26,NA,17
"BAN-1648-1",0,10,45,20,19,NA,16
"BAN-165-1",0,5,37,12,35,NA,17
"BAN-1805-1",0,10,15,12,59,NA,14
"BAN-181-1",0,10,6,37,55,NA,2
"BAN-1811-1",0,10,25,11,43,NA,21
"BAN-1812-1",0,10,12,19,50,NA,19
"BAN-185-1",0,10,56,14,18,NA,12
"BAN-1971-1",0,10,27,21,30,NA,22
"BAN-2015-1",0,10,45,19,17,NA,18
"BAN-2090-1",0,10,16,12,62,NA,11
"BAN-2096-1",0,10,29,19,34,NA,19
"BAN-2097-1",0,10,47,16,22,NA,14
"BAN-2099-1",0,10,31,2,34,NA,34
"BAN-21-1",0,5,57,8,16,NA,19
"BAN-2105-1",0,10,59,6,17,NA,17
"BAN-2128-1",0,10,62,4,14,NA,20
"BAN-2164-1",0,10,60,1,10,NA,29
"BAN-2255-1",0,10,58,7,22,NA,14
"BAN-2256-1",0,2,46,8,25,NA,22
"BAN-2257-1",0,5,62,5,18,NA,14
"BAN-2258-1",0,2,48,12,21,NA,19
"BAN-2259-1",0,2,49,6,24,NA,21
"BAN-2260-1",0,5,37,12,35,NA,17
"BAN-2262-1",0,2,39,4,28,NA,28
"BAN-2263-1",0,5,46,10,25,NA,19
"BAN-2264-1",0,2,47,9,28,NA,16
"BAN-2265-1",0,2,62,2,11,NA,25
"BAN-2298-1",0,10,29,4,31,NA,35
"BAN-2597-1",0,10,47,12,23,NA,17
"BAN-2598-1",0,10,54,8,18,NA,19
"BAN-271-1",0,10,36,21,33,NA,11
"BAN-286-1",0,10,39,5,20,NA,36
"BAN-289-1",0,10,28,2,43,NA,27
"BAN-301-1",0,10,20,12,55,NA,13
"BAN-302-1",0,10,24,16,54,NA,6
"BAN-339-1",0,5,43,10,27,NA,19
"BAN-405-1",0,5,35,2,30,NA,33
"BAN-474-1",0,5,44,11,27,NA,18
"BAN-5-1",0,10,25,28,36,NA,11
"BAN-507-1",0,5,43,15,20,NA,23
"BAN-508-1",0,4,56,5,12,NA,27
"BAN-510-1",0,10,54,12,20,NA,14
"BAN-511-1",0,10,39,10,34,NA,16
"BAN-513-1",0,3,64,3,10,NA,23
"BAN-516-1",0,3,50,7,26,NA,17
"BAN-522-1",0,3,53,6,21,NA,20
"BAN-599-1",0,10,31,4,33,NA,31
"BAN-6-1",0,10,36,13,29,NA,22
"BAN-63-1",0,5,48,6,18,NA,28
"BAN-657-1",0,7,40,13,26,NA,21
"BAN-657-1",0,10,43,10,28,NA,19
"BAN-682-1",0,10,58,17,12,NA,14
"BAN-708-1",0,5,27,19,41,NA,13
"BAN-723-1",0,10,43,18,21,NA,19
"BAN-748-1",0,6,55,5,18,NA,22
"BAN-790-1",0,2,66,2,12,NA,21
"BAN-804-1",0,5,26,14,40,NA,20
"BAN-835-1",0,10,64,3,12,NA,21
"BAN-858-1",0,2,46,8,24,NA,23
"BAN-859-1",0,4,64,4,15,NA,17
"BAN-865-1",0,5,26,8,36,NA,30
"BAN-881-1",0,10,67,2,9,NA,23
"BAN-940-1",0,10,40,16,28,NA,16
"BAN-947-1",0,2,38,14,34,NA,14
"BAN-95-1",0,10,2,39,57,NA,2
"BAN-97-1",0,10,45,18,23,NA,13
"BDS-1142-2",0,10,32,9,28,33.9,31
"BDS-1186-2",0,10,2,57,35,13.6,6
"BDS-1225-2",0,10,15,14,58,14.5,14
"BDS-1313-2",0,10,27,15,34,9,24
"BDS-1381-2",0,10,18,27,45,39.8,11
"BDS-1397-2",0,10,15,20,55,5,11
"BDS-1431-2",0,10,42,2,21,41,34
"BDS-1502-1",0,10,1,77,17,28.4,5
"BDS-198-2",0,10,26,13,37,21.4,25
"BDS-209-2",0,10,16,5,63,25.2,16
"BDS-265-2",0,10,31,2,33,32.6,33
"BDS-276-2",0,10,25,4,47,31.3,23
"BDS-369-2",0,10,10,42,39,12.2,8
"BDS-589-2",0,10,25,7,23,42.1,45
"BDS-689-2",0,10,31,4,28,34.8,36
"BDS-755-2",0,10,31,7,37,27.1,25
"BDS-800-2",0,10,23,48,9,23.9,21
"BDS-877-2",0,10,12,4,62,34.1,22
"BER-9000-1",0,10,1,75,21,NA,3
"BER-9001-1",0,10,15,32,45,NA,8
"BER-9002-1",0,10,8,50,30,NA,13
"BER-9003-1",0,3,36,18,32,27,14
"BER-9004-1",0,3,46,16,23,NA,16
"BER-9004-1",0,10,46,16,23,NA,15
"BER-9006-1",0,10,43,20,20,27,17
"BER-9007-1",0,10,16,41,36,NA,7
"BER-9009-1",0,10,1,67,29,NA,3
"BER-9011-1",0,10,2,73,24,4,1
"BER-9016-1",0,10,10,36,43,NA,11
"BER-9017-1",0,10,8,35,45,NA,12
"BER-9018-1",0,10,4,45,41,NA,10
"BER-9020-1",0,10,8,17,67,NA,8
"BER-9021-1",0,10,11,40,42,NA,6
"BER-9027-1",0,10,39,15,35,29,12
"BER-9028-1",0,2,39,16,29,26,17
"BER-9028-1",0,10,42,15,27,28,15
"BER-9029-1",0,10,19,33,29,21,19
"BER-9030-1",0,5,40,13,24,NA,23
"BER-9030-1",0,10,42,10,24,NA,24
"BER-9032-1",0,10,19,36,39,16,6
"BER-9034-1",0,10,17,23,50,NA,10
"BER-9040-1",0,10,11,28,54,NA,7
"BER-9041-1",0,10,14,12,63,22,10
"BER-9042-1",0,10,20,30,34,19,16
"BER-9046-1",0,10,14,32,46,NA,9
"BER-9047-1",0,10,20,18,49,NA,12
"BER-9050-1",0,10,14,28,49,NA,10
"BER-9051-1",0,10,13,55,27,NA,5
"BER-9052-1",0,12,17,42,28,16,13
"BER-9053-1",0,8,18,48,27,14,7
"BER-9054-1",0,10,11,53,28,NA,8
"BLS-9000-1",0,10,21,13,53,28,14
"BLS-9001-1",0,10,40,6,27,35,27
"BLS-9005-1",0,10,19,20,50,22,11
"BLS-9007-1",0,10,38,3,27,39,32
"BLS-9008-1",0,8,19,22,47,20,13
"BLS-9009-1",0,10,33,7,32,28,29
"BLS-9010-1",0,10,39,7,22,37,32
"BMSE-21-1",0,10,7,72,18,NA,4
"BMSE-60-1",0,10,10,48,33,NA,9
"BMSE-62-1",0,10,67,4,17,NA,12
"BPA-13-1",0,10,4,75,20,NA,1
"BPA-22-1",0,10,3,95,1,NA,1
"BPA-3-1",0,10,6,69,24,NA,1
"BPA-6-1",0,10,3,61,34,NA,2
"BPS-9007-1",0,10,65,6,14,47,16
"BPS-9008-1",0,10,12,25,50,18,13
"BPS-9009-1",0,10,30,18,31,34,22
"BPS-9010-1",0,10,61,5,17,41.5,18
"BPS-9012-1",0,10,48,10,20,45,22
"BPS-9013-1",0,10,22,24,26,33,27
"BPS-9015-1",0,10,25,23,31,28,22
"BRB-6006-1",0,10,52,18,17,32,13
"BRB-6007-1",0,10,47,18,19,32,16
"BRB-6008-1",0,10,41,22,28,25,9
"BRB-6009-1",0,10,21,44,27,16,8
"BRB-6014-1",0,10,26,34,29,17,11
"BRB-6020-1",0,10,48,2,24,30,26
"BRB-6042-1",0,10,13,46,35,14,6
"BRB-6053-1",0,10,30,11,39,38,19
"BRB-6054-1",0,10,9,38,43,14,11
"BRB-6055-1",0,10,29,35,27,15,9
"BRB-6057-1",0,10,22,2,41,27,35
"BRB-6064-1",0,10,47,12,31,31,10
"BRB-6065-1",0,10,43,11,27,32,19
"BRCL-2-1",0,10,26,27,24,NA,24
"BRCL-61-1",0,10,46,11,12,NA,30
"BRL-9000-1",0,10,17,22,35,31,26
"BRL-9001-1",0,10,31,3,32,27,35
"BRL-9002-1",0,10,14,5,50,20,31
"BRL-9003-1",0,10,13,25,36,21,26
"BRL-9004-1",0,10,13,8,50,22,29
"BRL-9005-1",0,10,15,11,53,18,21
"BRL-9006-1",0,10,27,10,44,21,20
"BRL-9007-1",0,10,16,6,46,25,33
"BRL-9008-1",0,10,47,5,25,40,23
"BRL-9010-1",0,10,26,15,44,23,15
"BRL-9011-1",0,10,10,12,52,26,25
"BRL-9012-1",0,10,5,64,25,9,6
"BRL-9013-1",0,10,22,8,30,28,40
"BRL-9014-1",0,10,27,11,39,24,23
"BRL-9016-1",0,10,37,3,42,31,18
"BRL-9017-1",0,10,27,2,40,32,31
"BRL-9018-1",0,10,5,35,51,18,9
"BRL-9019-1",0,10,15,19,41,23,26
"BRL-9020-1",0,10,19,13,36,24,31
"BRL-9021-1",0,10,69,3,5,38,23
"BRL-9022-1",0,10,41,7,27,28,25
"BRL-9024-1",0,10,15,2,60,19,24
"BRL-9025-1",0,10,14,11,52,36,24
"BRL-9026-1",0,10,8,9,60,22,22
"BRL-9027-1",0,10,12,18,47,28,22
"BRL-9028-1",0,10,12,9,64,25,16
"BRL-9029-1",0,10,14,4,58,25,24
"BRL-9030-1",0,10,15,7,49,30,30
"BRL-9031-1",0,10,57,4,12,36,26
"BRL-9032-1",0,10,53,1,15,39,32
"BRL-9034-1",0,10,53,8,19,38,21
"BRL-9036-1",0,10,56,4,17,39,23
"BRL-9039-1",0,10,24,7,47,23,22
"BRL-9041-1",0,10,31,16,36,25,17
"BRL-9043-1",0,10,7,12,66,15,15
"BRL-9044-1",0,10,46,8,18,32,29
"BRL-9045-1",0,10,6,9,70,13,15
"BRL-9047-1",0,10,13,13,52,26,22
"BRL-9048-1",0,10,20,7,56,20,18
"BRL-9053-1",0,10,7,26,39,16,28
"BRL-9056-1",0,10,6,29,49,13,17
"BRL-9059-1",0,10,12,19,51,22,17
"BRL-9065-1",0,10,54,4,17,33,24
"BRL-9067-1",0,10,44,7,28,28,22
"BRS-6011-1",0,10,72,4,10,NA,15
"BRS-6015-1",0,10,72,4,11,NA,13
"BRS-6050-1",0,10,70,4,13,NA,14
"BRS-6059-1",0,10,69,4,11,NA,16
"BRS-6077-1",0,10,66,8,12,NA,15
"BRS-6079-1",0,10,70,5,11,NA,14
"BRS-6081-1",0,10,63,12,11,NA,14
"BSA-11-1",0,10,5,62,31,3,2
"BSA-15-1",0,10,13,29,49,24,9
"BSA-17-1",0,10,7,35,51,13,8
"BSA-22-1",0,10,11,11,65,13,13
"BSA-23-1",0,10,7,65,25,5,3
"BSA-25-1",0,10,17,13,47,21,24
"BSA-26-1",0,10,7,50,40,7,3
"BSA-28-1",0,10,8,19,65,11,8
"BSA-7-1",0,10,7,42,48,4,3
"BSA-8-1",0,10,7,57,31,6,5
"BSS-1-1",0,10,17,5,45,NA,33
"BSS-12-1",0,10,12,29,46,NA,14
"BSS-13-1",0,10,38,20,20,NA,22
"BSS-16-1",0,10,10,16,70,NA,5
"BSS-17-1",0,10,7,38,41,NA,14
"BSS-18-1",0,10,12,8,73,NA,8
"BSS-19-1",0,10,31,28,19,NA,21
"BSS-2-1",0,10,25,21,41,NA,14
"BSS-20-1",0,10,10,12,50,NA,27
"BSS-22-1",0,10,55,11,12,NA,23
"BSS-23-1",0,10,49,7,15,NA,29
"BSS-24-1",0,10,30,30,33,NA,7
"BSS-25-1",0,10,28,19,41,NA,11
"BSS-26-1",0,10,47,12,30,NA,12
"BSS-27-1",0,10,37,11,25,NA,27
"BSS-28-1",0,10,12,37,48,NA,3
"BSS-29-1",0,10,12,13,49,NA,27
"BSS-3-1",0,10,15,20,42,NA,23
"BSS-30-1",0,10,6,50,36,NA,9
"BSS-31-1",0,10,15,38,43,NA,4
"BSS-32-1",0,10,8,20,67,NA,5
"BSS-33-1",0,10,11,16,66,NA,7
"BSS-37-1",0,10,56,15,6,NA,22
"BSS-38-1",0,10,27,2,36,NA,35
"BSS-4-1",0,10,10,28,50,NA,12
"BSS-41-1",0,10,11,6,59,NA,24
"BSS-45-1",0,15,42,8,33,NA,17
"BSS-5-1",0,10,10,12,59,NA,20
"BSS-6-1",0,10,27,33,24,NA,17
"BSS-7-1",0,10,32,12,24,NA,32
"BSS-8-1",0,10,20,41,32,NA,7
"BSS-9-1",0,10,6,21,53,NA,21
"BUN-103-1",0,10,4,31,61,NA,4
"BUN-108-1",0,10,18,14,47,NA,21
"BUN-109-1",0,10,26,8,17,NA,48
"BUN-110-1",0,10,9,39,40,NA,13
"BUN-111-1",0,10,49,12,15,NA,23
"BUN-112-1",0,10,45,15,18,NA,21
"BUN-113-1",0,10,13,8,59,NA,20
"BUN-114-1",0,10,7,35,47,NA,10
"BUN-115-1",0,10,22,30,33,NA,14
"BUN-116-1",0,10,32,9,34,NA,25
"BUN-117-1",0,10,11,4,49,NA,36
"BUN-120-1",0,10,22,9,43,NA,26
"BUN-122-1",0,10,12,38,38,NA,11
"BUN-123-1",0,10,25,26,26,NA,23
"BUN-6001-1",0,10,27,19,25,NA,29
"BUN-6002-1",0,10,15,22,54,NA,8
"CBW-1024-1",0,10,24,7,39,NA,30
"CBW-1025-1",0,10,9,28,57,NA,6
"CBW-1026-1",0,10,22,3,57,NA,18
"CBW-263-1",0,10,15,38,37,NA,10
"CBW-264-1",0,10,6,55,31,NA,8
"CBW-265-1",0,10,12,39,40,NA,8
"CBW-266-1",0,10,19,10,61,NA,11
"CBW-268-1",0,10,8,28,53,NA,11
"CBW-269-1",0,10,19,32,39,NA,10
"CBW-270-1",0,10,55,6,17,NA,22
"CBW-271-1",0,10,43,15,19,NA,24
"CBW-272-1",0,10,38,11,23,NA,27
"CBW-273-1",0,10,42,13,22,NA,23
"CBW-274-1",0,10,12,38,39,NA,10
"CBW-275-1",0,10,6,36,51,NA,7
"CBW-276-1",0,10,11,32,46,NA,11
"CBW-277-1",0,10,4,41,47,NA,7
"CBW-278-1",0,10,9,29,55,NA,7
"CBW-279-1",0,10,19,20,52,NA,9
"CBW-281-1",0,10,5,14,71,NA,10
"CBW-282-1",0,10,4,16,71,NA,8
"CBW-283-1",0,10,7,12,68,NA,13
"CBW-285-1",0,10,13,19,58,NA,10
"CBW-286-1",0,10,51,14,19,NA,16
"CBW-287-1",0,10,8,24,59,NA,9
"CBW-9000-1",0,10,7,26,60,NA,7
"CBW-9001-1",0,10,6,10,65,NA,20
"CBW-9002-1",0,10,11,10,62,NA,18
"CBW-9003-1",0,10,11,10,53,NA,25
"CBW-9004-1",0,10,5,55,31,NA,9
"CBW-9005-1",0,10,8,49,26,NA,17
"CBW-9006-1",0,10,5,14,53,NA,28
"CBW-9007-1",0,10,3,8,48,NA,40
"CBW-9008-1",0,10,12,3,57,NA,28
"CBW-9009-1",0,10,4,8,51,NA,37
"CBW-9010-1",0,10,3,23,61,NA,13
"CBW-9011-1",0,10,4,25,59,NA,12
"CBW-9012-1",0,10,21,14,54,NA,11
"CBW-911-1",0,10,18,16,49,NA,17
"CBW-918-1",0,10,16,10,44,NA,30
"CCL-325-1",0,10,11,39,31,NA,19
"CIS-9000-1",0,10,12,25,52,14,11
"CIS-9001-1",0,10,35,6,30,33,29
"CIS-9003-1",0,10,34,8,34,32,24
"CIS-9004-1",0,10,60,8,11,37,21
"CIS-9005-1",0,10,23,8,40,23,29
"CIS-9006-1",0,10,26,5,39,31,31
"CIS-9007-1",0,10,10,21,57,14,11
"CIS-9008-1",0,10,16,23,48,19,14
"CIS-9009-1",0,10,18,3,56,22,23
"CIS-9010-1",0,10,22,6,52,26,20
"CIS-9011-1",0,10,21,3,56,25,20
"CIS-9012-1",0,10,17,23,49,17,11
"CIS-9013-1",0,10,35,3,28,33,33
"CIS-9014-1",0,10,30,5,34,35,30
"CQCS-2-1",0,10,41,29,19,25.7,11
"CQH-1018-1",0,10,12,57,23,NA,8
"CQH-1019-1",0,10,24,20,30,NA,27
"CQH-1109-1",0,10,11,11,58,NA,20
"CQH-128-1",0,10,25,1,31,NA,43
"CQH-210-1",0,10,10,52,33,NA,5
"CQH-248-1",0,10,29,15,34,NA,22
"CQH-250-1",0,10,31,28,22,NA,20
"CQH-26-1",0,10,11,43,20,NA,27
"CQH-289-1",0,10,28,7,35,NA,29
"CQH-295-1",0,10,18,22,36,NA,23
"CQH-331-1",0,10,23,20,35,NA,22
"CQH-384-1",0,10,10,43,39,NA,9
"CQH-401-1",0,10,32,34,15,NA,18
"CQH-412-1",0,10,10,23,43,NA,24
"CQH-423-1",0,10,25,37,19,NA,20
"CQH-455-1",0,10,16,19,53,NA,12
"CQH-615-1",0,10,15,11,66,NA,8
"CQH-616-1",0,10,15,37,32,NA,15
"CQH-695-1",0,10,15,36,25,NA,24
"CQH-802-1",0,20,7,60,22,NA,11
"CQH-806-1",0,20,11,48,31,NA,11
"CQH-820-1",0,20,41,22,17,NA,20
"CQH-821-1",0,30,31,43,11,NA,16
"CQH-822-1",0,10,39,20,29,NA,12
"CQH-832-1",0,10,11,62,19,NA,9
"CQH-946-1",0,10,45,11,25,NA,19
"CTAP-1-1",0,10,45,12,26,29,17
"CTAP-106-1",0,10,30,15,44,15.8,11
"CTAP-119-1",0,10,16,1,63,14,20
"CTAP-146-1",0,10,45,7,28,28.3,21
"CTAP-177-1",0,10,57,17,17,29,9
"CTAP-189-1",0,10,11,6,76,7.6,7
"CTAP-211-1",0,10,42,20,25,14,13
"CTAP-228-1",0,10,14,2,71,15.6,13
"CTAP-238-1",0,10,10,59,26,8.9,6
"CTAP-245-1",0,10,53,15,15,23.9,17
"CTAP-247-1",0,10,19,38,29,22.4,15
"CTAP-5-1",0,10,32,7,48,20.7,13
"CTAP-59-1",0,10,44,26,19,22.5,11
"CTAP-8-1",0,10,7,35,54,2.8,5
"CTI-310-1",0,10,55,10,5,NA,29
"CTI-311-1",0,10,22,26,44,18,7
"CTI-314-1",0,10,19,42,19,NA,21
"CTI-315-1",0,10,18,66,9,16,7
"CTI-316-1",0,10,22,59,10,32,8
"CTI-317-1",0,10,17,57,15,16,11
"CTI-318-1",0,6,34,10,26,39,29
"CTI-320-1",0,10,28,16,33,NA,23
"CTI-321-1",0,10,9,57,28,12,6
"CTI-327-1",0,10,14,61,18,19,7
"CTI-6001-1",0,10,2,91,5,1,2
"CTI-6002-1",0,10,51,6,12,NA,31
"CTI-6004-1",0,10,2,80,17,NA,1
"CTI-6005-1",0,10,22,53,18,NA,7
"CTI-6006-1",0,10,43,2,23,NA,32
"CTI-6007-1",0,10,21,24,45,NA,10
"CTI-6008-1",0,10,19,2,65,NA,14
"CTI-6009-1",0,10,47,6,5,NA,42
"CTI-6010-1",0,10,47,13,19,NA,22
"CTI-6012-1",0,10,1,79,19,NA,1
"CTI-6013-1",0,10,21,36,17,NA,26
"CTI-6015-1",0,10,60,13,10,NA,17
"CTI-6016-1",0,10,41,34,15,NA,10
"CTI-6017-1",0,10,40,3,32,NA,25
"CTI-6018-1",0,10,5,79,13,NA,3
"CTI-6019-1",0,10,11,72,14,NA,3
"CTI-6020-1",0,10,10,66,16,NA,8
"CTI-6021-1",0,10,11,48,34,NA,7
"CTI-6022-1",0,10,20,8,58,NA,14
"CTI-6025-1",0,10,18,4,50,NA,28
"CTI-6027-1",0,10,13,57,21,NA,9
"CTI-6028-1",0,10,13,30,48,NA,9
"CTI-6029-1",0,10,26,17,48,NA,9
"CTI-6030-1",0,10,44,15,22,NA,19
"CTI-6031-1",0,10,82,2,2,NA,14
"CWR-9000-1",0,10,60,4,15,33,21
"CWR-9001-1",0,10,18,4,62,19,17
"CWR-9002-1",0,3,40,16,24,35,19
"CWR-9003-1",0,10,17,3,57,21,23
"CWR-9005-1",0,10,18,37,33,15,12
"CWR-9007-1",0,6,36,24,23,29,16
"CWR-9008-1",0,8,24,15,42,21,18
"CWR-9010-1",0,10,48,25,11,34,17
"CYP-392-1",0,10,38,15,29,NA,19
"CYP-836-1",0,10,1,63,33,NA,3
"DHR-6001-1",0,10,19,8,51,24,21
"EIL-1-1",0,10,64,8,17,56,11
"EIL-15-1",0,10,56,1,21,36,22
"EIL-16-1",0,10,66,6,18,49,10
"EIL-17-1",0,10,52,3,31,41,14
"EIL-18-1",0,10,46,6,32,NA,16
"EIL-19-1",0,10,58,5,22,44,15
"EIL-2-1",0,10,63,3,19,51,15
"EIL-20-1",0,10,58,4,22,44,15
"EIL-21-1",0,10,58,1,25,41,16
"EIL-22-1",0,2,62,2,25,34,11
"EIL-23-1",0,10,16,21,61,6,2
"EIL-24-1",0,10,20,3,67,12,10
"EIL-25-1",0,10,25,6,53,15,16
"EIL-26-1",0,10,30,5,50,16,15
"EIL-27-1",0,10,32,8,38,21,22
"EIL-28-1",0,10,23,15,51,12,11
"EIL-3-1",0,10,68,8,14,60,10
"EIL-31-1",0,10,38,21,32,19,9
"EIL-33-1",0,10,57,11,22,34,10
"EIL-34-1",0,1,56,4,23,34,17
"EIL-35-1",0,10,55,6,24,34,15
"EIL-36-1",0,10,44,8,37,28,11
"EIL-38-1",0,10,46,9,34,28,11
"EIL-4-1",0,10,55,7,24,51,14
"EIL-40-1",0,10,47,19,25,25,9
"EIL-42-1",0,10,51,7,30,34,12
"EIL-44-1",0,1,45,7,36,32,12
"EIL-46-1",0,10,51,11,32,29,6
"EIL-48-1",0,10,29,12,54,13,5
"EIL-5-1",0,10,58,9,21,NA,12
"EIL-50-1",0,10,29,31,30,22,10
"EIL-51-1",0,10,34,29,36,19,2
"EIL-53-1",0,10,37,23,38,20,2
"EIL-55-1",0,10,58,16,18,33,8
"EIL-56-1",0,10,51,25,20,30,4
"EIL-58-1",0,10,66,11,14,41,9
"EIL-59-1",0,10,37,11,42,25,10
"EIL-6-1",0,10,66,4,19,52,11
"EIL-62-1",0,10,72,3,15,59,10
"EIL-63-1",0,10,72,3,15,55,10
"EIL-64-1",0,10,66,3,16,52,15
"EIL-65-1",0,10,76,2,11,68,11
"EIL-68-1",0,10,62,9,18,43,11
"EIL-7-1",0,10,66,3,18,52,13
"EIL-71-1",0,10,65,4,15,53,15
"EIL-72-1",0,10,60,7,18,49,15
"EIL-75-1",0,10,68,6,14,55,12
"EIL-76-1",0,10,67,4,16,56,13
"EIL-77-1",0,10,59,7,24,39,10
"EIL-78-1",0,10,78,3,9,47,10
"EIL-79-1",0,10,56,12,25,32,7
"EIL-80-1",0,10,61,6,23,35,10
"EIL-82-1",0,10,71,6,16,48,7
"EIL-83-1",0,10,70,6,17,40,7
"EIL-84-1",0,10,65,4,22,38,9
"EIR-9001-1",0,10,57,9,29,38,5
"EIR-9002-1",0,10,57,8,23,38,12
"EIR-9003-1",0,10,41,15,36,29,8
"EIR-9004-1",0,10,49,13,28,32,10
"EIR-9005-1",0,10,21,25,53,8,1
"EIR-9006-1",0,10,17,36,47,8,1
"EIR-9007-1",0,10,17,43,35,7,5
"EIR-9008-1",0,10,19,40,37,11,5
"EIR-9009-1",0,10,16,45,33,11,7
"EIR-9012-1",0,5,52,8,20,41,20
"EIR-9012-1",0,10,53,8,20,40,19
"EIR-9013-1",0,10,51,9,22,37.5,17
"EIR-9014-1",0,10,8,63,27,7,2
"EIR-9015-1",0,10,9,60,27,11.5,4
"EIR-9016-1",0,10,12,44,37,9,6
"EIR-9017-1",0,10,18,40,34,11,8
"EIR-9019-1",0,10,38,25,29,22,8
"EIR-9020-1",0,7,29,27,33,17,12
"EIR-9022-1",0,10,11,43,40,7,7
"EIR-9023-1",0,10,44,24,23,27,10
"EIR-9024-1",0,10,48,20,22,27,10
"EIR-9025-1",0,10,46,15,31,29,9
"EIR-9027-1",0,5,26,12,51,17,11
"EIR-9028-1",0,10,8,47,42,6,3
"EIR-9030-1",0,10,23,33,35,17.5,9
"EIR-9031-1",0,10,61,3,19,40,17
"EIR-9034-1",0,10,18,26,50,12,6
"EIR-9035-1",0,5,30,11,39,19,21
"EIR-9037-1",0,10,60,4,23,31,13
"EIR-9042-1",0,10,32,34,27,23,7
"EIR-9043-1",0,10,40,18,34,24,9
"EIR-9044-1",0,10,53,12,19,32,17
"EIR-9046-1",0,10,46,10,31,28,14
"EIR-9047-1",0,10,60,7,20,36,13
"EIR-9048-1",0,10,48,8,25,32,20
"EIR-9049-1",0,10,53,7,23,33,17
"EIR-9050-1",0,10,55,8,23,31,14
"EIR-9052-1",0,10,60,5,14,36,22
"EME-9008-1",0,10,70,2,9,NA,19
"ESH-6000-1",0,10,53,7,25,NA,15
"ESH-6001-1",0,10,51,2,26,NA,21
"ESH-6002-1",0,10,43,14,25,NA,18
"ESH-6003-1",0,10,46,9,26,NA,19
"ESH-6004-1",0,10,53,12,15,NA,20
"ESH-6005-1",0,10,56,3,21,NA,20
"ESH-6006-1",0,10,45,8,32,NA,15
"ESH-6007-1",0,10,70,5,16,NA,10
"ESH-6010-1",0,10,11,36,47,NA,7
"ESH-6012-1",0,10,43,16,30,NA,11
"ESH-6013-1",0,10,37,18,34,NA,10
"ESH-6014-1",0,10,37,13,41,NA,9
"ESH-6015-1",0,10,36,18,30,NA,15
"ESH-6016-1",0,10,65,7,17,NA,11
"ESH-6017-1",0,10,65,3,18,NA,14
"ESH-6019-1",0,10,40,6,36,NA,18
"ESH-6020-1",0,10,65,1,18,NA,16
"FSE-184-1",0,10,33,13,29,NA,25
"FSE-200-1",0,10,48,16,20,NA,17
"FSE-210-1",0,15,42,6,34,NA,18
"FSE-223-1",0,10,39,8,40,NA,14
"FSE-235-1",0,10,46,9,25,NA,19
"FSE-273-1",0,10,50,8,19,NA,23
"FSE-31-1",0,5,22,12,51,NA,15
"FSE-43-1",0,5,35,25,30,NA,11
"FSE-81-1",0,10,38,19,26,NA,17
"GAY-6002-1",0,10,34,21,33,21,12
"GCL-9000-1",0,10,21,14,41,NA,23
"GCL-9001-1",0,10,31,12,17,NA,39
"GCL-9002-1",0,10,14,16,44,NA,25
"GCL-9004-1",0,10,27,7,34,NA,31
"GCL-9005-1",0,10,4,51,37,NA,8
"GCL-9006-1",0,10,21,8,35,NA,37
"GCL-9007-1",0,10,21,5,53,NA,21
"GCL-9008-1",0,10,14,15,59,NA,12
"GCL-9009-1",0,10,7,7,79,NA,7
"GULLY-64-1",0,10,17,2,52,28.6,29
"GULLY-66-1",0,10,24,1,49,25.9,26
"GULLY-73-1",0,10,33,3,38,26.9,26
"HRT-1-1",0,10,51,13,18,28,17
"HRT-10-1",0,10,16,7,63,20,14
"HRT-11-1",0,10,19,2,65,23,14
"HRT-12-1",0,10,14,5,73,20,9
"HRT-13-1",0,10,12,26,54,20,8
"HRT-3-1",0,10,14,23,54,14,9
"HRT-4-1",0,10,15,6,67,13,12
"HRT-5-1",0,10,23,3,59,20,15
"HRT-6-1",0,10,14,7,65,14,14
"HTC-9000-1",0,10,40,3,29,NA,28
"HTC-9001-1",0,7,34,2,25,NA,39
"HTC-9002-1",0,10,24,6,46,NA,23
"HTC-9003-1",0,10,31,2,44,NA,24
"HTC-9005-1",0,10,37,1,37,NA,24
"HTC-9006-1",0,10,42,14,26,NA,18
"HTN-9000-1",0,10,33,3,41,NA,23
"HTN-9001-1",0,10,13,12,66,NA,10
"HTN-9002-1",0,10,17,6,63,NA,14
"HTN-9003-1",0,10,20,7,57,NA,17
"HTN-9004-1",0,10,25,4,50,NA,22
"HTN-9005-1",0,10,28,4,40,NA,29
"HTN-9006-1",0,4,30,6,50,NA,14
"HTN-9008-1",0,10,12,19,62,NA,7
"HTN-9009-1",0,10,24,4,42,NA,30
"HTN-9010-1",0,10,22,11,40,NA,27
"HTN-9011-1",0,10,18,11,43,NA,28
"HTR-9001-1",0,7,17,18,42,NA,23
"HTR-9002-1",0,10,15,25,39,NA,21
"HTR-9003-1",0,8,18,16,49,NA,16
"HTR-9004-1",0,10,23,15,41,NA,20
"HTR-9005-1",0,8,20,14,46,NA,19
"HTR-9008-1",0,10,36,24,29,NA,11
"HTR-9010-1",0,10,8,45,46,NA,1
"HTS-152-1",0,10,9,45,39,NA,7
"HTS-153-1",0,10,14,43,30,NA,12
"HTS-161-1",0,10,11,52,27,NA,10
"HTS-195-1",0,8,17,32,34,NA,16
"HTS-204-1",0,6,27,13,36,NA,24
"HTS-208-1",0,10,14,33,37,NA,16
"HTS-209-1",0,5,24,17,36,NA,22
"HTS-323-1",0,10,22,26,34,NA,18
"HTS-328-1",0,10,21,21,40,NA,17
"HTS-372-1",0,5,19,23,43,NA,15
"HTS-381-1",0,10,26,15,47,NA,12
"HTS-392-1",0,4,17,33,43,NA,8
"HTS-393-1",0,10,16,39,37,NA,9
"HTS-397-1",0,5,18,30,36,NA,16
"HTS-399-1",0,10,11,45,35,NA,9
"HTS-402-1",0,9,26,25,28,NA,20
"HTS-460-1",0,10,14,21,48,NA,17
"HTS-470-1",0,6,14,36,36,NA,15
"HTS-571-1",0,10,7,40,42,NA,12
"HTS-596-1",0,10,23,21,32,NA,25
"HTS-608-1",0,7,11,35,40,NA,15
"HTS-660-1",0,9,33,22,27,NA,17
"HTS-9001-1",0,10,21,14,46,NA,19
"HTS-9002-1",0,10,34,2,33,NA,31
"HTS-9003-1",0,10,44,3,17,NA,35
"HTS-9004-1",0,6,53,8,19,NA,20
"HTS-9005-1",0,10,36,12,30,NA,22
"HTS-9006-1",0,10,55,11,19,NA,15
"HTS-9007-1",0,10,41,4,19,NA,36
"HTS-9008-1",0,6,29,18,31,NA,22
"HTS-9009-1",0,8,43,7,28,NA,22
"HTS-9010-1",0,10,9,54,26,NA,11
"HTS-9011-1",0,10,23,27,33,NA,17
"HTS-9012-1",0,10,5,43,41,NA,12
"HTS-9013-1",0,10,7,47,35,NA,11
"HTS-98-1",0,10,28,3,36,NA,32
"INK-8000-1",0,10,26,9,38,NA,28
"INK-8001-1",0,10,22,27,32,NA,19
"INK-8002-1",0,10,22,25,44,NA,10
"INK-8003-1",0,10,17,41,32,NA,10
"INK-8004-1",0,10,7,43,43,NA,6
"INK-9000-1",0,10,60,6,17,NA,16
"INK-9001-1",0,10,59,7,17,NA,17
"INK-9002-1",0,10,65,3,16,NA,15
"INK-9003-1",0,10,69,2,14,NA,15
"INK-9004-1",0,10,31,7,18,NA,44
"INK-9005-1",0,10,46,16,24,NA,14
"INK-9006-1",0,10,48,16,25,NA,12
"INK-9007-1",0,10,49,9,29,NA,14
"INK-9008-1",0,10,50,9,29,NA,13
"INK-9009-1",0,10,52,14,20,NA,14
"INK-9010-1",0,10,54,12,21,NA,14
"INK-9013-1",0,10,19,30,41,NA,10
"INK-9014-1",0,10,34,18,28,NA,20
"IPB-1-1",0,10,43,2,19,36,36
"IPB-10-1",0,10,53,4,18,35,25
"IPB-2-1",0,10,33,3,29,29,35
"IPB-4-1",0,10,70,3,11,57,16
"IPB-5-1",0,10,65,3,10,47,22
"IPB-6-1",0,10,53,4,18,39,25
"IPB-7-1",0,10,22,38,29,16,11
"IPB-8-1",0,10,34,9,21,31,36
"IPB-9-1",0,10,78,4,6,50,11
"JFD-9000-1",0,8,15,45,32,NA,9
"JFD-9001-1",0,5,39,17,25,NA,18
"JFD-9003-1",0,10,26,8,37,NA,29
"JFD-9004-1",0,10,38,3,22,NA,37
"JFD-9005-1",0,10,20,11,44,NA,25
"JFD-9006-1",0,10,12,6,63,NA,20
"JFD-9007-1",0,10,31,15,36,NA,19
"JFD-9008-1",0,7,50,3,16,NA,31
"JFD-9009-1",0,10,11,17,57,NA,16
"JFD-9010-1",0,5,23,1,50,NA,26
"JFD-9011-1",0,10,57,6,15,NA,22
"JFD-9012-1",0,10,57,1,14,NA,28
"KAI-6001-1",0,10,53,10,10,31,26
"KAI-6004-1",0,10,44,17,16,28,22
"KAI-6006-1",0,10,43,14,13,32,30
"KCM-9001-1",0,10,72,4,9,NA,14
"KCM-9002-1",0,10,58,12,15,NA,15
"KCM-9003-1",0,10,15,42,28,NA,15
"KCM-9005-1",0,10,68,2,15,NA,14
"KCM-9006-1",0,10,66,7,12,NA,14
"KCM-9007-1",0,10,70,1,17,NA,13
"KCM-9008-1",0,10,58,7,21,NA,14
"KCM-9009-1",0,10,55,12,20,NA,12
"KCM-9010-1",0,10,65,9,15,NA,11
"KCM-9011-1",0,10,65,3,15,NA,17
"KCM-9012-1",0,10,72,4,9,NA,14
"KCM-9013-1",0,10,74,3,8,NA,15
"KCM-9014-1",0,10,81,2,7,NA,9
"KCM-9015-1",0,10,49,22,17,NA,12
"KCM-9016-1",0,10,42,26,21,NA,11
"KCM-9017-1",0,10,79,5,6,NA,9
"KCM-9019-1",0,10,59,9,18,NA,14
"KCM-9022-1",0,10,64,4,16,NA,17
"KCM-9024-1",0,10,21,21,48,NA,11
"KCM-9027-1",0,10,56,14,19,NA,11
"KCM-9028-1",0,10,75,8,11,NA,6
"KCM-9029-1",0,10,33,29,31,NA,7
"KCM-9030-1",0,1,44,22,18,NA,17
"KCM-9031-1",0,10,35,22,31,NA,11
"KCM-9032-1",0,2,44,24,20,NA,11
"KCM-9033-1",0,10,67,5,14,NA,15
"KCM-9035-1",0,5,63,14,6,NA,16
"KCM-9036-1",0,10,39,27,24,NA,9
"KCM-9040-1",0,10,53,7,22,NA,18
"KCM-9041-1",0,10,30,31,26,NA,12
"KCM-9042-1",0,2,56,11,16,NA,18
"KCM-9043-1",0,2,68,3,11,NA,18
"KCM-9044-1",0,10,67,7,12,NA,14
"KCM-9045-1",0,10,69,4,14,NA,14
"KCM-9046-1",0,10,77,1,12,NA,11
"KCM-9047-1",0,10,66,3,13,NA,17
"KCM-9048-1",0,7,30,22,33,NA,16
"KCM-9050-1",0,10,40,8,28,NA,24
"KCM-9051-1",0,10,75,4,11,NA,11
"KCM-9052-1",0,10,49,6,28,NA,17
"KCM-9053-1",0,10,61,8,15,NA,16
"KCM-9054-1",0,10,63,5,16,NA,15
"LAK-9000-1",0,9,50,19,10,NA,21
"LAK-9001-1",0,10,59,6,14,NA,21
"LAK-9002-1",0,10,46,6,17,NA,31
"LAK-9003-1",0,10,74,2,9,NA,15
"LAK-9004-1",0,10,53,11,10,NA,26
"LAK-9005-1",0,10,44,25,19,NA,13
"LAK-9006-1",0,10,46,22,10,NA,23
"LDR-9000-1",0,10,51,12,20,NA,17
"LDR-9001-1",0,10,51,6,18,NA,25
"LDR-9003-1",0,10,37,20,24,NA,18
"LDR-9004-1",0,10,42,18,26,NA,14
"LDR-9005-1",0,7,17,24,46,NA,13
"LDR-9006-1",0,5,23,24,31,NA,22
"LFZ-464-1",0,10,16,8,54,NA,22
"LFZ-467-1",0,10,23,3,58,NA,16
"LFZ-468-1",0,10,6,26,63,NA,5
"LFZ-471-1",0,10,44,8,34,NA,14
"LFZ-472-1",0,10,66,2,4,NA,28
"LFZ-473-1",0,10,68,1,6,NA,25
"LFZ-486-1",0,5,19,12,57,NA,12
"LFZ-487-1",0,5,18,34,38,NA,11
"LFZ-488-1",0,10,49,2,20,NA,29
"LFZ-489-1",0,10,43,3,25,NA,28
"LFZ-490-1",0,10,58,2,14,NA,26
"LFZ-491-1",0,10,77,3,8,NA,12
"LFZ-494-1",0,10,6,41,47,NA,6
"LFZ-496-1",0,10,41,9,24,NA,26
"LFZ-497-1",0,10,33,7,52,NA,8
"LFZ-499-1",0,10,41,5,18,NA,37
"LFZ-500-1",0,10,49,15,22,NA,15
"LFZ-502-1",0,10,53,4,14,NA,29
"LFZ-503-1",0,10,69,2,8,NA,21
"LFZ-504-1",0,10,32,11,29,NA,27
"LFZ-505-1",0,10,46,3,32,NA,19
"LFZ-506-1",0,10,24,5,60,NA,11
"LFZ-507-1",0,10,13,5,66,NA,17
"LIA-15-1",0,10,27,8,20,32.2,45
"LIA-194-1",0,10,50,10,21,36.5,19
"LIA-195-1",0,10,51,20,16,30.5,13
"LIA-211-1",0,10,45,12,22,37,21
"LIA-261-1",0,10,51,8,19,35,21
"LIA-265-1",0,10,24,24,21,39.7,32
"LIA-267-1",0,10,10,24,56,16.6,10
"LIA-86-1",0,10,42,14,19,34.9,25
"MAK-106-1",0,10,22,22,32,NA,24
"MAK-13-1",0,10,31,27,18,NA,24
"MBN-54-1",0,10,72,3,9,NA,15
"MBN-6-1",0,10,59,1,16,NA,23
"MBP-6006-1",0,10,4,43,52,7,1
"MCL-9000-1",0,5,14,14,60,18,12
"MCL-9001-1",0,10,14,14,54,19,17
"MCL-9002-1",0,10,10,13,54,21,23
"MCL-9003-1",0,10,39,16,27,38,18
"MCL-9004-1",0,5,11,17,50,20,23
"MCL-9005-1",0,10,28,26,20,27,25
"MCL-9006-1",0,10,28,19,29,32,23
"MCL-9007-1",0,10,12,24,42,21,21
"MCL-9008-1",0,5,43,8,20,41,29
"MCL-9009-1",0,10,34,14,21,31,31
"MCL-9010-1",0,10,19,31,31,20,19
"MCL-9011-1",0,10,14,28,48,14,9
"MCL-9012-1",0,10,19,14,45,22,22
"MCL-9013-1",0,10,19,18,29,27,33
"MCL-9014-1",0,10,14,44,25,24,18
"MCL-9015-1",0,10,40,19,23,32,19
"MCL-9016-1",0,10,12,9,63,16,17
"MCL-9017-1",0,7,9,20,65,10,6
"MCL-9018-1",0,7,14,13,64,16,10
"MCL-9019-1",0,10,45,12,16,42,26
"MCL-9020-1",0,10,6,30,61,7,3
"MCL-9022-1",0,10,34,25,18,26,23
"MCL-9023-1",0,10,33,7,32,28,29
"MCL-9024-1",0,10,25,24,43,19,8
"MCL-9025-1",0,10,17,51,26,12,6
"MCL-9026-1",0,10,13,17,52,19,18
"MCL-9027-1",0,10,23,13,45,22,18
"MCL-9028-1",0,10,41,6,18,35,35
"MCL-9029-1",0,10,16,44,30,15,10
"MCL-9030-1",0,5,16,30,42,19,13
"MCL-9031-1",0,3,6,69,21,9,4
"MCL-9032-1",0,2,22,40,24,46,14
"MCL-9033-1",0,10,9,37,47,7,7
"MCL-9034-1",0,10,12,58,20,11,9
"MCL-9035-1",0,10,12,51,27,14,10
"MCL-9036-1",0,10,10,37,46,10,8
"MCL-9037-1",0,10,50,20,21,30,10
"MCL-9038-1",0,10,41,19,20,29,19
"MCL-9039-1",0,10,19,35,33,18,13
"MCL-9040-1",0,10,30,28,24,41,17
"MCL-9041-1",0,10,41,23,27,25,9
"MCL-9042-1",0,10,17,10,56,22,16
"MCL-9043-1",0,5,5,55,39,6,1
"MCL-9044-1",0,10,7,60,29,9,4
"MCL-9045-1",0,5,30,21,32,28,17
"MCL-9046-1",0,10,13,12,50,23,26
"MCL-9047-1",0,10,22,11,38,29,28
"MCL-9048-1",0,10,5,63,25,10,7
"MCL-9049-1",0,10,14,36,34,19,16
"MCL-9050-1",0,10,23,14,36,27,28
"MCL-9051-1",0,10,14,19,35,24,32
"MCL-9052-1",0,10,40,7,26,30,28
"MCL-9053-1",0,10,19,31,34,20,16
"MCL-9054-1",0,10,13,39,30,21,18
"MCL-9055-1",0,10,63,5,12,41,20
"MCL-9056-1",0,10,2,66,28,7,4
"MCL-9057-1",0,10,26,12,46,NA,17
"MCL-9058-1",0,10,8,43,41,12,8
"MCL-9059-1",0,10,9,18,44,22,30
"MCL-9060-1",0,10,13,22,50,13,15
"MDIA-401-1",0,10,10,64,10,NA,16
"MDIA-404-1",0,10,38,4,9,NA,48
"MDIA-408-1",0,10,40,20,12,NA,29
"MDIA-409-1",0,10,33,18,11,NA,39
"MDIA-410-1",0,10,30,36,12,NA,22
"MDIA-412-1",0,10,39,6,23,NA,32
"MDIA-413-1",0,10,21,61,13,NA,5
"MDIA-414-1",0,10,3,78,16,NA,4
"MDIA-415-1",0,10,8,61,23,NA,9
"MDIA-416-1",0,10,29,7,14,NA,49
"MDIA-417-1",0,10,7,70,16,NA,7
"MDIA-418-1",0,10,17,18,31,NA,34
"MDIA-421-1",0,10,12,57,17,NA,13
"MDIA-423-1",0,10,12,51,22,NA,14
"MDIA-424-1",0,10,21,28,18,NA,33
"MDIA-425-1",0,10,57,22,5,NA,16
"MDIA-426-1",0,10,60,14,8,NA,18
"MDIA-427-1",0,10,14,55,20,NA,10
"MDIA-428-1",0,10,9,68,14,NA,10
"MDIA-434-1",0,10,14,30,19,NA,37
"MDIA-435-1",0,10,37,32,14,NA,18
"MDIA-436-1",0,10,14,69,11,NA,6
"MDIA-437-1",0,10,9,62,16,NA,12
"MDIA-445-1",0,10,49,30,10,NA,10
"MDIA-446-1",0,10,66,12,9,NA,13
"MDIA-447-1",0,10,7,61,18,NA,14
"MDIA-449-1",0,10,8,78,8,NA,6
"MDIA-450-1",0,10,6,68,14,NA,11
"MDIA-451-1",0,10,12,66,17,NA,5
"MDIA-452-1",0,10,9,65,12,NA,13
"MDIA-453-1",0,10,10,62,21,NA,8
"MDIA-454-1",0,10,4,82,10,NA,4
"MDIA-455-1",0,10,3,84,10,NA,3
"MDIA-457-1",0,10,15,66,11,NA,8
"MDIA-458-1",0,10,22,24,36,NA,19
"MDIA-459-1",0,10,10,64,18,NA,9
"MDIA-737-1",0,10,36,7,14,NA,43
"MDIA-743-1",0,10,11,56,25,NA,8
"MDIA-887-1",0,10,19,1,16,NA,65
"MGR-9001-1",0,10,70,3,14,NA,13
"MGR-9002-1",0,3,42,12,35,NA,12
"MGR-9003-1",0,5,31,9,47,NA,13
"MGR-9004-1",0,10,11,20,62,NA,7
"MGR-9005-1",0,3,27,6,43,NA,24
"MGR-9007-1",0,5,11,61,22,NA,7
"MGR-9008-1",0,8,10,49,33,NA,9
"MHB-448-1",0,10,32,5,26,NA,37
"MHB-449-1",0,10,28,12,39,NA,21
"MHB-450-1",0,10,16,5,33,NA,45
"MHB-451-1",0,10,5,20,72,NA,2
"MHB-57-1",0,10,46,16,15,NA,24
"MIPS-1-1",0,10,43,13,25,39.6,19
"MIPS-19-1",0,10,42,9,41,31.8,8
"MIPS-2-1",0,10,56,9,14,40.9,21
"MIPS-46-1",0,10,8,65,19,14.2,8
"MIPS-47-1",0,10,27,21,39,23,13
"MIPS-55-1",0,10,13,66,18,12.1,2
"MISCQ-300-1",0,10,14,43,29,17.6,13
"MISCQ-301-1",0,10,31,24,27,28.2,18
"MISCQ-304-1",0,10,20,34,30,27.1,16
"MISCQ-305-1",0,10,21,50,25,20.5,4
"MISCQ-306-1",0,10,12,54,27,15.2,7
"MISCQ-307-1",0,10,23,27,31,24.1,19
"MISCQ-308-1",0,20,15,25,38,17.1,22
"MISCQ-309-1",0,10,10,56,25,17.1,9
"MISCQ-311-1",0,10,15,16,47,25.5,23
"MISCQ-42-1",0,10,21,42,24,25.5,13
"MISCQ-44-1",0,10,8,53,29,10.8,11
"MISCQ-45-1",0,10,17,30,37,20.3,15
"MISCQ-49-1",0,10,22,4,52,30.7,22
"MISCQ-50-1",0,10,3,58,34,7.1,5
"MISCQ-53-1",0,10,10,25,62,12.1,3
"MISCQ-54-1",0,10,13,29,43,22.9,16
"MISCQ-56-1",0,10,13,10,60,22.7,17
"MISCQ-58-1",0,10,18,43,23,32.8,16
"MISCQ-66-1",0,10,11,27,43,20.8,19
"MISCQ-67-1",0,10,21,14,41,25.8,24
"MISCQ-68-1",0,10,13,22,49,13.3,17
"MISCQ-69-1",0,10,34,18,24,25.6,24
"MISCQ-70-1",0,10,24,25,27,24.7,24
"MISCQ-71-1",0,10,21,7,37,21,35
"MISCQ-72-1",0,10,26,21,36,33.5,18
"MISCQ-73-1",0,10,48,5,24,34.7,23
"MISCQ-74-1",0,10,13,11,56,27.5,20
"MISCQ-76-1",0,10,12,32,47,22.6,10
"MISCQ-77-1",0,10,21,23,38,26.2,19
"MISCQ-78-1",0,10,7,42,43,20.2,8
"MISCQ-79-1",0,10,55,10,19,41.6,16
"MISCQ-80-1",0,10,30,24,31,25.7,15
"MISCQ-81-1",0,10,29,15,28,33.8,29
"MISCQ-82-1",0,10,15,22,41,23.7,21
"MISCQ-83-1",0,10,24,13,39,32.3,24
"MISCQ-86-1",0,10,23,7,37,23.7,33
"MISCQ-87-1",0,10,10,52,32,9.2,6
"MISCQ-88-1",0,10,32,7,37,23.5,25
"MISNQ-101-1",0,10,17,58,16,18.8,10
"MISNQ-102-1",0,10,31,29,22,33.2,19
"MISNQ-103-1",0,10,30,1,30,35.2,40
"MISNQ-109-1",0,10,16,53,17,17,13
"MISNQ-115-1",0,10,47,3,15,39.7,34
"MISNQ-128-1",0,10,31,6,33,35.05,30
"MISNQ-139-1",0,10,24,23,39,18.8,13
"MISNQ-145-1",0,10,9,18,57,13.9,16
"MISNQ-147-1",0,10,30,10,40,37,20
"MISNQ-162-1",0,10,43,3,25,34.1,29
"MISNQ-163-1",0,10,11,59,28,16.6,1
"MISNQ-164-1",0,10,25,43,27,27.9,6
"MISNQ-166-1",0,10,53,10,9,42.1,28
"MISNQ-167-1",0,10,15,59,15,19.9,11
"MISNQ-170-1",0,10,36,4,15,60.5,46
"MISNQ-171-1",0,10,43,8,20,33.3,28
"MISNQ-172-1",0,10,21,44,24,16.7,11
"MISNQ-175-1",0,10,8,79,9,8.2,4
"MISNQ-177-1",0,10,46,9,16,44.7,28
"MISNQ-179-1",0,10,19,38,36,42,7
"MISNQ-181-1",0,10,28,15,54,28.3,3
"MISNQ-183-1",0,10,33,3,27,47.4,37
"MISNQ-185-1",0,10,25,8,60,15.4,7
"MISNQ-186-1",0,10,10,55,31,7.5,3
"MISNQ-189-1",0,10,59,2,11,40.3,28
"MISNQ-191-1",0,10,14,40,37,14.8,9
"MISNQ-192-1",0,10,24,8,51,25.3,17
"MISNQ-195-1",0,10,26,9,52,25.4,13
"MISNQ-197-1",0,10,33,8,28,37.2,31
"MISNQ-203-1",0,10,23,21,28,25.2,28
"MISNQ-206-1",0,10,12,15,51,23.3,22
"MISNQ-208-1",0,10,17,22,47,21.8,14
"MISNQ-209-1",0,10,44,22,18,36.6,16
"MISNQ-210-1",0,10,35,3,16,37.5,46
"MISNQ-212-1",0,10,53,11,15,36.5,21
"MISNQ-219-1",0,10,56,7,13,37.7,24
"MISSE-101-1",0,10,40,25,26,28.4,9
"MISSE-102-1",0,10,21,19,46,26.5,15
"MISSE-111-1",0,10,10,25,59,16.8,6
"MISSE-150-1",0,10,18,7,56,30.8,19
"MISSE-151-1",0,10,28,8,41,30.6,23
"MISSE-162-1",0,10,36,16,32,24.2,16
"MISSE-163-1",0,5,67,9,9,68.3,15
"MISSE-164-1",0,10,63,2,13,39.6,22
"MLG-9000-1",0,10,20,5,46,23,29
"MLG-9001-1",0,10,33,5,37,25.5,25
"MLG-9002-1",0,5,33,3,36,26,28
"MLG-9002-1",0,10,37,3,32,30,27
"MLG-9003-1",0,5,48,7,28,27,17
"MLG-9003-1",0,10,47,6,31,28,16
"MLG-9004-1",0,10,38,7,37,25,19
"MLG-9005-1",0,10,57,5,21,29,17
"MLG-9006-1",0,10,49,6,25,27,20
"MLG-9007-1",0,10,51,14,18,29.5,17
"MLG-9008-1",0,12,31,11,29,NA,29
"MLG-9009-1",0,8,29,16,33,23,22
"MLG-9009-1",0,10,40,14,26,25,20
"MLG-9010-1",0,10,21,6,42,30.5,32
"MLG-9011-1",0,8,20,9,50,20,21
"MLG-9011-1",0,10,34,8,39,26,20
"MLG-9012-1",0,10,22,22,41,24,15
"MON-6000-1",0,10,51,19,9,NA,21
"MON-6001-1",0,10,6,6,70,NA,18
"MON-6003-1",0,10,7,8,62,NA,23
"MON-6005-1",0,10,18,27,43,NA,12
"MON-6006-1",0,10,53,8,15,NA,24
"MON-6007-1",0,10,16,22,36,NA,27
"MON-6009-1",0,10,5,19,61,NA,15
"MON-6010-1",0,10,4,52,34,NA,10
"MON-6011-1",0,10,11,50,33,NA,6
"MON-6012-1",0,10,7,35,50,NA,7
"MON-6013-1",0,10,3,32,57,NA,8
"MON-6014-1",0,10,20,24,42,NA,13
"MON-6015-1",0,10,42,6,25,NA,27
"MON-6091-1",0,10,45,18,23,NA,13
"MON-6092-1",0,10,39,5,20,NA,36
"MON-6093-1",0,10,28,2,43,NA,27
"MON-6094-1",0,10,20,12,55,NA,13
"MON-6095-1",0,10,54,12,20,NA,14
"MRC-1058-1",0,10,8,45,42,NA,5
"MRC-1061-1",0,10,41,18,16,NA,24
"MRC-1072-1",0,10,49,16,5,NA,29
"MRC-1116-1",0,10,23,43,15,NA,18
"MRC-1117-1",0,10,15,25,37,NA,23
"MRC-22-1",0,10,31,26,19,NA,25
"MRC-233-1",0,10,19,7,57,NA,17
"MRC-268-1",0,10,34,7,21,NA,38
"MRC-313-1",0,10,29,19,27,NA,24
"MRC-36-1",0,10,40,9,31,NA,20
"MRC-372-1",0,10,31,5,37,NA,27
"MRC-515-1",0,10,52,10,15,NA,23
"MRC-769-1",0,10,22,23,29,NA,25
"MRC-830-1",0,10,32,15,16,NA,36
"MRC-859-1",0,10,20,21,46,NA,14
"MRC-866-1",0,10,40,10,4,NA,46
"MRC-90-1",0,10,24,4,38,NA,34
"MRC-993-1",0,10,12,11,51,NA,26
"MSL-217-1",0,10,42,19,18,32,20
"MTL-282-1",0,10,16,20,50,NA,14
"MTL-299-1",0,10,45,7,18,NA,29
"MTL-315-1",0,10,21,14,46,NA,19
"MTL-350-1",0,10,26,3,48,NA,24
"MTL-576-1",0,10,9,50,33,NA,9
"MTL-583-1",0,10,12,8,57,NA,23
"MTL-9002-1",0,10,36,15,29,NA,20
"MTL-9003-1",0,10,45,9,17,NA,29
"MTL-9004-1",0,10,9,36,41,NA,14
"MTL-9005-1",0,10,6,40,39,NA,15
"MTL-9006-1",0,10,14,15,41,NA,31
"NCD-1031-1",0,10,56,6,22,NA,16
"NCD-1032-1",0,10,30,30,27,NA,13
"NCD-1035-1",0,10,54,8,22,NA,17
"NCD-1036-1",0,10,49,12,23,NA,16
"NCD-1038-1",0,5,48,1,29,NA,23
"NCD-125-1",0,10,23,11,48,NA,17
"NCD-127-1",0,10,21,22,39,NA,17
"NCD-143-1",0,10,16,19,54,NA,11
"NCD-224-1",0,10,66,1,11,NA,22
"NCD-272-1",0,10,52,8,26,NA,14
"NCD-276-1",0,10,50,15,25,NA,10
"NCD-285-1",0,10,58,5,20,NA,17
"NCD-339-1",0,10,25,27,39,NA,8
"NCD-344-1",0,10,38,31,25,NA,6
"NCD-356-1",0,10,66,4,16,NA,14
"NCD-364-1",0,10,13,47,40,NA,1
"NCD-37-1",0,10,40,5,35,NA,20
"NCD-393-1",0,10,81,3,7,NA,9
"NCD-44-1",0,10,13,14,69,NA,5
"NCD-452-1",0,10,39,10,35,NA,15
"NCD-51-1",0,10,27,2,52,NA,19
"NCD-52-1",0,10,70,1,10,NA,19
"NCD-58-1",0,10,60,1,14,NA,25
"NCD-71-1",0,10,53,4,29,NA,14
"NCD-72-1",0,10,47,8,30,NA,14
"NCD-83-1",0,10,11,6,71,NA,12
"NCD-885-1",0,10,34,35,22,NA,10
"NCD-89-1",0,10,48,6,32,NA,14
"NHC-9000-1",0,10,65,2,11,NA,22
"NHC-9001-1",0,10,64,1,9,NA,26
"NHC-9002-1",0,10,9,49,32,NA,11
"NHC-9003-1",0,10,10,43,30,NA,17
"NHC-9004-1",0,10,32,4,39,NA,25
"NHC-9005-1",0,10,38,2,25,NA,35
"NHC-9006-1",0,10,18,9,50,NA,23
"NHC-9007-1",0,10,24,12,54,NA,11
"NLH-9000-1",0,10,52,8,20,41,20
"NLH-9001-1",0,12,27,25,34,19,15
"NLH-9002-1",0,4,48,12,18,36,21
"NLH-9003-1",0,10,45,20,24,29,11
"NLH-9004-1",0,10,29,6,25,35,41
"NLH-9005-1",0,12,28,28,22,NA,21
"NLH-9007-1",0,10,21,36,29,NA,14
"NLH-9008-1",0,6,54,8,17,31,21
"NLH-9009-1",0,5,59,4,16,30,21
"NLH-9010-1",0,6,52,10,20,35,18
"NLH-9011-1",0,10,26,36,26,18,11
"NLH-9012-1",0,10,64,3,14,34,20
"NLH-9013-1",0,10,46,3,22,32,29
"P2REEF-15-1",0,10,18,3,38,26.4,41
"P2REEF-22-1",0,10,32,30,26,16.7,12
"P2REEF-23-1",0,10,14,53,26,13.1,7
"P2REEF-24-1",0,10,19,46,24,15.9,11
"P2REEF-25-1",0,10,19,36,33,16.7,12
"P2REEF-26-1",0,10,16,52,24,15.9,8
"P2REEF-42-1",0,10,23,1,38,23.9,38
"P2REEF-43-1",0,10,23,3,40,22.9,34
"P2REEF-44-1",0,10,25,34,28,12.9,13
"P2REEF-45-1",0,10,21,23,36,15,20
"P2REEF-46-1",0,10,23,26,33,14.4,18
"P2REEF-5-1",0,3,11,41,41,6.9,7
"P2REEF-508-1",0,10,29,24,34,NA,13
"P2REEF-510-1",0,10,6,83,8,NA,4
"P2REEF-53-1",0,10,8,30,52,6.4,10
"P2REEF-56-1",0,10,6,37,48,5.2,10
"P2REEF-58-1",0,10,6,32,51,5.3,10
"P2REEF-73-1",0,10,40,2,16,29.6,42
"P2REEF-9-1",0,10,27,14,36,11,23
"P2REEF-96-1",0,10,7,5,79,4.2,10
"P2REEF-99-1",0,10,16,9,54,10.4,21
"PCS-6000-1",0,10,33,13,28,NA,25
"PCS-6002-1",0,10,17,9,36,NA,39
"PCS-6003-1",0,10,22,16,27,NA,35
"PCS-6005-1",0,10,1,57,37,NA,5
"PCS-6008-1",0,10,14,26,47,NA,14
"PCS-6009-1",0,10,8,28,41,NA,23
"PCS-6010-1",0,10,7,62,23,10,8
"PCS-6011-1",0,10,7,47,31,15,16
"PCS-6012-1",0,10,13,16,45,22,26
"PCS-6013-1",0,10,8,38,34,NA,20
"PCS-6014-1",0,10,28,17,28,NA,28
"PCS-6015-1",0,10,15,29,31,NA,25
"PCS-6017-1",0,10,10,38,33,18,19
"PCS-6020-1",0,10,49,12,7,NA,32
"PCS-6021-1",0,10,42,7,18,32,33
"PCS-6022-1",0,10,9,12,39,NA,39
"PCS-6023-1",0,10,12,33,32,NA,22
"PCS-6024-1",0,10,27,18,16,NA,39
"PCS-6025-1",0,10,13,23,36,NA,28
"PCS-6026-1",0,10,18,9,33,NA,40
"PCS-6028-1",0,10,7,59,24,16,10
"PCS-6029-1",0,10,14,31,41,17,13
"PCS-724-1",0,10,11,30,33,NA,26
"PCS-725-1",0,10,4,54,31,NA,11
"PCS-727-1",0,10,19,14,34,NA,34
"PLS-1-1",0,10,16,14,41,21,30
"PLS-13-1",0,10,8,28,42,20,22
"PLS-14-1",0,10,1,54,34,10,11
"PLS-18-1",0,10,1,47,48,7,4
"PLS-26-1",0,10,1,52,30,5,18
"PLS-5-1",0,10,8,46,35,8,12
"PLS-7-1",0,10,8,49,24,20,19
"PLS-8-1",0,10,6,15,70,11,8
"RAV-6002-1",0,10,17,26,41,NA,16
"RAV-6003-1",0,10,59,5,8,NA,27
"RAV-6013-1",0,10,6,59,30,NA,5
"RAV-6015-1",0,7,7,46,40,NA,7
"RAV-6016-1",0,10,7,39,49,NA,4
"RAV-6017-1",0,9,11,34,49,NA,6
"RAV-6018-1",0,10,22,6,36,NA,36
"RAV-6019-1",0,10,38,38,10,NA,13
"RAV-6022-1",0,10,50,22,13,NA,15
"RAV-6023-1",0,6,52,16,16,NA,16
"RAV-6024-1",0,10,64,5,6,NA,25
"RAV-6028-1",0,5,31,13,18,NA,39
"RAV-6029-1",0,10,8,38,48,NA,6
"RAV-6033-1",0,10,18,20,53,NA,9
"RAV-6036-1",0,10,17,10,61,NA,12
"RAV-6037-1",0,10,24,16,12,NA,48
"RAV-6038-1",0,10,72,5,9,NA,13
"RAV-6039-1",0,10,5,31,58,NA,6
"RUSS-38-1",0,10,28,9,25,67.7,38
"RUSS-40-1",0,10,33,14,14,42.3,39
"RUSS-680-1",0,20,21,9,53,27.1,17
"RUSS-726-1",0,20,33,7,28,49.3,32
"RUSS-731-1",0,20,16,62,16,8.5,6
"RUSS-734-1",0,20,15,52,19,20,13
"RUSS-737-1",0,20,16,38,21,65.1,26
"RUSS-739-1",0,20,22,40,22,23.8,16
"RUSS-740-1",0,20,15,61,15,15,8
"RUSS-741-1",0,20,28,21,31,28.4,20
"RUSS-887-1",0,20,41,1,13,35.9,45
"RUSS-900-1",0,20,45,3,12,44.7,40
"RUSS-917-1",0,20,23,42,21,19.7,14
"RUSS-918-1",0,20,19,45,24,20.2,12
"RUSS-925-1",0,20,16,50,18,71.8,15
"SALTE-745-1",0,10,62,6,16,NA,16
"SAR-15-1",0,10,20,2,42,NA,36
"SAR-306-1",0,10,7,11,46,NA,37
"SAR-36-1",0,10,21,10,41,NA,29
"SAR-37-1",0,10,20,9,54,NA,17
"SAR-38-1",0,10,12,9,50,NA,30
"SAR-600-1",0,10,27,11,39,NA,23
"SAR-601-1",0,10,24,13,45,NA,18
"SAR-602-1",0,10,28,6,33,NA,34
"SAR-603-1",0,10,23,23,40,NA,14
"SAR-604-1",0,10,26,9,30,NA,36
"SAR-605-1",0,10,14,10,53,NA,22
"SAR-91-1",0,10,21,17,37,NA,25
"SBT-9000-1",0,10,57,11,10,43,21
"SBT-9001-1",0,10,42,6,28,32,24
"SBT-9002-1",0,10,22,36,25,24,17
"SBT-9003-1",0,10,8,48,33,30,10
"SBT-9004-1",0,10,37,10,30,34,22
"SBT-9005-1",0,10,39,31,15,26,16
"SBT-9006-1",0,10,10,30,30,43,31
"SBT-9007-1",0,10,58,11,11,46,20
"SBT-9008-1",0,10,56,11,9,NA,24
"SBT-9009-1",0,10,18,19,46,14,17
"SBT-9010-1",0,10,57,12,17,28,14
"SBT-9011-1",0,10,44,3,13,52,40
"SBT-9012-1",0,10,47,17,22,30,14
"SBT-9013-1",0,10,47,17,22,30,14
"SBT-9014-1",0,10,27,37,20,20,16
"SBT-9015-1",0,10,28,20,31,22,21
"SBT-9016-1",0,10,35,24,24,33,18
"SBT-9017-1",0,10,23,45,18,21,13
"SBT-9018-1",0,10,46,14,17,40,24
"SBT-9019-1",0,10,43,25,17,30,16
"SBT-9020-1",0,10,48,6,20,46,26
"SBT-9021-1",0,10,35,28,22,23,15
"SBT-9022-1",0,10,43,20,26,37,12
"SBT-9023-1",0,10,8,47,33,9,11
"SBT-9024-1",0,10,61,10,16,27,13
"SBT-9025-1",0,10,44,18,16,30,22
"SBT-9026-1",0,10,37,30,22,32,11
"SBT-9027-1",0,10,57,5,18,32,21
"SBT-9028-1",0,10,42,25,14,28,18
"SBT-9029-1",0,10,58,5,16,36,21
"SBT-9031-1",0,10,36,24,21,30,18
"SBT-9032-1",0,10,23,31,27,24,19
"SBT-9034-1",0,10,26,29,29,26,16
"SBT-9035-1",0,10,22,34,24,28,19
"SBT-9036-1",0,10,52,15,14,NA,20
"SBT-9037-1",0,10,38,19,21,NA,21
"SBT-9039-1",0,10,27,25,17,NA,30
"SERES-49-1",0,5,15,26,48,21.2,12
"SERES-51-1",0,5,4,35,53,15.6,8
"SERES-53-1",0,5,4,12,72,17.4,12
"SERES-55-1",0,10,4,12,69,10.3,15
"SERES-57-1",0,10,8,9,68,13.3,16
"SERES-59-1",0,10,5,5,71,12.8,20
"SERES-61-1",0,10,8,26,59,16.3,7
"SERES-63-1",0,10,8,27,58,19.6,7
"SERES-65-1",0,10,50,8,28,24.4,14
"SERES-67-1",0,10,47,9,31,27.8,14
"SERES-68-1",0,10,45,7,34,23.5,14
"SERES-71-1",0,10,39,9,39,21.7,13
"SERES-73-1",0,10,41,9,41,19.4,10
"SERES-74-1",0,10,37,11,37,28.2,15
"SERES-76-1",0,10,38,15,32,35.4,15
"SERES-87-1",0,10,36,16,32,34.6,17
"SFS-103-1",0,10,73,1,5,NA,21
"SFS-126-1",0,10,40,23,23,NA,13
"SFS-152-1",0,10,37,22,26,NA,15
"SFS-176-1",0,10,48,18,21,NA,12
"SFS-200-1",0,10,52,14,22,NA,11
"SFS-229-1",0,10,30,28,32,NA,9
"SFS-253-1",0,10,30,1,39,NA,30
"SFS-26-1",0,10,32,23,27,NA,18
"SFS-29-1",0,10,51,4,25,NA,20
"SFS-30-1",0,10,55,3,19,NA,24
"SFS-302-1",0,10,67,3,13,NA,17
"SFS-31-1",0,10,59,4,12,NA,25
"SFS-325-1",0,10,66,3,17,NA,14
"SFS-400-1",0,10,68,1,13,NA,18
"SFS-405-1",0,10,80,1,7,NA,13
"SFS-457-1",0,10,61,3,11,NA,25
"SFS-515-1",0,10,40,19,29,NA,12
"SFS-55-1",0,10,72,1,8,NA,19
"SFS-600-1",0,10,46,19,27,NA,8
"SFS-601-1",0,10,41,17,31,NA,11
"SFS-604-1",0,10,48,20,22,NA,10
"SFS-76-1",0,10,55,8,18,NA,20
"SFS-8-1",0,10,68,6,12,NA,14
"SFS-9-1",0,10,68,5,14,NA,13
"SJS-9000-1",0,10,30,11,26,NA,34
"SJS-9002-1",0,10,48,4,37,NA,11
"SJS-9003-1",0,10,27,10,48,NA,14
"SLK-1006-1",0,10,37,13,37,NA,13
"SLK-1016-1",0,10,12,15,48,NA,24
"SLK-1050-1",0,10,45,4,33,NA,18
"SLK-1076-1",0,10,22,8,35,NA,35
"SLK-1089-1",0,10,12,17,48,NA,23
"SLK-9000-1",0,10,25,10,39,NA,26
"SLK-9001-1",0,10,12,49,25,NA,13
"SLK-9003-1",0,10,10,41,36,NA,13
"SLK-9004-1",0,5,18,5,44,NA,33
"SLK-9005-1",0,5,29,3,35,NA,33
"SLK-9006-1",0,7,32,5,39,NA,24
"SLK-9007-1",0,10,7,24,56,NA,13
"SLK-9008-1",0,8,59,5,16,NA,20
"SLK-9009-1",0,10,66,2,14,NA,18
"SLK-9010-1",0,10,55,3,21,NA,20
"SLK-994-1",0,10,14,28,44,NA,15
"SPY-95-1",0,10,21,33,40,NA,6
"TAB-2475-1",0,10,51,11,23,NA,15
"TAB-2476-1",0,10,58,11,10,NA,20
"TAB-2477-1",0,10,26,25,37,NA,13
"TAB-2478-1",0,10,51,10,5,NA,35
"TAB-2479-1",0,10,66,8,6,NA,19
"TAB-2480-1",0,10,23,12,49,NA,17
"TAB-2481-1",0,10,62,7,7,NA,23
"TAB-2482-1",0,10,34,46,9,NA,10
"TAB-2483-1",0,10,52,14,15,NA,19
"TAB-2484-1",0,10,67,5,8,NA,20
"TAB-2485-1",0,10,63,16,5,NA,15
"TAB-2486-1",0,10,71,5,10,NA,14
"TAB-2487-1",0,10,57,10,10,NA,22
"UBRISS-195-1",0,25,14,9,61,NA,17
"UBRISS-196-1",0,15,14,4,62,NA,20
"UBRISS-197-1",0,15,11,2,77,NA,10
"UBRISS-198-1",0,10,66,1,14,NA,19
"UBRISS-199-1",0,15,8,9,75,NA,8
"UBRISS-200-1",0,10,38,21,18,NA,22
"UBRISS-202-1",0,15,38,26,22,NA,14
"UBRISS-205-1",0,15,28,34,25,NA,12
"UBRISS-206-1",0,15,39,25,24,NA,13
"UCS-9000-1",0,10,52,14,24,NA,10
"UCS-9002-1",0,10,30,13,53,NA,4
"WAN-23-1",0,10,31,8,44,24,17
"WAN-6-1",0,10,56,6,25,37,13
"WCS-1003-1",0,10,38,4,24,NA,34
"WCS-1004-1",0,10,48,8,11,NA,32
"WCS-1005-1",0,10,34,8,23,NA,35
"WCS-1106-1",0,10,22,14,34,NA,30
"WCS-1114-1",0,10,44,4,17,NA,35
"WCS-1116-1",0,10,50,4,16,NA,30
"WCS-1143-1",0,10,43,7,23,NA,27
"WCS-1170-1",0,10,33,5,30,NA,32
"WCS-1228-1",0,10,49,8,22,NA,21
"WCS-1306-1",0,10,49,2,16,NA,33
"WCS-1407-1",0,10,18,11,50,NA,21
"WCS-1422-1",0,10,30,15,31,NA,24
"WCS-1429-1",0,10,12,24,55,NA,9
"WCS-1439-1",0,10,27,16,33,NA,24
"WCS-1497-1",0,10,7,36,47,NA,11
"WCS-1507-1",0,10,5,77,17,NA,1
"WCS-1602-1",0,10,7,47,39,NA,7
"WCS-1607-1",0,10,13,30,42,NA,15
"WCS-1608-1",0,10,22,6,37,NA,35
"WCS-1609-1",0,10,18,12,35,NA,35
"WCS-1612-1",0,10,29,18,31,NA,22
"WCS-1900-1",0,10,11,19,58,NA,12
"WCS-1902-1",0,10,19,18,48,NA,14
"WCS-1936-1",0,10,19,3,31,NA,47
"WCS-1977-1",0,10,17,6,43,NA,34
"WCS-2005-1",0,10,19,7,36,NA,37
"WCS-2079-1",0,10,9,23,47,NA,21
"WCS-2161-1",0,10,9,17,61,NA,13
"WCS-2182-1",0,10,24,11,45,NA,21
"WCS-2186-1",0,10,12,10,56,NA,22
"WCS-2201-1",0,10,9,33,46,NA,12
"WCS-2218-1",0,10,11,16,56,NA,17
"WCS-2228-1",0,10,6,45,48,NA,2
"WCS-2229-1",0,10,4,56,37,NA,3
"WCS-2247-1",0,10,12,25,53,NA,10
"WCS-2251-1",0,10,10,45,29,NA,16
"WCS-2273-1",0,10,31,7,39,NA,23
"WCS-2283-1",0,10,11,32,41,NA,16
"WCS-2305-1",0,10,21,21,38,NA,19
"WCS-2411-1",0,10,26,6,40,NA,29
"WCS-4064-1",0,10,34,8,23,NA,35
"WCS-4543-1",0,10,22,5,19,NA,54
"WCS-4820-1",0,10,44,9,11,NA,37
"WCS-6000-1",0,10,21,6,30,NA,43
"WCS-6001-1",0,10,22,11,36,NA,31
"WCS-6003-1",0,10,33,3,25,NA,38
"WCS-6006-1",0,10,23,6,35,NA,35
"WCS-6007-1",0,10,17,10,60,NA,14
"WCS-6008-1",0,10,20,33,30,NA,17
"WCS-6009-1",0,10,3,68,23,NA,6
"WCS-6010-1",0,10,22,16,31,NA,31
"WCS-6011-1",0,10,17,23,47,NA,13
"WCS-6012-1",0,10,14,36,42,NA,7
"WCS-6013-1",0,10,48,8,11,NA,32
"WCS-6015-1",0,10,28,23,32,NA,16
"WCS-6016-1",0,10,14,17,43,NA,26
"WCS-6017-1",0,10,14,2,45,NA,40
"WCS-6018-1",0,10,28,19,26,NA,27
"WCS-6019-1",0,10,19,17,46,NA,17
"WCS-6020-1",0,10,17,3,50,NA,31
"WCS-6021-1",0,10,14,37,40,NA,10
"WCS-6022-1",0,10,13,20,57,NA,11
"WCS-6023-1",0,10,28,4,41,NA,27
"WCS-6024-1",0,10,16,15,58,NA,12
"WCS-6025-1",0,10,15,26,39,NA,20
"WCS-6026-1",0,10,12,39,33,NA,16
"WCS-6027-1",0,10,22,14,43,NA,20
"WCS-6028-1",0,10,19,14,58,NA,9
"WCS-6029-1",0,10,46,9,24,NA,21
"WCS-6030-1",0,10,18,12,43,NA,27
"WCS-6031-1",0,10,55,10,20,NA,16
"WCS-6032-1",0,10,55,6,14,NA,25
"WCS-6033-1",0,10,32,26,23,NA,19
"WCS-6034-1",0,10,25,14,44,NA,18
"WCS-759-1",0,10,23,12,28,NA,36
"WCS-780-1",0,10,32,30,15,NA,23
"WCS-781-1",0,10,3,65,28,NA,4
"WCS-782-1",0,10,5,70,17,NA,7
"WCS-783-1",0,10,5,69,21,NA,5
"WCS-785-1",0,10,13,60,17,NA,10
"WCS-787-1",0,10,16,36,28,NA,19
"WCS-796-1",0,10,2,51,40,NA,7
"WCS-816-1",0,10,16,12,41,NA,31
"WCS-822-1",0,10,21,14,30,NA,35
"WCS-832-1",0,10,5,58,35,NA,2
"WCS-842-1",0,10,6,48,36,NA,9
"WCS-857-1",0,10,5,44,50,NA,1
"WCS-864-1",0,10,16,41,30,NA,14
"WCS-866-1",0,10,20,10,55,NA,15
"WCS-868-1",0,10,23,13,32,NA,32
"WCS-874-1",0,10,16,13,40,NA,31
"WCS-875-1",0,10,24,25,25,NA,26
"WCS-880-1",0,10,10,20,52,NA,18
"WCS-885-1",0,10,5,54,39,NA,2
"WCS-886-1",0,10,5,53,40,NA,2
"WCS-897-1",0,10,3,65,30,NA,2
"WCS-899-1",0,10,21,19,30,NA,31
"WCS-903-1",0,10,9,30,52,NA,9
"WCS-908-1",0,10,40,14,10,NA,36
"WCS-913-1",0,10,37,14,25,NA,23
"WCS-914-1",0,10,16,21,33,NA,30
"WCS-925-1",0,10,22,5,19,NA,54
"WCS-930-1",0,10,17,7,35,NA,41
"WCS-931-1",0,10,13,17,47,NA,22
"WCS-938-1",0,10,18,16,38,NA,29
"WCS-940-1",0,10,17,10,43,NA,29
"WCS-942-1",0,10,41,16,18,NA,24
"WCS-943-1",0,10,25,10,34,NA,30
"WCS-952-1",0,10,10,13,36,NA,40
"WDH-825-1",0,20,54,15,20,NA,11
"WDH-9001-1",0,10,11,29,56,NA,4
"WDH-9007-1",0,10,25,20,43,NA,13
"WDH-9012-1",0,10,15,11,59,NA,14
"WDH-9019-1",0,10,17,20,57,NA,6
"WDH-9020-1",0,10,10,22,65,NA,4
"WDH-9026-1",0,5,46,15,26,NA,12
"WDH-9027-1",0,3,55,11,20,NA,14
"WDH-9028-1",0,4,59,8,16,NA,17
"WDH-9029-1",0,3,62,7,14,NA,17
"WDH-9030-1",0,4,55,7,24,NA,14
"WDH-9031-1",0,6,63,7,15,NA,15
"WDH-9032-1",0,6,65,8,15,NA,12
"WDH-9033-1",0,6,48,15,25,NA,13
"WDH-9050-1",0,4,50,7,29,NA,15
"WDH-9051-1",0,3,50,3,27,NA,21
"WDH-9054-1",0,5,50,10,25,NA,15
"WDH-9055-1",0,5,38,17,32,NA,13
"WDH-9056-1",0,3,44,16,26,NA,13
"WDH-9064-1",0,7,75,1,9,NA,15
"WDH-9080-1",0,5,68,9,8,NA,15
"WDH-9081-1",0,2,65,5,7,NA,22
"WDH-9089-1",0,2,65,3,14,NA,17
"WDH-9090-1",0,5,67,3,20,NA,10
"WDH-9091-1",0,10,42,12,34,NA,11
"WDH-9092-1",0,5,35,8,46,NA,10
"WDH-9104-1",0,5,55,2,16,NA,27
"WDH-9106-1",0,10,18,26,40,NA,15
"WDH-9107-1",0,10,39,1,28,NA,31
"WDH-9115-1",0,8,33,4,29,NA,34
"WIN-279-1",0,10,7,61,25,8.8,8
"WIN-289-1",0,10,12,39,33,12.6,15
"WIN-297-1",0,10,4,58,34,7.2,4
"WIN-333-1",0,10,2,20,63,8.3,15
"WIN-335-1",0,10,4,32,56,12.8,8
"WIN-486-1",0,10,12,8,46,22,35
"WIN-658-1",0,10,13,14,50,25.7,24
"WRS-9005-1",0,10,45,27,14,NA,15
"WRS-9012-1",0,10,34,28,17,NA,21
"WTC-9000-1",0,10,15,43,22,20,20
"WTC-9001-1",0,10,7,64,24,10,6
"WTC-9002-1",0,10,8,48,33,12,10
"WTC-9003-1",0,10,16,29,37,22,19
"WTC-9006-1",0,10,19,5,43,32,34
"WTC-9007-1",0,10,13,8,67,17,13
"WTC-9010-1",0,10,22,34,23,22,22
"WTC-9014-1",0,10,36,11,11,41,43
"WTC-9015-1",0,10,20,11,47,28,22
"WTC-9017-1",0,10,29,7,33,32,32
"WTC-9018-1",0,10,29,14,26,31,31
"WTC-9019-1",0,10,15,28,43,21,14
"WTC-9020-1",0,10,23,2,56,30,20
"WTC-9022-1",0,10,4,45,37,12,14
"WTC-9024-1",0,10,24,47,18,21,10
"WTC-9025-1",0,10,5,66,21,12,8
"WTC-9028-1",0,10,16,38,25,23,21
"WTC-9029-1",0,10,12,28,44,20,16
"WTC-9033-1",0,10,10,59,21,15,10
"WTC-9036-1",0,10,7,19,58,11,16
"WTC-9037-1",0,10,36,9,23,41,32
"WTC-9038-1",0,10,16,15,53,21,16
"WTC-9039-1",0,10,4,64,28,8,4
"WTC-9042-1",0,10,44,12,19,40,25
"WTC-9044-1",0,10,4,20,54,13,22
"WTC-9045-1",0,10,42,15,5,65,38
"WTC-9047-1",0,10,13,4,73,21,10
"WTC-9049-1",0,10,9,42,35,12,13
"WTC-9050-1",0,10,6,62,25,11,7
"WTC-9052-1",0,10,7,55,26,12,12
"WTC-9054-1",0,10,22,32,19,28,27
"WTC-9064-1",0,10,15,12,43,32,30
"WTC-9065-1",0,10,17,9,51,25,23
"WTC-9068-1",0,10,18,46,22,19,13
"WTC-9069-1",0,10,11,49,30,15,10
"WTC-9070-1",0,10,5,88,6,5,1
"WTC-9071-1",0,10,17,6,53,26,23
"WTC-9072-1",0,10,17,52,19,19,13
"WTC-9073-1",0,10,15,46,22,19,16
"WTC-9075-1",0,10,16,23,50,19,11
"WTC-9076-1",0,10,13,9,56,25,21
"WTC-9078-1",0,10,43,12,6,NA,38
"WTC-9079-1",0,10,45,7,10,40,38
"WTC-9080-1",0,10,13,32,32,19,23
"WTC-9081-1",0,10,12,30,37,NA,20
"WTC-9082-1",0,10,40,9,16,NA,36
"WTC-9086-1",0,10,8,53,25,NA,14
"WTC-9088-1",0,10,15,36,29,20,20
"WTC-9089-1",0,10,6,21,27,25,46
"WTC-9090-1",0,10,2,15,68,NA,15
"WTC-9091-1",0,10,3,41,39,11,16
"WTC-9092-1",0,10,3,73,17,10,6
"WTC-9093-1",0,10,8,9,61,18,21
"WTC-9094-1",0,10,7,55,28,12,9
"WTC-9095-1",0,10,6,68,15,18,11
"WTC-9096-1",0,10,16,15,48,23,20
"BRL-9054-1",0,10,NA,NA,NA,12,NA
"CTI-328-1",0,10,NA,NA,NA,43,NA
"CWR-9002-1",0,10,NA,NA,NA,31,NA
"EIL-66-1",0,10,NA,NA,NA,57,NA
"EIL-69-1",0,10,NA,NA,NA,61,NA
"MISNQ-178-1",0,10,NA,NA,NA,47.3,NA
