"ID","UD","LD","Clay","CS","FS","m3rd_bar","Silt"
"3MC-153-1",0,5,45,12,20,NA,23
"3MC-219-1",0,10,18,11,56,NA,15
"3MC-231-1",0,10,22,18,38,NA,23
"3MC-233-1",0,10,66,5,8,NA,21
"3MC-6001-1",0,10,61,2,9,NA,28
"3MC-9007-1",0,10,61,3,12,NA,23
"3MC-9010-1",0,10,61,5,28,NA,5
"3MC-9014-1",0,10,34,10,37,NA,19
"ABC-1-1",0,10,58,3,7,35,32
"ABC-111-1",0,10,25,26,26,28,22
"ABC-116-1",0,10,62,8,12,40,19
"ABC-117-1",0,10,40,21,20,27,18
"ABC-142-1",0,10,18,41,22,20,19
"ABC-149-1",0,10,47,15,16,37,23
"ABC-157-1",0,10,66,15,8,55,12
"ABC-158-1",0,10,65,11,11,50,14
"ABC-16-1",0,10,56,8,13,41,24
"ABC-162-1",0,10,30,8,31,32,30
"ABC-196-1",0,10,47,14,16,38,23
"ABC-204-1",0,10,53,18,13,36,15
"ABC-211-1",0,10,21,42,25,22,12
"ABC-220-1",0,10,33,41,13,25,13
"ABC-230-1",0,10,49,9,19,37,23
"ABC-235-1",0,10,35,17,28,31,21
"ABC-244-1",0,10,10,54,28,15,8
"ABC-271-1",0,10,22,39,28,14,11
"ABC-285-1",0,10,52,11,20,36,18
"ABC-305-1",0,10,34,19,21,39,25
"ABC-311-1",0,10,24,24,29,37,24
"ABC-325-1",0,10,6,71,21,7,2
"ABC-326-1",0,10,28,17,27,28,28
"ABC-327-1",0,10,38,23,26,27,14
"ABC-346-1",0,10,27,33,23,23,16
"ABC-355-1",0,10,22,40,27,23,12
"ABC-357-1",0,10,21,39,28,18,12
"ABC-362-1",0,10,3,71,22,8,4
"ABC-374-1",0,10,27,32,22,32,18
"ABC-382-1",0,10,39,18,22,32,22
"ABC-384-1",0,10,26,26,37,21,10
"ABC-389-1",0,10,16,40,27,22,17
"ABC-391-1",0,10,41,7,30,32,22
"ABC-397-1",0,10,44,10,15,30,31
"ABC-398-1",0,10,43,13,22,36,21
"ABC-403-1",0,10,27,27,36,18,11
"ABC-431-1",0,10,69,7,16,47,8
"ABC-450-1",0,10,16,18,43,24,22
"ABC-451-1",0,10,44,13,19,40,25
"ABC-48-1",0,10,50,22,10,34,19
"ABC-52-1",0,10,35,15,27,36,23
"ABC-6-1",0,10,53,3,16,29,28
"ABC-60-1",0,10,41,21,15,26,22
"ABC-7-1",0,10,60,11,9,51,20
"ABC-75-1",0,10,23,17,35,25,25
"ABC-87-1",0,10,12,35,44,13,10
"ABC-97-1",0,10,16,27,40,NA,17
"ABC-99-1",0,10,48,18,16,30,19
"ABN-1-1",0,10,44,9,30,38,18
"ABN-102-1",0,10,16,52,28,12,4
"ABN-13-1",0,10,11,49,28,8,13
"ABN-16-1",0,10,9,52,30,9,9
"ABN-161-1",0,10,59,13,12,49,15
"ABN-170-1",0,10,64,3,11,NA,22
"ABN-19-1",0,10,57,7,16,35,20
"ABN-194-1",0,10,13,26,46,NA,14
"ABN-23-1",0,10,38,12,27,28,23
"ABN-243-1",0,10,36,26,25,NA,13
"ABN-250-1",0,10,51,7,23,NA,20
"ABN-251-1",0,10,22,34,17,NA,26
"ABN-29-1",0,10,10,56,31,7,3
"ABN-3-1",0,10,30,5,40,30,25
"ABN-301-1",0,10,56,19,14,NA,10
"ABN-304-1",0,10,74,6,7,NA,12
"ABN-364-1",0,10,49,10,21,NA,19
"ABN-37-1",0,10,8,67,20,6,6
"ABN-39-1",0,10,11,58,26,9,6
"ABN-40-1",0,10,30,27,19,28,24
"ABN-41-1",0,10,60,11,15,29,15
"ABN-419-1",0,10,10,26,38,NA,27
"ABN-42-1",0,10,57,9,13,34,22
"ABN-430-1",0,10,72,13,6,NA,9
"ABN-436-1",0,10,44,25,25,NA,6
"ABN-44-1",0,10,60,18,12,41,10
"ABN-46-1",0,10,22,42,28,18,8
"ABN-477-1",0,10,29,29,26,NA,16
"ABN-493-1",0,10,44,8,16,NA,31
"ABN-499-1",0,10,21,19,43,NA,17
"ABN-518-1",0,10,26,20,34,NA,20
"ABN-637-1",0,10,50,7,24,NA,20
"ABN-663-1",0,10,23,17,42,NA,19
"ABN-669-1",0,10,28,37,28,NA,8
"ABN-673-1",0,10,31,3,23,NA,43
"ABN-73-1",0,10,10,59,28,8,3
"ABN-749-1",0,10,11,48,33,NA,9
"ABN-760-1",0,10,12,11,52,NA,24
"ABN-768-1",0,10,11,38,43,NA,9
"ABN-80-1",0,10,42,23,15,38,20
"ABN-803-1",0,10,13,15,65,NA,6
"ABN-812-1",0,10,9,53,29,NA,10
"ABN-829-1",0,10,60,9,17,NA,14
"ABN-830-1",0,10,20,31,34,NA,15
"ABN-831-1",0,10,19,15,58,NA,8
"ABN-93-1",0,10,38,21,18,46,22
"ABN-99-1",0,10,28,31,32,21,9
"ABS-100-1",0,10,24,45,21,21,11
"ABS-116-1",0,10,43,12,24,37,21
"ABS-117-1",0,10,59,5,14,46,22
"ABS-119-1",0,10,57,10,8,38,25
"ABS-125-1",0,10,12,14,43,20,30
"ABS-126-1",0,10,16,45,26,18,14
"ABS-128-1",0,10,25,24,24,25,28
"ABS-13-1",0,10,5,75,13,10,7
"ABS-133-1",0,10,16,37,32,13,15
"ABS-14-1",0,10,44,6,18,40,33
"ABS-147-1",0,10,5,57,25,13,13
"ABS-153-1",0,10,20,34,34,14,13
"ABS-159-1",0,10,8,79,10,6,3
"ABS-164-1",0,10,29,26,21,37,25
"ABS-175-1",0,10,16,18,34,49,33
"ABS-180-1",0,10,26,5,51,28,18
"ABS-183-1",0,10,21,19,40,21,21
"ABS-189-1",0,10,40,25,20,26,16
"ABS-19-1",0,10,10,42,28,18,19
"ABS-193-1",0,10,59,6,14,37,21
"ABS-194-1",0,10,44,25,17,33,15
"ABS-20-1",0,10,6,77,16,6,1
"ABS-211-1",0,10,7,48,38,10,7
"ABS-214-1",0,10,5,70,15,12,10
"ABS-224-1",0,10,34,6,27,36,33
"ABS-232-1",0,10,30,23,30,24,17
"ABS-243-1",0,10,13,35,33,19,18
"ABS-250-1",0,10,21,14,32,46,32
"ABS-26-1",0,10,50,10,13,47,28
"ABS-269-1",0,10,57,13,15,31,15
"ABS-275-1",0,10,71,2,10,58,16
"ABS-277-1",0,10,25,31,34,21,9
"ABS-279-1",0,10,49,5,22,41,25
"ABS-28-1",0,10,39,8,20,38,32
"ABS-288-1",0,10,46,10,27,46,16
"ABS-289-1",0,10,64,4,12,37,20
"ABS-290-1",0,10,20,28,32,25,20
"ABS-3-1",0,10,70,5,6,65,19
"ABS-328-1",0,10,24,23,36,25,17
"ABS-33-1",0,10,10,36,41,16,13
"ABS-330-1",0,10,22,31,22,31,26
"ABS-332-1",0,10,69,6,9,58.5,17
"ABS-333-1",0,10,64,6,9,46,22
"ABS-35-1",0,10,5,57,31,8,7
"ABS-39-1",0,10,15,34,36,17,14
"ABS-4-1",0,10,79,4,5,62,12
"ABS-44-1",0,10,16,33,23,26,28
"ABS-45-1",0,10,21,29,24,26,27
"ABS-59-1",0,10,46,12,21,NA,20
"ABS-6-1",0,10,33,16,20,36,32
"ABS-63-1",0,10,8,74,15,14,3
"ABS-67-1",0,10,27,13,46,20,13
"ABS-68-1",0,10,24,9,39,26,28
"ABS-69-1",0,10,47,6,23,44,25
"ABS-73-1",0,10,6,50,36,10,9
"ABS-78-1",0,10,42,18,21,25,20
"ABS-79-1",0,10,45,15,22,27,19
"ABS-8-1",0,10,35,11,19,39,36
"ABS-80-1",0,10,38,12,31,28,20
"ABS-81-1",0,10,54,8,19,38.5,19
"ABS-84-1",0,10,40,5,25,34,30
"ABS-85-1",0,10,41,13,24,29,22
"ABS-88-1",0,10,54,5,19,31,23
"ABS-9-1",0,10,42,13,17,42,28
"ABS-90-1",0,10,58,3,14,52,25
"ABS-91-1",0,10,53,9,15,42,23
"AGOPS-248-1",0,5,6,22,66,NA,5
"AGOPS-332-1",0,5,10,22,61,NA,7
"ARD-507-1",0,10,34,25,25,NA,16
"ARD-9000-1",0,10,21,39,20,NA,21
"ARD-9001-1",0,10,12,41,33,NA,14
"ARD-9002-1",0,10,34,25,25,NA,16
"ARD-9003-1",0,10,25,30,34,NA,11
"ARD-9005-1",0,10,36,10,26,NA,28
"ARD-9006-1",0,10,28,20,26,NA,27
"ARD-9007-1",0,10,32,18,30,NA,20
"ARD-9008-1",0,10,50,14,22,NA,14
"ARD-9009-1",0,10,51,12,17,NA,20
"ARD-9010-1",0,10,53,16,14,NA,16
"ARD-9011-1",0,10,8,31,53,NA,8
"ARD-9012-1",0,10,12,16,62,NA,10
"ARD-9013-1",0,10,24,4,53,NA,19
"ARD-9014-1",0,10,9,46,34,NA,10
"ATD-10-1",0,10,54,11,22,33,13
"ATD-11-1",0,10,46,23,21,32,10
"ATD-12-1",0,10,56,9,15,43,20
"ATD-13-1",0,10,37,7,27,35,28
"ATD-14-1",0,10,20,13,52,20,15
"ATD-16-1",0,10,17,53,25,12,5
"ATD-17-1",0,5,22,17,47,NA,15
"ATD-18-1",0,10,21,34,37,NA,9
"ATD-20-1",0,10,33,19,28,NA,20
"ATD-21-1",0,10,17,35,43,NA,6
"ATD-22-1",0,10,34,32,24,NA,10
"ATD-3-1",0,10,84,3,5,74,8
"ATD-4-1",0,10,50,7,21,38,23
"ATD-5-1",0,10,40,26,24,29,10
"ATD-6-1",0,10,60,5,16,42,19
"ATD-8-1",0,10,15,48,37,8,1
"ATD-9-1",0,10,25,44,25,16,6
"ATE-17-1",0,10,67,5,10,50,18
"BAN-1088-1",0,10,39,6,16,NA,39
"BAN-1093-1",0,12,32,32,15,NA,21
"BAN-1142-1",0,10,34,21,28,NA,17
"BAN-1147-1",0,10,34,31,12,NA,23
"BAN-150-1",0,10,23,25,36,NA,16
"BAN-1601-1",0,10,73,4,5,NA,18
"BAN-1625-1",0,10,34,22,26,NA,17
"BAN-1648-1",0,10,45,20,19,NA,16
"BAN-165-1",0,5,37,12,35,NA,17
"BAN-1719-1",0,10,9,35,50,NA,6
"BAN-1805-1",0,10,15,12,59,NA,14
"BAN-181-1",0,10,6,37,55,NA,2
"BAN-1811-1",0,10,25,11,43,NA,21
"BAN-1812-1",0,10,12,19,50,NA,19
"BAN-185-1",0,10,56,14,18,NA,12
"BAN-1971-1",0,10,27,21,30,NA,22
"BAN-2015-1",0,10,45,19,17,NA,18
"BAN-2090-1",0,10,16,12,62,NA,11
"BAN-2096-1",0,10,29,19,34,NA,19
"BAN-2097-1",0,10,47,16,22,NA,14
"BAN-2099-1",0,10,31,2,34,NA,34
"BAN-21-1",0,5,57,8,16,NA,19
"BAN-2105-1",0,10,59,6,17,NA,17
"BAN-2128-1",0,10,62,4,14,NA,20
"BAN-2164-1",0,10,60,1,10,NA,29
"BAN-2255-1",0,10,58,7,22,NA,14
"BAN-2256-1",0,2,46,8,25,NA,22
"BAN-2257-1",0,5,62,5,18,NA,14
"BAN-2258-1",0,2,48,12,21,NA,19
"BAN-2259-1",0,2,49,6,24,NA,21
"BAN-2260-1",0,5,37,12,35,NA,17
"BAN-2262-1",0,2,39,4,28,NA,28
"BAN-2263-1",0,5,46,10,25,NA,19
"BAN-2264-1",0,2,47,9,28,NA,16
"BAN-2265-1",0,2,62,2,11,NA,25
"BAN-2298-1",0,10,29,4,31,NA,35
"BAN-2597-1",0,10,47,12,23,NA,17
"BAN-2598-1",0,10,54,8,18,NA,19
"BAN-271-1",0,10,36,21,33,NA,11
"BAN-286-1",0,10,39,5,20,NA,36
"BAN-289-1",0,10,28,2,43,NA,27
"BAN-301-1",0,10,20,12,55,NA,13
"BAN-302-1",0,10,24,16,54,NA,6
"BAN-339-1",0,5,43,10,27,NA,19
"BAN-405-1",0,5,35,2,30,NA,33
"BAN-474-1",0,5,44,11,27,NA,18
"BAN-5-1",0,10,25,28,36,NA,11
"BAN-507-1",0,5,43,15,20,NA,23
"BAN-508-1",0,4,56,5,12,NA,27
"BAN-510-1",0,10,54,12,20,NA,14
"BAN-511-1",0,10,39,10,34,NA,16
"BAN-513-1",0,3,64,3,10,NA,23
"BAN-516-1",0,3,50,7,26,NA,17
"BAN-522-1",0,3,53,6,21,NA,20
"BAN-599-1",0,10,31,4,33,NA,31
"BAN-6-1",0,10,36,13,29,NA,22
"BAN-63-1",0,5,48,6,18,NA,28
"BAN-657-1",0,7,40,13,26,NA,21
"BAN-657-1",0,10,43,10,28,NA,19
"BAN-682-1",0,10,58,17,12,NA,14
"BAN-708-1",0,5,27,19,41,NA,13
"BAN-723-1",0,10,43,18,21,NA,19
"BAN-748-1",0,6,55,5,18,NA,22
"BAN-790-1",0,2,66,2,12,NA,21
"BAN-804-1",0,5,26,14,40,NA,20
"BAN-835-1",0,10,64,3,12,NA,21
"BAN-858-1",0,2,46,8,24,NA,23
"BAN-859-1",0,4,64,4,15,NA,17
"BAN-865-1",0,5,26,8,36,NA,30
"BAN-881-1",0,10,67,2,9,NA,23
"BAN-940-1",0,10,40,16,28,NA,16
"BAN-947-1",0,2,38,14,34,NA,14
"BAN-95-1",0,10,2,39,57,NA,2
"BAN-97-1",0,10,45,18,23,NA,13
"BLS-9000-1",0,10,21,13,53,28,14
"BLS-9001-1",0,10,40,6,27,35,27
"BLS-9005-1",0,10,19,20,50,22,11
"BLS-9007-1",0,10,38,3,27,39,32
"BLS-9008-1",0,8,19,22,47,20,13
"BLS-9009-1",0,10,33,7,32,28,29
"BLS-9010-1",0,10,39,7,22,37,32
"BMSE-60-1",0,10,10,48,33,NA,9
"BMSE-62-1",0,10,67,4,17,NA,12
"BPS-9007-1",0,10,65,6,14,47,16
"BPS-9008-1",0,10,12,25,50,18,13
"BPS-9009-1",0,10,30,18,31,34,22
"BPS-9010-1",0,10,61,5,17,41.5,18
"BPS-9012-1",0,10,48,10,20,45,22
"BPS-9013-1",0,10,22,24,26,33,27
"BPS-9015-1",0,10,25,23,31,28,22
"BRCL-2-1",0,10,26,27,24,NA,24
"BRCL-61-1",0,10,46,11,12,NA,30
"BSS-1-1",0,10,17,5,45,NA,33
"BSS-17-1",0,10,7,38,41,NA,14
"BSS-41-1",0,10,11,6,59,NA,24
"BSS-9-1",0,10,6,21,53,NA,21
"CCL-110-1",0,10,29,13,25,NA,33
"CCL-111-1",0,10,28,3,48,NA,21
"CCL-1267-1",0,10,15,28,37,NA,20
"CCL-1268-1",0,10,20,7,42,NA,31
"CCL-1272-1",0,10,22,24,39,NA,16
"CCL-1273-1",0,10,38,10,25,NA,27
"CCL-1276-1",0,10,26,3,37,NA,33
"CCL-1279-1",0,10,49,27,12,NA,12
"CCL-1280-1",0,10,36,7,28,NA,29
"CCL-1282-1",0,10,54,3,26,NA,17
"CCL-1284-1",0,8,28,6,30,NA,36
"CCL-1285-1",0,10,47,13,20,NA,20
"CCL-1286-1",0,10,40,13,25,NA,22
"CCL-1288-1",0,10,30,16,29,NA,25
"CCL-1290-1",0,10,57,10,14,NA,18
"CCL-1291-1",0,10,62,7,10,NA,20
"CCL-1292-1",0,8,24,41,16,NA,18
"CCL-144-1",0,10,25,14,28,NA,33
"CCL-1447-1",0,10,48,1,33,NA,18
"CCL-1450-1",0,10,44,5,27,NA,25
"CCL-1452-1",0,10,75,2,3,NA,20
"CCL-149-1",0,10,17,6,44,NA,34
"CCL-1541-1",0,10,17,10,37,NA,36
"CCL-1679-1",0,10,47,2,21,NA,29
"CCL-1680-1",0,10,44,11,36,NA,9
"CCL-214-1",0,8,14,46,27,NA,13
"CCL-290-1",0,10,7,66,24,NA,3
"CCL-298-1",0,10,25,15,39,NA,22
"CCL-324-1",0,10,43,14,21,NA,23
"CCL-325-1",0,10,11,39,31,NA,19
"CCL-326-1",0,10,32,13,46,NA,8
"CCL-328-1",0,10,50,16,20,NA,14
"CCL-330-1",0,10,22,5,51,NA,22
"CCL-480-1",0,10,29,5,19,NA,46
"CCL-55-1",0,10,49,7,17,NA,28
"CCL-755-1",0,10,76,2,10,NA,12
"CCL-78-1",0,10,24,11,37,NA,28
"CCL-786-1",0,10,35,10,30,NA,25
"CCL-788-1",0,10,54,14,20,NA,11
"CCL-80-1",0,10,26,9,44,NA,21
"CCL-87-1",0,10,44,14,24,NA,17
"CCL-89-1",0,10,38,30,16,NA,16
"CIS-9000-1",0,10,12,25,52,14,11
"CIS-9001-1",0,10,35,6,30,33,29
"CIS-9003-1",0,10,34,8,34,32,24
"CIS-9004-1",0,10,60,8,11,37,21
"CIS-9005-1",0,10,23,8,40,23,29
"CIS-9006-1",0,10,26,5,39,31,31
"CIS-9007-1",0,10,10,21,57,14,11
"CIS-9008-1",0,10,16,23,48,19,14
"CIS-9009-1",0,10,18,3,56,22,23
"CIS-9010-1",0,10,22,6,52,26,20
"CIS-9011-1",0,10,21,3,56,25,20
"CIS-9012-1",0,10,17,23,49,17,11
"CIS-9013-1",0,10,35,3,28,33,33
"CIS-9014-1",0,10,30,5,34,35,30
"CNM-17-1",0,10,49,15,21,40,14
"CNM-25-1",0,10,45,13,32,24,10
"CNM-30-1",0,10,59,15,14,49,11
"CNM-49-1",0,10,21,9,43,28,28
"CNM-52-1",0,10,25,35,24,24,15
"CNM-9-1",0,10,53,7,27,36,13
"CQCS-103-1",0,10,10,55,31,8,3
"CQCS-104-1",0,10,43,21,25,32.3,11
"CQCS-105-1",0,10,58,12,20,27.5,10
"CQCS-106-1",0,10,56,10,24,41.8,10
"CQCS-133-1",0,10,36,25,28,31,10
"CQCS-14-1",0,10,12,55,30,11.8,3
"CQCS-15-1",0,10,27,25,44,22.1,5
"CQCS-16-1",0,10,60,8,19,46,14
"CQCS-2-1",0,10,41,29,19,25.7,11
"CQCS-3-1",0,10,52,3,24,50.8,21
"CQCS-36-1",0,10,71,2,13,53.9,14
"CQCS-41-1",0,10,38,21,30,30.9,12
"CQCS-43-1",0,10,61,5,16,37.7,18
"CQCS-46-1",0,10,47,18,24,30.4,12
"CQCS-74-1",0,10,40,4,22,49.1,34
"CQCS-79-1",0,10,14,49,32,13.7,6
"CQCS-99-1",0,10,65,9,14,53.8,12
"CQH-1018-1",0,10,12,57,23,NA,8
"CQH-1019-1",0,10,24,20,30,NA,27
"CQH-1109-1",0,10,11,11,58,NA,20
"CQH-128-1",0,10,25,1,31,NA,43
"CQH-210-1",0,10,10,52,33,NA,5
"CQH-248-1",0,10,29,15,34,NA,22
"CQH-250-1",0,10,31,28,22,NA,20
"CQH-26-1",0,10,11,43,20,NA,27
"CQH-289-1",0,10,28,7,35,NA,29
"CQH-295-1",0,10,18,22,36,NA,23
"CQH-331-1",0,10,23,20,35,NA,22
"CQH-384-1",0,10,10,43,39,NA,9
"CQH-401-1",0,10,32,34,15,NA,18
"CQH-412-1",0,10,10,23,43,NA,24
"CQH-423-1",0,10,25,37,19,NA,20
"CQH-434-1",0,10,4,6,89,NA,1
"CQH-435-1",0,10,4,8,87,NA,1
"CQH-455-1",0,10,16,19,53,NA,12
"CQH-615-1",0,10,15,11,66,NA,8
"CQH-616-1",0,10,15,37,32,NA,15
"CQH-695-1",0,10,15,36,25,NA,24
"CQH-802-1",0,20,7,60,22,NA,11
"CQH-806-1",0,20,11,48,31,NA,11
"CQH-820-1",0,20,41,22,17,NA,20
"CQH-821-1",0,30,31,43,11,NA,16
"CQH-822-1",0,10,39,20,29,NA,12
"CQH-832-1",0,10,11,62,19,NA,9
"CQH-946-1",0,10,45,11,25,NA,19
"CTAP-1-1",0,10,45,12,26,29,17
"CTAP-119-1",0,10,16,1,63,14,20
"CTAP-146-1",0,10,45,7,28,28.3,21
"CTAP-177-1",0,10,57,17,17,29,9
"CTAP-189-1",0,10,11,6,76,7.6,7
"CTAP-211-1",0,10,42,20,25,14,13
"CTAP-228-1",0,10,14,2,71,15.6,13
"CTAP-238-1",0,10,10,59,26,8.9,6
"CTAP-245-1",0,10,53,15,15,23.9,17
"CTAP-247-1",0,10,19,38,29,22.4,15
"CTAP-5-1",0,10,32,7,48,20.7,13
"CTAP-59-1",0,10,44,26,19,22.5,11
"CTAP-8-1",0,10,7,35,54,2.8,5
"CVM-6007-1",0,10,34,5,33,NA,28
"EIL-1-1",0,10,64,8,17,56,11
"EIL-15-1",0,10,56,1,21,36,22
"EIL-16-1",0,10,66,6,18,49,10
"EIL-17-1",0,10,52,3,31,41,14
"EIL-18-1",0,10,46,6,32,NA,16
"EIL-19-1",0,10,58,5,22,44,15
"EIL-2-1",0,10,63,3,19,51,15
"EIL-20-1",0,10,58,4,22,44,15
"EIL-21-1",0,10,58,1,25,41,16
"EIL-22-1",0,2,62,2,25,34,11
"EIL-23-1",0,10,16,21,61,6,2
"EIL-24-1",0,10,20,3,67,12,10
"EIL-25-1",0,10,25,6,53,15,16
"EIL-26-1",0,10,30,5,50,16,15
"EIL-27-1",0,10,32,8,38,21,22
"EIL-28-1",0,10,23,15,51,12,11
"EIL-3-1",0,10,68,8,14,60,10
"EIL-31-1",0,10,38,21,32,19,9
"EIL-33-1",0,10,57,11,22,34,10
"EIL-34-1",0,1,56,4,23,34,17
"EIL-35-1",0,10,55,6,24,34,15
"EIL-36-1",0,10,44,8,37,28,11
"EIL-38-1",0,10,46,9,34,28,11
"EIL-4-1",0,10,55,7,24,51,14
"EIL-40-1",0,10,47,19,25,25,9
"EIL-42-1",0,10,51,7,30,34,12
"EIL-44-1",0,1,45,7,36,32,12
"EIL-46-1",0,10,51,11,32,29,6
"EIL-48-1",0,10,29,12,54,13,5
"EIL-5-1",0,10,58,9,21,NA,12
"EIL-50-1",0,10,29,31,30,22,10
"EIL-51-1",0,10,34,29,36,19,2
"EIL-53-1",0,10,37,23,38,20,2
"EIL-55-1",0,10,58,16,18,33,8
"EIL-56-1",0,10,51,25,20,30,4
"EIL-58-1",0,10,66,11,14,41,9
"EIL-59-1",0,10,37,11,42,25,10
"EIL-6-1",0,10,66,4,19,52,11
"EIL-62-1",0,10,72,3,15,59,10
"EIL-63-1",0,10,72,3,15,55,10
"EIL-64-1",0,10,66,3,16,52,15
"EIL-65-1",0,10,76,2,11,68,11
"EIL-68-1",0,10,62,9,18,43,11
"EIL-7-1",0,10,66,3,18,52,13
"EIL-71-1",0,10,65,4,15,53,15
"EIL-72-1",0,10,60,7,18,49,15
"EIL-75-1",0,10,68,6,14,55,12
"EIL-76-1",0,10,67,4,16,56,13
"EIL-77-1",0,10,59,7,24,39,10
"EIL-78-1",0,10,78,3,9,47,10
"EIL-79-1",0,10,56,12,25,32,7
"EIL-80-1",0,10,61,6,23,35,10
"EIL-82-1",0,10,71,6,16,48,7
"EIL-83-1",0,10,70,6,17,40,7
"EIL-84-1",0,10,65,4,22,38,9
"EIM-6001-1",0,10,66,2,17,NA,15
"EIR-9001-1",0,10,57,9,29,38,5
"EIR-9002-1",0,10,57,8,23,38,12
"EIR-9003-1",0,10,41,15,36,29,8
"EIR-9004-1",0,10,49,13,28,32,10
"EIR-9005-1",0,10,21,25,53,8,1
"EIR-9006-1",0,10,17,36,47,8,1
"EIR-9007-1",0,10,17,43,35,7,5
"EIR-9008-1",0,10,19,40,37,11,5
"EIR-9009-1",0,10,16,45,33,11,7
"EIR-9012-1",0,5,52,8,20,41,20
"EIR-9012-1",0,10,53,8,20,40,19
"EIR-9013-1",0,10,51,9,22,37.5,17
"EIR-9014-1",0,10,8,63,27,7,2
"EIR-9015-1",0,10,9,60,27,11.5,4
"EIR-9016-1",0,10,12,44,37,9,6
"EIR-9017-1",0,10,18,40,34,11,8
"EIR-9019-1",0,10,38,25,29,22,8
"EIR-9020-1",0,7,29,27,33,17,12
"EIR-9022-1",0,10,11,43,40,7,7
"EIR-9023-1",0,10,44,24,23,27,10
"EIR-9024-1",0,10,48,20,22,27,10
"EIR-9025-1",0,10,46,15,31,29,9
"EIR-9027-1",0,5,26,12,51,17,11
"EIR-9028-1",0,10,8,47,42,6,3
"EIR-9030-1",0,10,23,33,35,17.5,9
"EIR-9031-1",0,10,61,3,19,40,17
"EIR-9034-1",0,10,18,26,50,12,6
"EIR-9035-1",0,5,30,11,39,19,21
"EIR-9037-1",0,10,60,4,23,31,13
"EIR-9042-1",0,10,32,34,27,23,7
"EIR-9043-1",0,10,40,18,34,24,9
"EIR-9044-1",0,10,53,12,19,32,17
"EIR-9046-1",0,10,46,10,31,28,14
"EIR-9047-1",0,10,60,7,20,36,13
"EIR-9048-1",0,10,48,8,25,32,20
"EIR-9049-1",0,10,53,7,23,33,17
"EIR-9050-1",0,10,55,8,23,31,14
"EIR-9052-1",0,10,60,5,14,36,22
"EME-9006-1",0,10,49,19,22,NA,11
"EME-9007-1",0,2,55,10,20,NA,15
"EME-9008-1",0,10,70,2,9,NA,19
"ESH-6000-1",0,10,53,7,25,NA,15
"ESH-6001-1",0,10,51,2,26,NA,21
"ESH-6002-1",0,10,43,14,25,NA,18
"ESH-6003-1",0,10,46,9,26,NA,19
"ESH-6004-1",0,10,53,12,15,NA,20
"ESH-6005-1",0,10,56,3,21,NA,20
"ESH-6006-1",0,10,45,8,32,NA,15
"ESH-6007-1",0,10,70,5,16,NA,10
"ESH-6010-1",0,10,11,36,47,NA,7
"ESH-6012-1",0,10,43,16,30,NA,11
"ESH-6013-1",0,10,37,18,34,NA,10
"ESH-6014-1",0,10,37,13,41,NA,9
"ESH-6015-1",0,10,36,18,30,NA,15
"ESH-6016-1",0,10,65,7,17,NA,11
"ESH-6017-1",0,10,65,3,18,NA,14
"ESH-6019-1",0,10,40,6,36,NA,18
"ESH-6020-1",0,10,65,1,18,NA,16
"FSE-100-1",0,10,44,5,34,NA,17
"FSE-102-1",0,10,15,17,54,NA,14
"FSE-103-1",0,5,42,7,34,NA,17
"FSE-105-1",0,10,5,31,57,NA,7
"FSE-108-1",0,5,12,18,58,NA,12
"FSE-109-1",0,10,31,15,33,NA,21
"FSE-117-1",0,10,4,45,43,NA,9
"FSE-119-1",0,5,32,8,25,NA,36
"FSE-120-1",0,10,14,24,42,NA,20
"FSE-122-1",0,5,13,16,57,NA,13
"FSE-123-1",0,10,51,18,16,NA,16
"FSE-124-1",0,10,13,43,30,NA,15
"FSE-125-1",0,5,12,22,42,NA,23
"FSE-129-1",0,10,8,42,40,NA,10
"FSE-130-1",0,10,9,34,44,NA,12
"FSE-133-1",0,10,6,54,35,NA,5
"FSE-134-1",0,10,15,37,35,NA,12
"FSE-135-1",0,10,10,47,29,NA,14
"FSE-147-1",0,10,46,15,22,NA,17
"FSE-150-1",0,10,18,21,34,NA,27
"FSE-154-1",0,10,7,36,47,NA,10
"FSE-155-1",0,10,49,9,21,NA,22
"FSE-157-1",0,10,72,4,8,NA,17
"FSE-158-1",0,10,26,17,34,NA,23
"FSE-166-1",0,10,43,7,22,NA,28
"FSE-167-1",0,15,61,5,13,NA,22
"FSE-168-1",0,10,22,32,31,NA,14
"FSE-169-1",0,10,31,13,42,NA,15
"FSE-173-1",0,10,47,7,21,NA,25
"FSE-174-1",0,10,7,51,35,NA,7
"FSE-175-1",0,10,20,27,31,NA,22
"FSE-176-1",0,10,15,46,26,NA,13
"FSE-180-1",0,5,33,23,28,NA,17
"FSE-182-1",0,10,24,8,46,NA,23
"FSE-183-1",0,10,35,7,30,NA,29
"FSE-184-1",0,10,33,13,29,NA,25
"FSE-187-1",0,15,6,34,51,NA,9
"FSE-193-1",0,10,6,40,50,NA,4
"FSE-195-1",0,5,36,16,37,NA,11
"FSE-195-2",0,10,58,8,18,NA,16
"FSE-196-1",0,10,72,3,10,NA,15
"FSE-197-1",0,10,17,44,34,NA,6
"FSE-198-1",0,10,36,25,29,NA,11
"FSE-199-1",0,10,43,6,22,NA,29
"FSE-200-1",0,10,48,16,20,NA,17
"FSE-203-1",0,10,31,2,39,NA,28
"FSE-204-1",0,10,5,38,52,NA,5
"FSE-206-1",0,10,24,12,42,NA,22
"FSE-210-1",0,15,42,6,34,NA,18
"FSE-217-1",0,10,11,9,74,NA,6
"FSE-218-1",0,10,7,28,59,NA,6
"FSE-219-1",0,10,18,35,36,NA,12
"FSE-221-1",0,10,28,10,41,NA,21
"FSE-223-1",0,10,39,8,40,NA,14
"FSE-226-1",0,10,15,19,59,NA,7
"FSE-227-1",0,10,19,17,52,NA,12
"FSE-232-1",0,5,29,21,32,NA,18
"FSE-233-1",0,15,37,16,36,NA,12
"FSE-234-1",0,10,37,8,40,NA,15
"FSE-235-1",0,10,46,9,25,NA,19
"FSE-236-1",0,10,15,4,64,NA,17
"FSE-237-1",0,10,8,6,80,NA,7
"FSE-238-1",0,15,32,18,38,NA,12
"FSE-24-1",0,5,20,24,42,NA,14
"FSE-240-1",0,10,7,69,20,NA,5
"FSE-241-1",0,10,44,5,38,NA,13
"FSE-242-1",0,10,28,20,40,NA,12
"FSE-243-1",0,15,22,3,63,NA,13
"FSE-244-1",0,5,10,34,44,NA,12
"FSE-246-1",0,6,42,12,37,NA,9
"FSE-248-1",0,10,47,6,32,NA,15
"FSE-249-1",0,10,10,43,37,NA,10
"FSE-250-1",0,10,9,11,75,NA,6
"FSE-252-1",0,10,41,12,38,NA,10
"FSE-254-1",0,15,12,15,65,NA,8
"FSE-256-1",0,10,29,15,48,NA,8
"FSE-258-1",0,10,11,2,81,NA,6
"FSE-261-1",0,15,11,48,34,NA,7
"FSE-262-1",0,5,14,57,28,NA,1
"FSE-263-1",0,10,12,24,60,NA,5
"FSE-264-1",0,10,9,27,59,NA,6
"FSE-265-1",0,10,11,2,81,NA,6
"FSE-269-1",0,10,13,7,71,NA,9
"FSE-27-1",0,10,14,24,53,NA,9
"FSE-270-1",0,10,51,10,23,NA,16
"FSE-272-1",0,15,18,21,48,NA,13
"FSE-273-1",0,10,50,8,19,NA,23
"FSE-274-1",0,10,66,11,10,NA,12
"FSE-275-1",0,10,12,4,73,NA,12
"FSE-276-1",0,10,19,8,65,NA,8
"FSE-277-1",0,10,29,12,43,NA,15
"FSE-278-1",0,10,47,15,26,NA,12
"FSE-28-1",0,10,15,40,32,NA,14
"FSE-283-1",0,10,46,10,35,NA,9
"FSE-285-1",0,10,10,22,64,NA,4
"FSE-286-1",0,10,37,11,43,NA,9
"FSE-287-1",0,10,34,8,45,NA,13
"FSE-29-1",0,5,12,41,40,NA,7
"FSE-290-1",0,7,20,41,28,NA,11
"FSE-291-1",0,10,10,53,32,NA,5
"FSE-31-1",0,5,22,12,51,NA,15
"FSE-34-1",0,5,13,31,47,NA,10
"FSE-36-1",0,5,14,20,59,NA,7
"FSE-41-1",0,5,31,22,37,NA,10
"FSE-43-1",0,5,35,25,30,NA,11
"FSE-46-1",0,5,41,9,25,NA,24
"FSE-47-1",0,10,15,24,50,NA,11
"FSE-49-1",0,7,50,10,23,NA,17
"FSE-50-1",0,15,56,9,19,NA,17
"FSE-51-1",0,7,77,2,9,NA,12
"FSE-53-1",0,15,75,4,8,NA,14
"FSE-54-1",0,10,20,18,57,NA,6
"FSE-55-1",0,10,65,6,15,NA,14
"FSE-56-1",0,10,63,10,13,NA,15
"FSE-64-1",0,10,50,4,22,NA,24
"FSE-68-1",0,10,14,34,45,NA,8
"FSE-70-1",0,10,32,31,31,NA,7
"FSE-73-1",0,8,17,7,62,NA,14
"FSE-74-1",0,7,19,29,41,NA,10
"FSE-75-1",0,10,60,3,15,NA,22
"FSE-77-1",0,5,49,15,24,NA,13
"FSE-80-1",0,10,50,6,25,NA,19
"FSE-81-1",0,10,38,19,26,NA,17
"FSE-83-1",0,15,8,39,51,NA,2
"FSE-86-1",0,10,42,28,23,NA,7
"FSE-87-1",0,10,14,41,31,NA,14
"FSE-90-1",0,10,47,5,27,NA,21
"FSE-91-1",0,10,33,14,44,NA,9
"FSE-94-1",0,10,33,9,42,NA,15
"FSE-95-1",0,15,11,3,81,NA,5
"FSE-97-1",0,10,10,44,38,NA,8
"FSE-98-1",0,10,16,11,63,NA,11
"FSE-99-1",0,10,11,35,47,NA,8
"IPB-1-1",0,10,43,2,19,36,36
"IPB-10-1",0,10,53,4,18,35,25
"IPB-2-1",0,10,33,3,29,29,35
"IPB-4-1",0,10,70,3,11,57,16
"IPB-5-1",0,10,65,3,10,47,22
"IPB-6-1",0,10,53,4,18,39,25
"IPB-7-1",0,10,22,38,29,16,11
"IPB-8-1",0,10,34,9,21,31,36
"IPB-9-1",0,10,78,4,6,50,11
"KCM-9001-1",0,10,72,4,9,NA,14
"KCM-9002-1",0,10,58,12,15,NA,15
"KCM-9003-1",0,10,15,42,28,NA,15
"KCM-9005-1",0,10,68,2,15,NA,14
"KCM-9006-1",0,10,66,7,12,NA,14
"KCM-9007-1",0,10,70,1,17,NA,13
"KCM-9008-1",0,10,58,7,21,NA,14
"KCM-9009-1",0,10,55,12,20,NA,12
"KCM-9010-1",0,10,65,9,15,NA,11
"KCM-9011-1",0,10,65,3,15,NA,17
"KCM-9012-1",0,10,72,4,9,NA,14
"KCM-9013-1",0,10,74,3,8,NA,15
"KCM-9014-1",0,10,81,2,7,NA,9
"KCM-9015-1",0,10,49,22,17,NA,12
"KCM-9016-1",0,10,42,26,21,NA,11
"KCM-9017-1",0,10,79,5,6,NA,9
"KCM-9019-1",0,10,59,9,18,NA,14
"KCM-9022-1",0,10,64,4,16,NA,17
"KCM-9024-1",0,10,21,21,48,NA,11
"KCM-9027-1",0,10,56,14,19,NA,11
"KCM-9028-1",0,10,75,8,11,NA,6
"KCM-9029-1",0,10,33,29,31,NA,7
"KCM-9030-1",0,1,44,22,18,NA,17
"KCM-9031-1",0,10,35,22,31,NA,11
"KCM-9032-1",0,2,44,24,20,NA,11
"KCM-9033-1",0,10,67,5,14,NA,15
"KCM-9035-1",0,5,63,14,6,NA,16
"KCM-9036-1",0,10,39,27,24,NA,9
"KCM-9040-1",0,10,53,7,22,NA,18
"KCM-9041-1",0,10,30,31,26,NA,12
"KCM-9042-1",0,2,56,11,16,NA,18
"KCM-9043-1",0,2,68,3,11,NA,18
"KCM-9044-1",0,10,67,7,12,NA,14
"KCM-9045-1",0,10,69,4,14,NA,14
"KCM-9046-1",0,10,77,1,12,NA,11
"KCM-9047-1",0,10,66,3,13,NA,17
"KCM-9048-1",0,7,30,22,33,NA,16
"KCM-9050-1",0,10,40,8,28,NA,24
"KCM-9051-1",0,10,75,4,11,NA,11
"KCM-9052-1",0,10,49,6,28,NA,17
"KCM-9053-1",0,10,61,8,15,NA,16
"KCM-9054-1",0,10,63,5,16,NA,15
"LFZ-464-1",0,10,16,8,54,NA,22
"LFZ-467-1",0,10,23,3,58,NA,16
"LFZ-468-1",0,10,6,26,63,NA,5
"LFZ-471-1",0,10,44,8,34,NA,14
"LFZ-472-1",0,10,66,2,4,NA,28
"LFZ-473-1",0,10,68,1,6,NA,25
"LFZ-486-1",0,5,19,12,57,NA,12
"LFZ-487-1",0,5,18,34,38,NA,11
"LFZ-488-1",0,10,49,2,20,NA,29
"LFZ-489-1",0,10,43,3,25,NA,28
"LFZ-490-1",0,10,58,2,14,NA,26
"LFZ-491-1",0,10,77,3,8,NA,12
"LFZ-494-1",0,10,6,41,47,NA,6
"LFZ-496-1",0,10,41,9,24,NA,26
"LFZ-497-1",0,10,33,7,52,NA,8
"LFZ-499-1",0,10,41,5,18,NA,37
"LFZ-500-1",0,10,49,15,22,NA,15
"LFZ-502-1",0,10,53,4,14,NA,29
"LFZ-503-1",0,10,69,2,8,NA,21
"LFZ-504-1",0,10,32,11,29,NA,27
"LFZ-505-1",0,10,46,3,32,NA,19
"LFZ-506-1",0,10,24,5,60,NA,11
"LFZ-507-1",0,10,13,5,66,NA,17
"MBN-51-1",0,10,62,5,18,NA,15
"MBN-53-1",0,10,29,29,29,NA,14
"MBN-54-1",0,10,72,3,9,NA,15
"MBN-56-1",0,10,11,56,32,NA,1
"MBN-6-1",0,10,59,1,16,NA,23
"MBN-61-1",0,10,77,4,6,NA,13
"MGR-9001-1",0,10,70,3,14,NA,13
"MGR-9002-1",0,3,42,12,35,NA,12
"MGR-9003-1",0,5,31,9,47,NA,13
"MGR-9004-1",0,10,11,20,62,NA,7
"MGR-9005-1",0,3,27,6,43,NA,24
"MGR-9007-1",0,5,11,61,22,NA,7
"MGR-9008-1",0,8,10,49,33,NA,9
"MISCQ-107-1",0,10,66,4,12,NA,18
"MISCQ-112-1",0,10,68,1,8,NA,23
"MISCQ-119-1",0,10,66,2,14,NA,18
"MISCQ-218-1",0,10,79,1,9,65.2,11
"MISCQ-327-1",0,10,13,15,55,21.2,16
"MISCQ-330-1",0,10,10,50,25,19.5,16
"MISCQ-335-1",0,10,28,27,19,29.1,25
"MISCQ-417-1",0,5,4,51,35,13,10
"MISCQ-432-1",0,10,16,22,48,19.6,13
"MISCQ-466-1",0,10,27,12,48,23.7,13
"MISCQ-468-1",0,10,13,13,51,20,23
"MISCQ-471-1",0,10,7,31,52,12.8,11
"MISNQ-147-1",0,10,30,10,40,37,20
"MISSE-101-1",0,10,40,25,26,28.4,9
"MISSE-102-1",0,10,21,19,46,26.5,15
"MISSE-106-1",0,6,33,4,32,38,31
"MISSE-111-1",0,10,10,25,59,16.8,6
"MISSE-150-1",0,10,18,7,56,30.8,19
"MISSE-151-1",0,10,28,8,41,30.6,23
"MISSE-162-1",0,10,36,16,32,24.2,16
"MISSE-163-1",0,5,67,9,9,68.3,15
"MISSE-164-1",0,10,63,2,13,39.6,22
"MON-6003-1",0,10,7,8,62,NA,23
"MON-6091-1",0,10,45,18,23,NA,13
"MON-6092-1",0,10,39,5,20,NA,36
"MON-6093-1",0,10,28,2,43,NA,27
"MON-6094-1",0,10,20,12,55,NA,13
"MON-6095-1",0,10,54,12,20,NA,14
"MWD-10-1",0,10,8,34,52,NA,7
"MWD-4-1",0,10,28,7,51,NA,14
"MWD-5-1",0,10,10,47,36,NA,7
"MWD-7-1",0,10,50,10,31,NA,10
"NCD-1031-1",0,10,56,6,22,NA,16
"NCD-1032-1",0,10,30,30,27,NA,13
"NCD-1035-1",0,10,54,8,22,NA,17
"NCD-1036-1",0,10,49,12,23,NA,16
"NCD-1038-1",0,5,48,1,29,NA,23
"NCD-125-1",0,10,23,11,48,NA,17
"NCD-127-1",0,10,21,22,39,NA,17
"NCD-143-1",0,10,16,19,54,NA,11
"NCD-224-1",0,10,66,1,11,NA,22
"NCD-272-1",0,10,52,8,26,NA,14
"NCD-276-1",0,10,50,15,25,NA,10
"NCD-285-1",0,10,58,5,20,NA,17
"NCD-339-1",0,10,25,27,39,NA,8
"NCD-344-1",0,10,38,31,25,NA,6
"NCD-356-1",0,10,66,4,16,NA,14
"NCD-364-1",0,10,13,47,40,NA,1
"NCD-37-1",0,10,40,5,35,NA,20
"NCD-393-1",0,10,81,3,7,NA,9
"NCD-44-1",0,10,13,14,69,NA,5
"NCD-452-1",0,10,39,10,35,NA,15
"NCD-51-1",0,10,27,2,52,NA,19
"NCD-52-1",0,10,70,1,10,NA,19
"NCD-58-1",0,10,60,1,14,NA,25
"NCD-71-1",0,10,53,4,29,NA,14
"NCD-72-1",0,10,47,8,30,NA,14
"NCD-83-1",0,10,11,6,71,NA,12
"NCD-885-1",0,10,34,35,22,NA,10
"NCD-89-1",0,10,48,6,32,NA,14
"P2REEF-15-1",0,10,18,3,38,26.4,41
"P2REEF-5-1",0,3,11,41,41,6.9,7
"P2REEF-9-1",0,10,27,14,36,11,23
"P2REEF-96-1",0,10,7,5,79,4.2,10
"P2REEF-99-1",0,10,16,9,54,10.4,21
"PZS-1-1",0,10,32,20,27,NA,20
"PZS-15-1",0,10,49,11,21,NA,20
"PZS-21-1",0,10,27,30,20,NA,22
"PZS-3-1",0,10,31,7,30,NA,31
"PZS-32-1",0,10,13,18,55,NA,15
"PZS-34-1",0,10,34,28,19,NA,19
"PZS-8-1",0,10,28,21,21,NA,30
"ROSL-23-1",0,10,78,2,11,58,9
"ROSL-28-1",0,10,74,2,10,66,14
"ROSL-29-1",0,10,80,2,9,64,10
"ROSL-30-1",0,10,76,3,11,58,10
"ROSL-31-1",0,10,73,4,12,53,11
"ROSL-32-1",0,10,79,2,9,56,10
"SALTC-340-1",0,10,12,53,30,NA,5
"SALTC-343-1",0,5,6,51,37,NA,6
"SALTC-344-1",0,10,24,34,35,NA,8
"SALTC-346-1",0,10,16,33,40,NA,10
"SALTE-745-1",0,10,62,6,16,NA,16
"SBT-9000-1",0,10,57,11,10,43,21
"SBT-9001-1",0,10,42,6,28,32,24
"SBT-9002-1",0,10,22,36,25,24,17
"SBT-9003-1",0,10,8,48,33,30,10
"SBT-9004-1",0,10,37,10,30,34,22
"SBT-9005-1",0,10,39,31,15,26,16
"SBT-9006-1",0,10,10,30,30,43,31
"SBT-9007-1",0,10,58,11,11,46,20
"SBT-9008-1",0,10,56,11,9,NA,24
"SBT-9009-1",0,10,18,19,46,14,17
"SBT-9010-1",0,10,57,12,17,28,14
"SBT-9011-1",0,10,44,3,13,52,40
"SBT-9012-1",0,10,47,17,22,30,14
"SBT-9013-1",0,10,47,17,22,30,14
"SBT-9014-1",0,10,27,37,20,20,16
"SBT-9015-1",0,10,28,20,31,22,21
"SBT-9016-1",0,10,35,24,24,33,18
"SBT-9017-1",0,10,23,45,18,21,13
"SBT-9018-1",0,10,46,14,17,40,24
"SBT-9019-1",0,10,43,25,17,30,16
"SBT-9020-1",0,10,48,6,20,46,26
"SBT-9021-1",0,10,35,28,22,23,15
"SBT-9022-1",0,10,43,20,26,37,12
"SBT-9023-1",0,10,8,47,33,9,11
"SBT-9024-1",0,10,61,10,16,27,13
"SBT-9025-1",0,10,44,18,16,30,22
"SBT-9026-1",0,10,37,30,22,32,11
"SBT-9027-1",0,10,57,5,18,32,21
"SBT-9028-1",0,10,42,25,14,28,18
"SBT-9029-1",0,10,58,5,16,36,21
"SBT-9031-1",0,10,36,24,21,30,18
"SBT-9032-1",0,10,23,31,27,24,19
"SBT-9034-1",0,10,26,29,29,26,16
"SBT-9035-1",0,10,22,34,24,28,19
"SBT-9036-1",0,10,52,15,14,NA,20
"SBT-9037-1",0,10,38,19,21,NA,21
"SBT-9039-1",0,10,27,25,17,NA,30
"SFS-103-1",0,10,73,1,5,NA,21
"SFS-126-1",0,10,40,23,23,NA,13
"SFS-152-1",0,10,37,22,26,NA,15
"SFS-176-1",0,10,48,18,21,NA,12
"SFS-200-1",0,10,52,14,22,NA,11
"SFS-229-1",0,10,30,28,32,NA,9
"SFS-253-1",0,10,30,1,39,NA,30
"SFS-26-1",0,10,32,23,27,NA,18
"SFS-29-1",0,10,51,4,25,NA,20
"SFS-30-1",0,10,55,3,19,NA,24
"SFS-302-1",0,10,67,3,13,NA,17
"SFS-31-1",0,10,59,4,12,NA,25
"SFS-325-1",0,10,66,3,17,NA,14
"SFS-400-1",0,10,68,1,13,NA,18
"SFS-405-1",0,10,80,1,7,NA,13
"SFS-457-1",0,10,61,3,11,NA,25
"SFS-515-1",0,10,40,19,29,NA,12
"SFS-55-1",0,10,72,1,8,NA,19
"SFS-600-1",0,10,46,19,27,NA,8
"SFS-601-1",0,10,41,17,31,NA,11
"SFS-604-1",0,10,48,20,22,NA,10
"SFS-76-1",0,10,55,8,18,NA,20
"SFS-8-1",0,10,68,6,12,NA,14
"SFS-9-1",0,10,68,5,14,NA,13
"SPY-95-1",0,10,21,33,40,NA,6
"UBRISS-195-1",0,25,14,9,61,NA,17
"UBRISS-196-1",0,15,14,4,62,NA,20
"UBRISS-197-1",0,15,11,2,77,NA,10
"UBRISS-198-1",0,10,66,1,14,NA,19
"UBRISS-199-1",0,15,8,9,75,NA,8
"UBRISS-200-1",0,10,38,21,18,NA,22
"UBRISS-202-1",0,15,38,26,22,NA,14
"UBRISS-205-1",0,15,28,34,25,NA,12
"UBRISS-206-1",0,15,39,25,24,NA,13
"WAN-12-1",0,10,51,7,32,38,10
"WAN-20-1",0,10,35,19,36,29,10
"WAN-23-1",0,10,31,8,44,24,17
"WAN-3-1",0,10,48,16,26,35,11
"WAN-6-1",0,10,56,6,25,37,13
"WAN-8-1",0,10,46,5,31,30,18
"WDH-825-1",0,20,54,15,20,NA,11
"WDH-9001-1",0,10,11,29,56,NA,4
"WDH-9007-1",0,10,25,20,43,NA,13
"WDH-9012-1",0,10,15,11,59,NA,14
"WDH-9019-1",0,10,17,20,57,NA,6
"WDH-9020-1",0,10,10,22,65,NA,4
"WDH-9026-1",0,5,46,15,26,NA,12
"WDH-9027-1",0,3,55,11,20,NA,14
"WDH-9028-1",0,4,59,8,16,NA,17
"WDH-9029-1",0,3,62,7,14,NA,17
"WDH-9030-1",0,4,55,7,24,NA,14
"WDH-9031-1",0,6,63,7,15,NA,15
"WDH-9032-1",0,6,65,8,15,NA,12
"WDH-9033-1",0,6,48,15,25,NA,13
"WDH-9050-1",0,4,50,7,29,NA,15
"WDH-9051-1",0,3,50,3,27,NA,21
"WDH-9054-1",0,5,50,10,25,NA,15
"WDH-9055-1",0,5,38,17,32,NA,13
"WDH-9056-1",0,3,44,16,26,NA,13
"WDH-9064-1",0,7,75,1,9,NA,15
"WDH-9080-1",0,5,68,9,8,NA,15
"WDH-9081-1",0,2,65,5,7,NA,22
"WDH-9089-1",0,2,65,3,14,NA,17
"WDH-9090-1",0,5,67,3,20,NA,10
"WDH-9091-1",0,10,42,12,34,NA,11
"WDH-9092-1",0,5,35,8,46,NA,10
"WDH-9094-1",0,4,53,7,26,NA,14
"WDH-9104-1",0,5,55,2,16,NA,27
"WDH-9106-1",0,10,18,26,40,NA,15
"WDH-9107-1",0,10,39,1,28,NA,31
"WDH-9115-1",0,8,33,4,29,NA,34
"ZDK-6014-1",0,38,7,35,37,NA,21
"ZDK-6016-1",0,25,6,30,52,NA,12
"ZDK-6018-1",0,25,7,37,38,NA,18
"ABS-238-1",0,10,NA,NA,NA,14,NA
"ABS-321-1",0,10,NA,NA,NA,26.5,NA
"ATE-20-1",0,10,NA,NA,NA,40,NA
"EIL-66-1",0,10,NA,NA,NA,57,NA
"EIL-69-1",0,10,NA,NA,NA,61,NA
"MISCQ-369-1",0,10,NA,NA,NA,39,NA
"MISCQ-373-1",0,10,NA,NA,NA,33.2,NA
"MISCQ-394-1",0,10,NA,NA,NA,6.4,NA
"MISCQ-396-1",0,5,NA,NA,NA,27.9,NA
"MISCQ-423-1",0,10,NA,NA,NA,23.2,NA
"MISCQ-470-1",0,10,NA,NA,NA,58,NA
"MISCQ-504-1",0,5,NA,NA,NA,42.8,NA
"MISCQ-504-1",0,10,NA,NA,NA,38.1,NA
"MISCQ-552-1",0,10,NA,NA,NA,19.2,NA
"MISCQ-554-1",0,10,NA,NA,NA,22.9,NA
"MISCQ-593-1",0,10,NA,NA,NA,25,NA
"MISCQ-595-1",0,10,NA,NA,NA,28.5,NA
"MISCQ-600-1",0,10,NA,NA,NA,12.7,NA
"MISCQ-625-1",0,10,NA,NA,NA,49.2,NA
"MISCQ-678-1",0,6,NA,NA,NA,19.9,NA
"MISCQ-680-1",0,6,NA,NA,NA,12.9,NA
"PAS-104-1",0,10,NA,NA,NA,15,NA
