"","NAME","Clay_spc","Silt_spc","FS_spc","CS_spc","Clay_site","Silt_site","FS_site","CS_site","Clay_text","Silt_text","FS_text","CS_text","data_src"
"1","1ACH1",18,10,39,33,18,10,39,33,18,10,39,33,"spc"
"2","1ACH2",4,4,31,61,4,4,31,61,4,4,31,61,"spc"
"3","1ADb",12,8,41,39,12,8,41,39,12,8,41,39,"spc"
"4","1ADb-1",16,11,44,30,NA,NA,NA,NA,16,11,44,30,"spc"
"5","1ADb-2",19,14,47,20,22,17,44,17,19,14,47,20,"spc"
"6","1ADb-7",29,18,34,19,29,18,34,19,29,18,34,19,"spc"
"7","1ADb-9",12,8,41,39,NA,NA,NA,NA,12,8,41,39,"spc"
"8","1ADb-Dd",18,10,39,33,22,17,44,17,18,10,39,33,"spc"
"9","1ADd-3",29,18,34,19,22,17,44,17,29,18,34,19,"spc"
"10","1ADd-4",28,20,40,14,25,29,38,8,28,20,40,14,"spc"
"11","1ADd-5",19,14,47,20,NA,NA,NA,NA,19,14,47,20,"spc"
"12","1ADE1",22,17,44,17,28,16,37,17,22,17,44,17,"spc"
"13","1ADE2",28,8,32,32,28,13,32,20,28,8,32,32,"spc"
"14","1ASO1",4,4,31,61,4,4,31,61,4,4,31,61,"spc"
"15","1AUf-7",35,8,30,27,NA,NA,NA,NA,35,8,30,27,"spc"
"16","1AUg-1",57,15,21,7,NA,NA,NA,NA,57,15,21,7,"spc"
"17","1AUg-12",56,15,21,8,51,16,24,10,56,15,21,8,"spc"
"18","1AUg-13",51,16,24,10,54,16,22,9,51,16,24,10,"spc"
"19","1AUg-18",56,15,21,8,NA,NA,NA,NA,56,15,21,8,"spc"
"20","1AUg-2",56,15,21,8,57,15,21,7,56,15,21,8,"spc"
"21","1AUg-3",56,15,21,8,57,15,21,7,56,15,21,8,"spc"
"22","1AUg-5",57,15,21,7,NA,NA,NA,NA,57,15,21,7,"spc"
"23","1AUg-6",51,16,24,10,NA,NA,NA,NA,51,16,24,10,"spc"
"24","1AVE1",51,16,24,10,51,16,24,10,51,16,24,10,"spc"
"25","1AVE5",45,16,27,12,50,16,24,10,45,16,27,12,"spc"
"26","1CHa",22,11,37,30,29,18,34,19,22,11,37,30,"spc"
"27","1CHb",12,8,41,39,13,10,41,31,12,8,41,39,"spc"
"28","1Dbb",12,8,41,39,18,10,39,33,12,8,41,39,"spc"
"29","1Dda",29,18,34,19,24,18,38,19,29,18,34,19,"spc"
"30","1DEa",29,18,34,19,29,18,34,19,29,18,34,19,"spc"
"31","1Dya",18,10,39,33,29,18,34,19,18,10,39,33,"spc"
"32","1Dyc",29,18,34,19,29,18,34,19,29,18,34,19,"spc"
"33","1Dyd",18,10,39,33,29,18,34,19,18,10,39,33,"spc"
"34","1KTa",12,8,41,39,8,6,37,49,12,8,41,39,"spc"
"35","1SOa",29,18,34,19,29,18,34,19,29,18,34,19,"spc"
"36","1Uga",51,16,24,10,51,16,24,10,51,16,24,10,"spc"
"37","1Ugc",42,16,27,15,42,16,27,15,42,16,27,15,"spc"
"38","1Ugd",45,16,27,12,45,16,27,12,45,16,27,12,"spc"
"39","2AUf-Ug-2",56,15,21,8,NA,NA,NA,NA,56,15,21,8,"spc"
"40","2AUf-Ug-3",4,4,31,61,51,16,24,10,4,4,31,61,"spc"
"41","2AUg-1",56,15,21,8,NA,NA,NA,NA,56,15,21,8,"spc"
"42","2AUg-10m",57,15,21,7,NA,NA,NA,NA,57,15,21,7,"spc"
"43","2AUg-11",50,27,20,3,NA,NA,NA,NA,50,27,20,3,"spc"
"44","2AUg-2m",4,4,31,61,NA,NA,NA,NA,4,4,31,61,"spc"
"45","2AUg-6",57,15,21,7,NA,NA,NA,NA,57,15,21,7,"spc"
"46","2AUg-9m",56,15,21,8,56,15,21,8,56,15,21,8,"spc"
"47","2AUgg-2m",56,15,21,8,56,15,21,8,56,15,21,8,"spc"
"48","2AUgg-3m",51,16,24,10,NA,NA,NA,NA,51,16,24,10,"spc"
"49","2Dba",20,18,38,23,22,17,39,19,20,18,38,23,"spc"
"50","2Dbb",20,18,38,23,22,17,41,19,20,18,38,23,"spc"
"51","2Dbc",20,18,38,23,22,17,41,19,20,18,38,23,"spc"
"52","2Dbd",20,18,38,23,22,17,44,19,20,18,38,23,"spc"
"53","2Dbe",20,18,38,23,24,18,38,19,20,18,38,23,"spc"
"54","2Dda",20,18,38,23,22,18,38,19,20,18,38,23,"spc"
"55","2Ddb",20,18,38,23,22,18,37,19,20,18,38,23,"spc"
"56","2Ddc",29,18,34,19,25,18,38,17,29,18,34,19,"spc"
"57","2Ddd",18,10,39,33,22,14,44,20,18,10,39,33,"spc"
"58","2Dya",20,18,38,23,29,18,34,19,20,18,38,23,"spc"
"59","2Dyb",19,14,38,28,22,17,41,19,19,14,38,28,"spc"
"60","2Dyc",18,10,39,33,22,17,39,19,18,10,39,33,"spc"
"61","2Uga",45,16,27,12,51,16,24,10,45,16,27,12,"spc"
"62","2Ugd",42,16,27,15,42,16,27,15,42,16,27,15,"spc"
"63","2Ugj",42,16,27,15,45,16,27,12,42,16,27,15,"spc"
"64","2VEa",42,16,27,15,42,16,27,12,42,16,27,15,"spc"
"65","2VEb",51,16,24,10,51,16,24,10,51,16,24,10,"spc"
"66","2VEx",45,16,27,12,51,16,24,10,45,16,27,12,"spc"
"67","2VEy",45,16,27,12,51,16,24,10,45,16,27,12,"spc"
"68","3ADr-2",18,10,39,33,NA,NA,NA,NA,18,10,39,33,"spc"
"69","3AGn-1",29,18,34,19,NA,NA,NA,NA,29,18,34,19,"spc"
"70","3AGn-Dr",24,14,36,26,NA,NA,NA,NA,24,14,36,26,"spc"
"71","3AUc-1",18,10,39,33,NA,NA,NA,NA,18,10,39,33,"spc"
"72","3AUf-Ug-1m",22,11,37,30,22,11,37,30,22,11,37,30,"spc"
"73","3AUf-Ug-2m",18,10,39,33,51,16,24,10,18,10,39,33,"spc"
"74","3AUf-Ug-3d",57,15,21,7,57,15,21,7,57,15,21,7,"spc"
"75","3auf-Ug-4m",18,10,39,33,NA,NA,NA,NA,18,10,39,33,"spc"
"76","3AUf-Ug-6m",18,10,39,33,56,15,21,8,18,10,39,33,"spc"
"77","3AUf-Ug-7m",45,16,27,12,NA,NA,NA,NA,45,16,27,12,"spc"
"78","3AUf-Ug-8d",56,15,21,8,NA,NA,NA,NA,56,15,21,8,"spc"
"79","3AUf-Ug-8m",4,4,31,61,NA,NA,NA,NA,4,4,31,61,"spc"
"80","3AUg-1",56,15,21,8,NA,NA,NA,NA,56,15,21,8,"spc"
"81","3AUg-2",56,15,21,8,57,15,21,7,56,15,21,8,"spc"
"82","3CHx",18,10,39,33,18,10,39,33,18,10,39,33,"spc"
"83","3VEa",45,16,27,12,51,16,24,10,45,16,27,12,"spc"
"84","3VEb",45,16,27,12,51,16,24,10,45,16,27,12,"spc"
"85","3VEc",45,16,27,12,45,16,27,12,45,16,27,12,"spc"
"86","3VEw",51,16,24,10,51,16,24,10,51,16,24,10,"spc"
"87","3VEy",45,16,27,12,45,16,27,12,45,16,27,12,"spc"
"88","3VEz",51,16,24,10,45,16,27,12,51,16,24,10,"spc"
"89","4AUf",29,18,34,19,45,16,27,12,29,18,34,19,"spc"
"90","4Dga",8,6,37,49,8,6,37,49,8,6,37,49,"spc"
"91","4Dyb",5,4,20,71,12,6,31,53,5,4,20,71,"spc"
"92","4Dyd",5,4,20,71,18,10,38,33,5,4,20,71,"spc"
"93","4Dyg",9,6,35,50,22,17,37,19,9,6,35,50,"spc"
"94","4Dyj",12,8,41,39,14,8,41,39,12,8,41,39,"spc"
"95","4Dyk",5,4,20,71,12,8,41,39,5,4,20,71,"spc"
"96","4Gnb",8,6,37,49,12,8,41,39,8,6,37,49,"spc"
"97","4Ucc",5,4,20,71,8,6,37,49,5,4,20,71,"spc"
"98","5Dra",18,10,39,33,29,18,34,19,18,10,39,33,"spc"
"99","5Dya",18,10,39,33,22,11,37,30,18,10,39,33,"spc"
"100","5Dyb",29,18,34,19,29,18,34,19,29,18,34,19,"spc"
"101","5Dyc",18,10,39,33,29,18,34,19,18,10,39,33,"spc"
"102","5Dye",18,10,39,33,18,10,39,33,18,10,39,33,"spc"
"103","5Dyf Shelf",18,10,39,33,29,16,34,19,18,10,39,33,"spc"
"104","6ADb-1",19,14,47,20,24,14,36,26,19,14,47,20,"spc"
"105","6ADr",19,14,47,20,22,17,44,17,19,14,47,20,"spc"
"106","6ADy-2",18,10,39,33,NA,NA,NA,NA,18,10,39,33,"spc"
"107","6ADy-3",18,10,39,33,12,8,41,39,18,10,39,33,"spc"
"108","6AUf-3",51,16,24,10,NA,NA,NA,NA,51,16,24,10,"spc"
"109","6AUg-10",51,16,24,10,54,16,22,9,51,16,24,10,"spc"
"110","6AUg-12",56,15,21,8,51,16,24,10,56,15,21,8,"spc"
"111","6AUg-3",56,15,21,8,56,15,21,8,56,15,21,8,"spc"
"112","6AUg-4",56,15,21,8,57,15,21,7,56,15,21,8,"spc"
"113","6AUg-5",56,15,21,8,51,16,24,10,56,15,21,8,"spc"
"114","6AUg-6",56,15,21,8,45,16,27,12,56,15,21,8,"spc"
"115","6AUg-7",56,15,21,8,NA,NA,NA,NA,56,15,21,8,"spc"
"116","6AUg-8",56,15,21,8,54,16,22,9,56,15,21,8,"spc"
"117","6AUg-9",56,15,21,8,56,15,21,8,56,15,21,8,"spc"
"118","6Dba",12,8,41,39,14,10,41,33,12,8,41,39,"spc"
"119","6Dbb",20,18,38,23,25,18,38,19,20,18,38,23,"spc"
"120","6Dbc",14,13,54,19,19,14,41,20,14,13,54,19,"spc"
"121","6Dbd",8,6,52,34,22,17,39,19,8,6,52,34,"spc"
"122","6Dbe",20,18,38,23,22,17,39,19,20,18,38,23,"spc"
"123","6Dbf",12,8,41,39,18,13,41,20,12,8,41,39,"spc"
"124","6Dbg",14,13,54,19,14,13,54,19,14,13,54,19,"spc"
"125","6Dbh",20,18,38,23,22,17,44,19,20,18,38,23,"spc"
"126","6Dbi",20,18,38,23,22,17,44,17,20,18,38,23,"spc"
"127","6Dda",29,18,34,19,29,18,34,19,29,18,34,19,"spc"
"128","6Dra",12,8,41,39,14,10,41,33,12,8,41,39,"spc"
"129","6Drb",20,18,38,23,22,17,44,19,20,18,38,23,"spc"
"130","6Drc",20,18,38,23,22,17,44,18,20,18,38,23,"spc"
"131","6Dya",8,6,37,49,12,8,41,39,8,6,37,49,"spc"
"132","6Dyb",8,6,37,49,12,8,41,39,8,6,37,49,"spc"
"133","6Dyc",20,18,38,23,20,11,39,30,20,18,38,23,"spc"
"134","6Dyd",20,18,38,23,19,14,39,20,20,18,38,23,"spc"
"135","6Dye",8,6,37,49,12,8,41,39,8,6,37,49,"spc"
"136","6Dyf",20,18,38,23,20,14,39,20,20,18,38,23,"spc"
"137","6Dyg",20,18,38,23,22,17,39,19,20,18,38,23,"spc"
"138","6Dyh",4,4,31,61,12,8,41,39,4,4,31,61,"spc"
"139","6Dyj",12,8,41,39,22,18,38,19,12,8,41,39,"spc"
"140","6Gna",19,14,47,20,29,18,34,19,19,14,47,20,"spc"
"141","6Gnb",8,6,37,49,12,8,41,39,8,6,37,49,"spc"
"142","6Gnc",12,8,41,39,20,16,44,19,12,8,41,39,"spc"
"143","6Gnd",12,8,41,39,14,13,41,23,12,8,41,39,"spc"
"144","6Gne",29,18,34,19,29,18,34,19,29,18,34,19,"spc"
"145","6Uca",5,4,20,71,8,6,39,44,5,4,20,71,"spc"
"146","6Ucc",12,8,41,39,12,8,39,39,12,8,41,39,"spc"
"147","6Ufa",28,14,43,15,42,16,27,15,28,14,43,15,"spc"
"148","6Ufc",36,25,32,7,42,16,27,15,36,25,32,7,"spc"
"149","6Ufd",42,16,27,15,42,16,27,15,42,16,27,15,"spc"
"150","6Uga",42,16,27,15,45,16,27,12,42,16,27,15,"spc"
"151","6Uma",12,8,41,39,14,12,41,26,12,8,41,39,"spc"
"152","6Umb",20,18,38,23,22,16,41,19,20,18,38,23,"spc"
"153","Abbot",51,16,24,10,51,16,24,10,51,16,24,10,"spc"
"154","Abergowrie",18,10,39,33,29,18,34,19,18,10,39,33,"spc"
"155","Adeline",22,17,44,17,18,13,42,20,22,17,44,17,"spc"
"156","Albert",21,14,57,8,42,16,27,12,21,14,57,8,"spc"
"157","Aldershot",14,13,54,19,22,14,44,19,14,13,54,19,"spc"
"158","Allandale",18,10,39,33,NA,NA,NA,NA,18,10,39,33,"spc"
"159","Allandale, Strongly Sodic Variant",12,8,41,39,12,8,41,39,12,8,41,39,"spc"
"160","Alloway",8,6,37,49,12,8,41,39,8,6,37,49,"spc"
"161","Alma",20,18,38,23,18,10,39,33,20,18,38,23,"spc"
"162","Althaus",8,6,37,49,12,8,41,39,8,6,37,49,"spc"
"163","Andergrove",8,6,37,49,8,6,37,49,8,6,37,49,"spc"
"164","Annandale",12,8,41,39,10,7,39,44,12,8,41,39,"spc"
"165","Appaloosa",46,16,26,12,51,16,24,10,46,16,26,12,"spc"
"166","Apron",18,10,39,33,22,11,37,30,18,10,39,33,"spc"
"167","Archookoora",42,16,27,15,42,16,27,15,42,16,27,15,"spc"
"168","Archookoora Rocky Phase",42,16,27,15,NA,NA,NA,NA,42,16,27,15,"spc"
"169","Archookoora Saline Phase",42,16,27,15,NA,NA,NA,NA,42,16,27,15,"spc"
"170","Arcturus",51,16,24,10,56,15,21,8,51,16,24,10,"spc"
"171","Arnot",10,7,39,44,12,8,39,39,10,7,39,44,"spc"
"172","Aroa",51,16,24,10,51,16,24,10,51,16,24,10,"spc"
"173","Arriga",36,25,32,7,36,16,32,15,36,25,32,7,"spc"
"174","Arriga Sandy",18,10,39,33,NA,NA,NA,NA,18,10,39,33,"spc"
"175","Artillery",4,4,31,61,4,4,31,61,4,4,31,61,"spc"
"176","Ashgrove",42,16,27,15,45,16,27,12,42,16,27,15,"spc"
"177","Ashton",12,8,41,39,12,8,41,39,12,8,41,39,"spc"
"178","Auburn",29,18,34,19,22,17,39,19,29,18,34,19,"spc"
"179","Auburn Red Variant",22,11,37,30,20,17,44,19,22,11,37,30,"spc"
"180","Aunt",7,6,26,61,NA,NA,NA,NA,7,6,26,61,"spc"
"181","Avon",20,13,38,29,20,13,38,29,20,13,38,29,"spc"
"182","Avondale",19,14,47,20,19,14,47,19,19,14,47,20,"spc"
"183","Avondale Tenic Variant",14,13,54,19,14,13,54,19,14,13,54,19,"spc"
"184","Avondale Yellow Variant",19,14,47,20,NA,NA,NA,NA,19,14,47,20,"spc"
"185","Babinda",42,40,17,1,25,29,38,8,42,40,17,1,"spc"
"186","Baddow",4,4,31,61,8,6,37,49,4,4,31,61,"spc"
"187","Balberra",19,14,47,20,13,9,39,34,19,14,47,20,"spc"
"188","Bally",29,18,34,19,28,16,34,15,29,18,34,19,"spc"
"189","Banana",51,16,24,10,51,16,24,10,51,16,24,10,"spc"
"190","Banban",45,16,27,12,45,16,27,12,45,16,27,12,"spc"
"191","Banyan",20,18,38,23,20,12,38,33,20,18,38,23,"spc"
"192","Barron",42,16,27,15,42,16,27,15,42,16,27,15,"spc"
"193","Barubbra",4,4,31,61,8,6,37,49,4,4,31,61,"spc"
"194","Basalt Rock",29,18,34,19,29,18,34,19,29,18,34,19,"spc"
"195","Basel",42,16,27,15,42,16,27,15,42,16,27,15,"spc"
"196","Battery",51,16,24,10,45,16,27,12,51,16,24,10,"spc"
"197","Bauhinia",51,16,24,10,51,16,24,10,51,16,24,10,"spc"
"198","Bauple",4,4,31,61,10,7,39,44,4,4,31,61,"spc"
"199","Beauaraba",56,15,21,8,45,16,27,12,56,15,21,8,"spc"
"200","Beelbi",8,6,37,49,8,6,37,49,8,6,37,49,"spc"
"201","Beenham",19,14,47,20,21,18,41,20,19,14,47,20,"spc"
"202","Beeron",26,14,36,24,29,18,34,19,26,14,36,24,"spc"
"203","Beeron Rocky Phase",22,11,37,30,29,18,34,19,22,11,37,30,"spc"
"204","Bell",51,16,24,10,54,15,22,8,51,16,24,10,"spc"
"205","Belmunda",18,10,39,33,22,11,39,30,18,10,39,33,"spc"
"206","Benholme",45,16,27,12,42,16,27,12,45,16,27,12,"spc"
"207","Berris",42,16,27,15,42,16,27,15,42,16,27,15,"spc"
"208","Bicton",21,14,48,19,28,17,38,17,21,14,48,19,"spc"
"209","Bidwill",42,16,27,15,42,16,27,15,42,16,27,15,"spc"
"210","Bingera",42,16,27,15,42,16,27,15,42,16,27,15,"spc"
"211","Bingil",29,18,34,19,42,16,27,15,29,18,34,19,"spc"
"212","Black",12,8,41,39,12,8,41,39,12,8,41,39,"spc"
"213","Bluewater",24,14,36,26,18,10,39,33,24,14,36,26,"spc"
"214","Bluff",4,4,31,61,12,6,37,49,4,4,31,61,"spc"
"215","Bogandilla",29,18,34,19,29,18,34,19,29,18,34,19,"spc"
"216","Bonavista",30,28,37,5,22,29,40,8,30,28,37,5,"spc"
"217","Bonwell",33,12,39,16,42,16,27,15,33,12,39,16,"spc"
"218","Booie",18,10,39,33,18,10,39,33,18,10,39,33,"spc"
"219","Booloongie",12,8,41,39,18,10,39,33,12,8,41,39,"spc"
"220","Boonenne",12,8,41,39,18,10,39,33,12,8,41,39,"spc"
"221","Booyal",20,18,38,23,22,16,38,19,20,18,38,23,"spc"
"222","Boston",12,8,41,39,18,10,39,33,12,8,41,39,"spc"
"223","Botherm",29,18,34,19,29,18,34,19,29,18,34,19,"spc"
"224","Boyne",20,12,42,25,19,14,39,20,20,12,42,25,"spc"
"225","Boynewood",42,16,27,15,42,16,27,15,42,16,27,15,"spc"
"226","Boynewood Rocky Phase",29,18,34,19,29,18,34,19,29,18,34,19,"spc"
"227","Brae",20,18,38,23,20,18,38,23,20,18,38,23,"spc"
"228","Breen",18,10,39,33,18,10,39,33,18,10,39,33,"spc"
"229","Brightley",42,16,27,15,51,16,24,10,42,16,27,15,"spc"
"230","Broadmedow",8,6,37,49,9,6,37,49,8,6,37,49,"spc"
"231","Brooweena",14,13,54,19,22,17,38,19,14,13,54,19,"spc"
"232","Brooyar",29,18,34,19,28,16,43,15,29,18,34,19,"spc"
"233","Brosnan",10,7,39,44,8,6,37,49,10,7,39,44,"spc"
"234","Bruce",51,16,24,10,51,16,24,10,51,16,24,10,"spc"
"235","Bucca",44,16,27,14,42,16,27,15,44,16,27,14,"spc"
"236","Buchan",14,13,41,19,24,18,38,18,14,13,41,19,"spc"
"237","Buckley",4,4,31,61,8,6,37,49,4,4,31,61,"spc"
"238","Buffel",42,16,27,15,25,16,38,17,42,16,27,15,"spc"
"239","BUg-11",51,16,24,10,NA,NA,NA,NA,51,16,24,10,"spc"
"240","BUg-17",51,16,24,10,NA,NA,NA,NA,51,16,24,10,"spc"
"241","BUg-2",57,15,21,7,57,15,21,7,57,15,21,7,"spc"
"242","BUg-20",57,15,21,7,NA,NA,NA,NA,57,15,21,7,"spc"
"243","BUg-3",57,15,21,7,57,15,21,7,57,15,21,7,"spc"
"244","BUg-4",57,15,21,7,57,15,21,7,57,15,21,7,"spc"
"245","BUg-7",51,16,24,10,NA,NA,NA,NA,51,16,24,10,"spc"
"246","BUg-9",56,15,21,8,NA,NA,NA,NA,56,15,21,8,"spc"
"247","BUgg-2",57,15,21,7,NA,NA,NA,NA,57,15,21,7,"spc"
"248","Bulgun",20,18,38,23,29,18,34,19,20,18,38,23,"spc"
"249","Bulguru",31,29,28,12,25,18,38,19,31,29,28,12,"spc"
"250","Bullaroo",18,10,39,33,NA,NA,NA,NA,18,10,39,33,"spc"
"251","Bungadoo",29,18,34,19,29,18,34,19,29,18,34,19,"spc"
"252","Burdekin",8,2,34,55,10,7,44,36,8,2,34,55,"spc"
"253","Burnett",18,10,39,33,14,10,41,33,18,10,39,33,"spc"
"254","Burradoo",33,12,39,16,33,14,39,15,33,12,39,16,"spc"
"255","Burrum",4,4,31,61,4,4,31,61,4,4,31,61,"spc"
"256","Bushnell",19,14,47,20,22,11,39,30,19,14,47,20,"spc"
"257","Butcher",11,10,53,26,22,16,44,19,11,10,53,26,"spc"
"258","Byabra",8,6,37,49,12,8,41,39,8,6,37,49,"spc"
"259","Byee",51,16,24,10,51,16,24,10,51,16,24,10,"spc"
"260","Cabbage Tree",29,18,34,19,29,18,34,18,29,18,34,19,"spc"
"261","Cadarga",45,16,27,12,45,16,27,12,45,16,27,12,"spc"
"262","Calavos",12,8,41,39,12,8,41,39,12,8,41,39,"spc"
"263","Calen",19,14,47,20,22,14,39,19,19,14,47,20,"spc"
"264","Caley",5,4,20,71,8,6,37,49,5,4,20,71,"spc"
"265","Callide",18,10,39,33,22,17,43,17,18,10,39,33,"spc"
"266","Cameron",19,14,47,20,18,10,39,33,19,14,47,20,"spc"
"267","Campbell Plains",20,29,41,9,20,17,41,17,20,29,41,9,"spc"
"268","Canoe",18,10,39,33,22,16,38,19,18,10,39,33,"spc"
"269","Cape",20,29,41,9,18,13,41,20,20,29,41,9,"spc"
"270","Carbeen",18,10,39,33,NA,NA,NA,NA,18,10,39,33,"spc"
"271","Carew",51,16,24,10,51,16,24,10,51,16,24,10,"spc"
"272","Carfax",45,16,27,12,51,16,24,10,45,16,27,12,"spc"
"273","Carinya",8,6,37,49,8,6,37,49,8,6,37,49,"spc"
"274","Carmila",18,10,39,33,18,10,39,33,18,10,39,33,"spc"
"275","Carrington",42,16,27,15,42,16,27,14,42,16,27,15,"spc"
"276","Cassidy",8,6,37,49,8,6,37,49,8,6,37,49,"spc"
"277","Castleview",4,4,31,61,8,6,37,49,4,4,31,61,"spc"
"278","Catherina",42,16,27,15,42,16,27,15,42,16,27,15,"spc"
"279","Cattle",51,16,24,10,56,15,21,8,51,16,24,10,"spc"
"280","Cheeseboro",45,16,27,12,51,16,24,10,45,16,27,12,"spc"
"281","Chelmsford",29,18,34,19,45,16,27,12,29,18,34,19,"spc"
"282","Cherbourg",12,8,41,39,18,10,39,33,12,8,41,39,"spc"
"283","Cherry Tree",29,18,34,19,22,17,44,17,29,18,34,19,"spc"
"284","Chessborough",22,11,37,30,26,14,34,24,22,11,37,30,"spc"
"285","Childers",42,16,27,15,42,16,27,15,42,16,27,15,"spc"
"286","Chin",29,18,34,19,42,16,27,15,29,18,34,19,"spc"
"287","Chinchilla",12,8,41,39,12,8,41,39,12,8,41,39,"spc"
"288","Clayton",14,13,54,19,19,14,47,19,14,13,54,19,"spc"
"289","Clemant",12,8,41,39,10,7,37,44,12,8,41,39,"spc"
"290","Clematis",22,17,44,17,38,16,32,11,22,17,44,17,"spc"
"291","Clifton",19,14,47,20,22,17,39,17,19,14,47,20,"spc"
"292","Cliftonville",18,10,39,33,29,16,34,17,18,10,39,33,"spc"
"293","Cobra",12,8,41,39,12,8,41,39,12,8,41,39,"spc"
"294","Cobra Gravelly Phase",12,8,41,39,NA,NA,NA,NA,12,8,41,39,"spc"
"295","Cole",25,29,38,8,28,16,43,15,25,29,38,8,"spc"
"296","Colvin",8,6,37,49,8,6,37,49,8,6,37,49,"spc"
"297","Commissioner",18,10,39,33,18,10,39,33,18,10,39,33,"spc"
"298","Condor",18,10,39,33,18,10,39,33,18,10,39,33,"spc"
"299","Consuelo",29,18,34,19,51,16,24,10,29,18,34,19,"spc"
"300","Conway",11,10,53,26,28,16,43,16,11,10,53,26,"spc"
"301","Coolabunia",29,18,34,19,42,16,27,15,29,18,34,19,"spc"
"302","Coom",22,17,38,17,42,16,27,15,22,17,38,17,"spc"
"303","Coonoon",29,18,34,19,28,16,34,15,29,18,34,19,"spc"
"304","Cooyar",12,8,41,39,12,8,41,39,12,8,41,39,"spc"
"305","Copenhagen",20,18,38,23,22,13,39,19,20,18,38,23,"spc"
"306","Corfield",29,18,34,19,29,18,34,19,29,18,34,19,"spc"
"307","Cottonham",51,16,24,10,45,16,27,12,51,16,24,10,"spc"
"308","Crater",51,16,24,10,51,16,24,10,51,16,24,10,"spc"
"309","Crawford",29,18,34,19,42,16,27,15,29,18,34,19,"spc"
"310","Creek",18,10,39,33,14,10,41,33,18,10,39,33,"spc"
"311","Crossing",8,6,37,49,12,8,41,39,8,6,37,49,"spc"
"312","Cudmore",16,12,46,26,16,13,46,19,16,12,46,26,"spc"
"313","Curlewis",5,4,20,71,12,8,41,39,5,4,20,71,"spc"
"314","Cushnie",29,18,34,19,18,10,39,33,29,18,34,19,"spc"
"315","Dagun",22,17,44,17,28,16,43,15,22,17,44,17,"spc"
"316","Daintree",4,3,50,44,8,6,50,44,4,3,50,44,"spc"
"317","Dalrymple (MAJCK)",12,8,41,39,29,18,34,19,12,8,41,39,"spc"
"318","Dangore",12,8,41,39,12,8,41,39,12,8,41,39,"spc"
"319","Daradgee",36,25,32,7,NA,NA,NA,NA,36,25,32,7,"spc"
"320","Dawes",45,16,27,12,48,16,26,11,45,16,27,12,"spc"
"321","Dayman",20,18,38,23,20,17,38,21,20,18,38,23,"spc"
"322","Derra",42,16,27,15,51,16,24,10,42,16,27,15,"spc"
"323","Derra (CWL)",45,16,27,12,42,16,27,15,45,16,27,12,"spc"
"324","Derrick Steep And Broken Phase",29,18,34,19,NA,NA,NA,NA,29,18,34,19,"spc"
"325","Diamond (Kcm)",51,16,24,10,56,15,21,8,51,16,24,10,"spc"
"326","Diamond (Kcm), Footslope Variant",56,15,21,8,56,15,21,8,56,15,21,8,"spc"
"327","Dickson",42,16,27,15,42,16,27,15,42,16,27,15,"spc"
"328","Dickson, Shallow Variant",42,16,27,15,42,16,27,15,42,16,27,15,"spc"
"329","Dingo",29,18,34,19,29,18,34,19,29,18,34,19,"spc"
"330","Dingo (Pss)",12,6,28,53,12,6,37,49,12,6,28,53,"spc"
"331","Dittmer",12,8,41,39,18,10,39,33,12,8,41,39,"spc"
"332","Dixie",5,4,20,71,7,6,26,61,5,4,20,71,"spc"
"333","Don",24,16,40,20,22,16,44,17,24,16,40,20,"spc"
"334","Doolbi",29,18,34,19,42,16,27,15,29,18,34,19,"spc"
"335","Drinan",14,13,54,19,18,13,46,19,14,13,54,19,"spc"
"336","Dryander",19,14,47,20,22,17,39,17,19,14,47,20,"spc"
"337","Dudgeon",25,29,38,8,25,29,38,8,25,29,38,8,"spc"
"338","Dundula",45,16,27,12,44,16,27,12,45,16,27,12,"spc"
"339","Dunrobin - CQ",12,8,41,39,18,10,39,33,12,8,41,39,"spc"
"340","Dunstan",25,29,38,8,26,17,43,17,25,29,38,8,"spc"
"341","Dunwold",12,6,28,53,12,8,37,44,12,6,28,53,"spc"
"342","Durong",54,16,22,9,51,16,24,10,54,16,22,9,"spc"
"343","Earlsfield",51,16,24,10,45,16,27,12,51,16,24,10,"spc"
"344","Eastgate",45,16,27,12,51,16,24,10,45,16,27,12,"spc"
"345","Edgecumbe",24,14,36,26,29,18,34,18,24,14,36,26,"spc"
"346","Edmonton",26,18,39,18,29,18,34,19,26,18,39,18,"spc"
"347","Eleanor",51,16,24,10,56,15,21,8,51,16,24,10,"spc"
"348","Eleanor, Mottled Phase",56,15,21,8,54,16,22,9,56,15,21,8,"spc"
"349","Elliot",8,6,37,49,8,6,37,49,8,6,37,49,"spc"
"350","Emerald",18,10,39,33,18,10,39,33,18,10,39,33,"spc"
"351","Emerald Coarse Sandy Phase",12,6,28,53,NA,NA,NA,NA,12,6,28,53,"spc"
"352","Emoh",12,8,41,39,8,6,37,49,12,8,41,39,"spc"
"353","Endeavour",29,18,34,19,29,18,34,19,29,18,34,19,"spc"
"354","Eton",19,14,47,20,18,13,41,20,19,14,47,20,"spc"
"355","Etowrie",42,16,27,15,20,16,39,19,42,16,27,15,"spc"
"356","Etowrie (Neutral Variant)",20,29,41,9,19,14,41,19,20,29,41,9,"spc"
"357","Etowrie, Neutral Duplex Variant",19,14,47,20,22,17,38,17,19,14,47,20,"spc"
"358","Eubenangee",42,16,27,15,29,18,34,19,42,16,27,15,"spc"
"359","Eversleigh",42,16,27,15,42,16,27,15,42,16,27,15,"spc"
"360","Fairdale",45,16,27,12,51,16,24,10,45,16,27,12,"spc"
"361","Fairview",51,16,24,10,45,16,27,12,51,16,24,10,"spc"
"362","Fairydale",29,18,34,19,42,16,27,15,29,18,34,19,"spc"
"363","Fairymead",29,18,34,19,42,16,27,15,29,18,34,19,"spc"
"364","Falkner",56,15,21,8,56,15,21,8,56,15,21,8,"spc"
"365","Farleigh",18,10,39,33,7,6,31,61,18,10,39,33,"spc"
"366","Farnsfield",12,8,41,39,12,8,39,39,12,8,41,39,"spc"
"367","Feluga",10,7,46,36,18,10,39,33,10,7,46,36,"spc"
"368","Finch Hatton",29,18,34,19,42,16,27,15,29,18,34,19,"spc"
"369","Finch Hatton (Alluvial - Colluvial Variant)",20,29,41,9,36,16,30,15,20,29,41,9,"spc"
"370","Finch Hatton, Alluvial-Colluvial Variant",29,18,34,19,42,16,27,15,29,18,34,19,"spc"
"371","Finley",15,9,40,36,18,10,39,33,15,9,40,36,"spc"
"372","Flagstone",22,17,44,17,28,17,38,17,22,17,44,17,"spc"
"373","Fletcher",28,8,32,32,36,12,30,16,28,8,32,32,"spc"
"374","Flinton",16,13,40,31,20,18,38,23,16,13,40,31,"spc"
"375","Foxdale",18,12,43,26,26,17,38,19,18,12,43,26,"spc"
"376","Foxleigh",8,6,37,49,8,6,37,49,8,6,37,49,"spc"
"377","Freddy",18,10,39,33,18,10,39,33,18,10,39,33,"spc"
"378","Fumar",8,6,52,34,NA,NA,NA,NA,8,6,52,34,"spc"
"379","Gahan",29,18,34,19,28,17,37,17,29,18,34,19,"spc"
"380","Gainsford",18,10,39,33,14,10,41,33,18,10,39,33,"spc"
"381","Galmara",20,18,38,23,25,17,41,17,20,18,38,23,"spc"
"382","Gander",18,10,39,33,22,17,44,17,18,10,39,33,"spc"
"383","Gargett",12,7,34,46,8,6,37,49,12,7,34,46,"spc"
"384","Gargett, Deep A Horizon Variant",12,6,28,53,12,8,41,39,12,6,28,53,"spc"
"385","Garradunga",42,16,27,15,42,16,27,15,42,16,27,15,"spc"
"386","Garrett",42,16,27,15,42,16,27,15,42,16,27,15,"spc"
"387","Gibson - Bab",42,16,27,15,42,16,27,15,42,16,27,15,"spc"
"388","Gigoon",8,6,37,49,12,8,41,39,8,6,37,49,"spc"
"389","Gillen",22,11,37,30,22,11,37,30,22,11,37,30,"spc"
"390","Gillies",8,6,37,49,10,7,39,44,8,6,37,49,"spc"
"391","Gillinbin",18,10,39,33,22,17,44,17,18,10,39,33,"spc"
"392","Gindie",42,16,27,15,29,18,34,19,42,16,27,15,"spc"
"393","Givelda",14,13,54,19,20,14,39,19,14,13,54,19,"spc"
"394","Glenella",29,18,34,19,42,16,27,15,29,18,34,19,"spc"
"395","Glengordon",18,10,39,33,15,9,39,36,18,10,39,33,"spc"
"396","Glenora",51,16,24,10,51,16,24,10,51,16,24,10,"spc"
"397","Glenroc",4,4,31,61,12,8,41,39,4,4,31,61,"spc"
"398","Glenrock",12,6,28,53,18,10,34,33,12,6,28,53,"spc"
"399","Glenrock Grey Variant",12,8,41,39,16,8,25,51,12,8,41,39,"spc"
"400","Gooburrum",10,7,39,44,12,8,41,39,10,7,39,44,"spc"
"401","Goodbye",18,10,39,33,22,16,37,17,18,10,39,33,"spc"
"402","Goodger",29,18,34,19,29,18,34,19,29,18,34,19,"spc"
"403","Googarra",8,6,37,49,12,8,38,39,8,6,37,49,"spc"
"404","Goolboo",16,8,37,49,14,8,27,50,16,8,37,49,"spc"
"405","Goorganga",45,16,27,12,45,16,27,12,45,16,27,12,"spc"
"406","Goovigen",45,16,27,12,45,16,27,12,45,16,27,12,"spc"
"407","Gordonbrook",19,14,44,20,18,10,39,33,19,14,44,20,"spc"
"408","Gowrie - Tab",19,14,47,20,28,10,34,32,19,14,47,20,"spc"
"409","Graham",51,16,24,10,51,16,24,10,51,16,24,10,"spc"
"410","Granite",8,6,37,49,8,6,37,49,8,6,37,49,"spc"
"411","Granville",42,16,27,15,42,16,27,12,42,16,27,15,"spc"
"412","Grevillea",36,25,32,7,25,29,38,8,36,25,32,7,"spc"
"413","Greycliffe",45,16,27,12,45,16,27,12,45,16,27,12,"spc"
"414","Greycliffe Melonhole Phase",51,16,24,10,45,16,27,12,51,16,24,10,"spc"
"415","Gueena",51,16,24,10,51,16,24,10,51,16,24,10,"spc"
"416","Gumlu",8,6,37,49,4,3,50,44,8,6,37,49,"spc"
"417","Gunnawarra",8,6,37,49,8,6,37,49,8,6,37,49,"spc"
"418","Gutchy",45,16,27,12,42,16,27,15,45,16,27,12,"spc"
"419","Gwynne",42,16,27,15,42,16,27,15,42,16,27,15,"spc"
"420","Habana",22,11,37,30,42,16,27,15,22,11,37,30,"spc"
"421","Haden",42,16,27,15,42,16,27,14,42,16,27,15,"spc"
"422","Haly",42,16,27,15,45,16,27,12,42,16,27,15,"spc"
"423","Hamleigh",36,25,32,7,42,16,27,15,36,25,32,7,"spc"
"424","Hannan",19,14,47,20,22,16,39,17,19,14,47,20,"spc"
"425","Harris",45,16,27,12,45,16,27,12,45,16,27,12,"spc"
"426","Hawkins",4,4,31,61,4,4,31,61,4,4,31,61,"spc"
"427","Hawkwood",18,12,43,26,19,14,43,20,18,12,43,26,"spc"
"428","Hector (PCS)",29,18,34,19,29,16,34,17,29,18,34,19,"spc"
"429","Herbert",22,17,44,17,25,29,38,8,22,17,44,17,"spc"
"430","Hervey",12,8,41,39,NA,NA,NA,NA,12,8,41,39,"spc"
"431","Hewitt",29,18,34,19,25,18,38,18,29,18,34,19,"spc"
"432","Highbury",22,17,44,17,22,17,44,17,22,17,44,17,"spc"
"433","Hillsborough",51,16,24,10,45,16,27,12,51,16,24,10,"spc"
"434","Hillsdale",18,10,39,33,22,14,38,24,18,10,39,33,"spc"
"435","Hillview",20,10,38,32,18,10,39,33,20,10,38,32,"spc"
"436","Hillview (Zed)",12,8,41,39,20,18,38,23,12,8,41,39,"spc"
"437","Hillview Fine Variant",18,10,39,33,22,17,38,19,18,10,39,33,"spc"
"438","Hinkler",42,16,27,15,42,16,27,15,42,16,27,15,"spc"
"439","Hodge (BAN)",19,14,47,20,19,14,47,20,19,14,47,20,"spc"
"440","Holding",51,16,24,10,51,16,24,10,51,16,24,10,"spc"
"441","Holloway",18,10,39,33,18,10,39,33,18,10,39,33,"spc"
"442","Honeycomb",22,17,44,17,22,17,44,17,22,17,44,17,"spc"
"443","Hopevale",20,18,38,23,29,18,34,19,20,18,38,23,"spc"
"444","Howes",42,16,27,15,42,16,27,15,42,16,27,15,"spc"
"445","Hull",6,5,34,55,4,4,31,61,6,5,34,55,"spc"
"446","Hunter",45,16,27,12,46,16,26,12,45,16,27,12,"spc"
"447","Huxley",45,16,27,12,45,16,27,12,45,16,27,12,"spc"
"448","Ilbilbie",19,14,47,20,18,10,39,33,19,14,47,20,"spc"
"449","Ingham",22,17,44,17,22,18,38,17,22,17,44,17,"spc"
"450","Inlet",29,18,34,19,44,16,27,14,29,18,34,19,"spc"
"451","Innisfail",36,25,32,7,42,16,27,15,36,25,32,7,"spc"
"452","Inverdon",12,8,41,39,12,8,41,39,12,8,41,39,"spc"
"453","Iona",45,16,27,12,51,16,24,10,45,16,27,12,"spc"
"454","Isis",12,8,41,39,12,8,41,39,12,8,41,39,"spc"
"455","Jambin",51,16,24,10,50,16,24,10,51,16,24,10,"spc"
"456","Japoon",8,6,31,61,10,6,27,57,8,6,31,61,"spc"
"457","Jaro",20,18,38,23,29,18,34,19,20,18,38,23,"spc"
"458","Jarra",21,14,38,26,20,18,38,23,21,14,38,26,"spc"
"459","Julian",45,16,27,12,29,16,34,16,45,16,27,12,"spc"
"460","Jumper",18,10,39,33,18,11,41,30,18,10,39,33,"spc"
"461","Jumpo",18,10,39,33,42,16,27,15,18,10,39,33,"spc"
"462","Kaban",36,17,30,17,42,16,27,15,36,17,30,17,"spc"
"463","Kaber",44,16,27,14,45,16,27,12,44,16,27,14,"spc"
"464","Kaber Red Variant",45,16,27,12,45,16,27,12,45,16,27,12,"spc"
"465","Kabra",28,14,43,15,28,14,43,15,28,14,43,15,"spc"
"466","Kailla",4,4,31,61,8,6,37,49,4,4,31,61,"spc"
"467","Kalah",14,13,54,19,14,13,52,19,14,13,54,19,"spc"
"468","Karloo",12,8,41,39,22,17,42,17,12,8,41,39,"spc"
"469","Kawl Kawl",45,16,27,12,51,16,24,10,45,16,27,12,"spc"
"470","Kaygaroo",4,3,50,44,8,6,37,49,4,3,50,44,"spc"
"471","Kenlogan",51,16,24,10,51,16,24,10,51,16,24,10,"spc"
"472","Kenmar",56,15,21,8,51,16,24,10,56,15,21,8,"spc"
"473","Kepnock",14,13,54,19,19,14,44,20,14,13,54,19,"spc"
"474","Kiama",5,4,20,71,7,6,31,61,5,4,20,71,"spc"
"475","Kilburnie",51,16,24,10,45,16,27,12,51,16,24,10,"spc"
"476","Kimberley",29,18,34,19,29,16,34,19,29,18,34,19,"spc"
"477","Kinchant",8,6,37,49,8,6,37,49,8,6,37,49,"spc"
"478","Kinchant, Coarse Sandy Variant",7,6,26,61,NA,NA,NA,NA,7,6,26,61,"spc"
"479","Kingjack",19,14,47,20,19,14,47,20,19,14,47,20,"spc"
"480","Kinkuna",4,4,31,61,4,4,31,61,4,4,31,61,"spc"
"481","Kirkcaldy",33,12,39,16,33,12,32,16,33,12,39,16,"spc"
"482","Kirrama",18,10,39,33,18,10,39,33,18,10,39,33,"spc"
"483","Knockane",33,12,39,16,32,8,32,29,33,12,39,16,"spc"
"484","Kokutungo",22,17,44,17,22,17,44,19,22,17,44,17,"spc"
"485","Kolan",13,10,48,29,22,16,39,19,13,10,48,29,"spc"
"486","Kolbore",12,8,41,39,12,8,41,39,12,8,41,39,"spc"
"487","Koolachu",18,10,39,33,12,6,37,49,18,10,39,33,"spc"
"488","Kooringa",12,8,41,39,12,8,41,39,12,8,41,39,"spc"
"489","Koumala",18,10,39,33,18,10,39,33,18,10,39,33,"spc"
"490","Kowari",20,18,38,23,18,10,39,33,20,18,38,23,"spc"
"491","Kumbia",42,16,27,15,42,16,27,15,42,16,27,15,"spc"
"492","Kumbia Rocky Phase",42,16,27,15,NA,NA,NA,NA,42,16,27,15,"spc"
"493","Kungurri",42,16,27,15,29,18,34,19,42,16,27,15,"spc"
"494","Kunioon",29,18,34,19,42,16,27,15,29,18,34,19,"spc"
"495","Kunipipi",12,8,41,39,8,6,41,39,12,8,41,39,"spc"
"496","Kurrimine",4,4,26,66,8,6,37,49,4,4,26,66,"spc"
"497","Kuttabul",12,8,41,39,18,10,39,33,12,8,41,39,"spc"
"498","Kuttabul, Alluvial-Colluvial Variant",18,10,39,33,18,10,39,33,18,10,39,33,"spc"
"499","Lacon",42,16,27,15,48,16,26,11,42,16,27,15,"spc"
"500","Langley-Wdh",51,16,24,10,51,16,24,10,51,16,24,10,"spc"
"501","Lannercost",18,10,39,33,18,10,39,33,18,10,39,33,"spc"
"502","Lascelles",29,18,34,19,19,14,44,19,29,18,34,19,"spc"
"503","Leach",45,16,27,12,45,16,27,12,45,16,27,12,"spc"
"504","Leadingham",19,14,47,20,18,10,39,33,19,14,47,20,"spc"
"505","Lee",18,10,39,33,18,10,39,33,18,10,39,33,"spc"
"506","Leichhardt",18,10,39,33,18,10,39,33,18,10,39,33,"spc"
"507","Leitrim",51,16,24,10,51,16,24,10,51,16,24,10,"spc"
"508","Lillypool",19,14,47,20,12,8,41,39,19,14,47,20,"spc"
"509","Lindsay",51,16,24,10,51,16,24,10,51,16,24,10,"spc"
"510","Littabella",12,8,41,39,12,8,41,36,12,8,41,39,"spc"
"511","Liverpool",14,13,54,19,19,14,44,20,14,13,54,19,"spc"
"512","Logcamp",36,25,32,7,25,18,38,17,36,25,32,7,"spc"
"513","Long Peter",22,17,44,17,29,18,34,19,22,17,44,17,"spc"
"514","Louisa",12,8,41,39,22,16,39,19,12,8,41,39,"spc"
"515","Luce",15,9,40,36,12,8,41,39,15,9,40,36,"spc"
"516","Lucy",14,13,54,19,22,17,44,17,14,13,54,19,"spc"
"517","Lugger",12,7,34,46,16,8,37,39,12,7,34,46,"spc"
"518","Luxor",9,6,35,50,8,6,37,46,9,6,35,50,"spc"
"519","Maalan",42,16,27,15,42,16,27,15,42,16,27,15,"spc"
"520","Macknade",14,13,54,19,22,17,39,17,14,13,54,19,"spc"
"521","Mahogany",4,4,31,61,8,6,37,49,4,4,31,61,"spc"
"522","Maiden",4,4,31,61,4,4,31,61,4,4,31,61,"spc"
"523","Malbon",22,8,37,32,18,10,39,33,22,8,37,32,"spc"
"524","Manar",45,16,27,12,51,16,24,10,45,16,27,12,"spc"
"525","Mandam",12,8,41,39,20,18,38,23,12,8,41,39,"spc"
"526","Manor",29,18,34,19,25,18,38,19,29,18,34,19,"spc"
"527","Manton",18,10,39,33,26,18,39,18,18,10,39,33,"spc"
"528","Mapala",19,14,47,20,22,17,44,19,19,14,47,20,"spc"
"529","Maraconda",56,15,21,8,56,15,21,8,56,15,21,8,"spc"
"530","Mareeba 1",8,6,37,49,8,6,37,49,8,6,37,49,"spc"
"531","Maria",12,8,41,39,12,8,41,39,12,8,41,39,"spc"
"532","Marian",18,10,39,33,19,14,39,20,18,10,39,33,"spc"
"533","Marian, Yellow B Horizon Variant",18,10,39,33,18,10,39,33,18,10,39,33,"spc"
"534","Marlow",29,18,34,19,29,18,34,19,29,18,34,19,"spc"
"535","Maroondan",45,16,27,12,45,16,27,12,45,16,27,12,"spc"
"536","Marshlands",18,10,39,33,42,16,27,15,18,10,39,33,"spc"
"537","Martin",19,14,47,20,29,18,34,19,19,14,47,20,"spc"
"538","Martyr",39,13,36,13,51,15,24,10,39,13,36,13,"spc"
"539","Marwood",10,7,34,50,8,6,37,49,10,7,34,50,"spc"
"540","Mary",25,29,38,8,28,14,43,15,25,29,38,8,"spc"
"541","Masterton",8,6,52,34,8,6,52,34,8,6,52,34,"spc"
"542","May",51,16,24,10,56,15,21,8,51,16,24,10,"spc"
"543","May Downs",51,16,24,10,56,15,21,8,51,16,24,10,"spc"
"544","May Shallow Phase",57,15,21,7,56,15,21,8,57,15,21,7,"spc"
"545","Mceuen",48,16,26,11,51,16,24,10,48,16,26,11,"spc"
"546","Mceuen Rocky Phase",42,16,27,15,NA,NA,NA,NA,42,16,27,15,"spc"
"547","Meadowvale",8,6,37,49,12,8,41,39,8,6,37,49,"spc"
"548","Melton",32,8,31,29,42,25,27,7,32,8,31,29,"spc"
"549","Memerambi",29,18,34,19,42,16,27,15,29,18,34,19,"spc"
"550","Mentmore",18,10,39,33,19,14,39,20,18,10,39,33,"spc"
"551","Mentmore, Sandy Loam Variant",12,8,41,39,NA,NA,NA,NA,12,8,41,39,"spc"
"552","Midden",51,16,24,10,51,16,24,10,51,16,24,10,"spc"
"553","Midden, Melonhole Phase",45,16,27,12,51,16,24,10,45,16,27,12,"spc"
"554","Midgenoo",25,18,38,17,26,16,39,18,25,18,38,17,"spc"
"555","Midway",29,18,34,19,25,29,38,8,29,18,34,19,"spc"
"556","Millstream",29,18,34,19,29,16,33,19,29,18,34,19,"spc"
"557","Minnabilla",14,12,38,36,14,13,50,20,14,12,38,36,"spc"
"558","Mirani",12,8,41,39,14,10,41,32,12,8,41,39,"spc"
"559","Miskin",14,13,54,19,12,8,41,39,14,13,54,19,"spc"
"560","Mission",14,13,41,19,22,17,42,19,14,13,41,19,"spc"
"561","Moffat",18,10,39,33,18,10,39,33,18,10,39,33,"spc"
"562","Molonga",36,25,32,7,42,16,27,15,36,25,32,7,"spc"
"563","Mondure",32,14,32,22,42,16,27,15,32,14,32,22,"spc"
"564","Monsildale",28,14,43,15,25,17,38,17,28,14,43,15,"spc"
"565","Moolayember",29,18,34,19,24,14,36,26,29,18,34,19,"spc"
"566","Moore Park",8,6,37,49,8,6,37,49,8,6,37,49,"spc"
"567","Moorland",18,10,39,33,19,14,47,20,18,10,39,33,"spc"
"568","Moosie",19,14,47,20,24,18,40,17,19,14,47,20,"spc"
"569","Moramana",42,16,27,15,51,16,24,10,42,16,27,15,"spc"
"570","Morecambe",8,6,37,49,12,8,41,39,8,6,37,49,"spc"
"571","Morgan",39,20,30,11,42,16,27,15,39,20,30,11,"spc"
"572","Morganbury",12,8,41,39,18,10,39,33,12,8,41,39,"spc"
"573","Mossman",25,18,38,12,29,16,34,14,25,18,38,12,"spc"
"574","Muldoon",29,18,34,19,29,16,34,19,29,18,34,19,"spc"
"575","Mulei",12,8,41,39,12,8,41,39,12,8,41,39,"spc"
"576","Mullaburra",20,29,41,9,21,18,38,16,20,29,41,9,"spc"
"577","Mulligan",8,6,52,34,12,8,41,39,8,6,52,34,"spc"
"578","Mulligan Gravelly Phase",8,6,52,34,12,8,41,39,8,6,52,34,"spc"
"579","Mulligan Shallow Phase",8,6,52,34,15,9,40,36,8,6,52,34,"spc"
"580","Munbura",12,6,28,53,12,8,39,39,12,6,28,53,"spc"
"581","Mundoo",29,18,34,19,42,16,27,15,29,18,34,19,"spc"
"582","Mungar",36,25,32,7,29,16,34,15,36,25,32,7,"spc"
"583","Murphy",14,13,54,19,8,6,37,49,14,13,54,19,"spc"
"584","Murphy Pan Phase",8,6,52,34,8,6,52,34,8,6,52,34,"spc"
"585","Murray",8,6,37,49,19,12,39,25,8,6,37,49,"spc"
"586","Myrtle",44,16,27,14,45,16,27,12,44,16,27,14,"spc"
"587","Nabilla",29,18,34,19,42,16,27,15,29,18,34,19,"spc"
"588","Nail",42,16,27,15,45,16,27,12,42,16,27,15,"spc"
"589","Nanyeta",8,6,37,49,12,8,39,39,8,6,37,49,"spc"
"590","Narcotic",8,6,52,34,8,6,37,49,8,6,52,34,"spc"
"591","Narpi",19,14,47,20,25,29,38,8,19,14,47,20,"spc"
"592","Needep",20,18,38,23,12,8,40,39,20,18,38,23,"spc"
"593","Nessvale",8,6,37,49,10,7,38,44,8,6,37,49,"spc"
"594","Netherdale",42,16,27,15,28,16,43,15,42,16,27,15,"spc"
"595","Newell",20,18,38,23,20,18,38,23,20,18,38,23,"spc"
"596","Niagara",42,16,27,15,51,16,24,10,42,16,27,15,"spc"
"597","Nicotine",4,4,31,61,8,6,37,49,4,4,31,61,"spc"
"598","Nicotine Yellow",4,4,31,61,6,5,34,55,4,4,31,61,"spc"
"599","Nilotica",12,8,41,39,32,16,36,16,12,8,41,39,"spc"
"600","Nind",20,18,38,23,20,18,38,23,20,18,38,23,"spc"
"601","Ninemile",51,16,24,10,51,16,24,10,51,16,24,10,"spc"
"602","Nobby",22,17,44,17,28,17,43,17,22,17,44,17,"spc"
"603","Norville",29,18,34,19,25,18,38,17,29,18,34,19,"spc"
"604","Norwich",45,16,27,12,45,16,27,12,45,16,27,12,"spc"
"605","Nullinga",8,6,52,34,12,8,41,39,8,6,52,34,"spc"
"606","Nullinga Shallow Phase",12,8,41,39,NA,NA,NA,NA,12,8,41,39,"spc"
"607","Nursery",51,16,24,10,51,16,24,10,51,16,24,10,"spc"
"608","Nyleta",29,18,34,19,37,17,30,16,29,18,34,19,"spc"
"609","O'Bil Bil",42,16,27,15,42,16,27,15,42,16,27,15,"spc"
"610","Oakwood",22,17,44,17,22,14,37,20,22,17,44,17,"spc"
"611","Oombabeer",22,17,44,17,22,17,39,17,22,17,44,17,"spc"
"612","Orient",14,13,54,19,14,13,54,19,14,13,54,19,"spc"
"613","Ossa",14,13,54,19,18,10,39,33,14,13,54,19,"spc"
"614","Ossa (Cobbly Variant)",18,10,39,33,18,10,39,32,18,10,39,33,"spc"
"615","Ossa, Cobbly Variant",18,10,39,33,12,8,41,39,18,10,39,33,"spc"
"616","Otoo",19,14,47,20,22,14,39,20,19,14,47,20,"spc"
"617","Owanyilla",14,13,54,19,22,14,39,19,14,13,54,19,"spc"
"618","Pakington",45,16,27,12,34,16,36,14,45,16,27,12,"spc"
"619","Palm",29,18,34,19,22,17,37,19,29,18,34,19,"spc"
"620","Palmyra",18,10,39,33,18,10,40,33,18,10,39,33,"spc"
"621","Palouse",13,10,48,29,18,10,39,33,13,10,48,29,"spc"
"622","Pearlinga",18,10,39,33,45,16,27,12,18,10,39,33,"spc"
"623","Peep",14,13,54,19,19,14,41,19,14,13,54,19,"spc"
"624","Pegunny",51,16,24,10,51,16,24,10,51,16,24,10,"spc"
"625","Penman",25,29,38,8,25,18,38,9,25,29,38,8,"spc"
"626","Pennsfield",14,13,54,19,12,8,41,39,14,13,54,19,"spc"
"627","Perry",42,16,27,15,42,16,27,15,42,16,27,15,"spc"
"628","Peterson",42,16,27,15,45,16,27,12,42,16,27,15,"spc"
"629","Petrona",9,6,20,65,8,6,37,49,9,6,20,65,"spc"
"630","Picardy",51,16,24,10,51,16,24,10,51,16,24,10,"spc"
"631","Picardy Surface Seal Phase",51,16,24,10,48,16,26,11,51,16,24,10,"spc"
"632","Pin Gin",29,18,34,19,42,16,27,15,29,18,34,19,"spc"
"633","Pindi",18,10,39,33,18,10,39,33,18,10,39,33,"spc"
"634","Pinnacle - Cq",42,16,27,15,42,16,27,15,42,16,27,15,"spc"
"635","Pioneer",18,10,39,33,19,14,39,20,18,10,39,33,"spc"
"636","Pioneer, Red B Horizon Variant",18,10,39,33,14,10,42,34,18,10,39,33,"spc"
"637","PLDR",8,6,37,49,NA,NA,NA,NA,8,6,37,49,"spc"
"638","Pluto",5,4,20,71,12,8,39,39,5,4,20,71,"spc"
"639","Police Camp",22,17,44,17,22,17,39,19,22,17,44,17,"spc"
"640","Ponzo",45,16,27,12,42,16,27,15,45,16,27,12,"spc"
"641","Poplar",19,14,47,20,42,17,27,15,19,14,47,20,"spc"
"642","Porter",16,14,50,20,14,10,41,33,16,14,50,20,"spc"
"643","Powerhouse",51,16,24,10,42,16,27,13,51,16,24,10,"spc"
"644","Prendergast",19,14,47,20,22,17,44,17,19,14,47,20,"spc"
"645","Price",8,6,52,34,8,6,37,49,8,6,52,34,"spc"
"646","Pring",18,10,39,33,42,16,27,15,18,10,39,33,"spc"
"647","Prior",18,10,39,33,18,9,38,33,18,10,39,33,"spc"
"648","Proserpine",5,4,20,71,12,8,39,39,5,4,20,71,"spc"
"649","Proston",29,18,34,19,29,18,34,19,29,18,34,19,"spc"
"650","Purono",18,10,39,33,19,14,41,20,18,10,39,33,"spc"
"651","Quart",8,6,37,49,12,8,41,39,8,6,37,49,"spc"
"652","Quincan",42,16,27,15,42,16,27,15,42,16,27,15,"spc"
"653","Qunaba",8,6,52,34,13,9,41,34,8,6,52,34,"spc"
"654","Racetrack",18,10,39,33,19,14,44,20,18,10,39,33,"spc"
"655","Ram",19,14,47,20,22,17,44,17,19,14,47,20,"spc"
"656","Ramleh",42,16,27,15,22,17,44,17,42,16,27,15,"spc"
"657","Rankin",51,16,24,10,51,16,24,10,51,16,24,10,"spc"
"658","Ray",29,18,34,19,28,14,43,15,29,18,34,19,"spc"
"659","Ray Rocky Phase",29,18,34,19,NA,NA,NA,NA,29,18,34,19,"spc"
"660","Redbank",14,13,54,19,18,12,46,24,14,13,54,19,"spc"
"661","Retro",29,18,34,19,22,11,38,30,29,18,34,19,"spc"
"662","Retro (BAN)",22,17,44,17,25,29,38,8,22,17,44,17,"spc"
"663","Riordanvale",22,11,37,30,22,18,37,19,22,11,37,30,"spc"
"664","Ripple",14,13,54,19,25,29,38,8,14,13,54,19,"spc"
"665","Riverleigh",25,29,38,8,25,18,38,17,25,29,38,8,"spc"
"666","Robur",8,6,37,49,8,6,37,49,8,6,37,49,"spc"
"667","Rolleston",51,16,24,10,51,16,24,10,51,16,24,10,"spc"
"668","Roper",19,14,47,20,18,13,46,20,19,14,47,20,"spc"
"669","Ross",12,8,41,39,12,8,41,39,12,8,41,39,"spc"
"670","Rothchild",8,6,37,49,8,6,37,49,8,6,37,49,"spc"
"671","Roundback Level Phase",8,6,37,49,NA,NA,NA,NA,8,6,37,49,"spc"
"672","Royston",45,16,27,12,45,16,27,12,45,16,27,12,"spc"
"673","Rubyanna",45,16,27,12,45,16,27,12,45,16,27,12,"spc"
"674","Rudd",14,13,54,19,22,17,38,18,14,13,54,19,"spc"
"675","Rungoo",13,8,38,41,12,8,39,39,13,8,38,41,"spc"
"676","Russell",51,16,24,10,56,15,21,8,51,16,24,10,"spc"
"677","Russell, Gilgai Phase",51,16,24,10,51,16,24,10,51,16,24,10,"spc"
"678","Russell, Stony Phase",51,16,24,10,51,16,24,10,51,16,24,10,"spc"
"679","Sachs",51,16,24,10,45,16,27,11,51,16,24,10,"spc"
"680","Saddle",18,10,39,33,22,17,38,19,18,10,39,33,"spc"
"681","Sadie",45,16,27,12,51,16,24,10,45,16,27,12,"spc"
"682","Samourgassi",29,18,34,19,22,16,37,17,29,18,34,19,"spc"
"683","Sandiford",18,10,39,33,18,10,39,32,18,10,39,33,"spc"
"684","Sandiford (Silty Topsoil Variant)",22,17,44,17,25,29,38,8,22,17,44,17,"spc"
"685","Santo",45,16,27,12,42,16,27,15,45,16,27,12,"spc"
"686","Scrubby (Zed)",14,13,54,19,12,8,41,39,14,13,54,19,"spc"
"687","SDE4",12,8,41,39,22,11,35,39,12,8,41,39,"spc"
"688","Seaforth",19,14,47,20,22,17,44,17,19,14,47,20,"spc"
"689","Seaforth, Dark B Horizon Variant",19,14,47,20,NA,NA,NA,NA,19,14,47,20,"spc"
"690","Seaforth, Yellow B Horizon Variant",19,14,47,20,NA,NA,NA,NA,19,14,47,20,"spc"
"691","Seaview",29,18,34,19,45,16,27,12,29,18,34,19,"spc"
"692","Septimus",7,6,26,61,8,6,37,49,7,6,26,61,"spc"
"693","Severin - Tab",28,8,32,32,18,10,39,33,28,8,32,32,"spc"
"694","Shotover",9,6,20,65,12,8,40,39,9,6,20,65,"spc"
"695","Shurback",29,18,34,19,18,10,39,33,29,18,34,19,"spc"
"696","Silent Grove",45,16,27,12,45,16,27,12,45,16,27,12,"spc"
"697","Silkwood",12,8,41,39,18,10,38,33,12,8,41,39,"spc"
"698","Silkwood Brown A Horizon Variant",18,10,39,33,18,10,39,33,18,10,39,33,"spc"
"699","Sister",29,18,34,19,42,16,27,15,29,18,34,19,"spc"
"700","Slater",8,6,52,34,18,10,39,33,8,6,52,34,"spc"
"701","Solferino",51,16,24,10,51,16,24,10,51,16,24,10,"spc"
"702","Spanos",4,4,31,61,9,6,37,49,4,4,31,61,"spc"
"703","Spier",19,14,47,20,19,14,47,20,19,14,47,20,"spc"
"704","Springs",12,8,41,39,18,10,41,33,12,8,41,39,"spc"
"705","Springwood",8,6,37,49,8,6,39,44,8,6,37,49,"spc"
"706","St Helens",19,14,47,20,28,14,39,17,19,14,47,20,"spc"
"707","Stanley",12,8,41,39,15,9,41,36,12,8,41,39,"spc"
"708","Stateschool",18,10,39,33,20,14,44,19,18,10,39,33,"spc"
"709","Stephens",28,14,43,15,28,14,41,16,28,14,43,15,"spc"
"710","Stockyard (Zed)",14,13,54,19,12,8,41,39,14,13,54,19,"spc"
"711","Stone",45,16,27,12,45,16,27,12,45,16,27,12,"spc"
"712","Strathdickie",42,16,27,15,44,16,27,14,42,16,27,15,"spc"
"713","Sugarbag",8,6,37,49,12,8,41,39,8,6,37,49,"spc"
"714","Sugarmill",42,16,27,15,42,16,27,15,42,16,27,15,"spc"
"715","Sumalee",29,18,34,19,29,18,34,19,29,18,34,19,"spc"
"716","Summerville",4,4,31,61,12,8,41,39,4,4,31,61,"spc"
"717","Sunnyside",19,14,47,20,25,18,38,15,19,14,47,20,"spc"
"718","Sunter",14,13,54,19,18,12,44,26,14,13,54,19,"spc"
"719","Sylvia",14,13,54,19,25,29,38,8,14,13,54,19,"spc"
"720","Taabinga",29,18,34,19,45,16,27,12,29,18,34,19,"spc"
"721","Tabletop",54,16,22,8,42,16,27,15,54,16,22,8,"spc"
"722","Tailing",22,11,37,30,18,11,39,30,22,11,37,30,"spc"
"723","Tandora",29,18,34,19,42,16,27,15,29,18,34,19,"spc"
"724","Tannalo",16,8,25,51,14,10,42,33,16,8,25,51,"spc"
"725","Tantitha",8,6,37,49,8,6,37,49,8,6,37,49,"spc"
"726","Tarong",22,11,37,30,25,16,34,17,22,11,37,30,"spc"
"727","Tarramba",54,24,19,3,45,16,27,10,54,24,19,3,"spc"
"728","Taurus",8,6,37,49,12,8,41,39,8,6,37,49,"spc"
"729","Tawalla",7,6,31,61,4,4,31,61,7,6,31,61,"spc"
"730","TbUg-10",51,16,24,10,NA,NA,NA,NA,51,16,24,10,"spc"
"731","TbUg-12",57,15,21,7,NA,NA,NA,NA,57,15,21,7,"spc"
"732","TbUg-13",57,15,21,7,57,15,21,7,57,15,21,7,"spc"
"733","TbUg-2",56,15,21,8,57,15,21,7,56,15,21,8,"spc"
"734","TbUg-4",51,16,24,10,57,15,21,7,51,16,24,10,"spc"
"735","TbUg-5",51,16,24,10,NA,NA,NA,NA,51,16,24,10,"spc"
"736","TbUg-7",57,15,21,7,NA,NA,NA,NA,57,15,21,7,"spc"
"737","TbUg-8",57,15,21,7,NA,NA,NA,NA,57,15,21,7,"spc"
"738","Te_El_Kabir",51,16,24,10,51,16,24,10,51,16,24,10,"spc"
"739","Teddington",42,16,27,15,42,16,27,15,42,16,27,15,"spc"
"740","Tedlands",19,14,47,20,22,17,44,17,19,14,47,20,"spc"
"741","Telegraph",42,16,27,15,45,16,27,12,42,16,27,15,"spc"
"742","Tenmile",12,8,41,39,12,6,37,49,12,8,41,39,"spc"
"743","Terrace",28,8,32,32,42,16,27,15,28,8,32,32,"spc"
"744","Teviot",45,16,27,12,51,16,24,10,45,16,27,12,"spc"
"745","Thalberg",22,17,44,17,22,17,44,19,22,17,44,17,"spc"
"746","Theodolite",8,6,37,49,8,6,37,49,8,6,37,49,"spc"
"747","Theodolite Saline Phase",8,6,37,49,NA,NA,NA,NA,8,6,37,49,"spc"
"748","Thorpe",12,8,41,39,18,10,39,33,12,8,41,39,"spc"
"749","Thorpe - Dlr",8,6,37,49,16,8,37,39,8,6,37,49,"spc"
"750","Tiaro",26,18,39,18,29,16,34,16,26,18,39,18,"spc"
"751","Timara",34,18,35,15,42,16,27,12,34,18,35,15,"spc"
"752","Timbrell",25,29,38,8,29,25,34,8,25,29,38,8,"spc"
"753","Tinana",12,8,41,39,17,10,37,34,12,8,41,39,"spc"
"754","Tingoora",51,16,24,10,51,16,24,10,51,16,24,10,"spc"
"755","Tinkle",8,6,37,49,8,6,37,49,8,6,37,49,"spc"
"756","Tiny",45,16,27,12,45,16,27,12,45,16,27,12,"spc"
"757","Tirrabella",12,8,41,39,14,10,41,33,12,8,41,39,"spc"
"758","Tirroan",12,8,41,39,12,8,41,39,12,8,41,39,"spc"
"759","Tirroan Rocky Phase",8,6,37,49,8,6,37,49,8,6,37,49,"spc"
"760","Todds",12,8,41,39,14,13,54,19,12,8,41,39,"spc"
"761","Tognolini",51,16,24,10,50,16,24,10,51,16,24,10,"spc"
"762","Tolga",36,17,30,17,42,16,27,15,36,17,30,17,"spc"
"763","Tolga Rocky Phase",29,18,34,19,NA,NA,NA,NA,29,18,34,19,"spc"
"764","Toobanna",14,13,54,19,25,18,38,18,14,13,54,19,"spc"
"765","Toondoon",29,18,34,19,29,18,34,19,29,18,34,19,"spc"
"766","Tralee",33,12,39,16,39,14,36,14,33,12,39,16,"spc"
"767","Tranters",22,17,44,17,28,16,33,15,22,17,44,17,"spc"
"768","Trebonne",22,17,44,17,22,17,44,17,22,17,44,17,"spc"
"769","Trebonne Sandy Phase",12,8,41,39,NA,NA,NA,NA,12,8,41,39,"spc"
"770","Tregear",12,8,41,39,NA,NA,NA,NA,12,8,41,39,"spc"
"771","TsDr-2",18,10,39,33,NA,NA,NA,NA,18,10,39,33,"spc"
"772","TsDy-1",12,8,41,39,12,8,41,39,12,8,41,39,"spc"
"773","TsDy-6",12,8,41,39,NA,NA,NA,NA,12,8,41,39,"spc"
"774","TsGn-3",12,8,41,39,12,8,41,39,12,8,41,39,"spc"
"775","TsGn-4",18,10,39,33,12,8,41,39,18,10,39,33,"spc"
"776","TsGn-5",15,9,40,36,12,8,41,39,15,9,40,36,"spc"
"777","TsGn-6",20,10,38,32,18,10,39,33,20,10,38,32,"spc"
"778","TsUc-2",8,6,37,49,8,6,37,49,8,6,37,49,"spc"
"779","TsUf-3",51,16,24,10,51,16,24,10,51,16,24,10,"spc"
"780","TsUf-6",51,16,24,10,45,16,27,12,51,16,24,10,"spc"
"781","TsUg-7",51,16,24,10,51,16,24,10,51,16,24,10,"spc"
"782","TsUgg-1",56,15,21,8,NA,NA,NA,NA,56,15,21,8,"spc"
"783","TsUgg-2",56,15,21,8,51,16,24,10,56,15,21,8,"spc"
"784","Tully",29,22,34,14,42,16,27,15,29,22,34,14,"spc"
"785","Tureen",42,16,27,15,29,18,34,19,42,16,27,15,"spc"
"786","Turnor",18,10,39,33,22,17,39,17,18,10,39,33,"spc"
"787","Turon",39,13,36,13,39,13,36,13,39,13,36,13,"spc"
"788","Turpad",8,6,37,49,12,8,39,39,8,6,37,49,"spc"
"789","Turpin",8,6,37,49,12,8,41,39,8,6,37,49,"spc"
"790","Tyson",12,8,41,39,18,10,39,33,12,8,41,39,"spc"
"791","Ulogie",19,14,47,20,19,14,44,20,19,14,47,20,"spc"
"792","Umala - Tab",22,17,44,17,42,16,27,15,22,17,44,17,"spc"
"793","Uncle",8,6,52,34,NA,NA,NA,NA,8,6,52,34,"spc"
"794","Uncle Shallow Phase",18,10,39,33,NA,NA,NA,NA,18,10,39,33,"spc"
"795","Up River",8,6,37,49,8,6,37,49,8,6,37,49,"spc"
"796","Uramo",8,6,37,49,8,6,38,39,8,6,37,49,"spc"
"797","Urannah",12,8,41,39,18,10,39,33,12,8,41,39,"spc"
"798","Uruba",18,10,39,33,14,10,41,33,18,10,39,33,"spc"
"799","Uruba, Alluvial-Colluvial Variant",18,10,39,33,NA,NA,NA,NA,18,10,39,33,"spc"
"800","Utchee",23,9,36,32,28,8,32,32,23,9,36,32,"spc"
"801","Vermont",51,16,24,10,51,16,24,10,51,16,24,10,"spc"
"802","Vicenza",51,16,24,10,56,15,21,8,51,16,24,10,"spc"
"803","Victoria Plains",48,16,26,11,51,16,24,10,48,16,26,11,"spc"
"804","Violet",12,8,41,39,16,10,39,33,12,8,41,39,"spc"
"805","Virgil",19,14,38,28,22,14,39,20,19,14,38,28,"spc"
"806","Voewood",12,8,41,39,18,10,40,33,12,8,41,39,"spc"
"807","Wagoora",36,17,30,17,42,16,27,15,36,17,30,17,"spc"
"808","Wagoora, Basic Parent Material Variant",29,18,34,19,42,16,27,15,29,18,34,19,"spc"
"809","Walkamin",36,17,30,17,42,16,27,15,36,17,30,17,"spc"
"810","Walkamin Grey Variant",42,16,27,15,28,14,32,19,42,16,27,15,"spc"
"811","Walkamin Rocky Phase",29,18,34,19,NA,NA,NA,NA,29,18,34,19,"spc"
"812","Walker - Mhb",25,29,38,8,36,17,32,12,25,29,38,8,"spc"
"813","Walla",42,16,27,15,42,16,27,15,42,16,27,15,"spc"
"814","Wallum",4,4,31,61,8,6,37,49,4,4,31,61,"spc"
"815","Walsch",18,10,39,33,18,10,39,33,18,10,39,33,"spc"
"816","Walsh",12,8,41,39,19,13,47,20,12,8,41,39,"spc"
"817","Walsh Coarse Sandy Phase",12,6,28,53,NA,NA,NA,NA,12,6,28,53,"spc"
"818","Wandarra",5,4,20,71,12,8,37,39,5,4,20,71,"spc"
"819","Warrami",35,12,30,24,45,16,27,12,35,12,30,24,"spc"
"820","Warwick",33,12,39,16,39,14,32,13,33,12,39,16,"spc"
"821","Washpool",18,10,39,33,29,18,34,19,18,10,39,33,"spc"
"822","Watalgan",29,18,34,19,29,16,34,19,29,18,34,19,"spc"
"823","Wathana Heavier-Textured Var",8,6,37,49,NA,NA,NA,NA,8,6,37,49,"spc"
"824","Weatherby",14,13,54,19,18,13,39,19,14,13,54,19,"spc"
"825","Weir",42,16,27,15,45,16,27,12,42,16,27,15,"spc"
"826","Weithew",42,16,27,15,36,16,32,12,42,16,27,15,"spc"
"827","Well",51,16,24,10,51,16,24,10,51,16,24,10,"spc"
"828","Well, Footslope Variant",51,16,24,10,56,15,21,8,51,16,24,10,"spc"
"829","Well, Sandy Surface Variant",51,16,24,10,NA,NA,NA,NA,51,16,24,10,"spc"
"830","Wheatlands",18,10,39,33,22,11,37,30,18,10,39,33,"spc"
"831","Whelan",16,13,40,31,14,12,41,28,16,13,40,31,"spc"
"832","Whiptail",18,10,39,33,19,13,39,20,18,10,39,33,"spc"
"833","Whitfield",18,10,39,33,20,18,41,20,18,10,39,33,"spc"
"834","Whymere",18,10,39,33,25,24,38,14,18,10,39,33,"spc"
"835","Windradene",42,16,27,15,45,16,27,12,42,16,27,15,"spc"
"836","Winfield",6,5,33,56,8,6,37,49,6,5,33,56,"spc"
"837","Witton, vertic variant",45,16,27,12,45,16,27,12,45,16,27,12,"spc"
"838","Wivenhoe",18,10,39,33,18,10,39,33,18,10,39,33,"spc"
"839","Woco",8,6,52,34,29,16,34,19,8,6,52,34,"spc"
"840","Wollingford",18,12,43,26,19,13,39,20,18,12,43,26,"spc"
"841","Wollingford, Intrusive Parent Material Variant",18,10,39,33,NA,NA,NA,NA,18,10,39,33,"spc"
"842","Wollingford, Yellow B Horizon Variant",18,10,39,33,NA,NA,NA,NA,18,10,39,33,"spc"
"843","Wondai",45,16,27,12,51,16,24,10,45,16,27,12,"spc"
"844","Wongabel",18,10,39,33,18,12,39,26,18,10,39,33,"spc"
"845","Woober",28,27,36,8,26,18,38,15,28,27,36,8,"spc"
"846","Woodleigh",45,16,27,12,51,16,24,9,45,16,27,12,"spc"
"847","Woolmer",14,13,54,19,14,10,41,33,14,13,54,19,"spc"
"848","Woongarra",42,16,27,15,45,16,27,12,42,16,27,15,"spc"
"849","Wooroolin",29,18,34,19,42,16,27,15,29,18,34,19,"spc"
"850","Wygong",56,15,21,8,54,16,22,9,56,15,21,8,"spc"
"851","Wyseby",22,17,44,17,19,11,39,30,22,17,44,17,"spc"
"852","Yackadoo",29,18,34,19,42,16,27,15,29,18,34,19,"spc"
"853","Yileena",12,8,41,39,NA,NA,NA,NA,12,8,41,39,"spc"
"854","Yuruga",14,13,54,19,22,17,42,17,14,13,54,19,"spc"
"855","1AKA1",NA,NA,NA,NA,8,6,36,50,8,6,36,50,"site"
"856","1ARU1",NA,NA,NA,NA,22,14,40,24,22,14,40,24,"site"
"857","1ATE1",NA,NA,NA,NA,4,4,31,61,4,4,31,61,"site"
"858","1ATE3",NA,NA,NA,NA,22,17,37,19,22,17,37,19,"site"
"859","1AUg-4",NA,NA,NA,NA,57,15,21,7,57,15,21,7,"site"
"860","1AVE2",NA,NA,NA,NA,51,16,24,10,51,16,24,10,"site"
"861","1AVE3",NA,NA,NA,NA,42,16,27,15,42,16,27,15,"site"
"862","1AVE4",NA,NA,NA,NA,51,15,24,10,51,15,24,10,"site"
"863","1AVE6",NA,NA,NA,NA,45,16,27,12,45,16,27,12,"site"
"864","1Dda3",NA,NA,NA,NA,25,18,38,17,25,18,38,17,"site"
"865","1SOb",NA,NA,NA,NA,20,18,38,19,20,18,38,19,"site"
"866","1Uga1",NA,NA,NA,NA,51,16,24,10,51,16,24,10,"site"
"867","1Ugf",NA,NA,NA,NA,42,16,27,15,42,16,27,15,"site"
"868","2ADb-1",NA,NA,NA,NA,29,18,34,19,29,18,34,19,"site"
"869","2AUg-3",NA,NA,NA,NA,56,15,21,8,56,15,21,8,"site"
"870","2AUg-7",NA,NA,NA,NA,56,15,21,8,56,15,21,8,"site"
"871","2AUg-8m",NA,NA,NA,NA,56,15,21,8,56,15,21,8,"site"
"872","2AVE2",NA,NA,NA,NA,51,16,24,10,51,16,24,10,"site"
"873","2Dba5",NA,NA,NA,NA,26,18,39,18,26,18,39,18,"site"
"874","2Dbb2",NA,NA,NA,NA,19,14,44,20,19,14,44,20,"site"
"875","2Dda2",NA,NA,NA,NA,22,17,44,19,22,17,44,19,"site"
"876","2Ddb2",NA,NA,NA,NA,29,18,34,19,29,18,34,19,"site"
"877","2Dya2",NA,NA,NA,NA,22,17,44,18,22,17,44,18,"site"
"878","2Dya3",NA,NA,NA,NA,42,16,27,15,42,16,27,15,"site"
"879","2Dyb2",NA,NA,NA,NA,22,17,40,19,22,17,40,19,"site"
"880","2Dyc2",NA,NA,NA,NA,22,18,42,17,22,18,42,17,"site"
"881","2Dyc3",NA,NA,NA,NA,36,16,30,16,36,16,30,16,"site"
"882","2Ugb",NA,NA,NA,NA,45,16,27,12,45,16,27,12,"site"
"883","2Ugc",NA,NA,NA,NA,45,16,27,12,45,16,27,12,"site"
"884","2UgcW",NA,NA,NA,NA,45,16,27,12,45,16,27,12,"site"
"885","2Ugd1",NA,NA,NA,NA,44,16,27,14,44,16,27,14,"site"
"886","2ugd2",NA,NA,NA,NA,42,16,27,15,42,16,27,15,"site"
"887","2Ugd5",NA,NA,NA,NA,42,16,27,15,42,16,27,15,"site"
"888","2UgdW",NA,NA,NA,NA,42,16,27,15,42,16,27,15,"site"
"889","2Uge",NA,NA,NA,NA,45,16,27,12,45,16,27,12,"site"
"890","2Uge2",NA,NA,NA,NA,42,16,27,15,42,16,27,15,"site"
"891","2Uge7",NA,NA,NA,NA,45,16,27,12,45,16,27,12,"site"
"892","2UgeS",NA,NA,NA,NA,48,16,26,11,48,16,26,11,"site"
"893","2Ugf",NA,NA,NA,NA,51,16,24,10,51,16,24,10,"site"
"894","2UgfW",NA,NA,NA,NA,51,16,24,10,51,16,24,10,"site"
"895","2Ugg",NA,NA,NA,NA,51,16,24,10,51,16,24,10,"site"
"896","2Ugg5",NA,NA,NA,NA,51,16,24,10,51,16,24,10,"site"
"897","2UggW",NA,NA,NA,NA,51,16,24,10,51,16,24,10,"site"
"898","2Ugh",NA,NA,NA,NA,51,16,24,10,51,16,24,10,"site"
"899","2Ugk",NA,NA,NA,NA,51,16,24,10,51,16,24,10,"site"
"900","2Ugk2",NA,NA,NA,NA,51,16,24,10,51,16,24,10,"site"
"901","2VEe",NA,NA,NA,NA,51,16,24,10,51,16,24,10,"site"
"902","3ASO1",NA,NA,NA,NA,14,13,41,19,14,13,41,19,"site"
"903","3ASO2",NA,NA,NA,NA,19,14,44,19,19,14,44,19,"site"
"904","3AVE1",NA,NA,NA,NA,51,16,24,10,51,16,24,10,"site"
"905","3AVE2",NA,NA,NA,NA,45,14,30,12,45,14,30,12,"site"
"906","3SOb",NA,NA,NA,NA,19,14,38,28,19,14,38,28,"site"
"907","3Ug",NA,NA,NA,NA,45,16,27,12,45,16,27,12,"site"
"908","3Uga",NA,NA,NA,NA,56,15,21,8,56,15,21,8,"site"
"909","3Ugc",NA,NA,NA,NA,51,16,24,10,51,16,24,10,"site"
"910","3Ugd",NA,NA,NA,NA,51,16,24,10,51,16,24,10,"site"
"911","3Uge",NA,NA,NA,NA,51,16,24,10,51,16,24,10,"site"
"912","3Ugk",NA,NA,NA,NA,45,16,27,12,45,16,27,12,"site"
"913","4Dyd3",NA,NA,NA,NA,22,17,44,18,22,17,44,18,"site"
"914","5Dra3",NA,NA,NA,NA,42,16,27,15,42,16,27,15,"site"
"915","5SOy",NA,NA,NA,NA,29,18,34,19,29,18,34,19,"site"
"916","5Uga",NA,NA,NA,NA,51,16,24,10,51,16,24,10,"site"
"917","5UgaS",NA,NA,NA,NA,50,16,24,10,50,16,24,10,"site"
"918","5Ugb",NA,NA,NA,NA,42,16,27,15,42,16,27,15,"site"
"919","5Ugc  Depression",NA,NA,NA,NA,45,16,27,12,45,16,27,12,"site"
"920","5VEy",NA,NA,NA,NA,42,26,27,5,42,26,27,5,"site"
"921","6ADb-4",NA,NA,NA,NA,22,17,44,17,22,17,44,17,"site"
"922","6Db",NA,NA,NA,NA,18,10,39,33,18,10,39,33,"site"
"923","6Dbb2",NA,NA,NA,NA,25,18,37,19,25,18,37,19,"site"
"924","6Dbc2",NA,NA,NA,NA,19,13,39,20,19,13,39,20,"site"
"925","6Dbe2",NA,NA,NA,NA,26,18,38,19,26,18,38,19,"site"
"926","6Dbh2",NA,NA,NA,NA,22,17,44,19,22,17,44,19,"site"
"927","6Dy",NA,NA,NA,NA,22,17,44,17,22,17,44,17,"site"
"928","6Dya5",NA,NA,NA,NA,12,8,41,39,12,8,41,39,"site"
"929","6Dyc2",NA,NA,NA,NA,22,11,37,30,22,11,37,30,"site"
"930","6Dyd2",NA,NA,NA,NA,22,17,44,18,22,17,44,18,"site"
"931","6Dyd7",NA,NA,NA,NA,22,17,44,17,22,17,44,17,"site"
"932","6Dye3",NA,NA,NA,NA,18,10,39,33,18,10,39,33,"site"
"933","6Dyf2",NA,NA,NA,NA,22,17,39,19,22,17,39,19,"site"
"934","6Dyf3",NA,NA,NA,NA,22,17,39,19,22,17,39,19,"site"
"935","6Dyg4",NA,NA,NA,NA,16,13,40,31,16,13,40,31,"site"
"936","6E",NA,NA,NA,NA,51,16,24,10,51,16,24,10,"site"
"937","6Gn",NA,NA,NA,NA,29,18,34,19,29,18,34,19,"site"
"938","6UfdA",NA,NA,NA,NA,45,16,27,12,45,16,27,12,"site"
"939","6Ufe",NA,NA,NA,NA,42,16,27,15,42,16,27,15,"site"
"940","6Uma2",NA,NA,NA,NA,14,13,44,19,14,13,44,19,"site"
"941","6UmbC",NA,NA,NA,NA,22,17,44,17,22,17,44,17,"site"
"942","Abercorn",NA,NA,NA,NA,22,17,41,17,22,17,41,17,"site"
"943","Abergowrie Sandy Phase",NA,NA,NA,NA,12,8,41,39,12,8,41,39,"site"
"944","Alice",NA,NA,NA,NA,12,8,41,39,12,8,41,39,"site"
"945","Alluvial Complex - Lower, Cracking Clays",NA,NA,NA,NA,51,16,24,10,51,16,24,10,"site"
"946","Althaus (Zed)",NA,NA,NA,NA,12,8,41,39,12,8,41,39,"site"
"947","Andergrove (Alkaline Variant)",NA,NA,NA,NA,8,6,37,49,8,6,37,49,"site"
"948","Andergrove Water Table Variant",NA,NA,NA,NA,4,4,26,66,4,4,26,66,"site"
"949","Andromache",NA,NA,NA,NA,12,8,41,39,12,8,41,39,"site"
"950","Anyarro",NA,NA,NA,NA,18,10,41,33,18,10,41,33,"site"
"951","Archookoora Nodular Phase",NA,NA,NA,NA,42,16,27,15,42,16,27,15,"site"
"952","Arnolds",NA,NA,NA,NA,12,6,37,49,12,6,37,49,"site"
"953","Arnot Dark Phase",NA,NA,NA,NA,12,8,41,39,12,8,41,39,"site"
"954","Awoonga",NA,NA,NA,NA,18,13,41,20,18,13,41,20,"site"
"955","Ayreesta",NA,NA,NA,NA,32,18,33,18,32,18,33,18,"site"
"956","Balark",NA,NA,NA,NA,54,16,22,9,54,16,22,9,"site"
"957","Bambave A Horizon Variant",NA,NA,NA,NA,15,9,40,36,15,9,40,36,"site"
"958","Barrack",NA,NA,NA,NA,20,16,38,20,20,16,38,20,"site"
"959","Barrunga With Erosion (1ugae)",NA,NA,NA,NA,51,16,24,10,51,16,24,10,"site"
"960","BDba",NA,NA,NA,NA,22,15,42,18,22,15,42,18,"site"
"961","Beecher",NA,NA,NA,NA,29,18,34,19,29,18,34,19,"site"
"962","Bells",NA,NA,NA,NA,19,14,47,20,19,14,47,20,"site"
"963","Belvedere",NA,NA,NA,NA,45,16,27,12,45,16,27,12,"site"
"964","Bently",NA,NA,NA,NA,20,29,41,9,20,29,41,9,"site"
"965","BGna",NA,NA,NA,NA,22,17,44,17,22,17,44,17,"site"
"966","BGnb",NA,NA,NA,NA,22,14,44,20,22,14,44,20,"site"
"967","BGnb2",NA,NA,NA,NA,26,18,39,18,26,18,39,18,"site"
"968","BGnc",NA,NA,NA,NA,18,11,39,30,18,11,39,30,"site"
"969","Bidwill Rocky Phase",NA,NA,NA,NA,42,16,27,15,42,16,27,15,"site"
"970","Bilboolan",NA,NA,NA,NA,42,16,27,15,42,16,27,15,"site"
"971","Blackburn",NA,NA,NA,NA,42,16,27,15,42,16,27,15,"site"
"972","Blackburn Shallow Phase",NA,NA,NA,NA,45,16,27,10,45,16,27,10,"site"
"973","Blair",NA,NA,NA,NA,45,16,27,12,45,16,27,12,"site"
"974","Bluewater (Zed)",NA,NA,NA,NA,20,18,38,23,20,18,38,23,"site"
"975","Bonnie Crofts",NA,NA,NA,NA,45,16,27,12,45,16,27,12,"site"
"976","Boongary",NA,NA,NA,NA,51,16,24,10,51,16,24,10,"site"
"977","Bovekel",NA,NA,NA,NA,56,15,21,8,56,15,21,8,"site"
"978","Boyanda",NA,NA,NA,NA,8,6,37,49,8,6,37,49,"site"
"979","Boyles",NA,NA,NA,NA,29,17,34,19,29,17,34,19,"site"
"980","Bubbler",NA,NA,NA,NA,42,16,27,12,42,16,27,12,"site"
"981","BUca",NA,NA,NA,NA,9,6,37,49,9,6,37,49,"site"
"982","BUcb",NA,NA,NA,NA,14,13,54,19,14,13,54,19,"site"
"983","Bucca Red Variant",NA,NA,NA,NA,36,17,30,17,36,17,30,17,"site"
"984","BUfa",NA,NA,NA,NA,42,16,27,15,42,16,27,15,"site"
"985","BUfb",NA,NA,NA,NA,42,16,27,15,42,16,27,15,"site"
"986","BUfc",NA,NA,NA,NA,45,16,27,12,45,16,27,12,"site"
"987","BUfd",NA,NA,NA,NA,42,16,27,15,42,16,27,15,"site"
"988","BUfe",NA,NA,NA,NA,42,16,27,12,42,16,27,12,"site"
"989","BUg-10",NA,NA,NA,NA,57,15,21,7,57,15,21,7,"site"
"990","BUg-6",NA,NA,NA,NA,57,15,21,7,57,15,21,7,"site"
"991","BUga",NA,NA,NA,NA,51,16,24,10,51,16,24,10,"site"
"992","Bullhead",NA,NA,NA,NA,42,16,27,15,42,16,27,15,"site"
"993","Bullhead Shallow Phase",NA,NA,NA,NA,42,16,27,15,42,16,27,15,"site"
"994","BUma",NA,NA,NA,NA,22,17,44,17,22,17,44,17,"site"
"995","BUmb",NA,NA,NA,NA,22,17,44,17,22,17,44,17,"site"
"996","BUmb2",NA,NA,NA,NA,20,16,46,18,20,16,46,18,"site"
"997","BUmd",NA,NA,NA,NA,22,17,44,17,22,17,44,17,"site"
"998","Burdekin Buried Soils Or D Horizons Vary",NA,NA,NA,NA,22,17,44,19,22,17,44,19,"site"
"999","Burnett Coarse Sandy Variant",NA,NA,NA,NA,8,6,41,39,8,6,41,39,"site"
"1000","Burnett Shallow Phase",NA,NA,NA,NA,12,8,41,39,12,8,41,39,"site"
"1001","Bushnell Eroded Phase",NA,NA,NA,NA,12,8,41,39,12,8,41,39,"site"
"1002","Butcher Sandy Variant",NA,NA,NA,NA,12,8,41,39,12,8,41,39,"site"
"1003","BVE1",NA,NA,NA,NA,51,16,24,10,51,16,24,10,"site"
"1004","Cameron (Gleyed Subsoil Phase)",NA,NA,NA,NA,24,13,32,30,24,13,32,30,"site"
"1005","CDba",NA,NA,NA,NA,22,17,44,17,22,17,44,17,"site"
"1006","CDbb",NA,NA,NA,NA,20,15,42,18,20,15,42,18,"site"
"1007","CDE4",NA,NA,NA,NA,42,16,27,15,42,16,27,15,"site"
"1008","CDra",NA,NA,NA,NA,18,10,39,33,18,10,39,33,"site"
"1009","Ceduna",NA,NA,NA,NA,20,29,41,9,20,29,41,9,"site"
"1010","Ceratodus",NA,NA,NA,NA,22,17,44,17,22,17,44,17,"site"
"1011","Chessborough Rubbly, Shallow And Rocky Phase",NA,NA,NA,NA,29,18,34,19,29,18,34,19,"site"
"1012","Clemant - red subsoil horizons",NA,NA,NA,NA,8,6,37,49,8,6,37,49,"site"
"1013","Cobbleton",NA,NA,NA,NA,18,10,39,33,18,10,39,33,"site"
"1014","Colenso",NA,NA,NA,NA,22,14,40,24,22,14,40,24,"site"
"1015","Conway (Cqh)",NA,NA,NA,NA,14,10,41,33,14,10,41,33,"site"
"1016","Coorooman",NA,NA,NA,NA,12,8,41,39,12,8,41,39,"site"
"1017","Corduroy",NA,NA,NA,NA,29,18,34,19,29,18,34,19,"site"
"1018","Corea",NA,NA,NA,NA,12,8,39,39,12,8,39,39,"site"
"1019","Crystalbrook",NA,NA,NA,NA,38,16,33,15,38,16,33,15,"site"
"1020","CSO2",NA,NA,NA,NA,18,10,39,32,18,10,39,32,"site"
"1021","CUca",NA,NA,NA,NA,9,6,35,50,9,6,35,50,"site"
"1022","CUfa",NA,NA,NA,NA,42,16,27,15,42,16,27,15,"site"
"1023","CUfb",NA,NA,NA,NA,45,16,27,12,45,16,27,12,"site"
"1024","CUfc",NA,NA,NA,NA,42,16,27,12,42,16,27,12,"site"
"1025","CUma",NA,NA,NA,NA,22,12,37,30,22,12,37,30,"site"
"1026","CUma2",NA,NA,NA,NA,18,10,39,33,18,10,39,33,"site"
"1027","CUmb",NA,NA,NA,NA,22,17,44,17,22,17,44,17,"site"
"1028","CVE1",NA,NA,NA,NA,51,16,24,10,51,16,24,10,"site"
"1029","CVE2",NA,NA,NA,NA,51,16,24,10,51,16,24,10,"site"
"1030","CVE3",NA,NA,NA,NA,48,16,26,11,48,16,26,11,"site"
"1031","CVE4",NA,NA,NA,NA,51,16,24,10,51,16,24,10,"site"
"1032","CVE5",NA,NA,NA,NA,51,16,24,10,51,16,24,10,"site"
"1033","Dale",NA,NA,NA,NA,12,7,34,46,12,7,34,46,"site"
"1034","Dalgangal",NA,NA,NA,NA,42,16,27,15,42,16,27,15,"site"
"1035","Dalrymple",NA,NA,NA,NA,16,8,37,39,16,8,37,39,"site"
"1036","Dargy",NA,NA,NA,NA,50,16,24,10,50,16,24,10,"site"
"1037","Darts",NA,NA,NA,NA,18,13,39,23,18,13,39,23,"site"
"1038","Dillan",NA,NA,NA,NA,18,10,39,33,18,10,39,33,"site"
"1039","Doonside",NA,NA,NA,NA,18,13,39,23,18,13,39,23,"site"
"1040","Dotswood",NA,NA,NA,NA,12,8,39,39,12,8,39,39,"site"
"1041","Dove",NA,NA,NA,NA,51,16,24,10,51,16,24,10,"site"
"1042","Drysdale",NA,NA,NA,NA,45,16,27,12,45,16,27,12,"site"
"1043","Dunbas Deep Phase",NA,NA,NA,NA,51,16,24,10,51,16,24,10,"site"
"1044","Eden",NA,NA,NA,NA,42,16,27,15,42,16,27,15,"site"
"1045","Egera",NA,NA,NA,NA,45,16,27,12,45,16,27,12,"site"
"1046","Elizabeth",NA,NA,NA,NA,29,18,34,19,29,18,34,19,"site"
"1047","Ellis",NA,NA,NA,NA,12,8,41,39,12,8,41,39,"site"
"1048","Fanning River",NA,NA,NA,NA,19,14,41,19,19,14,41,19,"site"
"1049","Farencer Buried Soils Or D Horizons Vary",NA,NA,NA,NA,29,18,34,19,29,18,34,19,"site"
"1050","Farnsfield Sandy Variant",NA,NA,NA,NA,8,6,37,49,8,6,37,49,"site"
"1051","Feluga Red Variant",NA,NA,NA,NA,18,10,39,33,18,10,39,33,"site"
"1052","Fison",NA,NA,NA,NA,14,13,50,20,14,13,50,20,"site"
"1053","Flanders",NA,NA,NA,NA,12,8,41,39,12,8,41,39,"site"
"1054","Fletcher - Brcl",NA,NA,NA,NA,42,16,27,15,42,16,27,15,"site"
"1055","Fourmile",NA,NA,NA,NA,24,18,38,17,24,18,38,17,"site"
"1056","Fowler",NA,NA,NA,NA,22,11,37,30,22,11,37,30,"site"
"1057","Galway",NA,NA,NA,NA,22,16,37,19,22,16,37,19,"site"
"1058","Gayfield",NA,NA,NA,NA,12,8,41,39,12,8,41,39,"site"
"1059","Gillian",NA,NA,NA,NA,42,16,27,15,42,16,27,15,"site"
"1060","Glen Isla",NA,NA,NA,NA,24,17,38,17,24,17,38,17,"site"
"1061","Glenalder Buried Soils Or D Horizons Vary",NA,NA,NA,NA,18,10,39,33,18,10,39,33,"site"
"1062","Gooburrum Mottled Variant",NA,NA,NA,NA,18,10,39,33,18,10,39,33,"site"
"1063","Goodbye (MAJCK)",NA,NA,NA,NA,28,13,33,26,28,13,33,26,"site"
"1064","Gracemere",NA,NA,NA,NA,45,16,27,12,45,16,27,12,"site"
"1065","Halivale",NA,NA,NA,NA,22,16,34,19,22,16,34,19,"site"
"1066","Harwood",NA,NA,NA,NA,14,13,54,19,14,13,54,19,"site"
"1067","Healy",NA,NA,NA,NA,8,6,37,49,8,6,37,49,"site"
"1068","Hillgrove",NA,NA,NA,NA,29,18,34,19,29,18,34,19,"site"
"1069","Hind",NA,NA,NA,NA,56,15,21,8,56,15,21,8,"site"
"1070","Homestead",NA,NA,NA,NA,30,13,33,24,30,13,33,24,"site"
"1071","IDE1",NA,NA,NA,NA,45,16,27,12,45,16,27,12,"site"
"1072","Isis Rocky Phase",NA,NA,NA,NA,12,8,38,39,12,8,38,39,"site"
"1073","Jarvisfield",NA,NA,NA,NA,22,17,44,17,22,17,44,17,"site"
"1074","Jedda",NA,NA,NA,NA,56,15,21,8,56,15,21,8,"site"
"1075","Johnson",NA,NA,NA,NA,12,8,37,39,12,8,37,39,"site"
"1076","Kairi",NA,NA,NA,NA,45,16,27,12,45,16,27,12,"site"
"1077","Kelona A Horizon Variant",NA,NA,NA,NA,22,17,41,17,22,17,41,17,"site"
"1078","Kelona Buried Soils Or D Horizons Vary",NA,NA,NA,NA,22,18,38,19,22,18,38,19,"site"
"1079","Keppel",NA,NA,NA,NA,18,13,39,20,18,13,39,20,"site"
"1080","Koberinga Mottled Phase (3uga9)",NA,NA,NA,NA,51,16,24,10,51,16,24,10,"site"
"1081","Koberinga Pebbly Phase (3uga8)",NA,NA,NA,NA,51,16,24,10,51,16,24,10,"site"
"1082","Koberinga Pebbly Phase (3uge8)",NA,NA,NA,NA,51,16,24,10,51,16,24,10,"site"
"1083","Koberinga Shallow Variant",NA,NA,NA,NA,51,16,24,10,51,16,24,10,"site"
"1084","Kolan Red Variant",NA,NA,NA,NA,28,16,34,19,28,16,34,19,"site"
"1085","Kolan Rocky Phase",NA,NA,NA,NA,18,14,47,20,18,14,47,20,"site"
"1086","Koolachu (Saline Variant)",NA,NA,NA,NA,12,8,41,39,12,8,41,39,"site"
"1087","Krongie",NA,NA,NA,NA,51,16,24,10,51,16,24,10,"site"
"1088","Kulburn",NA,NA,NA,NA,13,10,48,29,13,10,48,29,"site"
"1089","Lancer Buried Soils Or D Horizons Vary (6drb2)",NA,NA,NA,NA,20,17,38,23,20,17,38,23,"site"
"1090","Lascelles (Alkaline Variant)",NA,NA,NA,NA,28,16,43,15,28,16,43,15,"site"
"1091","Laura",NA,NA,NA,NA,42,16,27,15,42,16,27,15,"site"
"1092","Lily",NA,NA,NA,NA,42,16,27,15,42,16,27,15,"site"
"1093","Limeview",NA,NA,NA,NA,18,10,41,33,18,10,41,33,"site"
"1094","Lingilor",NA,NA,NA,NA,45,16,27,12,45,16,27,12,"site"
"1095","Lizard",NA,NA,NA,NA,42,16,27,15,42,16,27,15,"site"
"1096","Lorna",NA,NA,NA,NA,19,14,47,20,19,14,47,20,"site"
"1097","Magnan",NA,NA,NA,NA,20,18,41,19,20,18,41,19,"site"
"1098","Maidavale",NA,NA,NA,NA,32,16,36,16,32,16,36,16,"site"
"1099","Malchi",NA,NA,NA,NA,22,17,41,17,22,17,41,17,"site"
"1100","Manoa Red Variant",NA,NA,NA,NA,25,17,37,12,25,17,37,12,"site"
"1101","Mary Dark Variant",NA,NA,NA,NA,36,17,32,15,36,17,32,15,"site"
"1102","Maryvale",NA,NA,NA,NA,51,16,24,10,51,16,24,10,"site"
"1103","MDE1",NA,NA,NA,NA,42,16,27,15,42,16,27,15,"site"
"1104","Meilland",NA,NA,NA,NA,12,6,28,53,12,6,28,53,"site"
"1105","Military",NA,NA,NA,NA,8,6,37,49,8,6,37,49,"site"
"1106","Mingela",NA,NA,NA,NA,12,8,39,39,12,8,39,39,"site"
"1107","Mirriwinni",NA,NA,NA,NA,28,8,24,38,28,8,24,38,"site"
"1108","Miskin Buried Soils Or D Horizons Vary",NA,NA,NA,NA,8,6,37,49,8,6,37,49,"site"
"1109","Miva",NA,NA,NA,NA,42,16,27,15,42,16,27,15,"site"
"1110","Moosie (MAJCK)",NA,NA,NA,NA,20,15,42,19,20,15,42,19,"site"
"1111","Moramana, Gilgai Phase",NA,NA,NA,NA,51,16,24,10,51,16,24,10,"site"
"1112","MUca",NA,NA,NA,NA,6,5,50,42,6,5,50,42,"site"
"1113","MUcb",NA,NA,NA,NA,14,13,54,19,14,13,54,19,"site"
"1114","Mulgildie Eroded Phase",NA,NA,NA,NA,29,18,34,19,29,18,34,19,"site"
"1115","Mulgildie Snuffy Variant",NA,NA,NA,NA,36,17,30,17,36,17,30,17,"site"
"1116","Myrtlevale",NA,NA,NA,NA,42,16,27,14,42,16,27,14,"site"
"1117","Neerdie",NA,NA,NA,NA,28,14,43,15,28,14,43,15,"site"
"1118","Neugildie Colluvial, Clayey Variant",NA,NA,NA,NA,42,16,27,15,42,16,27,15,"site"
"1119","Normanby",NA,NA,NA,NA,51,16,24,10,51,16,24,10,"site"
"1120","Obi",NA,NA,NA,NA,18,10,39,33,18,10,39,33,"site"
"1121","Otoo Sandy Variant",NA,NA,NA,NA,12,8,41,39,12,8,41,39,"site"
"1122","Pattel",NA,NA,NA,NA,14,13,54,19,14,13,54,19,"site"
"1123","Pennsfield (Shallow Variant)",NA,NA,NA,NA,10,7,39,44,10,7,39,44,"site"
"1124","Pentland",NA,NA,NA,NA,18,10,39,33,18,10,39,33,"site"
"1125","Pope",NA,NA,NA,NA,45,16,27,12,45,16,27,12,"site"
"1126","Powlathanga",NA,NA,NA,NA,42,16,27,12,42,16,27,12,"site"
"1127","Preston",NA,NA,NA,NA,29,18,34,18,29,18,34,18,"site"
"1128","Rangeside",NA,NA,NA,NA,9,6,37,49,9,6,37,49,"site"
"1129","Raven",NA,NA,NA,NA,20,18,38,23,20,18,38,23,"site"
"1130","RDya",NA,NA,NA,NA,29,18,34,19,29,18,34,19,"site"
"1131","Red Flank",NA,NA,NA,NA,7,6,26,61,7,6,26,61,"site"
"1132","Rishton",NA,NA,NA,NA,8,6,37,49,8,6,37,49,"site"
"1133","Ronnoc",NA,NA,NA,NA,57,15,21,7,57,15,21,7,"site"
"1134","Rosslyn",NA,NA,NA,NA,18,10,39,33,18,10,39,33,"site"
"1135","Ruby",NA,NA,NA,NA,29,18,34,19,29,18,34,19,"site"
"1136","RUfe",NA,NA,NA,NA,45,16,27,10,45,16,27,10,"site"
"1137","RUff",NA,NA,NA,NA,42,16,27,15,42,16,27,15,"site"
"1138","RUga",NA,NA,NA,NA,45,16,27,12,45,16,27,12,"site"
"1139","Rugb",NA,NA,NA,NA,51,16,24,10,51,16,24,10,"site"
"1140","RUgbS",NA,NA,NA,NA,51,16,24,10,51,16,24,10,"site"
"1141","RUgc",NA,NA,NA,NA,51,16,24,10,51,16,24,10,"site"
"1142","RUgcS",NA,NA,NA,NA,48,16,26,11,48,16,26,11,"site"
"1143","RUgd",NA,NA,NA,NA,51,16,24,10,51,16,24,10,"site"
"1144","Sandalwood",NA,NA,NA,NA,35,16,32,17,35,16,32,17,"site"
"1145","Sandy",NA,NA,NA,NA,8,6,37,49,8,6,37,49,"site"
"1146","SDE1",NA,NA,NA,NA,35,14,30,22,35,14,30,22,"site"
"1147","SDE2",NA,NA,NA,NA,29,16,34,19,29,16,34,19,"site"
"1148","Spanos Heavy Variant",NA,NA,NA,NA,16,8,25,51,16,8,25,51,"site"
"1149","SSO1",NA,NA,NA,NA,19,12,40,25,19,12,40,25,"site"
"1150","Stanage",NA,NA,NA,NA,11,10,53,26,11,10,53,26,"site"
"1151","Stockyard loam",NA,NA,NA,NA,19,11,39,30,19,11,39,30,"site"
"1152","Sugarmill Acid Variant",NA,NA,NA,NA,29,18,34,19,29,18,34,19,"site"
"1153","Sugarmill Gravelly Variant",NA,NA,NA,NA,29,18,34,15,29,18,34,15,"site"
"1154","Sullivan",NA,NA,NA,NA,56,15,21,8,56,15,21,8,"site"
"1155","SVE1",NA,NA,NA,NA,51,16,24,10,51,16,24,10,"site"
"1156","Tanby",NA,NA,NA,NA,12,8,41,39,12,8,41,39,"site"
"1157","Taughboyne",NA,NA,NA,NA,29,18,34,19,29,18,34,19,"site"
"1158","TbUg-1",NA,NA,NA,NA,57,15,21,7,57,15,21,7,"site"
"1159","TbUg-11",NA,NA,NA,NA,57,15,21,7,57,15,21,7,"site"
"1160","TbUg-6",NA,NA,NA,NA,57,15,21,7,57,15,21,7,"site"
"1161","Teralba",NA,NA,NA,NA,14,13,47,20,14,13,47,20,"site"
"1162","Thompson - Mrc",NA,NA,NA,NA,28,14,43,15,28,14,43,15,"site"
"1163","Thorpe Fine Variant",NA,NA,NA,NA,18,10,39,33,18,10,39,33,"site"
"1164","Tirroan Non-Sodic Variant",NA,NA,NA,NA,12,8,41,39,12,8,41,39,"site"
"1165","UDE1",NA,NA,NA,NA,45,16,27,12,45,16,27,12,"site"
"1166","Uruba Alluvial-Colluvial Variant",NA,NA,NA,NA,22,20,38,20,22,20,38,20,"site"
"1167","Utchee - Dlr",NA,NA,NA,NA,22,11,37,30,22,11,37,30,"site"
"1168","Valetta",NA,NA,NA,NA,19,16,38,23,19,16,38,23,"site"
"1169","Walkamin Sandy Phase",NA,NA,NA,NA,19,14,47,20,19,14,47,20,"site"
"1170","Walker (Majck)",NA,NA,NA,NA,22,11,38,30,22,11,38,30,"site"
"1171","Watalgan Mottled Variant",NA,NA,NA,NA,29,17,34,19,29,17,34,19,"site"
"1172","White",NA,NA,NA,NA,42,16,27,15,42,16,27,15,"site"
"1173","Wigton Association",NA,NA,NA,NA,7,6,26,61,7,6,26,61,"site"
"1174","Windermere",NA,NA,NA,NA,45,16,27,12,45,16,27,12,"site"
"1175","Witton",NA,NA,NA,NA,42,16,27,15,42,16,27,15,"site"
"1176","Yandaran",NA,NA,NA,NA,8,6,37,49,8,6,37,49,"site"
"1177","Yaringa",NA,NA,NA,NA,25,29,38,8,25,29,38,8,"site"
"1178","Yarraman",NA,NA,NA,NA,50,16,24,10,50,16,24,10,"site"
"1179","Yarrol",NA,NA,NA,NA,22,17,44,17,22,17,44,17,"site"
"1180","Yeppoon",NA,NA,NA,NA,25,29,38,8,25,29,38,8,"site"
"1181","YEPR",NA,NA,NA,NA,12,8,41,39,12,8,41,39,"site"
