NAME,VALUE
1ACH1,20
1ADb,20
1ADb-2,20
1ADb-7,25
1ADb-Dd,20
1ADd-3,50
1ADd-4,70
1ADE1,20
1ADE2,26
1AKA1,30
1ARU1,20.5
1ATE1,20
1AUg-12,20
1AUg-13,40
1AUg-3,65
1AUg-4,40
1AVE1,28
1AVE2,60
1AVE4,40
1AVE6,47.5
1CHa,22
1CHb,20
1Dbb,50
1DEa,20
1Dyd,30
1KTa,27
1SOa,24.5
1SOb,70
1Ug,65
1Uga,35
1Ugd,20
1Ugf,40
2ADb-1,50
2AUf-Ug-3,120
2AUg-3,120
2AUg-7,65
2AUg-8m,50
2AUg-9m,60
2AUgg-1m,125
2AUgg-2m,240
2AVE2,17
2Dba,65.25
2Dbb,34
2Dbc,29.5
2Dbd,20
2Dda,23.5
2Dda2,84.5
2Ddb,40
2Ddd,30
2Dya,96.25
2Dyb,30
2Dyc,31
2Uga,20
2Ugc,40
2UgcW,30.5
2Ugd,27
2ugd2,32.5
2Uge,27
2Ugf,21
2Ugg,30
2Ugh,32.5
2Ugj,1889.5
2Ugk,54
2VEa,25.5
2VEb,57.75
2VEe,104
2VEx,27.5
2VEy,33
3ASO2,35.5
3AUf,130
3AUf-Ug-1m,60
3AUf-Ug-2m,90
3AUf-Ug-3d,60
3AUf-Ug-6m,100
3AUg-2,80
3CHx,20
3Uga,64
3Uge,39.75
3VEa,123.5
3VEb,41.5
3VEc,38.5
3VEw,41
3VEy,65
3VEz,32.5
4AUf,100
4Dyb,20
4Dyd,20
4Dyg,27
4Dyj,20
4Gnb,20
4Ucc,20
5Dra,22.5
5Dya,23.5
5Dyc,35
5Dye,20.5
5Uga,20
5Ugb,25
5Ugc  Depression,20
6ADb-1,30
6ADb-4,15
6ADy-3,10
6AUg-10,17.5
6AUg-12,24
6AUg-3,50
6AUg-4,45
6AUg-5,10
6AUg-6,35
6AUg-8,35
6AUg-9,40
6Db,35
6Dba,26.5
6Dbb,27.5
6Dbc,20
6Dbd,20
6Dbe,20
6Dbf,20
6Dbg,20
6Dbh,16
6Dda,20.75
6Dra,20
6Drb,20
6Drc,20
6Dya,20
6Dyb,20
6Dyc,20
6Dyd,20
6Dye,20
6Dyf,20
6Dyf2,21
6Dyg,32
6Dyj,125
6Gn,20
6Gnb,20
6Gnc,20
6Gnd,20
6Ucc,20
6Ufd,17
6Uma,20
6Umb,25
Abbot,30
Abercorn,20
Abergowrie,25
Abergowrie Sandy Phase,20
Albert,29
Aldershot,18.075
Alice,100
Allandale,30
"Allandale, Strongly Sodic Variant",45
Alloway,20
Alma,45
Althaus,27.5
Althaus (Zed),100
Amity,20
Andergrove,27
Andergrove Water Table Variant,53
Anyarro,20
Apron,20
Archookoora,33.33333333333335
Arnot,20
Arnot Dark Phase,77.75
Aroa,20
Arriga,67.5
Ashgrove,45
Ashton,25
Auburn,40
Avondale,41
Awoonga,20
Babinda,30
Baddow,19.95
Balberra,49
Bally,0.002
Banana,20
Banban,20
Banyan,28
Barrack,20
Barron,20
Bauhinia,20
Bauple,38.5
Beeron,20
Bells,20
Belmunda,30
Belvedere,25
Benholme,43
Bently,100
Berris,34.5
Bicton,38
Bidwill,20
Bilboolan,50
Bingera,348.5
Blackburn,29.5
Blair,72
Bluewater,37.5
Bluewater (Zed),100
Bluff,20
Bonavista,88.5
Bonnie Crofts,58
Bonwell,20
Boonenne,20
Booyal,15
Bovekel,51.5
Boyanda,27
Boyles,20
Boyne,20
Boynewood,20
Brae,45
Brightley,82.5
Brooweena,44
Brooyar,588.5
Brosnan,20
Bubbler,20
BUca,20
Bucca,57
Buckley,20
BUfa,20
BUfb,21
BUfc,27
BUfe,562
Buffel,20
BUg-10,30
BUg-2,60
BUg-3,20
BUg-4,50
BUg-6,40
BUga,20
Bulgun,20
Bulguru,30
Bullhead,20
BUma,20
BUmb,20
Bungadoo,34.75
Burdekin,25.5
Burdekin Buried Soils Or D Horizons Vary,32
Burnett,80
Burnett Coarse Sandy Variant,160.5
Burradoo,23
Burrum,20
Bushnell,46.6666666666667
Bushnell Eroded Phase,20
Butcher,53
BVE1,22.5
Byabra,30
Byee,0.005
Calen,20
Callide,20
Cameron,37
Campbell Plains,61.9
Canoe,25.25
Cape,28.5
Carew,30
Carfax,20
Carmila,19
Cassidy,20
Castleview,20
Catherina,27
Cattle,20
CDba,53.5
Ceratodus,22.5
Cheeseboro,20
Chelmsford,20
Chessborough,20
Childers,20
Clayton,20
Clifton,39
Cole,28
Colenso,20
Commissioner,20
Condor,16.25
Conjuboy,31
Conway (Cqh),41.5
Coolabunia,30
Coom,32
Coonoon,20
Coorooman,30.5
Copenhagen,76.95
Corduroy,20
Cottonham,20
Creek,30
CUca,20.5
Cudmore,25
CUfb,127.5
Curlewis,20
Cushnie,20
CVE1,24
CVE2,182
CVE3,69
CVE4,37.5
CVE5,64.75
Dagun,30.5
Dalgangal,60
Dalrymple,133
Darts,31.5
Derra,20
Derra (CWL),50
Diamond (Kcm),20
"Diamond (Kcm), Footslope Variant",25
Dickson,20
Dingo (Pss),44
Dittmer,10
Dixie,20
Don,30
Doolbi,20
Doonside,20
Dotswood,22
Dove,41
Drinan,0.002
Dryander,34
Drysdale,52.5
Dudgeon,79
Dundula,70
Dunstan,25.5
Dunwold,20
Durong,20
Earlsfield,20
Eastgate,0.0165
Edgecumbe,59.5
Edmonton,102
Eerwah,20
Egera,104.5
Eleanor,20
"Eleanor, Mottled Phase",20
Elizabeth,20
Elliot,20
Ellis,20
Emerald,20
Endeavour,79
Eton,26
Etowrie,29
Etowrie (Neutral Variant),92.5
Eubenangee,20
Eversleigh,21.5
Fairdale,30
Fairview,22
Fairydale,67
Fairymead,247
Falkner,20
Fanning River,22
Farleigh,20
Farnsfield,20
Farnsfield Sandy Variant,20
Feluga,20
Feluga Red Variant,110
Finch Hatton,20
Finley,38
Fison,20
Flagstone,49
Fletcher,20
Fletcher - Brcl,20
Fowler,20
Foxdale,85
Foxleigh,20
Galmara,30.25
Gander,36.5
Gargett,20
Garradunga,20
Garrett,20.5
Gibson - Bab,56.5
Gigoon,20
Givelda,34.75
Glenella,20
Glenroc,30
Glenrock,20
Gooburrum,22
Goodbye,45
Goodger,61.6666666666667
Goorganga,40
Goovigen,20
Gordonbrook,30
Graham,20
Granville,51.5
Grevillea,48
Greycliffe,33.5
Greycliffe Melonhole Phase,55.5
Gueena,0.005
Gumlu,30
Habana,35
Haden,33.5
Haly,20
Hamleigh,50
Harris,24
Harwood,36.5
Healy,230
Hector (PCS),42.5
Herbert,26
Hewitt,32
Highbury,22.5
Hillgrove,29.5
Hillview,20
Hind,182
Hodge,20
Hodge (BAN),20
Holding,20
Hopevale,20
IDE1,36
Ingham,80
Inlet,45
Innisfail,25
Innot,0.001
Inverdon,20
Iona,43.3333333333333
Isis,27.5
Jambin,40.08333333333335
Jaro,2005
Jarra,31
Julian,39
Jumper,25
Jumpo,30
Kaban,0.003
Kaber,25
Kabra,27
Kailla,30
Kairi,50
Kalah,20
Kawl Kawl,86.6666666666667
Kaygaroo,20
Kelona A Horizon Variant,195
Kelona Buried Soils Or D Horizons Vary,20
Kenlogan,20
Kenmar,20
Kepnock,20
Keppel,20
Kiama,0.001
Kilburnie,20
Kinchant,20
"Kinchant, Coarse Sandy Variant",20
Kingjack,20
Kinkuna,7.501
Kirrama,48
Koberinga Mottled Phase (3uga9),20
Koberinga Pebbly Phase (3uga8),21.75
Koberinga Pebbly Phase (3uge8),20
Kokutungo,20
Kolan,66
Kolan Red Variant,46
Kolbore,374
Kooingal,20
Koolachu,25
Kooringa,24.5
Kowari,25
Kulburn,100
Kumbia,20
Kungurri,30
Kuttabul,20
"Kuttabul, Alluvial-Colluvial Variant",20
Lacon,23
Langley-Wdh,20
Lannercost,32.5
Lascelles,23.5
Laura,20
Leach,20
Leadingham,20
Lee,20
Leitrim,197
Lillypool,17.5
Lily,20
Lindsay,20
Lingilor,55
Littabella,45.5
Liverpool,25
Lizard,50.5
Logcamp,0.0045
Lorna,33.5
Lucy,34
Lugger,20.5
Maalan,20
Macknade,32.75
Maclean (Lak),20
Mahogany,15
Maiden,20
Manar,25
Mandam,227.5
Manoa Red Variant,171.5
Manor,26.5
Maraconda,45
Maria,20
Marian,41
Marlow,21
Maroondan,30
Marshlands,36.6666666666667
Martin,20
Martyr,20
Marwood,20
Mary,23.25
Mary Dark Variant,17.3
Maryvale,27.25
May,20
May Shallow Phase,20
Mceuen,20
Meadowvale,20
Meilland,20
Melton,20
Memerambi,43.3333333333333
Mentmore,25
Midden,20
Midway,20
Millstream,0.006
Mirani,40
Miskin,60
Mission,30
Miva,20.8
Molonga,44.5
Mondure,26.6666666666667
Monkland,55
Moore Park,193
Moramana,20
"Moramana, Gilgai Phase",20
Morecambe,5
Morganbury,20
Mossman,27
Muldoon,25.5
Mulei,20
Mullaburra,0.001
Mulligan,20
Mulligan Gravelly Phase,20
Munbura,20
Mundoo,29
Mungar,32
Murphy,26
Murray,20
Myrtle,24.5
Myrtlevale,21.5
Nabilla,49.5
Narcotic,20
Narpi,22.5
Nessvale,55
Netherdale,20
Niagara,36
Nicotine,23
Nicotine Yellow,20
Nilotica,780
Nind,28
Ninemile,20
Normanby,21.75
Nullinga,20
Nursery,22.5
O'Bil Bil,20
Oakwood,20
Oombabeer,50.25
Orient,92.5
Ossa,25
Ossa (Cobbly Variant),23
Otoo,25
Owanyilla,36
Pakington,146.55
Palm,30
Palmyra,35
Palouse,33.33333333333335
Peep,43.5
Pelion,279
Penman,32
Pennsfield,50
Pentland,20
Picardy,20
Picardy Surface Seal Phase,20
Pin Gin,20.5
Pindi,20
Pinnacle - Cq,30
Pioneer,26
"Pioneer, Red B Horizon Variant",20
Pluto,709
Police Camp,21
Pope,60
Poplar,46.5
Porter,20
Powerhouse,20
Powlathanga,22.5
Price,20
Pring,25
Prior,20
Proserpine,115
Quart,20
Racetrack,20
Ram,47.5
Ramleh,20
Rankin,370.5
Raven,21
RDya,62
Red Flank,20
Retro,20.5
Retro (BAN),24
Riordanvale,28
Ripple,20
Robur,20
Rolleston,20
Ronnoc,20
Roper,20
Royston,20
Ruby,20
Rubyanna,95
Rudd,21
Rugb,108.5
RUgc,20
RUgd,182
Rungoo,25
Russell,20
Sachs,100
Samourgassi,20
Sandalwood,86.5
Sandiford,40
Sandiford (Silty Topsoil Variant),19.5
Santo,20
Scatterbrain,20
Seaforth,30
Seaview,64.5
Septimus,28.5
Silent Grove,26
Silkwood,27
Slater,58
Solferino,29
Spanos,20
Spier,20
Springs,26.5
SSO1,20
St Helens,55
Sugarbag,0.004
Sunnyside,23
Sunter,37.85
SVE1,20
Tailing,85
Tanby,63
Tandora,382
Tannalo,33
Tara,40
Tarong,20
Tarramba,25
Tawalla,28.5
TbUg-1,20
TbUg-11,230
TbUg-13,70
TbUg-2,80
TbUg-4,35
TbUg-6,50
Te_El_Kabir,20
Telegraph,20
Tenmile,36
Thalberg,20
Thompson,32
Thompson - Mrc,20
Thorpe,30
Tiaro,20
Timara,20
Timbrell,407.725
Tinkle,20
Tiny,20
Tirrabella,0.001
Tirroan,20
Tirroan Non-Sodic Variant,0.001
Tirroan Rocky Phase,20
Tognolini,20
Tolga,21.75
Toobanna,35.5
Tralee,54
Tranters,20
Trebonne,32.75
TsDr-1,15
TsDy-1,15
TsGn-3,10
TsGn-4,15
TsGn-5,10
TsGn-6,17.5
TsUc-2,15
TsUf-3,20
TsUf-6,10
TsUg-7,25
TsUgg-2,54
Tully,25
Tureen,30
Turpin,27
Tyson,20
Ulogie,20
Umala - Tab,20
Up River,7
Uruba,20
Utchee,22.5
Valetta,20
Vicenza,20
Victoria Plains,57
Violet,22
Virgil,117
Voewood,59.5
Wagoora,20
"Wagoora, Basic Parent Material Variant",22.5
Walker - Mhb,65
Walla,54
Walsch,30
Walsh,20
Wandarra,20
Warrami,70
Watalgan,15
Watalgan Mottled Variant,20
Weir,0.007
Well,25
"Well, Footslope Variant",59.5
Wheatlands,0.009
Whelan,0.0015
Whiptail,32
White,30.5
Whitfield,30
Whymere,96.5
Windermere,30.002
Windradene,20
Winfield,20
Wivenhoe,20
Woco,25
Wollingford,32.5
Woober,261.9416666666665
Woodleigh,0.004
Woolmer,20
Woongarra,20
Woonton,20
Wooroolin,20
Wygong,40
Yackadoo,20
Yandaran,20
Yaringa,34
Yarraman,56
Yarrol,32.5
Yeppoon,169
Yuruga,35
