"","NAME","Kadj","count_sites"
"1","1ACH1",0.062,2
"2","1ADb",0.046,2
"3","1ADb-2",0.0645,4
"4","1ADb-7",0.071,2
"5","1ADb-Dd",0.0615,2
"6","1ADd-3",0.071,2
"7","1ADd-4",0.0775,10
"8","1ADE1",0.0615,6
"9","1ADE2",0.0575,6
"10","1AKA1",0.0335,2
"11","1ARU1",0.0595,2
"12","1ATE1",0.0315,2
"13","1AUg-12",0.059,4
"14","1AUg-13",0.0635,8
"15","1AUg-2",0.055,2
"16","1AUg-3",0.057,3
"17","1AUg-4",0.064,2
"18","1AVE1",0.052,3
"19","1AVE2",0.0585,4
"20","1AVE4",0.059,8
"21","1AVE6",0.056,3
"22","1CHa",0.06,3
"23","1CHb",0.0545,2
"24","1Dbb",0.0515,2
"25","1Dda",0.066,5
"26","1DEa",0.067,2
"27","1Dya",0.0525,4
"28","1Dyc",0.0565,8
"29","1Dyd",0.062,6
"30","1KTa",0.0355,2
"31","1SOa",0.079,2
"32","1SOb",0.0665,2
"33","1Uga",0.0585,10
"34","1Ugc",0.0505,4
"35","1Ugd",0.057,15
"36","1Ugf",0.0525,10
"37","2ADb-1",0.0645,2
"38","2AUf-Ug-3",0.065,2
"39","2AUg-3",0.049,4
"40","2AUg-7",0.0565,6
"41","2AUg-8m",0.055,6
"42","2AUg-9m",0.065,2
"43","2AUgg-2m",0.047,2
"44","2AVE2",0.0595,2
"45","2Dba",0.0595,6
"46","2Dbb",0.07,4
"47","2Dbc",0.041,3
"48","2Dbd",0.0635,6
"49","2Dda",0.057,15
"50","2Dda2",0.055,4
"51","2Ddb",0.069,33
"52","2Ddc",0.09,4
"53","2Dya",0.069,22
"54","2Dyb",0.07,28
"55","2Dyc",0.07,13
"56","2Uga",0.06,10
"57","2Ugb",0.0645,2
"58","2Ugc",0.067,12
"59","2UgcW",0.0625,4
"60","2Ugd",0.0635,34
"61","2ugd2",0.0655,6
"62","2Uge",0.065,60
"63","2Ugf",0.057,4
"64","2Ugg",0.0535,12
"65","2Ugh",0.0555,22
"66","2Ugj",0.065,2
"67","2Ugk",0.06,3
"68","2VEa",0.065,3
"69","2VEb",0.055,3
"70","2VEe",0.051,2
"71","2VEx",0.056,10
"72","2VEy",0.0575,2
"73","3ASO2",0.0635,2
"74","3AUf-Ug-1m",0.0535,2
"75","3AUf-Ug-2m",0.054,2
"76","3AUf-Ug-3d",0.055,2
"77","3AUf-Ug-6m",0.0605,2
"78","3AUg-2",0.05,4
"79","3CHx",0.0385,2
"80","3Ug",0.067,2
"81","3Uga",0.0675,4
"82","3Ugc",0.054,4
"83","3Ugd",0.0655,2
"84","3Uge",0.066,6
"85","3VEa",0.051,3
"86","3VEb",0.056,2
"87","3VEc",0.047,6
"88","3VEw",0.06,6
"89","3VEy",0.06,4
"90","3VEz",0.0505,4
"91","4AUf",0.0665,2
"92","4Dyb",0.036,2
"93","4Dyd",0.043,8
"94","4Dyg",0.0625,12
"95","4Dyj",0.0345,4
"96","4Dyk",0.0375,8
"97","4Gnb",0.032,8
"98","4Ucc",0.025,4
"99","5Dra",0.053,12
"100","5Dya",0.047,4
"101","5Dyb",0.059,2
"102","5Dyc",0.0635,10
"103","5Dye",0.06,2
"104","5Dyf Shelf",0.057,4
"105","5Uga",0.053,10
"106","5Ugb",0.047,4
"107","5Ugc  Depression",0.0655,4
"108","6ADb-1",0.052,6
"109","6ADb-4",0.0625,4
"110","6ADr",0.0725,4
"111","6ADy-3",0.04,4
"112","6AUg-10",0.0615,8
"113","6AUg-12",0.0565,6
"114","6AUg-3",0.0575,6
"115","6AUg-4",0.0665,4
"116","6AUg-5",0.0565,4
"117","6AUg-6",0.066,4
"118","6AUg-8",0.06,8
"119","6AUg-9",0.0595,4
"120","6Db",0.048,4
"121","6Dba",0.046,13
"122","6Dbb",0.0705,6
"123","6Dbc",0.0595,8
"124","6Dbd",0.0665,12
"125","6Dbe",0.0655,12
"126","6Dbf",0.057,8
"127","6Dbg",0.0585,4
"128","6Dbh",0.067,9
"129","6Dda",0.059,11
"130","6Dra",0.057,4
"131","6Drb",0.071,9
"132","6Drc",0.0695,12
"133","6Dya",0.044,7
"134","6Dyb",0.0425,6
"135","6Dyc",0.0435,2
"136","6Dyd",0.053,8
"137","6Dye",0.041,2
"138","6Dyf",0.07,18
"139","6Dyf2",0.052,7
"140","6Dyg",0.0585,22
"141","6Dyj",0.056,19
"142","6Gn",0.0395,2
"143","6Gnb",0.036,6
"144","6Gnc",0.056,8
"145","6Gnd",0.045,4
"146","6Ucc",0.049,8
"147","6Ufc",0.0595,2
"148","6Ufd",0.055,1
"149","6Uga",0.049,10
"150","6Uma",0.064,4
"151","6Umb",0.0685,4
"152","Abbot",0.061,1
"153","Abercorn",0.0855,4
"154","Abergowrie",0.0545,18
"155","Abergowrie Sandy Phase",0.028,2
"156","Adeline",0.067,7
"157","Albert",0.084,8
"158","Aldershot",0.058,4
"159","Allandale",0.0265,2
"160","Allandale, Strongly Sodic Variant",0.037,2
"161","Alloway",0.049,11
"162","Alma",0.042,3
"163","Althaus",0.047,6
"164","Andergrove",0.02,18
"165","Andergrove Water Table Variant",0.01,3
"166","Annandale",0.0365,4
"167","Anyarro",0.0495,6
"168","Appaloosa",0.06,1
"169","Apron",0.0545,2
"170","Archookoora",0.0585,8
"171","Arcturus",0.057,101
"172","Arnot",0.031,6
"173","Arnot Dark Phase",0.022,6
"174","Aroa",0.0465,4
"175","Arriga",0.08,6
"176","Ashton",0.0365,4
"177","Auburn",0.071,15
"178","Avon",0.052,1
"179","Avondale",0.047,10
"180","Awoonga",0.0595,2
"181","Ayreesta",0.0605,2
"182","Babinda",0.0505,18
"183","Baddow",0.0175,4
"184","Balberra",0.069,10
"185","Bally",0.0445,2
"186","Banana",0.0575,16
"187","Banban",0.061,8
"188","Banyan",0.025,5
"189","Barron",0.041,2
"190","Basel",0.058,9
"191","Battery",0.055,7
"192","Bauhinia",0.059,5
"193","Bauple",0.033,2
"194","Beauaraba",0.047,19
"195","Beeron",0.0655,2
"196","Bell",0.049,5
"197","Bells",0.066,2
"198","Belmunda",0.0345,4
"199","Belvedere",0.0675,2
"200","Benholme",0.065,19
"201","Berris",0.062,2
"202","Bicton",0.051,4
"203","Bidwill",0.0575,2
"204","Bilboolan",0.0755,2
"205","Bingera",0.056,2
"206","Bingil",0.05,4
"207","Blackburn",0.04,6
"208","Blair",0.071,1
"209","Bluewater",0.0465,4
"210","Bluff",0.038,13
"211","Bogandilla",0.0575,2
"212","Bonavista",0.0915,2
"213","Bonnie Crofts",0.065,4
"214","Bonwell",0.062,11
"215","Boonenne",0.0405,6
"216","Booyal",0.058,4
"217","Boston",0.0475,4
"218","Bovekel",0.0575,2
"219","Boyanda",0.0255,2
"220","Boyne",0.059,2
"221","Boynewood",0.0545,14
"222","Brae",0.062,2
"223","Brightley",0.065,12
"224","Broadmedow",0.042,25
"225","Brooweena",0.032,1
"226","Brooyar",0.052,2
"227","Brosnan",0.0305,14
"228","Bruce",0.0575,58
"229","Bubbler",0.054,6
"230","BUca",0.0315,2
"231","BUcb",0.037,1
"232","Bucca",0.042,7
"233","Buchan",0.053,6
"234","Buckley",0.02,2
"235","BUfa",0.069,2
"236","BUfb",0.064,2
"237","BUfc",0.069,5
"238","BUfe",0.097,1
"239","Buffel",0.0535,2
"240","BUg-10",0.0555,4
"241","BUg-2",0.054,18
"242","BUg-3",0.056,6
"243","BUg-4",0.052,2
"244","BUg-6",0.057,1
"245","BUga",0.05,2
"246","Bulgun",0.058,12
"247","Bulguru",0.0705,4
"248","Bullhead",0.0505,6
"249","BUma",0.059,2
"250","BUmb",0.0555,2
"251","Bungadoo",0.056,3
"252","Burdekin",0.0515,14
"253","Burdekin Buried Soils Or D Horizons Vary",0.061,2
"254","Burnett",0.0435,10
"255","Burnett Coarse Sandy Variant",0.0465,2
"256","Burradoo",0.066,9
"257","Burrum",0.0385,2
"258","Bushnell",0.047,6
"259","Butcher",0.065,8
"260","Butcher Sandy Variant",0.0395,2
"261","BVE1",0.051,2
"262","Byabra",0.044,2
"263","Byee",0.046,5
"264","Cabbage Tree",0.051,1
"265","Cadarga",0.056,4
"266","Calen",0.0665,24
"267","Callide",0.077,13
"268","Cameron",0.0635,10
"269","Campbell Plains",0.084,1
"270","Canoe",0.055,35
"271","Cape",0.066,14
"272","Carew",0.071,13
"273","Carfax",0.056,9
"274","Carmila",0.05,6
"275","Cassidy",0.018,2
"276","Castleview",0.0415,2
"277","Catherina",0.076,2
"278","Cattle",0.065,6
"279","CDba",0.053,2
"280","Ceratodus",0.065,8
"281","Cheeseboro",0.0595,2
"282","Chelmsford",0.056,6
"283","Cherry Tree",0.0505,4
"284","Chessborough",0.056,2
"285","Childers",0.049,52
"286","Chinchilla",0.043,2
"287","Clayton",0.07,9
"288","Clematis",0.064,8
"289","Clifton",0.062,7
"290","Cliftonville",0.0745,2
"291","Cole",0.0715,2
"292","Commissioner",0.042,2
"293","Condor",0.0515,2
"294","Consuelo",0.05,1
"295","Conway",0.0795,2
"296","Conway (Cqh)",0.0385,4
"297","Coolabunia",0.051,9
"298","Coom",0.0655,32
"299","Coonoon",0.0445,4
"300","Coorooman",0.0325,2
"301","Copenhagen",0.0565,2
"302","Corduroy",0.065,2
"303","Corea",0.0365,2
"304","Cottonham",0.048,6
"305","Creek",0.0655,2
"306","CUca",0.031,3
"307","Cudmore",0.055,5
"308","CUfb",0.044,1
"309","Curlewis",0.048,2
"310","CVE1",0.061,2
"311","CVE3",0.055,2
"312","CVE4",0.0475,4
"313","CVE5",0.067,6
"314","Dagun",0.046,2
"315","Dalgangal",0.0605,2
"316","Dalrymple",0.0375,14
"317","Darts",0.047,2
"318","Derra",0.0695,4
"319","Derra (CWL)",0.056,3
"320","Diamond (Kcm)",0.0465,2
"321","Diamond (Kcm), Footslope Variant",0.048,6
"322","Dickson",0.053,2
"323","Dickson, Shallow Variant",0.0445,4
"324","Dingo",0.053,2
"325","Dingo (Pss)",0.0295,8
"326","Dittmer",0.049,4
"327","Dixie",0.024,3
"328","Don",0.062,8
"329","Doolbi",0.059,9
"330","Doonside",0.0605,2
"331","Dotswood",0.048,13
"332","Dove",0.055,1
"333","Drinan",0.0705,2
"334","Dryander",0.061,8
"335","Drysdale",0.044,2
"336","Dudgeon",0.0675,2
"337","Dundula",0.0475,6
"338","Dunrobin - CQ",0.046,8
"339","Dunstan",0.052,2
"340","Dunwold",0.033,9
"341","Durong",0.056,3
"342","Earlsfield",0.059,37
"343","Eastgate",0.055,4
"344","Eden",0.0425,4
"345","Edgecumbe",0.079,7
"346","Edmonton",0.062,7
"347","Egera",0.063,6
"348","Eleanor",0.057,4
"349","Eleanor, Mottled Phase",0.0585,2
"350","Elizabeth",0.0485,4
"351","Elliot",0.025,5
"352","Ellis",0.043,4
"353","Emerald",0.0415,2
"354","Emoh",0.017,4
"355","Endeavour",0.041,2
"356","Eton",0.069,21
"357","Etowrie",0.0615,12
"358","Etowrie (Neutral Variant)",0.084,2
"359","Eubenangee",0.057,7
"360","Eversleigh",0.0705,4
"361","Fairdale",0.0605,12
"362","Fairview",0.0605,8
"363","Fairydale",0.0495,2
"364","Fairymead",0.0625,4
"365","Falkner",0.06,20
"366","Fanning River",0.062,7
"367","Farleigh",0.036,4
"368","Farnsfield",0.038,13
"369","Feluga",0.037,11
"370","Feluga Red Variant",0.037,1
"371","Finch Hatton",0.045,7
"372","Finley",0.043,9
"373","Fison",0.0475,2
"374","Flagstone",0.0645,8
"375","Fletcher",0.044,2
"376","Fletcher - Brcl",0.048,1
"377","Flinton",0.0485,4
"378","Fowler",0.0505,2
"379","Foxdale",0.061,6
"380","Foxleigh",0.043,22
"381","Freddy",0.051,2
"382","Galmara",0.06,11
"383","Galway",0.043,13
"384","Gander",0.05,2
"385","Gargett",0.053,8
"386","Garradunga",0.051,6
"387","Garrett",0.0595,2
"388","Gibson - Bab",0.061,2
"389","Gigoon",0.04,2
"390","Gillinbin",0.073,2
"391","Givelda",0.0625,8
"392","Glenella",0.0465,4
"393","Glengordon",0.0425,4
"394","Glenora",0.059,18
"395","Glenroc",0.0525,10
"396","Glenrock",0.042,3
"397","Gooburrum",0.03,5
"398","Goodbye",0.066,3
"399","Goodger",0.044,20
"400","Googarra",0.0185,2
"401","Goolboo",0.029,6
"402","Goorganga",0.052,2
"403","Goovigen",0.066,4
"404","Gordonbrook",0.037,8
"405","Graham",0.0605,4
"406","Granville",0.072,8
"407","Grevillea",0.077,9
"408","Greycliffe",0.067,22
"409","Greycliffe Melonhole Phase",0.067,20
"410","Gueena",0.046,4
"411","Gumlu",0.037,1
"412","Gunnawarra",0.0365,2
"413","Habana",0.052,12
"414","Haden",0.073,2
"415","Haly",0.044,6
"416","Hamleigh",0.056,9
"417","Hannan",0.0485,2
"418","Harris",0.0445,2
"419","Harwood",0.0605,2
"420","Hawkwood",0.06,4
"421","Hector (PCS)",0.054,4
"422","Herbert",0.07,9
"423","Hewitt",0.062,12
"424","Highbury",0.0505,2
"425","Hillgrove",0.057,11
"426","Hillview",0.0445,12
"427","Hillview Fine Variant",0.042,1
"428","Hind",0.048,5
"429","Hodge (BAN)",0.056,6
"430","Holding",0.057,4
"431","Holloway",0.0455,6
"432","Honeycomb",0.066,13
"433","Hopevale",0.044,5
"434","Hull",0.006,11
"435","IDE1",0.0535,2
"436","Ilbilbie",0.0315,2
"437","Ingham",0.063,4
"438","Inlet",0.07,5
"439","Innisfail",0.068,12
"440","Inverdon",0.037,2
"441","Iona",0.042,6
"442","Isis",0.045,20
"443","Jambin",0.063,19
"444","Japoon",0.057,2
"445","Jaro",0.061,2
"446","Jarra",0.069,5
"447","Jarvisfield",0.0585,2
"448","Julian",0.0525,6
"449","Jumper",0.0535,4
"450","Jumpo",0.062,1
"451","Kaban",0.04,2
"452","Kaber",0.06,2
"453","Kailla",0.0195,2
"454","Kairi",0.0465,2
"455","Kalah",0.093,3
"456","Kawl Kawl",0.054,18
"457","Kaygaroo",0.019,6
"458","Kelona A Horizon Variant",0.04,2
"459","Kelona Buried Soils Or D Horizons Vary",0.0425,6
"460","Kenlogan",0.047,4
"461","Kenmar",0.0615,4
"462","Kepnock",0.056,22
"463","Keppel",0.049,4
"464","Kiama",0.0195,2
"465","Kilburnie",0.067,13
"466","Kimberley",0.059,3
"467","Kinchant",0.0355,8
"468","Kinchant, Coarse Sandy Variant",0.017,2
"469","Kingjack",0.0705,4
"470","Kinkuna",0.017,5
"471","Kirkcaldy",0.056,4
"472","Kirrama",0.0515,4
"473","Knockane",0.057,8
"474","Koberinga Mottled Phase (3uga9)",0.0645,8
"475","Koberinga Pebbly Phase (3uga8)",0.0545,4
"476","Koberinga Pebbly Phase (3uge8)",0.067,3
"477","Kokutungo",0.063,23
"478","Kolan",0.073,7
"479","Kolan Red Variant",0.0545,2
"480","Kolbore",0.0555,2
"481","Koolachu",0.0385,14
"482","Kooringa",0.0345,2
"483","Koumala",0.044,2
"484","Kowari",0.0415,4
"485","Krongie",0.05,35
"486","Kumbia",0.054,6
"487","Kungurri",0.051,4
"488","Kurrimine",0.016,3
"489","Kuttabul",0.044,4
"490","Kuttabul, Alluvial-Colluvial Variant",0.0405,4
"491","Lacon",0.066,2
"492","Langley-Wdh",0.0635,14
"493","Lannercost",0.064,2
"494","Lascelles",0.0565,2
"495","Laura",0.0565,6
"496","Leach",0.064,2
"497","Leadingham",0.067,8
"498","Lee",0.043,5
"499","Leitrim",0.058,1
"500","Lillypool",0.07,2
"501","Lily",0.055,6
"502","Lindsay",0.064,9
"503","Lingilor",0.052,14
"504","Littabella",0.029,3
"505","Liverpool",0.052,12
"506","Lizard",0.0525,2
"507","Logcamp",0.05,2
"508","Louisa",0.0445,2
"509","Lucy",0.05,6
"510","Lugger",0.037,13
"511","Luxor",0.047,59
"512","Maalan",0.038,6
"513","Macknade",0.06,7
"514","Mahogany",0.041,19
"515","Maidavale",0.0585,4
"516","Maiden",0.0275,2
"517","Malbon",0.046,12
"518","Manar",0.0585,2
"519","Mandam",0.05,1
"520","Manoa Red Variant",0.061,4
"521","Manor",0.059,11
"522","Mapala",0.0615,10
"523","Maraconda",0.0675,4
"524","Maria",0.048,7
"525","Marian",0.055,18
"526","Marlow",0.055,2
"527","Maroondan",0.055,7
"528","Marshlands",0.0505,6
"529","Martin",0.0585,4
"530","Martyr",0.0575,4
"531","Marwood",0.0225,4
"532","Mary",0.062,8
"533","Mary Dark Variant",0.0695,2
"534","Maryvale",0.061,15
"535","May",0.063,14
"536","May Downs",0.055,65
"537","May Shallow Phase",0.057,2
"538","Mceuen",0.042,4
"539","Meadowvale",0.0455,12
"540","Meilland",0.032,4
"541","Melton",0.072,14
"542","Memerambi",0.044,49
"543","Mentmore",0.0355,4
"544","Midden",0.0555,4
"545","Midgenoo",0.07,2
"546","Midway",0.074,2
"547","Millstream",0.043,2
"548","Mingela",0.042,3
"549","Minnabilla",0.0375,2
"550","Mirani",0.034,6
"551","Mirriwinni",0.047,9
"552","Miskin",0.0465,2
"553","Mission",0.051,9
"554","Miva",0.071,2
"555","Molonga",0.057,9
"556","Mondure",0.054,13
"557","Monsildale",0.05,13
"558","Moolayember",0.04,1
"559","Moore Park",0.046,2
"560","Moramana",0.063,2
"561","Moramana, Gilgai Phase",0.062,4
"562","Morecambe",0.0405,6
"563","Morgan",0.0485,2
"564","Morganbury",0.037,12
"565","Mossman",0.059,4
"566","Muldoon",0.0495,14
"567","Mulei",0.046,4
"568","Mullaburra",0.085,2
"569","Mulligan",0.033,12
"570","Mulligan Gravelly Phase",0.049,12
"571","Munbura",0.024,8
"572","Mundoo",0.042,4
"573","Mungar",0.0725,2
"574","Murphy",0.0345,8
"575","Murray",0.0245,4
"576","Myrtle",0.063,5
"577","Myrtlevale",0.063,4
"578","Nabilla",0.05,12
"579","Nail",0.057,4
"580","Nanyeta",0.0485,2
"581","Narcotic",0.0265,2
"582","Narpi",0.069,13
"583","Needep",0.0455,2
"584","Neerdie",0.0615,2
"585","Nessvale",0.0515,4
"586","Netherdale",0.055,4
"587","Niagara",0.049,2
"588","Nicotine",0.0165,4
"589","Nicotine Yellow",0.015,2
"590","Nilotica",0.065,1
"591","Nind",0.034,7
"592","Ninemile",0.063,1
"593","Normanby",0.0615,8
"594","Norwich",0.057,12
"595","Nullinga",0.031,6
"596","Nursery",0.0565,8
"597","O'Bil Bil",0.051,4
"598","Oakwood",0.0395,16
"599","Oombabeer",0.061,3
"600","Orient",0.0615,2
"601","Ossa",0.0615,2
"602","Ossa (Cobbly Variant)",0.054,2
"603","Otoo",0.042,14
"604","Owanyilla",0.0645,4
"605","Pakington",0.0775,2
"606","Palm",0.06,2
"607","Palmyra",0.047,4
"608","Palouse",0.049,12
"609","Pearlinga",0.059,4
"610","Peep",0.096,2
"611","Pegunny",0.071,14
"612","Penman",0.0875,10
"613","Pennsfield",0.052,2
"614","Pentland",0.04,11
"615","Petrona",0.031,14
"616","Picardy",0.052,12
"617","Picardy Surface Seal Phase",0.0615,4
"618","Pin Gin",0.0475,24
"619","Pindi",0.04,6
"620","Pinnacle - Cq",0.039,4
"621","Pioneer",0.053,11
"622","Pioneer, Red B Horizon Variant",0.05,8
"623","Pluto",0.021,4
"624","Police Camp",0.064,19
"625","Pope",0.0455,2
"626","Poplar",0.059,6
"627","Porter",0.042,5
"628","Powerhouse",0.058,6
"629","Powlathanga",0.07,13
"630","Prendergast",0.054,2
"631","Price",0.041,2
"632","Pring",0.0465,4
"633","Prior",0.044,13
"634","Proserpine",0.038,10
"635","Quart",0.0435,12
"636","Racetrack",0.0575,14
"637","Ram",0.058,4
"638","Ramleh",0.0735,6
"639","Rangeside",0.021,1
"640","Rankin",0.046,7
"641","Raven",0.0365,2
"642","RDya",0.082,2
"643","Red Flank",0.035,2
"644","Retro",0.053,56
"645","Retro (BAN)",0.082,14
"646","Riordanvale",0.056,14
"647","Ripple",0.05,3
"648","Rishton",0.017,1
"649","Riverleigh",0.0545,4
"650","Robur",0.046,13
"651","Rolleston",0.06,49
"652","Ronnoc",0.047,15
"653","Roper",0.061,10
"654","Rosslyn",0.045,2
"655","Royston",0.0455,4
"656","Ruby",0.048,2
"657","Rubyanna",0.071,2
"658","Rudd",0.072,4
"659","Rugb",0.071,4
"660","RUgc",0.075,2
"661","RUgd",0.0795,2
"662","Rungoo",0.0265,4
"663","Russell",0.05,8
"664","Samourgassi",0.0595,2
"665","Sandalwood",0.0775,2
"666","Sandiford",0.054,14
"667","Sandiford (Silty Topsoil Variant)",0.075,2
"668","Santo",0.062,22
"669","Seaforth",0.062,4
"670","Seaview",0.0475,4
"671","Septimus",0.023,5
"672","Shotover",0.0365,22
"673","Silent Grove",0.0555,14
"674","Silkwood",0.055,4
"675","Slater",0.0545,18
"676","Solferino",0.0475,2
"677","Spanos",0.0175,10
"678","Spanos Heavy Variant",0.037,1
"679","Spier",0.057,29
"680","Springs",0.0425,2
"681","Springwood",0.042,16
"682","St Helens",0.061,14
"683","Stateschool",0.063,14
"684","Stephens",0.076,7
"685","Sugarbag",0.035,2
"686","Sullivan",0.053,1
"687","Sumalee",0.057,1
"688","Sunnyside",0.069,15
"689","Sunter",0.055,2
"690","Tabletop",0.0725,6
"691","Tailing",0.053,6
"692","Tanby",0.058,2
"693","Tandora",0.0685,2
"694","Tannalo",0.031,5
"695","Tarong",0.0635,4
"696","Tarramba",0.064,24
"697","Taurus",0.042,18
"698","Tawalla",0.009,2
"699","TbUg-1",0.051,4
"700","TbUg-11",0.0525,2
"701","TbUg-13",0.053,2
"702","TbUg-2",0.047,14
"703","TbUg-4",0.0545,4
"704","TbUg-6",0.054,2
"705","Te_El_Kabir",0.063,4
"706","Tedlands",0.0585,4
"707","Telegraph",0.0525,4
"708","Tenmile",0.033,10
"709","Teviot",0.058,59
"710","Thalberg",0.064,13
"711","Thompson - Mrc",0.0665,2
"712","Thorpe",0.0405,28
"713","Tiaro",0.055,4
"714","Timara",0.072,38
"715","Timbrell",0.074,4
"716","Tingoora",0.0505,4
"717","Tiny",0.06,11
"718","Tirrabella",0.058,2
"719","Tirroan",0.045,7
"720","Tirroan Non-Sodic Variant",0.043,2
"721","Tognolini",0.06,7
"722","Tolga",0.039,12
"723","Toobanna",0.0745,12
"724","Toondoon",0.0675,4
"725","Tralee",0.066,18
"726","Tranters",0.038,2
"727","Trebonne",0.056,6
"728","TsDy-1",0.043,10
"729","TsGn-3",0.036,6
"730","TsGn-4",0.0435,4
"731","TsGn-5",0.0415,8
"732","TsGn-6",0.047,8
"733","TsUc-2",0.0305,4
"734","TsUf-3",0.0615,4
"735","TsUf-6",0.0605,4
"736","TsUg-7",0.063,32
"737","TsUgg-2",0.058,16
"738","Tully",0.06,7
"739","Tureen",0.0585,2
"740","Turnor",0.037,2
"741","Turon",0.069,21
"742","Turpad",0.032,2
"743","Turpin",0.0485,12
"744","Tyson",0.037,11
"745","Ulogie",0.065,23
"746","Umala - Tab",0.0485,2
"747","Up River",0.0265,2
"748","Uramo",0.0375,2
"749","Urannah",0.0265,2
"750","Uruba",0.039,9
"751","Uruba Alluvial-Colluvial Variant",0.07,8
"752","Utchee",0.036,7
"753","Valetta",0.043,2
"754","Vermont",0.06,20
"755","Vicenza",0.049,4
"756","Victoria Plains",0.059,16
"757","Violet",0.035,1
"758","Virgil",0.05,6
"759","Voewood",0.0545,2
"760","Wagoora",0.0605,18
"761","Wagoora, Basic Parent Material Variant",0.043,6
"762","Walkamin",0.0485,4
"763","Walker - Mhb",0.058,2
"764","Walla",0.0735,4
"765","Walsch",0.0535,2
"766","Walsh",0.0685,6
"767","Wandarra",0.03,6
"768","Warrami",0.059,1
"769","Warwick",0.071,28
"770","Watalgan",0.0515,16
"771","Watalgan Mottled Variant",0.0505,4
"772","Weir",0.06,5
"773","Well",0.0625,4
"774","Well, Footslope Variant",0.0545,2
"775","Wheatlands",0.054,2
"776","Whelan",0.0685,2
"777","Whiptail",0.057,4
"778","White",0.0415,2
"779","Whitfield",0.067,1
"780","Windermere",0.057,3
"781","Windradene",0.051,2
"782","Witton",0.0425,4
"783","Wivenhoe",0.041,2
"784","Woco",0.065,4
"785","Wollingford",0.059,10
"786","Woober",0.084,3
"787","Woodleigh",0.0495,4
"788","Woolmer",0.0665,4
"789","Woongarra",0.0425,16
"790","Wooroolin",0.044,31
"791","Wygong",0.0695,8
"792","Wyseby",0.06,27
"793","Yackadoo",0.0545,2
"794","Yandaran",0.04,2
"795","Yaringa",0.0985,2
"796","Yarraman",0.067,6
"797","Yarrol",0.069,4
