NAME,VALUE
1ACH1,1.3
1ADb,0.8
1ADb-2,1.05
1ADb-7,1
1ADb-Dd,1.9
1ADd-3,0.9
1ADd-4,1.4
1ADE1,1.9500000000000002
1ADE2,1.9
1AKA1,0.6
1ARU1,1.7
1ATE1,0.7
1AUg-12,0.825
1AUg-13,1.6
1AUg-2,1.09
1AUg-3,0.9
1AUg-4,0.9
1AVE1,2.4000000000000004
1AVE2,2.5
1AVE4,1.9500000000000002
1AVE6,2.1500000000000004
1CHa,0.7
1CHb,1
1Dbb,0.9
1DEa,1.6
1Dyd,0.7
1KTa,1.9
1SOa,1
1SOb,1
1Ug,0.75
1Uga,1.7
1Ugd,1.25
1Ugf,1
2ADb-1,0.7
2AUf-Ug-3,0.6
2AUg-3,1.75
2AUg-7,1.1
2AUg-8m,1
2AUg-9m,0.5
2AUgg-1m,0.6499999999999999
2AUgg-2m,1.9
2AVE2,1.9
2Dba,1.95
2Dbb,1
2Dbc,1.1
2Dbd,2.275
2Dda,1.05
2Dda2,1.1
2Ddb,1
2Dya,0.9
2Dyb,1.3
2Dyc,1.3
2Uga,1
2Ugc,1
2UgcW,1.95
2Ugd,1.5
2ugd2,1.25
2Uge,1.2
2Ugf,1.1
2Ugg,1.4
2Ugh,0.95
2Ugk,1
2VEa,1.6
2VEb,1.5
2VEe,1.6
2VEx,1
2VEy,1.2
3ASO2,1.7
3AUf,0.6
3AUf-Ug-1m,0.5
3AUf-Ug-2m,0.7
3AUf-Ug-3d,0.8
3AUf-Ug-6m,0.6
3AUg-2,1.35
3CHx,1.4
3Uge,0.75
3VEa,1.3
3VEb,0.7
3VEc,1.6
3VEw,0.6
3VEy,1.0499999999999998
3VEz,1.2000000000000002
4AUf,0.8
4Dyb,0.4
4Dyd,0.25
4Dyj,0.35
4Gnb,0.5249999999999999
4Ucc,0.25
5Dra,1.15
5Dya,1.4
5Dyc,1.1
5Dye,1.1
5Uga,1.3
5Ugb,1.25
5Ugc  Depression,1.05
6ADb-1,0.7575000000000001
6ADb-4,0.5
6ADy-3,0.635
6AUg-10,0.665
6AUg-12,1.7275
6AUg-3,1.7
6AUg-4,0.6
6AUg-5,1.2
6AUg-6,1.06
6AUg-8,0.7725
6AUg-9,1.75
6Db,0.9
6Dba,0.6
6Dbb,1.75
6Dbc,1.15
6Dbd,1.175
6Dbe,1.1
6Dbf,1.35
6Dbg,0.7
6Dbh,1.15
6Dda,0.9500000000000001
6Dra,0.7
6Drb,0.95
6Drc,1.275
6Dya,0.775
6Dyb,0.65
6Dyc,1.5
6Dyd,0.8
6Dye,0.5
6Dyf,1.0750000000000002
6Dyf2,1.5
6Dyg,1.05
6Dyj,0.85
6Gn,0.8
6Gnb,0.9
6Gnc,0.65
6Gnd,0.6
6Ucc,0.6
6Uma,1.3
6Umb,2.4
Abbot,1.4
Abercorn,1.7
Abergowrie,1.45
Abergowrie Sandy Phase,0.9
Albert,1.5
Aldershot,2.0645
Allandale,0.9
"Allandale, Strongly Sodic Variant",3.6999999999999997
Alloway,0.7
Alma,5.3
Althaus,0.7
Andergrove,0.655
Andergrove Water Table Variant,0.66
Anyarro,1.5
Apron,1.2
Archookoora,2.666666666666665
Arnot,1.9
Arnot Dark Phase,3.2
Aroa,1.5
Arriga,0.8500000000000001
Ashton,1
Auburn,1.7
Avondale,1.1
Awoonga,2.5
Babinda,6.6
Baddow,0.834
Balberra,1.2999999999999998
Bally,4.9
Banana,1.5
Banban,2.1
Banyan,2.5
Barron,5.7
Bauhinia,1.2
Bauple,2.4
Beeron,1.7
Bell,2.9
Bells,2
Belmunda,2
Belvedere,2.6
Benholme,1.95
Berris,2.2
Bicton,3.4
Bidwill,2.7
Bilboolan,2.2
Bingera,3.4
Blackburn,2
Blair,1.7
Bluewater,1.5
Bluff,1.5
Bonavista,1.4
Bonnie Crofts,1.6
Bonwell,2.4
Boonenne,0.95
Booyal,1.1
Boston,0.9
Bovekel,1.3
Boyanda,1.6
Boyne,1.1
Boynewood,1.9
Brae,4.6
Brightley,1.7
Brooyar,4.9
Brosnan,1.1
Bubbler,2.5
BUca,0.9
BUcb,1
Bucca,2.2
Buckley,0.4
BUfa,1.4
BUfb,1.1
BUfc,1.6
BUfe,1.5
Buffel,1.3
BUg-10,1.05
BUg-2,1.1
BUg-3,1
BUg-4,1.1
BUg-6,1
BUga,1.9
Bulgun,4.1
Bulguru,5.5
Bullhead,1.5
BUma,1.7
BUmb,0.9
Bungadoo,7.7
Burdekin,1.625
Burdekin Buried Soils Or D Horizons Vary,1.9
Burnett,0.8500000000000001
Burnett Coarse Sandy Variant,1.1
Burradoo,1.5
Burrum,1.9000000000000001
Bushnell,1.6
Butcher,1.35
BVE1,2.3
Byabra,0.5
Byee,1.9000000000000001
Cabbage Tree,2.3
Calen,1.2
Callide,2.3
Cameron,0.8
Campbell Plains,1.7
Canoe,1.3
Cape,1.8499999999999999
Carew,1.1
Carfax,1.35
Carmila,2.36
Cassidy,0.7
Castleview,0.5
Catherina,1.87
Cattle,0.7
CDba,0.9
Ceratodus,1.75
Cheeseboro,2.3
Chelmsford,2.23333333333333
Cherry Tree,0.75
Chessborough,1.4
Childers,2.3499999999999996
Clayton,0.7
Clifton,0.7
Cliftonville,1.5
Cole,3.5
Commissioner,2.3
Condor,1.4
Conjuboy,1.65
Conway (Cqh),2.65
Coolabunia,1.9
Coom,1.8
Coonoon,2.95
Coorooman,7.6
Copenhagen,1.466
Corduroy,2.9
Cottonham,2.9
Creek,1.4
CUca,0.6499999999999999
Cudmore,0.85
CUfb,1
Curlewis,0.8
Cushnie,1.1
CVE1,1.3
CVE3,1.5
CVE4,1.9
CVE5,1.9
Dagun,2.6
Dalgangal,2.5
Dalrymple,0.7
Darts,4.6
Derra,1.9
Derra (CWL),3.5
Diamond (Kcm),0.9
"Diamond (Kcm), Footslope Variant",0.5
Dickson,2.7
Dingo (Pss),1.3
Dittmer,0.955
Dixie,0.5
Don,1.45
Doolbi,1.3
Doonside,1.4
Dotswood,1.8
Dove,1.8
Drinan,1.2
Dryander,3.1500000000000004
Drysdale,2.1
Dudgeon,2.2
Dundula,2
Dunstan,4.8
Dunwold,1.2
Durong,1.8
Earlsfield,1.35
Eastgate,2.2
Edgecumbe,3
Edmonton,1.5
Eerwah,2.1
Eleanor,0.75
"Eleanor, Mottled Phase",0.6
Elizabeth,2.95
Elliot,1.6
Emerald,0.8
Endeavour,4.8
Eton,1.3
Etowrie,1.7
Etowrie (Neutral Variant),3.1
Eubenangee,2.1
Eversleigh,1.85
Fairdale,2.26666666666667
Fairview,2.6
Fairydale,2.1
Fairymead,1.85
Falkner,0.9
Fanning River,0.9
Farleigh,0.7
Farnsfield,1.2999999999999998
Feluga,2.45
Finch Hatton,1.9
Finley,2.5
Fison,1.1
Flagstone,1.6
Fletcher,0.8
Fletcher - Brcl,2.4
Fowler,1.6
Foxdale,3.5
Foxleigh,0.6
Freddy,1
Galmara,2.0250000000000004
Gander,3.3
Gargett,0.75
Garradunga,2.65
Garrett,1.5
Gibson - Bab,1.8
Gigoon,0.7
Gillinbin,0.9
Givelda,2
Glenella,1.25
Glenroc,0.5
Glenrock,1.2
Gooburrum,1.75
Goodbye,0.65
Goodger,4.133333333333329
Goorganga,3.7
Goovigen,1.9
Gordonbrook,2.13333333333333
Graham,1.6
Granville,2.5
Grevillea,2.3
Greycliffe,1.95
Greycliffe Melonhole Phase,1.85
Gueena,2.3
Gumlu,0.6
Habana,2.2
Haden,1.6
Haly,1.9
Hamleigh,2.6
Hannan,1.4
Harris,4.4
Harwood,1.7
Hawkwood,1.7
Hector (PCS),3.05
Herbert,1.85
Hewitt,7.1
Highbury,3.3
Hillgrove,1.7
Hillview,1.4
Hind,4.5
Hodge (BAN),1.1
Holding,1.35
Hopevale,2.75
Hull,1
IDE1,2.2
Ilbilbie,0.9
Ingham,1.35
Inlet,1.2
Innisfail,2.1
Inverdon,1.7
Iona,3.26666666666667
Isis,1.1
Jambin,2
Jaro,7.3
Jarra,1.4
Julian,2.95
Jumper,1.9
Jumpo,2.6
Kaban,2.8
Kaber,2.7
Kailla,0.4
Kairi,1.8
Kalah,0.95
Kawl Kawl,2.16666666666667
Kaygaroo,1.625
Kelona A Horizon Variant,0.4
Kelona Buried Soils Or D Horizons Vary,0.4
Kenlogan,1.85
Kenmar,0.8500000000000001
Kepnock,1.9
Keppel,3.05
Kiama,0.5
Kilburnie,1.3
Kinchant,0.825
"Kinchant, Coarse Sandy Variant",0.85
Kingjack,0.5
Kinkuna,2.1999999999999997
Kirrama,1.5
Koberinga Mottled Phase (3uga9),0.9500000000000001
Koberinga Pebbly Phase (3uga8),0.9
Koberinga Pebbly Phase (3uge8),0.8500000000000001
Kokutungo,1.7
Kolan,1.9
Kolan Red Variant,2.4
Kolbore,0.9
Kooingal,4.5
Koolachu,0.98
Kooringa,1.9
Koumala,1.8
Kowari,5.65
Kumbia,1.3
Kungurri,1.65
Kurrimine,3.1
Kuttabul,1.2
"Kuttabul, Alluvial-Colluvial Variant",1.35
Lacon,2.3
Langley-Wdh,1.25
Lannercost,0.9
Lascelles,2
Laura,2.6
Leach,3.1
Leadingham,0.375
Lee,1.8
Leitrim,1.7
Lillypool,1.4
Lily,1.5
Lindsay,1
Lingilor,1
Liverpool,2.4
Lizard,2
Logcamp,3.5
Louisa,1.8
Lucy,1.7
Lugger,1.3
Maalan,5.6
Macknade,1.3
Maclean (Lak),2.7
Mahogany,1
Maiden,0.4
Malbon,1.25
Manar,1.7
Mandam,1.7
Manor,1.3
Maraconda,0.6
Maria,1.85
Marian,1.1749999999999998
Marlow,2.2
Maroondan,2.25
Marshlands,1.66666666666667
Martin,1
Martyr,1
Marwood,0.55
Mary,2.0999999999999996
Mary Dark Variant,1.45
Maryvale,0.6499999999999999
May,0.95
May Shallow Phase,1.1
Mceuen,2.3
Meadowvale,1
Meilland,1.1
Melton,2.8
Memerambi,1.96666666666667
Mentmore,2.05
Midden,1.35
Midway,3
Millstream,2.3
Mingela,0.2
Mirani,0.9
Mirriwinni,1.6
Miskin,0.8
Mission,2.5
Miva,2.176
Molonga,2.05
Mondure,1.533333333333335
Monkland,5.1
Moore Park,0.8
Moramana,1
"Moramana, Gilgai Phase",1.25
Morecambe,0.7
Morganbury,0.7749999999999999
Mossman,2.4
Muldoon,2.4
Mulei,1
Mullaburra,1.9
Mulligan,0.65
Mulligan Gravelly Phase,0.65
Munbura,0.925
Mundoo,3.6
Mungar,2.8
Murphy,0.7
Murray,0.35
Myrtle,3.2
Nabilla,1.5
Nail,1.8
Narcotic,0.7
Narpi,1.55
Needep,23
Nessvale,0.8
Netherdale,1.45
Niagara,1.8
Nicotine,0.4
Nicotine Yellow,0.5
Nilotica,1
Nind,2.15
Ninemile,1.1
Normanby,1.7
Nullinga,1.2
Nursery,2.0999999999999996
O'Bil Bil,2.7
Oakwood,2.1
Oombabeer,1.45
Orient,0.8
Ossa,1.05
Ossa (Cobbly Variant),2.5
Otoo,2.5
Owanyilla,2.8
Pakington,2.3
Pallamana,0.4
Palm,1.2
Palmyra,2.05
Palouse,1.7000000000000002
Pearlinga,2
Peep,1.5
Pelion,4.8
Penman,0.95
Pennsfield,0.9
Pentland,1
Picardy,1.55
Picardy Surface Seal Phase,1.4500000000000002
Pin Gin,4.15
Pindi,1
Pinnacle - Cq,2.35
Pioneer,1.475
"Pioneer, Red B Horizon Variant",0.8
Police Camp,2.85
Pope,3.1
Poplar,1.3
Porter,1.1
Powerhouse,2.1
Prendergast,1.1
Price,1.1
Pring,1.7000000000000002
Prior,1.2
Proserpine,0.56
Quart,0.8500000000000001
Racetrack,1.15
Ram,4.45
Ramleh,1.45
Rangeview,2.3
Rankin,1.6
Raven,3.8
RDya,3.8
Red Flank,0.6
Retro,1.5
Retro (BAN),2
Riordanvale,2.9
Ripple,1.4
Riverleigh,1.9
Robur,1
Rolleston,1.6
Ronnoc,1.5
Roper,1.15
Royston,3.3
Ruby,1.3
Rubyanna,5.1
Rudd,1.6
Rugb,1.9000000000000001
RUgc,1.4
RUgd,1.5
Rungoo,0.9
Russell,1.05
Samourgassi,1.4
Sandiford,0.9
Sandiford (Silty Topsoil Variant),1.4
Santo,2
Seaforth,1.3
Seaview,3.45
Septimus,0.7250000000000001
Silent Grove,2.15
Silkwood,1.6
Slater,1.1
Solferino,2
Spanos,1.05
Spier,1.675
Springs,1.9
SSO1,1.7
St Helens,1.4
Sugarbag,0.6
Sumalee,7.6
Sunnyside,1.55
Sunter,1.9
Tailing,1.5
Tanby,1
Tandora,6.2
Tannalo,0.9750000000000001
Tarong,1.5
Tarramba,1.5
Tawalla,1.5
TbUg-1,1.53
TbUg-11,0.9
TbUg-13,1.2
TbUg-2,2.6
TbUg-4,0.9500000000000001
TbUg-6,0.8
Te_El_Kabir,1.6
Tedlands,1.65
Telegraph,2.1500000000000004
Tenmile,1.1
Thalberg,1.85
Thompson,1.7
Thompson - Mrc,3.9
Thorpe,1.2
Tiaro,2.3
Timara,2.3
Timbrell,2.543
Tiny,1.35
Tirrabella,1.1
Tirroan,1.1
Tirroan Non-Sodic Variant,1.3
Tirroan Rocky Phase,1
Tognolini,1.7000000000000002
Tolga,3.0999999999999996
Toobanna,1.29
Toondoon,1.9
Tralee,1.5
Tranters,2.9
Trebonne,1.5
TsDr-1,0.76
TsDy-1,0.925
TsGn-3,0.875
TsGn-4,0.54
TsGn-5,0.7225
TsGn-6,0.8025
TsUc-2,0.655
TsUf-3,0.88
TsUf-6,0.6
TsUg-7,0.8525
TsUgg-2,1.45
Tully,2.0999999999999996
Tureen,6.5
Turnor,1.2
Turpad,1
Turpin,1.4
Tyson,1
Ulogie,1.4
Umala - Tab,4.3
Up River,0.9
Urannah,2.8
Uruba,1.85
Uruba Alluvial-Colluvial Variant,1.2000000000000002
Utchee,2.75
Valetta,1.2
Vicenza,1
Victoria Plains,2.1500000000000004
Violet,0.7
Virgil,1.1
Voewood,0.6
Wagoora,2.7
"Wagoora, Basic Parent Material Variant",2.4000000000000004
Walkamin,3.455
Walker - Mhb,1.7
Walla,2.55
Walsch,0.6
Walsh,0.7
Wandarra,1.4425
Watalgan,2.85
Watalgan Mottled Variant,1.7999999999999998
Weir,2.55
Well,1.05
"Well, Footslope Variant",0.7
Wheatlands,0.66
Whelan,5.7
Whiptail,1.9
White,5.2
Windermere,4
Windradene,2.2
Witton,1.6
Wivenhoe,1.6
Woco,1.9
Wollingford,0.95
Woober,2.0695
Woodleigh,1.3
Woolmer,0.55
Woongarra,1.6
Woonton,0.4
Wooroolin,2.45
Wygong,0.8
Yackadoo,2.6
Yandaran,0.8
Yaringa,1.3
Yarraman,1.2
Yarrol,2.4
