id,VALUE
ABC-1-1,1
ABC-48-1,30
ABC-52-1,17
ABC-6-1,1
ACL-127-1,20
ACL-137-1,29
ACL-138-1,9
ACL-63-1,41
ARD-507-1,27
ARD-9000-1,15
ARD-9001-1,19
ARD-9002-1,28
ARD-9003-1,28
ARD-9005-1,10
ARD-9006-1,13
ARD-9007-1,8
ARD-9008-1,11
ARD-9009-1,21
ARD-9010-1,10
ARD-9012-1,12
ARD-9013-1,2
ARD-9014-1,23
ATB-6000-1,6
ATB-6001-1,35
ATB-6002-1,11
ATB-6003-1,8
ATB-6004-1,12
ATB-6007-1,35
ATB-6008-1,25
ATB-6010-1,12
ATB-6011-1,14
ATB-6012-1,18
ATB-6013-1,15
ATB-6015-1,10
ATB-6016-1,5
ATB-6018-1,9
ATB-6019-1,5
ATB-6020-1,22
ATB-6022-1,49
ATB-6026-1,11
ATB-6030-1,58
ATB-6031-1,52
BAB-9001-1,28
BAB-9002-1,3
BAB-9003-1,18
BAB-9004-1,19
BAB-9005-1,1
BAB-9006-1,21
BAB-9007-1,5
BAB-9008-1,4
BAB-9009-1,15
BAB-9010-1,5
BAB-9011-1,18
BAB-9012-1,2
BAB-9013-1,1
BAB-9014-1,1
BAN-1088-1,7
BAN-1147-1,20
BAN-150-1,13
BAN-1601-1,1
BAN-1625-1,22
BAN-1648-1,11
BAN-1805-1,6
BAN-1811-1,12
BAN-1812-1,12
BAN-185-1,12
BAN-1971-1,11
BAN-2015-1,14
BAN-2090-1,6
BAN-2096-1,11
BAN-2097-1,9
BAN-2099-1,3
BAN-2105-1,4
BAN-2128-1,2
BAN-2164-1,1
BAN-2256-1,5
BAN-2257-1,7
BAN-2258-1,2
BAN-2259-1,2
BAN-2262-1,2
BAN-2263-1,6
BAN-2264-1,6
BAN-2265-1,1
BAN-2298-1,4
BAN-2597-1,2
BAN-2598-1,15
BAN-271-1,17
BAN-286-1,3
BAN-289-1,3
BAN-301-1,8
BAN-302-1,10
BAN-339-1,13
BAN-474-1,9
BAN-507-1,7
BAN-508-1,12
BAN-510-1,16
BAN-511-1,12
BAN-513-1,1
BAN-516-1,5
BAN-522-1,3
BAN-599-1,3
BAN-6-1,4
BAN-657-1,12
BAN-748-1,1
BAN-790-1,2
BAN-804-1,8
BAN-835-1,2
BAN-858-1,4
BAN-859-1,1
BAN-865-1,2
BAN-947-1,4
BAN-95-1,46
BAN-97-1,17
BDS-1142-2,3
BDS-1186-2,39
BDS-1225-2,18
BDS-1313-2,2
BDS-1381-2,3
BDS-1397-2,16
BDS-1431-2,1
BDS-1502-1,63
BDS-198-2,5
BDS-209-2,2
BDS-265-2,2
BDS-276-2,2
BDS-369-2,38
BDS-589-2,3
BDS-689-2,1
BDS-755-2,1
BDS-800-2,2
BER-9000-1,52
BER-9001-1,25
BER-9002-1,31
BER-9003-1,12
BER-9004-1,17
BER-9006-1,7
BER-9007-1,21
BER-9009-1,40
BER-9011-1,45
BER-9016-1,28
BER-9017-1,26
BER-9018-1,33
BER-9020-1,10
BER-9021-1,38
BER-9027-1,10
BER-9028-1,13
BER-9029-1,28
BER-9030-1,9
BER-9032-1,39
BER-9034-1,19
BER-9040-1,27
BER-9041-1,23
BER-9042-1,18
BER-9046-1,39
BER-9050-1,36
BER-9051-1,47
BER-9052-1,24
BER-9053-1,45
BER-9054-1,40
BLS-9000-1,13
BLS-9001-1,4
BLS-9005-1,15
BLS-9007-1,1
BLS-9008-1,20
BLS-9009-1,9
BLS-9010-1,2
BMSE-60-1,41
BMSE-62-1,6
BPS-9007-1,12
BPS-9008-1,19
BPS-9009-1,19
BPS-9010-1,5
BPS-9012-1,8
BPS-9013-1,13
BPS-9015-1,18
BRB-6006-1,15
BRB-6007-1,23
BRB-6008-1,19
BRB-6009-1,24
BRB-6014-1,36
BRB-6019-1,1
BRB-6020-1,4
BRB-6042-1,39
BRB-6053-1,9
BRB-6054-1,20
BRB-6055-1,12
BRB-6057-1,2
BRB-6064-1,12
BRB-6065-1,16
BRCL-16-1,14
BRCL-2-1,10
BRCL-4-1,9
BRCL-51-1,11
BRCL-61-1,1
BRCL-9-1,10
BRL-9001-1,3
BRL-9002-1,1
BRL-9003-1,3
BRL-9004-1,5
BRL-9005-1,11
BRL-9006-1,5
BRL-9007-1,11
BRL-9008-1,4
BRL-9010-1,9
BRL-9011-1,3
BRL-9013-1,3
BRL-9014-1,4
BRL-9016-1,2
BRL-9017-1,3
BRL-9018-1,26
BRL-9019-1,10
BRL-9020-1,1
BRL-9021-1,2
BRL-9022-1,2
BRL-9024-1,4
BRL-9025-1,1
BRL-9026-1,10
BRL-9027-1,25
BRL-9028-1,24
BRL-9029-1,2
BRL-9030-1,1
BRL-9031-1,3
BRL-9032-1,1
BRL-9034-1,8
BRL-9036-1,5
BRL-9039-1,2
BRL-9041-1,9
BRL-9043-1,4
BRL-9044-1,3
BRL-9045-1,3
BRL-9047-1,6
BRL-9048-1,9
BRL-9056-1,12
BRL-9059-1,22
BRL-9065-1,2
BRL-9067-1,4
BRS-6011-1,1
BRS-6015-1,1
BRS-6077-1,5
BRS-6081-1,9
BSA-11-1,58
BSA-15-1,25
BSA-17-1,20
BSA-22-1,9
BSA-23-1,40
BSA-25-1,13
BSA-26-1,45
BSA-28-1,16
BSA-7-1,38
BSA-8-1,30
BSS-1-1,1
BSS-12-1,20
BSS-13-1,9
BSS-16-1,22
BSS-17-1,33
BSS-18-1,5
BSS-19-1,14
BSS-20-1,11
BSS-22-1,1
BSS-23-1,19
BSS-24-1,11
BSS-25-1,8
BSS-26-1,6
BSS-27-1,5
BSS-28-1,27
BSS-29-1,7
BSS-3-1,8
BSS-30-1,53
BSS-32-1,17
BSS-33-1,9
BSS-37-1,7
BSS-38-1,5
BSS-4-1,15
BSS-45-1,6
BSS-7-1,23
BSS-8-1,25
BSS-9-1,19
BUN-103-1,23
BUN-108-1,10
BUN-109-1,2
BUN-110-1,22
BUN-111-1,4
BUN-112-1,6
BUN-113-1,2
BUN-114-1,26
BUN-116-1,7
BUN-117-1,4
BUN-120-1,9
BUN-122-1,33
BUN-123-1,3
BUN-6001-1,5
BUN-6002-1,11
CBW-1024-1,1
CBW-1026-1,1
CBW-263-1,26
CBW-264-1,33
CBW-265-1,19
CBW-266-1,8
CBW-267-1,6
CBW-269-1,25
CBW-270-1,3
CBW-271-1,7
CBW-272-1,6
CBW-273-1,10
CBW-274-1,22
CBW-275-1,34
CBW-276-1,17
CBW-277-1,26
CBW-278-1,24
CBW-281-1,11
CBW-284-1,5
CBW-285-1,8
CBW-286-1,10
CBW-287-1,15
CBW-288-1,1
CBW-289-1,4
CBW-9000-1,16
CBW-9001-1,3
CBW-9002-1,4
CBW-9003-1,8
CBW-9006-1,13
CBW-9007-1,7
CBW-9008-1,1
CBW-9009-1,4
CBW-9012-1,10
CBW-911-1,5
CBW-918-1,3
CCL-325-1,25
CIS-9000-1,43
CIS-9001-1,7
CIS-9003-1,1
CIS-9005-1,4
CIS-9006-1,6
CIS-9007-1,24
CIS-9008-1,41
CIS-9009-1,5
CIS-9010-1,6
CIS-9011-1,2
CIS-9012-1,17
CIS-9013-1,3
CIS-9014-1,2
CQCS-2-1,25
CQH-1018-1,55
CQH-1019-1,15
CQH-1109-1,5
CQH-128-1,2
CQH-210-1,46
CQH-248-1,7
CQH-250-1,23
CQH-26-1,37
CQH-274-1,19
CQH-277-1,19
CQH-289-1,19
CQH-295-1,33
CQH-331-1,11
CQH-384-1,24
CQH-412-1,6
CQH-423-1,26
CQH-455-1,12
CQH-615-1,11
CQH-695-1,17
CQH-761-1,42
CQH-778-1,41
CQH-820-1,14
CQH-822-1,12
CQH-832-1,50
CQH-946-1,4
CTAP-1-1,7
CTAP-106-1,12
CTAP-119-1,1
CTAP-189-1,5
CTAP-211-1,20
CTAP-228-1,34
CTAP-238-1,44
CTAP-245-1,12
CTAP-5-1,7
CTAP-59-1,18
CTAP-8-1,12
CTI-310-1,19
CTI-311-1,40
CTI-314-1,50
CTI-315-1,65
CTI-317-1,51
CTI-320-1,20
CTI-321-1,33
CTI-327-1,46
CTI-328-1,24
CTI-6002-1,4
CTI-6005-1,34
CTI-6006-1,3
CTI-6007-1,31
CTI-6008-1,5
CTI-6009-1,4
CTI-6010-1,10
CTI-6013-1,95
CTI-6015-1,10
CTI-6017-1,3
CTI-6018-1,72
CTI-6019-1,66
CTI-6020-1,66
CTI-6021-1,42
CTI-6022-1,12
CTI-6025-1,4
CTI-6027-1,43
CTI-6028-1,22
CTI-6029-1,12
CWR-9000-1,2
CWR-9001-1,5
CWR-9002-1,11
CWR-9003-1,4
CWR-9004-1,12
CWR-9005-1,23
CWR-9007-1,20
CWR-9008-1,6
CWR-9010-1,31
CYP-392-1,6
CYP-836-1,71
DHR-6001-1,17
EIL-1-1,5
EIL-15-1,2
EIL-16-1,1
EIL-17-1,4
EIL-18-1,6
EIL-19-1,2
EIL-2-1,2
EIL-20-1,4
EIL-21-1,3
EIL-22-1,3
EIL-23-1,13
EIL-24-1,3
EIL-25-1,4
EIL-26-1,6
EIL-27-1,5
EIL-28-1,4
EIL-3-1,11
EIL-31-1,14
EIL-33-1,10
EIL-34-1,4
EIL-35-1,2
EIL-36-1,3
EIL-38-1,10
EIL-4-1,2
EIL-40-1,21
EIL-42-1,4
EIL-44-1,4
EIL-46-1,10
EIL-48-1,10
EIL-5-1,3
EIL-50-1,34
EIL-51-1,35
EIL-53-1,20
EIL-55-1,16
EIL-56-1,17
EIL-58-1,10
EIL-59-1,4
EIL-6-1,1
EIL-62-1,2
EIL-64-1,2
EIL-65-1,2
EIL-66-1,2
EIL-68-1,8
EIL-69-1,2
EIL-7-1,2
EIL-71-1,4
EIL-72-1,7
EIL-75-1,1
EIL-76-1,4
EIL-77-1,6
EIL-78-1,2
EIL-79-1,12
EIL-80-1,6
EIL-82-1,6
EIL-83-1,4
EIL-84-1,4
EIR-9001-1,7
EIR-9002-1,6
EIR-9003-1,14
EIR-9004-1,14
EIR-9005-1,25
EIR-9006-1,35
EIR-9007-1,43
EIR-9008-1,34
EIR-9009-1,42
EIR-9012-1,4
EIR-9013-1,7
EIR-9014-1,50
EIR-9015-1,49
EIR-9016-1,38
EIR-9017-1,34
EIR-9019-1,21
EIR-9020-1,24
EIR-9022-1,42
EIR-9023-1,21
EIR-9024-1,20
EIR-9025-1,15
EIR-9027-1,10
EIR-9028-1,32
EIR-9030-1,31
EIR-9031-1,2
EIR-9034-1,22
EIR-9035-1,11
EIR-9037-1,3
EIR-9042-1,26
EIR-9043-1,17
EIR-9044-1,9
EIR-9046-1,7
EIR-9047-1,6
EIR-9048-1,4
EIR-9049-1,4
EIR-9050-1,6
EIR-9052-1,4
EME-9008-1,1
ESH-6000-1,5
ESH-6001-1,3
ESH-6002-1,10
ESH-6003-1,6
ESH-6004-1,11
ESH-6005-1,2
ESH-6007-1,3
ESH-6010-1,28
ESH-6012-1,13
ESH-6013-1,18
ESH-6014-1,10
ESH-6015-1,16
ESH-6016-1,9
ESH-6017-1,2
ESH-6019-1,2
ESH-6020-1,1
FSE-184-1,7
FSE-200-1,12
FSE-223-1,7
FSE-235-1,6
FSE-273-1,7
FSE-43-1,20
FSE-81-1,7
GAY-6002-1,15
GCL-9000-1,15
GCL-9001-1,2
GCL-9002-1,27
GCL-9004-1,5
GCL-9006-1,13
GCL-9007-1,5
GCL-9008-1,1
GCL-9009-1,19
GULLY-64-1,1
GULLY-66-1,3
HRT-1-1,12
HRT-10-1,4
HRT-11-1,1
HRT-12-1,5
HRT-13-1,10
HRT-3-1,8
HRT-4-1,10
HRT-5-1,1
HRT-6-1,3
HTC-9000-1,4
HTC-9001-1,1
HTC-9002-1,2
HTC-9003-1,1
HTC-9005-1,10
HTC-9006-1,29
HTN-9001-1,17
HTN-9002-1,17
HTN-9003-1,57
HTN-9005-1,9
HTN-9008-1,14
HTN-9010-1,13
HTN-9011-1,3
HTR-9001-1,15
HTR-9002-1,13
HTR-9003-1,12
HTR-9004-1,7
HTR-9005-1,15
HTR-9008-1,17
HTR-9009-1,16
HTR-9010-1,50
HTS-152-1,32
HTS-153-1,32
HTS-161-1,34
HTS-195-1,18
HTS-204-1,5
HTS-208-1,25
HTS-209-1,6
HTS-323-1,23
HTS-328-1,22
HTS-372-1,17
HTS-381-1,13
HTS-392-1,25
HTS-393-1,31
HTS-397-1,26
HTS-399-1,26
HTS-402-1,20
HTS-460-1,20
HTS-470-1,29
HTS-571-1,23
HTS-596-1,7
HTS-608-1,24
HTS-660-1,17
HTS-9001-1,19
HTS-9002-1,2
HTS-9003-1,2
HTS-9004-1,7
HTS-9005-1,7
HTS-9006-1,6
HTS-9007-1,4
HTS-9008-1,10
HTS-9009-1,3
HTS-9010-1,32
HTS-9011-1,24
HTS-9012-1,11
HTS-9013-1,24
HTS-98-1,2
INK-8000-1,14
INK-8001-1,13
INK-8002-1,21
INK-8003-1,20
INK-8004-1,32
INK-9000-1,8
INK-9001-1,6
INK-9002-1,5
INK-9003-1,2
INK-9004-1,1
INK-9005-1,16
INK-9007-1,8
INK-9008-1,8
INK-9009-1,11
INK-9010-1,10
INK-9013-1,25
INK-9014-1,21
IPB-1-1,1
IPB-10-1,1
IPB-2-1,2
IPB-4-1,1
IPB-5-1,1
IPB-6-1,7
IPB-7-1,16
IPB-8-1,5
JFD-9000-1,40
JFD-9001-1,7
JFD-9003-1,4
JFD-9004-1,4
JFD-9005-1,2
JFD-9006-1,2
JFD-9007-1,4
JFD-9008-1,3
JFD-9009-1,5
JFD-9010-1,1
JFD-9011-1,4
JFD-9012-1,3
KCM-9001-1,2
KCM-9002-1,3
KCM-9005-1,2
KCM-9006-1,8
KCM-9007-1,1
KCM-9008-1,6
KCM-9009-1,12
KCM-9010-1,9
KCM-9011-1,3
KCM-9012-1,4
KCM-9014-1,2
KCM-9015-1,19
KCM-9016-1,18
KCM-9017-1,14
KCM-9019-1,8
KCM-9022-1,3
KCM-9024-1,16
KCM-9027-1,11
KCM-9028-1,4
KCM-9029-1,22
KCM-9030-1,17
KCM-9031-1,20
KCM-9032-1,19
KCM-9033-1,3
KCM-9035-1,5
KCM-9036-1,23
KCM-9040-1,4
KCM-9041-1,32
KCM-9042-1,7
KCM-9043-1,3
KCM-9044-1,3
KCM-9045-1,5
KCM-9046-1,1
KCM-9047-1,3
KCM-9051-1,2
KCM-9052-1,4
KCM-9053-1,7
LAK-9000-1,15
LAK-9001-1,5
LAK-9002-1,4
LAK-9003-1,12
LAK-9004-1,18
LAK-9005-1,20
LAK-9006-1,30
LDR-9001-1,5
LDR-9003-1,17
LDR-9004-1,17
LDR-9005-1,19
LDR-9006-1,14
LFZ-464-1,7
LFZ-467-1,2
LFZ-468-1,26
LFZ-471-1,8
LFZ-472-1,1
LFZ-473-1,1
LFZ-487-1,28
LFZ-488-1,2
LFZ-489-1,1
LFZ-490-1,5
LFZ-491-1,3
LFZ-494-1,27
LFZ-496-1,14
LFZ-497-1,7
LFZ-500-1,9
LFZ-502-1,2
LFZ-503-1,1
LFZ-504-1,8
LFZ-505-1,1
LFZ-506-1,1
LFZ-507-1,2
LIA-194-1,7
LIA-195-1,17
LIA-211-1,11
LIA-261-1,6
LIA-267-1,25
LIA-86-1,5
MAK-106-1,28
MAK-13-1,13
MBN-54-1,4
MBN-6-1,1
MBP-6006-1,34
MCL-9000-1,2
MCL-9001-1,7
MCL-9002-1,2
MCL-9003-1,24
MCL-9004-1,18
MCL-9005-1,5
MCL-9006-1,6
MCL-9007-1,17
MCL-9008-1,4
MCL-9009-1,12
MCL-9010-1,24
MCL-9011-1,16
MCL-9013-1,23
MCL-9014-1,42
MCL-9015-1,19
MCL-9016-1,5
MCL-9017-1,14
MCL-9018-1,12
MCL-9019-1,3
MCL-9020-1,39
MCL-9022-1,16
MCL-9023-1,3
MCL-9024-1,5
MCL-9025-1,39
MCL-9026-1,11
MCL-9027-1,5
MCL-9028-1,3
MCL-9029-1,55
MCL-9030-1,29
MCL-9031-1,56
MCL-9032-1,28
MCL-9033-1,31
MCL-9034-1,38
MCL-9036-1,32
MCL-9037-1,6
MCL-9038-1,25
MCL-9039-1,38
MCL-9040-1,34
MCL-9041-1,18
MCL-9042-1,8
MCL-9043-1,70
MCL-9044-1,30
MCL-9045-1,9
MCL-9047-1,10
MCL-9048-1,59
MCL-9049-1,6
MCL-9050-1,13
MCL-9052-1,4
MCL-9053-1,19
MCL-9054-1,26
MCL-9055-1,5
MCL-9057-1,7
MCL-9058-1,39
MCL-9059-1,16
MCL-9060-1,14
MDIA-401-1,49
MDIA-404-1,12
MDIA-408-1,4
MDIA-409-1,24
MDIA-410-1,18
MDIA-412-1,8
MDIA-413-1,33
MDIA-415-1,34
MDIA-416-1,2
MDIA-418-1,9
MDIA-421-1,53
MDIA-423-1,44
MDIA-424-1,24
MDIA-425-1,26
MDIA-426-1,5
MDIA-428-1,52
MDIA-434-1,25
MDIA-435-1,18
MDIA-436-1,47
MDIA-437-1,41
MDIA-445-1,22
MDIA-446-1,11
MDIA-447-1,58
MDIA-449-1,44
MDIA-450-1,37
MDIA-451-1,47
MDIA-452-1,51
MDIA-453-1,41
MDIA-454-1,61
MDIA-455-1,82
MDIA-458-1,26
MDIA-459-1,37
MDIA-705-1,32
MDIA-727-1,9
MDIA-733-1,25
MDIA-735-1,7
MDIA-737-1,2
MDIA-743-1,33
MDIA-761-1,12
MDIA-887-1,5
MGR-9001-1,2
MGR-9002-1,9
MGR-9003-1,7
MGR-9004-1,20
MGR-9005-1,3
MGR-9007-1,6
MGR-9008-1,40
MHB-448-1,2
MHB-449-1,4
MHB-450-1,7
MHB-451-1,12
MHB-558-1,1
MHB-57-1,4
MIPS-1-1,17
MIPS-19-1,4
MIPS-47-1,20
MIPS-55-1,67
MISCQ-300-1,21
MISCQ-301-1,18
MISCQ-304-1,17
MISCQ-305-1,1
MISCQ-306-1,21
MISCQ-308-1,16
MISCQ-309-1,54
MISCQ-311-1,6
MISCQ-42-1,31
MISCQ-44-1,35
MISCQ-45-1,17
MISCQ-49-1,11
MISCQ-50-1,48
MISCQ-54-1,38
MISCQ-56-1,8
MISCQ-58-1,22
MISCQ-66-1,33
MISCQ-67-1,12
MISCQ-68-1,13
MISCQ-69-1,12
MISCQ-70-1,31
MISCQ-71-1,4
MISCQ-72-1,19
MISCQ-73-1,4
MISCQ-74-1,5
MISCQ-76-1,19
MISCQ-77-1,8
MISCQ-78-1,15
MISCQ-79-1,6
MISCQ-80-1,14
MISCQ-81-1,9
MISCQ-82-1,12
MISCQ-83-1,9
MISCQ-86-1,3
MISCQ-87-1,45
MISCQ-88-1,3
MISNQ-101-1,61
MISNQ-102-1,21
MISNQ-103-1,1
MISNQ-109-1,39
MISNQ-115-1,1
MISNQ-128-1,1
MISNQ-139-1,30
MISNQ-145-1,14
MISNQ-147-1,20
MISNQ-162-1,4
MISNQ-163-1,56
MISNQ-164-1,42
MISNQ-166-1,29
MISNQ-167-1,56
MISNQ-170-1,1
MISNQ-171-1,2
MISNQ-172-1,41
MISNQ-175-1,72
MISNQ-177-1,10
MISNQ-178-1,12
MISNQ-179-1,43
MISNQ-181-1,11
MISNQ-183-1,1
MISNQ-185-1,4
MISNQ-186-1,37
MISNQ-189-1,4
MISNQ-191-1,34
MISNQ-192-1,11
MISNQ-195-1,7
MISNQ-197-1,10
MISNQ-203-1,25
MISNQ-206-1,14
MISNQ-208-1,43
MISNQ-209-1,13
MISNQ-210-1,5
MISNQ-212-1,8
MISNQ-219-1,7
MISSE-101-1,13
MISSE-102-1,6
MISSE-111-1,17
MISSE-150-1,5
MISSE-151-1,5
MISSE-162-1,3
MISSE-163-1,1
MISSE-164-1,1
MLG-9000-1,2
MLG-9001-1,2
MLG-9002-1,1
MLG-9003-1,3
MLG-9004-1,3
MLG-9005-1,2
MLG-9006-1,4
MLG-9007-1,9
MLG-9008-1,12
MLG-9009-1,7
MLG-9010-1,3
MLG-9011-1,5
MLG-9012-1,14
MON-6000-1,12
MON-6001-1,1
MON-6003-1,5
MON-6005-1,16
MON-6006-1,4
MON-6007-1,11
MON-6009-1,15
MON-6010-1,45
MON-6011-1,34
MON-6013-1,46
MON-6014-1,8
MON-6015-1,26
MON-6091-1,17
MON-6092-1,4
MON-6094-1,8
MON-6095-1,16
MRC-1058-1,25
MRC-1061-1,3
MRC-1072-1,2
MRC-1116-1,31
MRC-1117-1,15
MRC-22-1,11
MRC-233-1,2
MRC-268-1,2
MRC-313-1,8
MRC-36-1,6
MRC-372-1,2
MRC-515-1,1
MRC-769-1,10
MRC-830-1,8
MRC-859-1,9
MRC-866-1,4
MRC-90-1,4
MRC-993-1,40
MSL-217-1,12
MTL-282-1,17
MTL-315-1,9
MTL-350-1,1
MTL-576-1,25
MTL-583-1,16
MTL-9000-1,9
MTL-9001-1,1
MTL-9002-1,8
MTL-9003-1,8
MTL-9005-1,25
MTL-9006-1,7
NCD-125-1,4
NCD-127-1,9
NCD-143-1,6
NCD-224-1,1
NCD-272-1,6
NCD-276-1,13
NCD-285-1,4
NCD-339-1,26
NCD-344-1,31
NCD-356-1,3
NCD-364-1,37
NCD-37-1,8
NCD-393-1,2
NCD-452-1,4
NCD-51-1,3
NCD-52-1,1
NCD-58-1,1
NCD-71-1,1
NCD-72-1,4
NCD-83-1,7
NCD-885-1,2
NCD-89-1,1
NHC-9000-1,1
NHC-9001-1,1
NHC-9003-1,31
NHC-9004-1,3
NHC-9005-1,2
NHC-9006-1,3
NHC-9007-1,8
NLH-9000-1,6
NLH-9001-1,14
NLH-9002-1,15
NLH-9003-1,20
NLH-9004-1,3
NLH-9005-1,21
NLH-9007-1,11
NLH-9008-1,9
NLH-9009-1,5
NLH-9010-1,9
NLH-9011-1,19
NLH-9012-1,4
NLH-9013-1,2
P2REEF-15-1,1
P2REEF-23-1,45
P2REEF-24-1,53
P2REEF-25-1,45
P2REEF-42-1,5
P2REEF-43-1,1
P2REEF-44-1,48
P2REEF-46-1,27
P2REEF-5-1,29
P2REEF-508-1,35
P2REEF-510-1,80
P2REEF-56-1,28
P2REEF-73-1,1
P2REEF-9-1,9
P2REEF-94-1,8
P2REEF-99-1,7
PCS-6000-1,18
PCS-6002-1,10
PCS-6003-1,20
PCS-6005-1,46
PCS-6009-1,22
PCS-6011-1,35
PCS-6012-1,15
PCS-6013-1,16
PCS-6014-1,9
PCS-6015-1,13
PCS-6017-1,27
PCS-6020-1,6
PCS-6021-1,11
PCS-6022-1,7
PCS-6023-1,23
PCS-6024-1,5
PCS-6025-1,33
PCS-6026-1,6
PCS-6028-1,57
PCS-6029-1,14
PCS-724-1,13
PCS-725-1,34
PCS-727-1,5
PLS-1-1,5
PLS-13-1,21
PLS-5-1,35
PLS-7-1,60
RAV-6002-1,21
RAV-6003-1,4
RAV-6013-1,60
RAV-6015-1,17
RAV-6016-1,18
RAV-6017-1,28
RAV-6019-1,28
RAV-6022-1,18
RAV-6023-1,4
RAV-6024-1,1
RAV-6028-1,3
RAV-6029-1,27
RAV-6033-1,15
RAV-6036-1,5
RAV-6037-1,13
RAV-6038-1,4
RAV-6039-1,20
RUSS-38-1,4
RUSS-40-1,1
SAR-600-1,11
SAR-601-1,17
SAR-602-1,5
SAR-603-1,7
SAR-604-1,4
SAR-605-1,1
SBT-9000-1,3
SBT-9001-1,8
SBT-9002-1,21
SBT-9003-1,2
SBT-9004-1,2
SBT-9005-1,36
SBT-9006-1,4
SBT-9007-1,19
SBT-9008-1,3
SBT-9009-1,14
SBT-9010-1,4
SBT-9011-1,1
SBT-9012-1,17
SBT-9013-1,17
SBT-9014-1,24
SBT-9015-1,5
SBT-9016-1,13
SBT-9017-1,30
SBT-9018-1,2
SBT-9019-1,20
SBT-9020-1,3
SBT-9021-1,32
SBT-9022-1,15
SBT-9023-1,36
SBT-9024-1,10
SBT-9025-1,13
SBT-9026-1,12
SBT-9027-1,2
SBT-9028-1,22
SBT-9029-1,3
SBT-9031-1,12
SBT-9032-1,10
SBT-9034-1,10
SBT-9035-1,12
SBT-9036-1,2
SBT-9037-1,18
SBT-9039-1,15
SERES-49-1,18
SERES-51-1,25
SERES-53-1,6
SERES-55-1,7
SERES-57-1,10
SERES-59-1,5
SERES-61-1,23
SERES-63-1,18
SERES-65-1,4
SERES-67-1,3
SERES-68-1,4
SERES-71-1,4
SERES-73-1,5
SERES-74-1,4
SERES-76-1,5
SERES-87-1,2
SFS-103-1,2
SFS-126-1,18
SFS-152-1,19
SFS-176-1,20
SFS-200-1,12
SFS-229-1,24
SFS-253-1,1
SFS-26-1,18
SFS-29-1,3
SFS-30-1,3
SFS-300-1,3
SFS-302-1,3
SFS-31-1,4
SFS-325-1,4
SFS-327-1,2
SFS-400-1,5
SFS-405-1,1
SFS-457-1,3
SFS-515-1,18
SFS-55-1,3
SFS-600-1,18
SFS-601-1,18
SFS-604-1,18
SFS-76-1,8
SFS-8-1,4
SFS-9-1,4
SJS-9002-1,1
SJS-9003-1,10
SLK-1006-1,8
SLK-1016-1,8
SLK-1050-1,7
SLK-1076-1,3
SLK-1089-1,5
SLK-9000-1,12
SLK-9001-1,38
SLK-9003-1,19
SLK-9004-1,3
SLK-9005-1,2
SLK-9006-1,4
SLK-9007-1,7
SLK-9008-1,3
SLK-9009-1,2
SLK-9010-1,3
SLK-994-1,26
SPY-95-1,20
TAB-2475-1,5
TAB-2476-1,6
TAB-2477-1,9
TAB-2478-1,1
TAB-2479-1,2
TAB-2480-1,19
TAB-2481-1,5
TAB-2482-1,41
TAB-2483-1,6
TAB-2484-1,1
TAB-2485-1,10
TAB-2486-1,2
TAB-2487-1,3
UBRISS-195-1,2
UBRISS-196-1,2
UBRISS-197-1,1
UBRISS-199-1,5
UBRISS-200-1,22
UBRISS-202-1,27
UBRISS-205-1,28
UBRISS-206-1,18
UCS-9000-1,9
UCS-9002-1,14
WAN-6-1,2
WCS-1002-1,4
WCS-1003-1,2
WCS-1004-1,3
WCS-1005-1,35
WCS-1228-1,10
WCS-1306-1,1
WCS-1350-1,9
WCS-1407-1,5
WCS-1422-1,8
WCS-1429-1,22
WCS-1439-1,5
WCS-1497-1,30
WCS-2218-1,9
WCS-2228-1,36
WCS-2229-1,62
WCS-2247-1,21
WCS-2251-1,27
WCS-4039-1,1
WCS-4064-1,12
WCS-4820-1,1
WCS-6000-1,12
WCS-6001-1,10
WCS-6003-1,2
WCS-6006-1,10
WCS-6007-1,8
WCS-6008-1,23
WCS-6009-1,59
WCS-6010-1,19
WCS-6011-1,23
WCS-6012-1,9
WCS-6013-1,2
WCS-6015-1,13
WCS-6016-1,9
WCS-6017-1,1
WCS-6019-1,18
WCS-6020-1,2
WCS-6021-1,40
WCS-6022-1,24
WCS-6023-1,5
WCS-6024-1,5
WCS-6025-1,26
WCS-6026-1,31
WCS-6027-1,21
WCS-6028-1,10
WCS-6029-1,1
WCS-6030-1,8
WCS-6032-1,13
WCS-6033-1,41
WCS-6034-1,17
WCS-880-1,11
WCS-938-1,15
WDH-9001-1,25
WDH-9007-1,15
WDH-9012-1,7
WDH-9019-1,17
WDH-9020-1,16
WDH-9026-1,13
WDH-9027-1,8
WDH-9028-1,7
WDH-9029-1,6
WDH-9030-1,3
WDH-9031-1,3
WDH-9032-1,7
WDH-9033-1,12
WDH-9050-1,3
WDH-9051-1,4
WDH-9054-1,10
WDH-9055-1,11
WDH-9056-1,14
WDH-9064-1,13
WDH-9080-1,10
WDH-9081-1,5
WDH-9089-1,1
WDH-9090-1,6
WDH-9091-1,10
WDH-9092-1,6
WDH-9104-1,2
WDH-9106-1,15
WDH-9107-1,2
WDH-9115-1,2
WIN-289-1,6
WIN-333-1,17
WIN-531-1,16
WIN-545-1,25
WIN-658-1,33
WRS-9005-1,23
WRS-9012-1,18
WTC-9001-1,58
WTC-9002-1,32
WTC-9003-1,27
WTC-9010-1,31
WTC-9014-1,2
WTC-9015-1,4
WTC-9017-1,6
WTC-9018-1,11
WTC-9019-1,14
WTC-9022-1,40
WTC-9024-1,43
WTC-9025-1,53
WTC-9028-1,41
WTC-9029-1,20
WTC-9033-1,68
WTC-9037-1,25
WTC-9038-1,22
WTC-9039-1,43
WTC-9042-1,13
WTC-9044-1,11
WTC-9045-1,8
WTC-9047-1,1
WTC-9049-1,30
WTC-9050-1,55
WTC-9052-1,41
WTC-9054-1,42
WTC-9064-1,10
WTC-9065-1,21
WTC-9068-1,44
WTC-9069-1,40
WTC-9072-1,74
WTC-9073-1,46
WTC-9075-1,38
WTC-9076-1,7
WTC-9079-1,4
WTC-9080-1,26
WTC-9081-1,27
WTC-9082-1,6
WTC-9086-1,48
WTC-9088-1,28
WTC-9091-1,35
WTC-9092-1,64
WTC-9093-1,7
WTC-9094-1,34
WTC-9095-1,51
WTC-9096-1,8
ARD-9011-1,17
ASOM-10-1,20
ASOM-12-1,12
ASOM-13-1,14
ASOM-14-1,8
ASOM-15-1,1
ASOM-16-1,41
ASOM-23-1,21
ASOM-24-1,45
ASOM-25-1,34
ASOM-26-1,4
ASOM-27-1,8
ASOM-29-1,2
ASOM-30-1,2
ASOM-9-1,13
ATB-6021-1,24
ATB-6024-1,39
ATB-6025-1,19
ATB-6028-1,25
ATB-6029-1,5
BAN-1142-1,11
BAN-181-1,29
BAN-1983-1,13
BAN-21-1,7
BAN-5-1,23
BAN-682-1,10
BAN-723-1,9
BDS-877-2,13
BER-9047-1,3
BPA-1-1,86
BPA-13-1,93
BPA-22-1,83
BPA-3-1,91
BRL-9000-1,3
BRL-9012-1,66
BRL-9053-1,18
BSS-2-1,12
BSS-41-1,1
BUN-115-1,13
CBW-1025-1,67
CBW-268-1,17
CBW-279-1,15
CBW-280-1,25
CBW-282-1,11
CBW-283-1,12
CBW-9004-1,37
CBW-9005-1,49
CBW-9010-1,24
CBW-9011-1,23
CIS-9004-1,1
CQH-275-1,30
CQH-401-1,28
CQH-452-1,5
CQH-616-1,62
CQH-759-1,13
CQH-760-1,28
CQH-763-1,12
CQH-788-1,17
CQH-796-1,14
CQH-802-1,68
CQH-807-1,4
CQH-812-1,13
CQH-830-1,26
CQH-838-1,20
CTI-316-1,48
CTI-318-1,7
CTI-6001-1,85
CTI-6003-1,1
CTI-6004-1,67
CTI-6016-1,36
CTI-6030-1,8
EIL-63-1,3
ESH-6006-1,1
GCL-9005-1,50
HTN-9000-1,3
HTN-9009-1,4
KAI-6004-1,14
KCM-9054-1,2
LDR-9000-1,13
LFZ-486-1,22
LFZ-499-1,2
MCL-9012-1,69
MCL-9046-1,9
MCL-9051-1,16
MCL-9056-1,4
MDIA-414-1,68
MDIA-417-1,31
MDIA-427-1,29
MDIA-457-1,41
MHB-386-1,3
MHB-447-1,9
MIPS-46-1,59
MISCQ-307-1,19
MISCQ-53-1,24
MON-6012-1,32
MON-6093-1,2
MTL-299-1,4
MTL-9004-1,38
NCD-1036-1,11
NCD-44-1,7
NCD-448-1,28
NHC-9002-1,39
P2REEF-22-1,71
P2REEF-26-1,54
P2REEF-53-1,27
P2REEF-58-1,34
PCS-6008-1,30
PCS-6010-1,70
PLS-14-1,40
PLS-18-1,70
PLS-26-1,8
PLS-8-1,21
RAV-6018-1,1
SALTC-349-1,17
SAR-306-1,11
SAR-38-1,9
SJS-9000-1,12
UBRISS-198-1,2
UBRISS-207-2,31
WAN-23-1,4
WCS-1001-1,1
WCS-1170-1,5
WCS-1507-1,15
WCS-1602-1,41
WCS-1607-1,39
WCS-1608-1,6
WCS-1609-1,11
WCS-1900-1,19
WCS-1936-1,3
WCS-2079-1,23
WCS-2161-1,17
WCS-2186-1,10
WCS-2201-1,23
WCS-2272-1,27
WCS-2283-1,32
WCS-6018-1,19
WCS-6031-1,13
WCS-759-1,1
WCS-781-1,45
WCS-782-1,70
WCS-785-1,60
WCS-787-1,36
WCS-796-1,1
WCS-813-1,9
WCS-816-1,5
WCS-832-1,27
WCS-857-1,14
WCS-864-1,16
WCS-866-1,6
WCS-868-1,13
WCS-873-1,27
WCS-874-1,13
WCS-875-1,25
WCS-876-1,14
WCS-885-1,54
WCS-886-1,34
WCS-897-1,65
WCS-899-1,8
WCS-903-1,13
WCS-913-1,3
WCS-931-1,17
WCS-942-1,16
WCS-943-1,9
WCS-952-1,7
WIN-279-1,63
WIN-297-1,60
WIN-335-1,22
WIN-486-1,6
WTC-9006-1,2
WTC-9007-1,56
WTC-9070-1,89
WTC-9071-1,5
WTC-9078-1,6
WTC-9090-1,13
