id,VALUE
ABC-1-1,0.06769256283621977
ABC-220-1,0.020092211235615647
ABC-48-1,0.05904446788528697
ABC-52-1,0.14148464071924455
ABC-6-1,0.023386786206374174
ABS-99-1,0.02
ACL-127-1,0.031018936028091776
ACL-137-1,0.14142075415119318
ACL-138-1,0.0514399403834236
ACL-63-1,0.010000003045540941
ARD-507-1,0.06720247699878922
ARD-9000-1,0.7890988752154461
ARD-9001-1,0.06726758483255332
ARD-9002-1,0.07453014959061861
ARD-9003-1,0.018828743554990805
ARD-9005-1,0.7311165490014125
ARD-9006-1,0.7964086960702361
ARD-9007-1,0.03493346377047307
ARD-9008-1,1.0958932585390366
ARD-9009-1,0.4168409869093141
ARD-9010-1,0.8305343593672612
ARD-9012-1,0.029804359358046848
ARD-9013-1,0.04944820008318826
ARD-9014-1,0.31646989607039805
ASOM-10-1,0.010492183783722558
ASOM-12-1,0.009927613953104694
ASOM-13-1,0.01608060038387517
ASOM-14-1,0.04718035236629278
ASOM-15-1,0.594918818548295
ASOM-16-1,0.02993444486601579
ASOM-17-1,0.023591261863773298
ASOM-23-1,0.010059994710780847
ASOM-24-1,0.060065836343009826
ASOM-25-1,0.02916752177968926
ASOM-26-1,0.17686363173035527
ASOM-27-1,0.15814598811923797
ASOM-29-1,0.027630352855233638
ASOM-30-1,0.043329041327836534
ASOM-9-1,0.020178975921353655
ATB-6000-1,0.02167461093159161
ATB-6001-1,0.020121375920051313
ATB-6002-1,0.05038580718846033
ATB-6003-1,0.17418412691661214
ATB-6004-1,0.019794739138057203
ATB-6007-1,0.07509230389499887
ATB-6008-1,0.059811566674482
ATB-6010-1,0.019771454966507646
ATB-6011-1,0.016436779812501613
ATB-6012-1,0.030000000000000002
ATB-6015-1,0.08041969237124709
ATB-6016-1,0.03547098757638133
ATB-6017-1,0.0866251973770407
ATB-6018-1,0.15198401327577396
ATB-6019-1,0.08429397181781864
ATB-6020-1,0.01
ATB-6021-1,0.03916827440422051
ATB-6022-1,0.010000003107677142
ATB-6024-1,0.020601442916939848
ATB-6025-1,0.010000000000000002
ATB-6026-1,0.030287061457976404
ATB-6028-1,0.060203761064760795
ATB-6029-1,0.7840299351879104
ATB-6030-1,0.010000000000000363
ATB-6031-1,0.01280654851120876
BAB-9001-1,0.09860405838864389
BAB-9002-1,0.4821939004444348
BAB-9003-1,0.058201730763759195
BAB-9004-1,0.03014676581340783
BAB-9005-1,0.04993442737031445
BAB-9006-1,0.25897620764776697
BAB-9007-1,0.10946920774725367
BAB-9008-1,0.68815516237528
BAB-9009-1,0.4412598320994123
BAB-9010-1,0.0300429057773229
BAB-9011-1,0.13558931756122747
BAB-9012-1,0.7646869812251843
BAB-9013-1,0.4803434044565049
BAB-9014-1,0.4769807759498326
BAN-100-1,0.995252955993718
BAN-1041-1,0.06
BAN-1052-1,0.02002620221948212
BAN-1059-1,0.04000000000000001
BAN-1088-1,0.14267767520163202
BAN-1142-1,0.9109614632807292
BAN-1147-1,0.07001570216155423
BAN-121-1,0.039999999999999994
BAN-1374-1,0.2
BAN-1377-1,0.060000000000000005
BAN-1381-1,0.07999999999999999
BAN-139-1,0.07
BAN-150-1,0.010737543463792838
BAN-1533-1,0.06
BAN-1542-1,0.14
BAN-1569-1,0.08
BAN-1601-1,1.9568423089533062
BAN-1625-1,1.107504425196846
BAN-1648-1,1.7044096335842205
BAN-1655-1,0.19
BAN-1660-1,0.06
BAN-1668-1,0.04
BAN-169-1,0.8373854825154263
BAN-1702-1,0.10999999999999999
BAN-1703-1,0.07999999999999999
BAN-1717-1,0.05
BAN-1734-1,0.039999999999999994
BAN-1749-1,0.019999999999999997
BAN-1763-1,0.029999999999999995
BAN-1771-1,0.010000000000000002
BAN-1781-1,0.03
BAN-1805-1,0.5932400605183745
BAN-181-1,0.014288793103448279
BAN-1811-1,0.5208866754347191
BAN-1812-1,0.4907482132218259
BAN-1815-1,0.01
BAN-185-1,1.0185500347148884
BAN-1858-1,0.11002887228260871
BAN-1872-1,0.06674528301886794
BAN-19-1,0.06999999999999999
BAN-1903-1,0.03933734939759036
BAN-1914-1,0.041923076923076924
BAN-1971-1,0.15196476248902407
BAN-1983-1,0.4581931803076626
BAN-2-1,1.29517944702916
BAN-20-1,0.6704270587973844
BAN-2015-1,1.679051350713029
BAN-2023-1,0.0392219387755102
BAN-2034-1,0.08484826589595375
BAN-2037-1,0.1
BAN-2038-1,0.1783290816326531
BAN-2090-1,0.05812587087224124
BAN-2096-1,1.111297720765196
BAN-2097-1,0.9381399483138322
BAN-2099-1,0.1497062949948943
BAN-21-1,0.10606481481481482
BAN-2105-1,1.2787048431953458
BAN-2128-1,1.0857241575184595
BAN-2164-1,0.502740544948215
BAN-2172-1,0.09000000000000001
BAN-2256-1,0.613795594875827
BAN-2257-1,0.16996681907875016
BAN-2258-1,1.4621238881327445
BAN-2259-1,1.5143857121478606
BAN-2262-1,0.28335907135901844
BAN-2263-1,0.5219388006448531
BAN-2264-1,0.4265116226795448
BAN-2265-1,1.1320446874106653
BAN-2298-1,1.6550506375245075
BAN-2332-1,0.029999999999999995
BAN-2350-1,0.06999999999999999
BAN-2455-1,0.029999999999999995
BAN-2497-1,0.08000000000000002
BAN-25-1,0.7143274640950737
BAN-2531-1,0.02
BAN-2537-1,0.039999999999999994
BAN-2597-1,1.2219594583181135
BAN-2598-1,0.44531656533296116
BAN-271-1,0.7268488979539076
BAN-274-1,0.5392677081223604
BAN-277-1,1.2363289076240571
BAN-282-1,0.7567871320900512
BAN-284-1,0.8291860887969464
BAN-286-1,0.2998351714080073
BAN-288-1,0.14680881630315454
BAN-289-1,0.7052215779374887
BAN-29-1,0.15999999999999998
BAN-301-1,0.010010528918475299
BAN-32-1,1.2345819259454904
BAN-322-1,0.05
BAN-339-1,0.12634341973484242
BAN-365-1,0.07
BAN-368-1,0.07000000000000002
BAN-474-1,0.4112288327342427
BAN-507-1,3.9915947503145954
BAN-508-1,0.7590690908169184
BAN-510-1,3.313775845748959
BAN-511-1,0.11762316894739348
BAN-513-1,1.103759056116724
BAN-516-1,0.3968693614802354
BAN-522-1,0.45813517558743383
BAN-55-1,1.7001823408453358
BAN-57-1,0.6850723065829651
BAN-599-1,0.03269622001020906
BAN-6-1,1.2680783179998651
BAN-657-1,0.03306352852323335
BAN-66-1,1.9228982403064032
BAN-682-1,1.3242173977378575
BAN-708-1,0.13
BAN-723-1,0.09480643105841657
BAN-73-1,0.03
BAN-738-1,0.08
BAN-748-1,1.9202576718513225
BAN-761-1,0.19
BAN-790-1,0.5517433623228089
BAN-804-1,0.6134746477259981
BAN-81-1,2.2123370688480097
BAN-82-1,0.10367186828599423
BAN-820-1,0.19
BAN-835-1,0.7596998105587089
BAN-858-1,1.077265104849046
BAN-859-1,0.32362250747461624
BAN-865-1,0.8537939608232132
BAN-87-1,0.5161440589244828
BAN-947-1,0.7748393975810292
BAN-949-1,0.09
BAN-95-1,0.04923505032300548
BAN-97-1,0.8018985017312157
BBC-6002-1,0.010759220170452393
BBC-6003-1,0.021791720679958083
BBC-6004-1,0.019526789887672185
BBC-6006-1,0.009988135612982915
BBC-6010-1,0.027897893952570096
BBC-6012-1,0.009817226578838635
BBC-6013-1,0.020112360782739567
BBC-6016-1,0.008961057923872539
BBC-6019-1,0.009263997647004177
BBC-6020-1,0.07231295043048433
BDS-1142-2,0.05256247190272118
BDS-1186-2,0.019999999999999993
BDS-1225-2,0.05330063116455762
BDS-1313-2,0.04000442040350352
BDS-1381-2,0.07737359968108684
BDS-1397-2,0.020083909095871388
BDS-1431-2,0.5897970888895883
BDS-1502-1,0.03949632787470128
BDS-198-2,0.030033741554970593
BDS-209-2,0.12294113132892875
BDS-265-2,0.2280360352629358
BDS-276-2,0.2244487666510926
BDS-369-2,0.02999999997964807
BDS-589-2,0.6980627615423076
BDS-689-2,1.7668822954135814
BDS-755-2,0.01999999999894349
BDS-800-2,0.39366632356559716
BER-9000-1,0.05821732132731614
BER-9001-1,0.3717937618821364
BER-9002-1,0.2474921469368199
BER-9003-1,0.08365011210876097
BER-9004-1,0.13316472376385993
BER-9006-1,0.012287245885774173
BER-9007-1,0.020031976920033476
BER-9008-1,0.619026111026105
BER-9009-1,0.18413203932943287
BER-9011-1,0.26829946910341257
BER-9016-1,0.05022144712163179
BER-9017-1,0.03115251887052321
BER-9018-1,0.08854195281474378
BER-9019-1,0.7188247113458627
BER-9020-1,0.5127130017361446
BER-9021-1,0.22926998122064843
BER-9027-1,0.44007307931244627
BER-9028-1,0.284414744378786
BER-9029-1,0.5075103134226678
BER-9030-1,0.617744582783224
BER-9032-1,0.11625095945747067
BER-9034-1,1.032242093032539
BER-9040-1,0.027971829073784798
BER-9041-1,0.06329500131643392
BER-9042-1,0.09582733111490888
BER-9046-1,0.017441495109121262
BER-9050-1,0.00974141487700313
BER-9051-1,0.009672647370230322
BER-9052-1,0.5906120658527426
BER-9053-1,0.2455178203783629
BER-9054-1,0.046754237286667444
BLS-9000-1,0.03952987272839677
BLS-9001-1,0.10800754743237309
BLS-9005-1,0.020000735601420346
BLS-9007-1,0.07129577819269571
BLS-9008-1,0.03999672250940275
BLS-9009-1,0.09286116084614013
BLS-9010-1,0.05042650157180773
BMSE-60-1,0.10125845247553338
BMSE-62-1,0.214420219590419
BPS-9007-1,0.05991952542737807
BPS-9008-1,0.009296121030597208
BPS-9009-1,0.03011274534220372
BPS-9010-1,0.383748301335094
BPS-9012-1,0.23337157521528146
BPS-9013-1,0.966138402240253
BPS-9015-1,0.5005071275991638
BRB-6006-1,0.5281653103024171
BRB-6007-1,0.9729518210264553
BRB-6008-1,0.8338348201020416
BRB-6009-1,1.3132272726813847
BRB-6014-1,0.5102738625883209
BRB-6019-1,0.027900771183463034
BRB-6020-1,0.17634951424537873
BRB-6042-1,0.6529727890109358
BRB-6053-1,0.11489776524321509
BRB-6054-1,0.5209849508752558
BRB-6055-1,1.1870320498618672
BRB-6057-1,0.6174081276098125
BRB-6064-1,0.4672906768456064
BRB-6065-1,0.9591956582665455
BRCL-16-1,1.3191531870479358
BRCL-2-1,0.4069536925181607
BRCL-4-1,0.10149598500626712
BRCL-51-1,1.6628952138456985
BRCL-61-1,0.04888572533646393
BRCL-9-1,1.336404473504877
BRL-9000-1,0.05922099777499166
BRL-9001-1,0.12532837717120474
BRL-9002-1,0.10397516894715693
BRL-9003-1,0.4854994392754307
BRL-9004-1,0.08599996758357888
BRL-9005-1,0.03800003455412253
BRL-9006-1,0.7374133533300223
BRL-9007-1,1.1055034918753337
BRL-9008-1,0.20839140279652893
BRL-9009-1,0.295437876681913
BRL-9010-1,1.5235692620718857
BRL-9011-1,0.010010961172914041
BRL-9012-1,0.010001890700175601
BRL-9013-1,0.39665840038467143
BRL-9014-1,1.205539430807051
BRL-9016-1,0.3471299922965209
BRL-9017-1,0.31255836223303135
BRL-9018-1,0.013135319821705429
BRL-9019-1,0.8692415102465669
BRL-9020-1,0.05772148782548893
BRL-9021-1,0.19087402407664533
BRL-9022-1,0.5240636023312327
BRL-9023-1,0.15143084285580838
BRL-9024-1,1.2742711132261577
BRL-9025-1,0.016755293968034254
BRL-9026-1,0.039679866068463444
BRL-9027-1,0.01968089187445181
BRL-9028-1,0.019669930722033817
BRL-9029-1,0.03666441986587158
BRL-9030-1,0.0945586758616051
BRL-9031-1,0.3920844474634454
BRL-9032-1,0.31594002225951956
BRL-9033-1,0.3825800044055958
BRL-9034-1,0.19919323792604188
BRL-9035-1,0.3468734984576958
BRL-9036-1,0.3110991107923552
BRL-9039-1,1.1097038501950451
BRL-9040-1,0.9372735961654983
BRL-9041-1,0.21756017164543162
BRL-9042-1,0.5631901683435657
BRL-9043-1,0.013300369719351593
BRL-9044-1,0.320822047414042
BRL-9045-1,0.016370653962321985
BRL-9046-1,0.009999999999999998
BRL-9047-1,0.01000000000006865
BRL-9048-1,0.6325672306997262
BRL-9049-1,0.07343565310717592
BRL-9050-1,0.24107893190271681
BRL-9051-1,0.010000000000307511
BRL-9052-1,0.21544020242625408
BRL-9053-1,0.0890029828884175
BRL-9054-1,0.010000000000399287
BRL-9055-1,0.6163466876768916
BRL-9056-1,0.12202919992494987
BRL-9059-1,0.030638179955662984
BRL-9060-1,1.1442113979436481
BRL-9062-1,0.01
BRL-9064-1,2.8448447964139643
BRL-9065-1,0.04227132634261543
BRL-9066-1,0.13069898707432256
BRL-9067-1,0.19704486051453624
BRS-6011-1,0.07001556857498605
BRS-6015-1,0.09787030041279852
BRS-6050-1,0.06781675626356203
BRS-6057-1,0.06953103686626048
BRS-6059-1,0.09418897556934186
BRS-6077-1,0.08429453324884352
BRS-6079-1,0.11401617544683193
BRS-6081-1,0.15199056378487408
BSA-11-1,0.009999998261471597
BSA-15-1,0.02
BSA-17-1,0.013241320632213815
BSA-22-1,0.023135325938917647
BSA-23-1,0.019668870541499395
BSA-25-1,0.6629410425122453
BSA-26-1,0.02656274260011355
BSA-28-1,0.020000000000000004
BSA-7-1,0.23385694690304154
BSA-8-1,0.04600478530886092
BUN-103-1,0.03459761190771414
BUN-108-1,0.0375283107182005
BUN-109-1,0.5433200590801481
BUN-110-1,0.020382092687869103
BUN-111-1,0.031878069598996264
BUN-112-1,0.03455464295995875
BUN-113-1,0.25425376404541244
BUN-114-1,0.07275594749531195
BUN-115-1,0.13661425940353866
BUN-116-1,0.4204990332079075
BUN-117-1,0.13571010911444523
BUN-120-1,0.02237979762133732
BUN-122-1,0.009998493363711025
BUN-123-1,0.029963458278697896
BUN-6001-1,0.022204423144827047
BUN-6002-1,0.08917368578981037
CBW-1024-1,0.7125550246605427
CBW-1026-1,0.06990284191217062
CBW-263-1,0.04295755670393822
CBW-264-1,0.024553982745040233
CBW-265-1,0.06116404142820261
CBW-266-1,0.019429036341064798
CBW-267-1,0.038277911039422595
CBW-268-1,0.04007782112906366
CBW-269-1,0.02029020801170694
CBW-270-1,0.06318459920955902
CBW-271-1,0.05128064251848131
CBW-272-1,0.05833573462189562
CBW-273-1,0.05051308968320259
CBW-274-1,0.038069035355468066
CBW-275-1,0.023887033642651073
CBW-276-1,0.06494874078323704
CBW-277-1,0.00945156180201714
CBW-278-1,0.021853423163247437
CBW-279-1,0.04449884358886216
CBW-280-1,0.12114979970018636
CBW-281-1,0.020546797787339366
CBW-282-1,0.04951363981996498
CBW-283-1,0.045721787296419056
CBW-284-1,0.06637416001178621
CBW-285-1,0.040166100614081914
CBW-286-1,0.020009738170048058
CBW-287-1,0.054992579930707414
CBW-288-1,0.0610780986680175
CBW-289-1,0.0580811623834943
CBW-9000-1,0.20177570293219066
CBW-9001-1,0.18154912098333398
CBW-9002-1,0.6388175096018018
CBW-9003-1,0.6238536049522423
CBW-9004-1,0.38281406981686916
CBW-9005-1,0.009999967502478415
CBW-9006-1,0.1358193510751413
CBW-9007-1,0.021799361430044687
CBW-9008-1,0.3627386592009813
CBW-9009-1,0.20341855539392456
CBW-9010-1,0.5503199328323454
CBW-9011-1,0.15918940627420403
CBW-9012-1,0.032136557194462505
CBW-911-1,0.5333815768512932
CBW-918-1,0.6022971151926746
CCL-325-1,0.29483120013638814
CIS-9000-1,0.011690107924889316
CIS-9001-1,1.0005295523388502
CIS-9003-1,0.9935315815730915
CIS-9005-1,1.1467754719482743
CIS-9006-1,0.7832082743178171
CIS-9007-1,0.07082927164093915
CIS-9008-1,0.02000874736485764
CIS-9009-1,0.385321383453089
CIS-9010-1,0.03025283695311283
CIS-9011-1,0.020761449241736566
CIS-9012-1,0.04910930051311889
CIS-9013-1,0.9452671398594421
CIS-9014-1,0.987838715504022
CQCS-2-1,0.9371381571449302
CQG-109-1,1.2283876281877586
CQG-110-1,0.59
CQG-140-1,0.9014018691588788
CQG-149-1,0.029999999999999995
CQG-29-1,0.52
CQG-3-1,0.03999999999999999
CQG-5-1,0.28
CQG-8-1,0.31
CQH-1002-1,0.09
CQH-1008-1,0.12
CQH-1018-1,0.022179354550716276
CQH-1019-1,0.7641787536386374
CQH-1021-1,0.06
CQH-1025-1,0.09000000000000001
CQH-1032-1,0.05
CQH-1035-1,0.5199999999999999
CQH-1038-1,0.4699999999999998
CQH-1043-1,0.07999999999999999
CQH-1048-1,0.029999999999999995
CQH-1056-1,0.08000000000000002
CQH-1058-1,0.05999999999999999
CQH-1066-1,0.21000000000000002
CQH-1092-1,0.03
CQH-11-1,0.38000000000000006
CQH-1102-1,0.05
CQH-1103-1,0.08999999999999998
CQH-1107-1,0.05999999999999999
CQH-1109-1,0.24918447245641234
CQH-1128-1,0.029999999999999995
CQH-1159-1,0.10999999999999999
CQH-1161-1,0.20000000000000004
CQH-1163-1,0.08000000000000002
CQH-1173-1,0.06
CQH-1188-1,0.029999999999999995
CQH-1198-1,0.030000000000000006
CQH-12-1,0.020000000000000004
CQH-1201-1,0.04000000000000001
CQH-1203-1,0.029999999999999995
CQH-1205-1,0.019999999999999997
CQH-1208-1,0.029999999999999995
CQH-1210-1,0.039999999999999994
CQH-1212-1,0.04000000000000001
CQH-1217-1,0.029999999999999995
CQH-1227-1,0.20999999999999996
CQH-1241-1,0.029999999999999995
CQH-1243-1,0.029999999999999995
CQH-1261-1,0.7399999999999999
CQH-1277-1,0.10999999999999999
CQH-128-1,0.6730743695049284
CQH-1285-1,0.12
CQH-1300-1,0.11999999999999998
CQH-1304-1,0.10999999999999999
CQH-1307-1,0.45999999999999985
CQH-1312-1,0.43999999999999995
CQH-1342-1,0.21
CQH-1346-1,0.20999999999999996
CQH-136-1,0.04
CQH-1370-1,0.039999999999999994
CQH-1377-1,0.04999999999999998
CQH-1395-1,0.039999999999999994
CQH-1398-1,0.05999999999999999
CQH-152-1,0.03
CQH-155-1,0.039999999999999994
CQH-158-1,0.019999999999999997
CQH-16-1,0.16
CQH-165-1,0.05
CQH-17-1,0.41999999999999993
CQH-172-1,0.18999999999999997
CQH-18-1,0.2399999999999999
CQH-180-1,0.08999999999999997
CQH-190-1,0.059999999999999984
CQH-199-1,0.04999999999999998
CQH-2-1,0.020517782426778246
CQH-20-1,0.039999999999999994
CQH-208-1,0.05
CQH-21-1,0.21
CQH-210-1,0.01972485319399201
CQH-227-1,0.05000000000000001
CQH-248-1,0.035695475335576515
CQH-250-1,0.02443286070791829
CQH-259-1,0.029999999999999995
CQH-26-1,0.010072252708847203
CQH-274-1,0.030000000000000002
CQH-275-1,0.01
CQH-277-1,0.010000000000000004
CQH-289-1,0.18340025843807997
CQH-29-1,0.04
CQH-295-1,0.20389195477925381
CQH-302-1,0.05
CQH-303-1,0.029999999999999995
CQH-329-1,0.02999999999999997
CQH-331-1,0.019997192844875576
CQH-333-1,0.03904844290657441
CQH-334-1,0.11
CQH-351-1,0.8999999999999999
CQH-352-1,0.07999999999999999
CQH-354-1,0.029999999999999995
CQH-357-1,0.20000000000000004
CQH-366-1,0.18
CQH-374-1,0.2399999999999999
CQH-384-1,0.0200227067250549
CQH-387-1,0.029999999999999995
CQH-404-1,0.039999999999999994
CQH-408-1,0.12999999999999998
CQH-41-1,0.15999999999999998
CQH-412-1,0.059351197212957466
CQH-419-1,0.20000000000000007
CQH-423-1,0.009996124793650262
CQH-424-1,0.06
CQH-426-1,0.06
CQH-429-1,0.3599999999999999
CQH-430-1,0.029999999999999992
CQH-431-1,0.14999999999999994
CQH-432-1,0.23000000000000004
CQH-438-1,0.15
CQH-44-1,0.07
CQH-440-1,0.029999999999999995
CQH-450-1,0.029999999999999995
CQH-452-1,0.07115609104781281
CQH-455-1,0.03999877056472265
CQH-459-1,0.04936274744333476
CQH-461-1,0.029999999999999995
CQH-466-1,0.039999999999999994
CQH-467-1,0.0589876172219056
CQH-469-1,0.14
CQH-471-1,0.28
CQH-479-1,0.11000000000000001
CQH-480-1,0.05999999999999999
CQH-481-1,0.029999999999999995
CQH-484-1,0.04000000000000001
CQH-487-1,0.029999999999999995
CQH-488-1,0.04999999999999998
CQH-493-1,0.029999999999999995
CQH-500-1,0.019999999999999997
CQH-503-1,0.13
CQH-51-1,0.039999999999999994
CQH-513-1,0.08
CQH-515-1,0.020000000000000007
CQH-519-1,0.019999999999999993
CQH-576-1,0.08999999999999997
CQH-58-1,0.22
CQH-590-1,0.01
CQH-60-1,0.05999999999999999
CQH-612-1,0.029999999999999995
CQH-615-1,0.009999999999999998
CQH-646-1,0.030000000000000002
CQH-67-1,0.03201208221106758
CQH-681-1,0.04000000000000001
CQH-682-1,0.07999999999999999
CQH-695-1,0.029449142477194476
CQH-707-1,0.12999999999999998
CQH-723-1,0.05000000000000001
CQH-727-1,0.029598123064137748
CQH-728-1,0.02
CQH-737-1,0.03
CQH-749-1,0.06999999999999998
CQH-754-1,0.10999999999999999
CQH-759-1,0.07999999999999999
CQH-760-1,0.19999999999999993
CQH-761-1,0.07999999999999999
CQH-763-1,0.4700000000000002
CQH-778-1,0.19000000000000003
CQH-788-1,0.11999999999999998
CQH-796-1,0.19000000000000003
CQH-802-1,0.007380187747035571
CQH-807-1,0.37000000000000005
CQH-812-1,0.08000000000000003
CQH-820-1,0.04368330039525692
CQH-822-1,0.0095336753827879
CQH-830-1,0.10999999999999999
CQH-832-1,0.019346941710299655
CQH-838-1,0.06999999999999998
CQH-857-1,0.08999999999999998
CQH-863-1,0.039999999999999994
CQH-889-1,0.029999999999999995
CQH-898-1,0.019999999999999997
CQH-901-1,0.07999999999999999
CQH-923-1,0.029999999999999995
CQH-928-1,0.019999999999999997
CQH-935-1,0.05
CQH-940-1,0.07214056324110672
CQH-946-1,0.08080787782811844
CQH-960-1,0.039999999999999994
CQH-982-1,0.02
CQH-985-1,0.04999999999999999
CQH-987-1,0.08999999999999997
CQH-989-1,0.02
CQH-995-1,0.019999999999999997
CTAP-1-1,1.3078346477007416
CTAP-106-1,0.8247218095901818
CTAP-119-1,0.010009408062588807
CTAP-146-1,0.2903948423126108
CTAP-177-1,0.2710710904272662
CTAP-189-1,0.00983523407673736
CTAP-211-1,0.641652846950139
CTAP-228-1,0.019546098628609496
CTAP-238-1,0.0857394631428617
CTAP-245-1,0.3608527727821541
CTAP-247-1,0.07991742547560318
CTAP-5-1,0.8794658144536798
CTAP-59-1,1.1318209658008012
CTAP-8-1,0.028098103821570512
CTI-310-1,0.02013250728410126
CTI-311-1,0.011648932841195359
CTI-314-1,0.009138329666601946
CTI-315-1,0.009810752206567306
CTI-316-1,0.009962135603924614
CTI-317-1,0.014272927690571398
CTI-318-1,0.013930137544818083
CTI-320-1,0.020563560492575815
CTI-321-1,0.009998566467788331
CTI-327-1,0.021086992762415806
CTI-328-1,0.020840169366964405
CTI-370-1,0.02
CTI-378-1,0.009990045877434647
CTI-412-1,0.009131492979455952
CTI-6001-1,0.010000000000000002
CTI-6002-1,0.010348459498952306
CTI-6003-1,0.01
CTI-6004-1,0.009999999999999998
CTI-6005-1,0.028412662658494427
CTI-6006-1,0.009999304647426186
CTI-6007-1,0.04999999999999999
CTI-6008-1,0.037206759927867275
CTI-6009-1,0.11186490406518176
CTI-6010-1,0.020306620858603124
CTI-6013-1,0.20507917547048848
CTI-6015-1,0.019479982531571256
CTI-6017-1,0.029583241075661924
CTI-6018-1,0.019976922732946496
CTI-6019-1,0.0237691841690125
CTI-6020-1,0.02086705626373644
CTI-6021-1,0.01899754323376312
CTI-6022-1,0.019939337723405618
CTI-6025-1,0.02688663039302913
CTI-6027-1,0.01091908288492365
CTI-6028-1,0.02000074306401304
CTI-6029-1,0.019811255135242137
CTI-9000-1,0.010155227753643284
CTI-9003-1,0.009531508374335008
CTI-9005-1,0.007955901198789623
CTI-9006-1,0.020475937740824183
CTI-9007-1,0.03882605235479527
CTI-9009-1,0.01966496319305558
CTI-9012-1,0.01760815616247309
CTI-9013-1,0.032155387130904274
CTI-9014-1,0.00995291740484021
CTI-9015-1,0.010209868797348835
CTI-9029-1,0.01002126873715573
CTI-9030-1,0.028448236943165825
CTI-9032-1,0.0169124099938117
CTI-9033-1,0.03111882622775249
CTI-9034-1,0.020027318896089493
CTI-9035-1,0.016332837732149375
CTI-9037-1,0.009171689561557837
CTI-9039-1,0.020027065733786265
CWR-9000-1,0.34717982717646123
CWR-9001-1,0.9961811892014913
CWR-9002-1,0.2182693060774638
CWR-9003-1,0.4586838882268962
CWR-9004-1,0.7692175047761626
CWR-9005-1,0.9855294521243712
CWR-9007-1,0.4277268816069959
CWR-9008-1,0.5371635147860645
CWR-9010-1,0.14806964914972515
CYP-392-1,0.010319022866060313
CYP-836-1,0.009999999999999997
DHR-6001-1,0.5718949990296865
DLR-1010-1,0.00980570834251971
DLR-1013-1,0.09666482158313293
DLR-1015-1,0.06859599056684153
DLR-1017-1,0.05428850084590848
DLR-1018-1,0.6452381522275141
DLR-1019-1,0.08660177895671667
DLR-1020-1,0.643033726089482
DLR-1022-1,0.04018824614183655
DLR-1024-1,0.0199914158547989
DLR-1027-1,0.02235955143413558
DLR-1028-1,0.023085663993789793
DLR-1029-1,0.07697907371586879
DLR-1033-1,0.3031196679423963
DLR-1034-1,0.010001869805957117
DLR-1035-1,0.00999854535053783
DLR-1037-1,0.6158537090147334
DLR-1039-1,0.688017777908437
DLR-1042-1,0.6252023394738088
DLR-1044-1,0.010485290287905093
DLR-1045-1,0.627975979123919
DLR-1047-1,0.4871670276048291
DLR-1048-1,0.4465380120080987
DLR-1050-1,1.21028605675418
DLR-1051-1,0.009999999999999998
DLR-1053-1,0.45319898444525314
DLR-1054-1,0.01001694173611942
DLR-1057-1,0.8616624491613337
DLR-1059-1,0.20792530187513503
DLR-1061-1,0.6699901484539195
DLR-1064-1,0.24443883874145167
DLR-1601-1,0.05493300467629648
DLR-1768-1,0.05183881666605703
DLR-1769-1,0.05025845238750292
DLR-1772-1,0.029808695796310555
DLR-1773-1,1.084592934016896
DLR-1777-1,0.07092316564226675
DLR-1778-1,0.033332895303385963
DLR-1780-1,0.035226767113914356
DLR-1783-1,0.7064906403700083
DLR-1785-1,0.019338449552603765
DLR-1788-1,0.0307998490506057
DLR-1789-1,0.40964517182118654
DLR-1790-1,1.6141097184507334
DLR-250-1,0.33926502920759427
DLR-251-1,0.019625130310949184
DLR-252-1,0.009911821011948568
DLR-253-1,0.0358144612632834
DLR-254-1,1.3082157973817334
DLR-256-1,1.27669658043179
DLR-257-1,0.018667814057804287
EIE-401-1,0.16999999999999998
EIL-1-1,0.08889057628703267
EIL-15-1,1.2259032986398597
EIL-16-1,0.476096874637362
EIL-17-1,1.0456719308262727
EIL-18-1,0.9934040344132723
EIL-19-1,0.9059355053326419
EIL-2-1,0.09239870562630544
EIL-20-1,1.3259218303931368
EIL-21-1,0.731528890754722
EIL-22-1,0.056330559804620636
EIL-23-1,0.06543748600247465
EIL-24-1,0.03743941881459658
EIL-25-1,0.28022253000048697
EIL-26-1,0.2774032906600802
EIL-27-1,0.6018907631929482
EIL-28-1,0.7152022733051348
EIL-3-1,0.1529840144465879
EIL-31-1,0.8696172083388279
EIL-33-1,1.7520066507610246
EIL-34-1,0.8184213562845424
EIL-35-1,1.398429935472477
EIL-36-1,1.6393507972721189
EIL-38-1,1.0614014635505096
EIL-4-1,0.19702242184890673
EIL-40-1,1.1700400727340776
EIL-42-1,1.6970850506600248
EIL-44-1,0.9662866625611237
EIL-46-1,1.1701530001141638
EIL-48-1,0.549714027271474
EIL-5-1,0.16717482083531315
EIL-50-1,0.13463933767552022
EIL-51-1,0.16463443396226415
EIL-53-1,1.1044467690624604
EIL-55-1,0.8096732440902286
EIL-56-1,0.7781979461993087
EIL-58-1,0.13028941712138128
EIL-59-1,1.068004215260097
EIL-6-1,0.12347500332116895
EIL-62-1,0.08765897510412608
EIL-63-1,0.047856739281400794
EIL-64-1,0.09860944207866008
EIL-65-1,0.19733520696702705
EIL-66-1,0.215265465711341
EIL-68-1,0.2087066413900737
EIL-69-1,0.37551895292172105
EIL-7-1,0.2328874557588728
EIL-71-1,0.0615830189268074
EIL-72-1,0.06963106400575186
EIL-75-1,0.1741462371434444
EIL-76-1,0.1617309860425275
EIL-77-1,0.4294575656896292
EIL-78-1,1.2938469624895015
EIL-79-1,0.44049792699876006
EIL-80-1,0.7950472161400012
EIL-82-1,0.11001437292426286
EIL-83-1,0.2966092551043023
EIL-84-1,0.6587908477738922
EIR-1000-1,0.3436120765533426
EIR-1001-1,0.2659571135926092
EIR-1002-1,0.827062800582297
EIR-1003-1,0.5814178482133354
EIR-1004-1,0.021920774218319172
EIR-1005-1,2.9913678233721304
EIR-9001-1,1.5712192558533207
EIR-9002-1,0.8449081251298447
EIR-9003-1,1.5005603742465126
EIR-9004-1,0.8694300200790941
EIR-9005-1,0.01324573043615053
EIR-9006-1,0.019888013424667127
EIR-9007-1,0.019999999999998887
EIR-9008-1,0.01993165153852448
EIR-9009-1,0.019989763577727256
EIR-9012-1,1.8790252412310315
EIR-9013-1,0.5676350310618848
EIR-9014-1,0.010000133152297684
EIR-9015-1,0.020000000000005104
EIR-9016-1,0.054300289508216415
EIR-9017-1,0.17913058716308963
EIR-9019-1,0.6296118746253621
EIR-9020-1,0.30384618615919506
EIR-9022-1,0.22004254371023768
EIR-9023-1,0.9777241269728247
EIR-9024-1,0.5396604895300181
EIR-9025-1,0.9813396847360517
EIR-9027-1,0.9403641170016482
EIR-9028-1,0.31115064737329956
EIR-9030-1,0.5180340779801302
EIR-9031-1,0.11177090095927006
EIR-9034-1,0.4424861672491261
EIR-9035-1,0.8089372007481271
EIR-9037-1,0.7389009302106498
EIR-9042-1,0.6491569958059277
EIR-9043-1,0.9826350451050955
EIR-9044-1,0.5875781304728608
EIR-9046-1,0.8999104369337791
EIR-9047-1,1.6570853823710252
EIR-9048-1,0.932260243784314
EIR-9049-1,1.6594643233288058
EIR-9050-1,0.9684423624982339
EIR-9052-1,0.42049970078701343
EME-9008-1,0.79922729107433
ESH-6000-1,1.2989912591167605
ESH-6001-1,1.7871594830922921
ESH-6002-1,1.4203535878962688
ESH-6003-1,0.9255538398656943
ESH-6004-1,1.0179509206373685
ESH-6005-1,1.0947252111387653
ESH-6007-1,0.1263834550421181
ESH-6010-1,0.22830014186807596
ESH-6012-1,0.8023851764886855
ESH-6013-1,0.6439084524563694
ESH-6014-1,0.5994282499693958
ESH-6015-1,0.5832944707045755
ESH-6016-1,0.155931762953997
ESH-6017-1,0.47995004981548867
ESH-6019-1,1.0673986642204023
ESH-6020-1,0.6199625305479192
FSE-184-1,0.6651264955503691
FSE-200-1,1.4649614335399446
FSE-210-1,1.08448423878893
FSE-223-1,0.36480683772859424
FSE-235-1,0.8122271221454133
FSE-273-1,0.48451130833855693
FSE-31-1,0.38683275816818036
FSE-43-1,0.6180782999181554
FSE-81-1,2.112801822323463
GAY-6002-1,0.9820018458925688
GCL-9000-1,0.026566057554579053
GCL-9001-1,0.5504316777095211
GCL-9002-1,0.19050136483620467
GCL-9004-1,1.1262286738313338
GCL-9006-1,0.7855254991405819
GCL-9007-1,0.03992776373866594
GCL-9008-1,0.043695723902323666
GCL-9009-1,0.13202094338280934
GRU-121-1,0.7699999999999999
GRU-158-1,0.30999999999999994
GRU-188-1,0.7297599784053718
GRU-197-1,0.33
GRU-299-1,0.39353564937594593
GRU-313-1,0.3631662260239012
GRU-319-1,0.020008281107617043
GRU-331-1,0.040227182108601656
GRU-36-1,0.23614485981308414
GRU-388-1,0.12455897130677854
GRU-58-1,0.22
GRU-62-1,0.020280395545379665
GULLY-64-1,0.4573577997843313
GULLY-66-1,0.9388103066448119
GULLY-73-1,0.26709893254332345
HRT-1-1,0.23731216205621597
HRT-10-1,0.020000009355510866
HRT-11-1,0.026380558450619002
HRT-12-1,0.013128740895748326
HRT-13-1,0.010000723126180564
HRT-3-1,0.016864652297527708
HRT-4-1,0.017444100639201418
HRT-5-1,0.023299276764331276
HRT-6-1,0.019993399360964514
HTC-9000-1,0.6891183241071546
HTC-9001-1,0.47204480677941235
HTC-9002-1,0.7618754168016985
HTC-9003-1,0.2350207047155044
HTC-9005-1,0.10038296012983022
HTC-9006-1,0
HTN-9000-1,1.4292401503248424
HTN-9001-1,0.010489938513985773
HTN-9002-1,0.02019550015927036
HTN-9003-1,0.030791719486213832
HTN-9004-1,0.1161681362408048
HTN-9005-1,0.17273419955503433
HTN-9006-1,1.4505189925285336
HTN-9008-1,0.02006044273533503
HTN-9009-1,0.7794000679204175
HTN-9010-1,0.45722155106454243
HTN-9011-1,0.06558744550040235
HTR-9001-1,0.8218974406878743
HTR-9002-1,0.634117166406387
HTR-9003-1,0.46166869687076695
HTR-9004-1,0.7350711338262618
HTR-9005-1,0.33924292297593434
HTR-9008-1,0.6921473643479875
HTR-9009-1,0.18817443982146226
HTR-9010-1,0.020084851843391743
HTS-152-1,0.44612208924940205
HTS-153-1,0.5911004151521991
HTS-161-1,0.680386218213847
HTS-195-1,0.352768662537215
HTS-204-1,0.4248648662532573
HTS-208-1,0.40465955869585496
HTS-209-1,0.7691815904792317
HTS-323-1,0.34507695492740703
HTS-328-1,0.25108423062405744
HTS-372-1,0.883749489926905
HTS-381-1,0.7369674328028013
HTS-392-1,0.9927888990927276
HTS-393-1,0.6052605836993685
HTS-397-1,0.6096886326609335
HTS-399-1,0.5719720545501253
HTS-402-1,0.07143916872849934
HTS-460-1,0.5822251078429813
HTS-470-1,0.7691393788924145
HTS-571-1,0.024949643572394563
HTS-596-1,1.0097905612128422
HTS-608-1,0.5297821652441632
HTS-660-1,0.5488362218106592
HTS-9001-1,0.48245298999826774
HTS-9002-1,0.5839956956464346
HTS-9003-1,0.45470149442738783
HTS-9004-1,0.5439367179582262
HTS-9005-1,0.3860758960969811
HTS-9006-1,0.6156405755975941
HTS-9007-1,0.33209536382158167
HTS-9008-1,0.5492930895217205
HTS-9009-1,0.7642576552685644
HTS-9010-1,0.6477426067767169
HTS-9011-1,0.5354074271056347
HTS-9012-1,0.13315913435278381
HTS-9013-1,0.4772699663015647
HTS-98-1,1.3085149140972288
INK-8000-1,1.0900635842085715
INK-8001-1,1.5404939533938307
INK-8002-1,0.01967138247496721
INK-8003-1,0.010002584574027817
INK-8004-1,0.029903771232486668
INK-9000-1,0.8064960939105701
INK-9001-1,1.0005289743750112
INK-9002-1,0.32798365057978107
INK-9003-1,0.2654852504648887
INK-9004-1,2.3558903702932787
INK-9005-1,0.18951636093582616
INK-9006-1,0.24665249152961483
INK-9007-1,0.22504805718370485
INK-9008-1,0.16162764804365076
INK-9009-1,0.18507707040283033
INK-9010-1,0.34841344046306283
INK-9013-1,0.9581633128004742
INK-9014-1,0.9920192596227155
IPB-1-1,0.3155492849924679
IPB-10-1,0.36052105061968576
IPB-2-1,0.20565207085588055
IPB-4-1,0.13429693184683567
IPB-5-1,0.4050655678289746
IPB-6-1,0.850976940549488
IPB-7-1,0.08038917189478248
IPB-8-1,0.9543830120643967
IPB-9-1,0.6287481485097449
JFD-9000-1,0.00999986620959115
JFD-9001-1,0.26234723817151756
JFD-9003-1,0.131931536891955
JFD-9004-1,0.10504717257423685
JFD-9005-1,0.02996840871332913
JFD-9006-1,0.009781295084339598
JFD-9007-1,0.9422561167296265
JFD-9008-1,0.6443370847162396
JFD-9009-1,0.019860443376884
JFD-9010-1,0.740902316195201
JFD-9011-1,0.1732207690227964
JFD-9012-1,0.0870126742815434
KAI-6001-1,0.04000012845374498
KAI-6004-1,0.02980605015455193
KAI-6006-1,0.02019060291499188
KCM-9001-1,1.9006988466646928
KCM-9002-1,3.643890365911739
KCM-9005-1,0.8329001056764378
KCM-9006-1,0.4561044769558401
KCM-9007-1,0.06769653065410026
KCM-9008-1,3.398081211849839
KCM-9009-1,0.20095582927122863
KCM-9010-1,0.4083556243645507
KCM-9011-1,3.637441384320692
KCM-9012-1,0.09986270032045579
KCM-9013-1,0.13889329837285838
KCM-9014-1,0.03924692362434181
KCM-9015-1,1.1053063684984776
KCM-9016-1,2.5203203100389837
KCM-9017-1,0.07703964008688557
KCM-9019-1,1.152653935851057
KCM-9022-1,3.8704071320317803
KCM-9024-1,0.07901461961276422
KCM-9027-1,0.129855411070564
KCM-9028-1,0.1428136939725207
KCM-9029-1,0.13955605191668244
KCM-9030-1,0.972941818486468
KCM-9031-1,0.31812906048743117
KCM-9032-1,1.3074444525307063
KCM-9033-1,3.5201791870167294
KCM-9035-1,3.1526294706769304
KCM-9036-1,2.193612486587318
KCM-9040-1,1.5218243183577556
KCM-9041-1,0.1586587694350818
KCM-9042-1,0.25551696191704637
KCM-9043-1,0.1492507892472794
KCM-9044-1,3.7097888592745
KCM-9045-1,0.9919075532954058
KCM-9046-1,0.08814850860792871
KCM-9047-1,3.196565955437922
KCM-9050-1,0.041533018867924536
KCM-9051-1,0.40463386216388825
KCM-9052-1,3.8287326006587676
KCM-9053-1,2.5250026549258764
KCM-9054-1,0.5654900030260143
LAK-9000-1,0.010038805356564104
LAK-9001-1,0.03344142017537525
LAK-9002-1,0.013824368361345474
LAK-9003-1,0.009488949935540983
LAK-9004-1,0.019438248003938584
LAK-9005-1,0.019789902708328286
LAK-9006-1,0.012311569822418406
LDR-9000-1,0.6343057614223596
LDR-9001-1,0.721511710816132
LDR-9003-1,1.0696993214423405
LDR-9004-1,0.6240251161550039
LDR-9005-1,0.6353905880863628
LDR-9006-1,0.6622150774583735
LFZ-11-1,0.5399999999999999
LFZ-125-1,0.04
LFZ-127-1,0.029999999999999992
LFZ-128-1,0.14
LFZ-129-1,0.04000000000000001
LFZ-145-1,0.029999999999999995
LFZ-152-1,0.12999999999999998
LFZ-17-1,0.2662889518413598
LFZ-228-1,0.21999999999999997
LFZ-231-1,0.029999999999999995
LFZ-270-1,0.22
LFZ-275-1,0.14
LFZ-3-1,0.38742209631728053
LFZ-30-1,0.8333928571428572
LFZ-307-1,0.20999999999999996
LFZ-309-1,1.7828355911330047
LFZ-310-1,0.06999999999999999
LFZ-334-1,0.11
LFZ-374-1,0.09999999999999999
LFZ-382-1,0.06999999999999999
LFZ-450-1,0.24730585070743852
LFZ-451-1,0.42887315270935966
LFZ-453-1,0.09999999999999996
LFZ-454-1,0.37999999999999995
LFZ-455-1,0.9477463054187192
LFZ-459-1,1.0057409967704711
LFZ-460-1,0.9934740239738602
LFZ-461-1,1.6133251953125003
LFZ-462-1,1.0934759852216749
LFZ-464-1,0.13595432705875748
LFZ-467-1,0.030000733424114294
LFZ-468-1,0.010360110130968372
LFZ-471-1,1.533449948664474
LFZ-472-1,0.38191235045498245
LFZ-473-1,0.7341832786218726
LFZ-487-1,0.02999002462185203
LFZ-488-1,0.6405545973355341
LFZ-489-1,1.0106648344560483
LFZ-490-1,1.317079137056306
LFZ-491-1,0.2534466129450365
LFZ-494-1,0.07924618359463761
LFZ-496-1,0.04779084455359977
LFZ-497-1,0.9107451440966527
LFZ-499-1,2.073698986451875
LFZ-50-1,0.07999999999999999
LFZ-500-1,1.3719972761547579
LFZ-502-1,0.18326872301989078
LFZ-503-1,0.8494895959797116
LFZ-504-1,0.1385540677860132
LFZ-505-1,1.1961342795174577
LFZ-506-1,0.13795946039234513
LFZ-507-1,0.1186659481740017
LFZ-58-1,0.23999999999999996
LFZ-6-1,0.17069582152974505
LFZ-60-1,0.37000000000000005
LFZ-80-1,0.06999999999999998
LFZ-98-1,0.4090707236842105
LIA-15-1,0.029264240951384433
LIA-194-1,0.07304481890711209
LIA-195-1,0.010008144131596865
LIA-211-1,0.009754040576942007
LIA-261-1,0.009994571383229428
LIA-267-1,0.02999836274817729
LIA-86-1,0.10512480950510013
MAK-106-1,0.019835822416199297
MAK-13-1,0.03561719823838835
MAK-37-1,2.1911676796279465
MAK-38-1,3.21415398276692
MBN-54-1,0.04768657981638097
MBN-6-1,0.1462739773221687
MBP-6006-1,0.012516492462836171
MCL-9000-1,0.3264903495074524
MCL-9001-1,0.02897681933690755
MCL-9002-1,0.24550542541229975
MCL-9003-1,0.02040334555805233
MCL-9004-1,0.2631214048799507
MCL-9005-1,0.00978262365652701
MCL-9006-1,0.04777727808036347
MCL-9007-1,0.030145552756799927
MCL-9008-1,0.0813772786793197
MCL-9009-1,0.12304326948330667
MCL-9010-1,0.009914260938011904
MCL-9011-1,0.05175963706210399
MCL-9013-1,0.025502445060810633
MCL-9014-1,0.020125476884701947
MCL-9015-1,0.01999912032558157
MCL-9016-1,0.10446385838125315
MCL-9017-1,0.017878020007419282
MCL-9018-1,0.016063151722340602
MCL-9019-1,0.02978378881770314
MCL-9020-1,0.010000058913711569
MCL-9022-1,0.020297402699616815
MCL-9023-1,0.412429370022791
MCL-9024-1,0.02367679916999656
MCL-9025-1,0.020571840496761362
MCL-9026-1,0.020373632787719694
MCL-9027-1,0.030484262231721355
MCL-9028-1,0.3373106940357191
MCL-9029-1,0.02230639931514978
MCL-9030-1,0.01000006783872723
MCL-9031-1,0.009999986185638647
MCL-9032-1,0.19540614345019547
MCL-9033-1,0.08309910483306185
MCL-9034-1,0.1205122373741487
MCL-9035-1,0.009998928496988265
MCL-9036-1,0.01957038367445416
MCL-9037-1,0.009978591296280136
MCL-9038-1,0.009337857084620612
MCL-9039-1,0.009997396791097835
MCL-9040-1,0.009770128756947069
MCL-9041-1,0.015529615099132995
MCL-9042-1,0.030501510710999973
MCL-9043-1,0.009998632053121334
MCL-9044-1,0.020028208919508038
MCL-9045-1,0.19652973942213423
MCL-9046-1,0.0744209315499302
MCL-9047-1,0.037075835925784464
MCL-9048-1,0.009999999999999998
MCL-9049-1,0.020102599685174093
MCL-9050-1,0.2503414614545747
MCL-9051-1,0.020432314702185785
MCL-9052-1,0.14490061498965354
MCL-9053-1,0.09020538091444798
MCL-9054-1,0.00954178151639858
MCL-9055-1,0.06889903919548303
MCL-9057-1,0.00981016569471704
MCL-9058-1,0.029218051883007752
MCL-9059-1,0.040405211632281196
MCL-9060-1,0.03384470879705978
MDIA-1107-1,0.04000000000000001
MDIA-1108-1,0.01935294483364152
MDIA-1109-1,0.029999999999999995
MDIA-1130-1,0.43999999999999995
MDIA-1238-1,0.2374793388785711
MDIA-401-1,0.010000673168254473
MDIA-404-1,0.02
MDIA-408-1,0.11029532140820796
MDIA-409-1,0.019505928612160335
MDIA-410-1,0.28008053965675916
MDIA-412-1,0.019391832854346085
MDIA-413-1,0.010007526438905038
MDIA-414-1,0.009999996566124957
MDIA-415-1,0.0193891234415946
MDIA-416-1,0.507869892254905
MDIA-417-1,0.03034453610465699
MDIA-418-1,0.01587577237306952
MDIA-421-1,0.01
MDIA-423-1,0.009933344344332327
MDIA-424-1,0.009805579326310015
MDIA-425-1,0.04176613570069355
MDIA-426-1,0.009995749148789618
MDIA-427-1,0.010000077339052275
MDIA-428-1,0.009999980837517517
MDIA-434-1,0.2643173266031003
MDIA-435-1,0.019870093860937264
MDIA-436-1,0.01000681513221483
MDIA-437-1,0.20812835387154405
MDIA-445-1,0.01811807228784504
MDIA-446-1,0.2302497004292841
MDIA-447-1,0.045344345277910376
MDIA-449-1,0.030076211465521748
MDIA-450-1,0.03725899137940717
MDIA-451-1,0.016222867981712033
MDIA-452-1,0.017502626369322684
MDIA-453-1,0.04851504968530773
MDIA-454-1,0.01589230872675886
MDIA-455-1,0.010000088349881359
MDIA-458-1,0.029833263695533692
MDIA-459-1,0.031054489924822258
MDIA-705-1,0.08999999999999998
MDIA-727-1,0.08764675943123248
MDIA-733-1,2.652093340017594
MDIA-735-1,0.14
MDIA-737-1,0.32178242037895466
MDIA-743-1,0.039856247152732095
MDIA-755-1,0.020318793932667403
MDIA-761-1,0.19644332197559367
MDIA-887-1,0.6326162057485206
MGR-9001-1,0.16992641021535457
MGR-9002-1,0.8062831246257987
MGR-9003-1,0.7103883009823172
MGR-9004-1,0.19082094078073844
MGR-9005-1,0.9916267899976162
MGR-9007-1,0.05281556283949736
MGR-9008-1,0.019493082045891674
MHB-386-1,1.8666981283360058
MHB-448-1,1.1184880822843617
MHB-449-1,1.1935298119738216
MHB-450-1,0.4247155998909337
MHB-451-1,0.04975001437981396
MHB-558-1,2.7557762487675106
MHB-57-1,0.05316232604253233
MIPS-1-1,0.023220779362476206
MIPS-19-1,0.019731890847935255
MIPS-2-1,0.019509204015933784
MIPS-47-1,0.019977486819643633
MIPS-55-1,0.01218909272076434
MISCQ-300-1,0.19373323684721813
MISCQ-301-1,0.15635393712961762
MISCQ-304-1,0.05221440230763791
MISCQ-305-1,0.040000934423055946
MISCQ-306-1,0.08882997888045385
MISCQ-307-1,0.031509841615488
MISCQ-308-1,0.08856099001166665
MISCQ-309-1,0.01988143692323645
MISCQ-311-1,0.029906243352511498
MISCQ-42-1,0.03187180990123202
MISCQ-44-1,0.020696658830374824
MISCQ-45-1,0.25755239507991695
MISCQ-49-1,0.10667576002560918
MISCQ-50-1,0.03870082463919479
MISCQ-54-1,0.07547492193167214
MISCQ-56-1,0.0297911721139013
MISCQ-58-1,0.05215641702375275
MISCQ-66-1,0.020000012733589694
MISCQ-67-1,0.2792025717950018
MISCQ-68-1,0.02424339775163479
MISCQ-69-1,0.2183593616376289
MISCQ-70-1,0.2142588425845487
MISCQ-71-1,0.20422329965733438
MISCQ-72-1,0.22115137163527665
MISCQ-73-1,0.3516050804444433
MISCQ-74-1,0.04168105155769835
MISCQ-75-1,0.06055702143026211
MISCQ-76-1,0.17176170579352648
MISCQ-77-1,0.1540348134896932
MISCQ-78-1,0.12608634556405757
MISCQ-79-1,0.17732945083518512
MISCQ-80-1,0.09289912143000098
MISCQ-81-1,0.03972585882623019
MISCQ-82-1,0.35334830250544375
MISCQ-83-1,0.18988531517905427
MISCQ-84-1,0.06194594607018413
MISCQ-85-1,0.03920851901468137
MISCQ-86-1,0.2563570627602805
MISCQ-87-1,0.023183078896550736
MISCQ-88-1,0.2024750156604965
MISNQ-10-1,0.979111836458097
MISNQ-101-1,0.022308469980306524
MISNQ-102-1,0.015607047204090731
MISNQ-103-1,0.025727232631781456
MISNQ-109-1,0.010031746270472576
MISNQ-11-1,1.0489878478588617
MISNQ-115-1,0.03152796093217536
MISNQ-128-1,0.020010340289926515
MISNQ-139-1,0.030443695856061544
MISNQ-145-1,0.3173323705547643
MISNQ-147-1,0.026548849219771832
MISNQ-162-1,0.020486360201367626
MISNQ-163-1,0.009999089359428254
MISNQ-164-1,0.04146074087933087
MISNQ-166-1,0.02369876011953001
MISNQ-167-1,0.03812565478052488
MISNQ-170-1,0.019997447018006067
MISNQ-171-1,0.030010797560070968
MISNQ-172-1,0.019824300376413723
MISNQ-175-1,0.020080737953774287
MISNQ-177-1,0.1569313451852041
MISNQ-178-1,0.022122569527861062
MISNQ-179-1,0.019999894747000032
MISNQ-181-1,0.015662924344246147
MISNQ-183-1,0.022383706149453512
MISNQ-185-1,0.020165244232854793
MISNQ-186-1,0.010382235730409377
MISNQ-189-1,0.03762603202059454
MISNQ-191-1,0.04781119024988682
MISNQ-192-1,0.024268771949504973
MISNQ-195-1,0.020617723948918625
MISNQ-197-1,0.019223815219356646
MISNQ-203-1,0.030849624922967788
MISNQ-206-1,0.009846879733267403
MISNQ-208-1,0.020001410601064855
MISNQ-209-1,0.060465111878893196
MISNQ-210-1,0.07509978858517505
MISNQ-212-1,0.10152847569194642
MISNQ-219-1,0.020240433881586122
MISNQ-6-1,0.6379998250392062
MISNQ-8-1,0.7214599758588267
MISSE-101-1,0.5508195533780267
MISSE-102-1,0.040351563568692725
MISSE-111-1,0.057305698397905974
MISSE-150-1,0.09226461288025078
MISSE-151-1,0.4400713962515538
MISSE-162-1,0.819777945943408
MISSE-163-1,3.3288795514234892
MISSE-164-1,0.06807486777607001
MJA-6000-1,0.0299119283908437
MJA-6001-1,0.018939402327281574
MJA-6003-1,0.019325190515327856
MJA-6004-1,0.016003267581069854
MJA-6005-1,0.010228600469108387
MJA-6006-1,0.010000383140910767
MJA-6007-1,0.01969692706823388
MJA-6010-1,0.062101329226456566
MJA-6011-1,0.038387031765295045
MJA-6012-1,0.023912771255234843
MJA-6014-1,0.028565555297698705
MJA-6015-1,0.026833015984068717
MJA-6018-1,0.05811415419138102
MJA-6021-1,0.01847384346534658
MJA-6022-1,0.019149506645569157
MJA-6023-1,0.01000557390468262
MJA-6024-1,0.02720257391523968
MLG-9000-1,0.4458054073900676
MLG-9001-1,0.6661552278849608
MLG-9002-1,0.36026981408024744
MLG-9003-1,0.737894347562992
MLG-9004-1,0.7036816875997661
MLG-9005-1,0.5784552351123198
MLG-9006-1,0.5400334748632588
MLG-9007-1,0.15839991618658544
MLG-9008-1,0.2420907625106981
MLG-9009-1,0.5879913574308357
MLG-9010-1,0.3155973442791451
MLG-9011-1,0.943617269678905
MLG-9012-1,0.6523191786836511
MON-6000-1,0.16922329920740434
MON-6001-1,0.7802728731237702
MON-6002-1,0.10762917481187995
MON-6003-1,0.797713761616541
MON-6005-1,0.026089671503802855
MON-6006-1,0.10540322508805976
MON-6007-1,0.02237146189593909
MON-6009-1,0.04756923422246865
MON-6010-1,0.017922196200943562
MON-6011-1,0.02279803357542302
MON-6012-1,0.009997270847197537
MON-6013-1,0.017978172384683258
MON-6014-1,0.05025502019078776
MON-6015-1,0.2017559811283906
MON-6091-1,0.8018985017312157
MON-6092-1,0.07050175364992288
MON-6093-1,0.7035854961588014
MON-6094-1,0.010010528918475299
MON-6095-1,3.313775845748959
MRC-1058-1,0.24319250942468446
MRC-1061-1,0.06950381526192524
MRC-1072-1,0.352581227328161
MRC-1116-1,0.02947965761020238
MRC-1117-1,0.13974454379561002
MRC-22-1,0.16979447648220594
MRC-233-1,0.046357743078144165
MRC-268-1,0.05280845352342218
MRC-313-1,0.01982922690254704
MRC-36-1,0.058276537418410164
MRC-372-1,0.04599718786526668
MRC-515-1,0.49865538323061614
MRC-769-1,0.030017018499090532
MRC-830-1,0.09414490232313151
MRC-859-1,0.025411948737114772
MRC-866-1,0.04999522898508492
MRC-90-1,0.019961838219692093
MRC-993-1,0.3785522865104082
MSL-217-1,0.04207058787756929
MTL-282-1,0.5338372886244159
MTL-299-1,0.7749937664203453
MTL-315-1,0.1342906159863464
MTL-350-1,0.040019500438067936
MTL-576-1,0.6397187508127202
MTL-583-1,0.019469960746795734
MTL-9000-1,0.22177554762414176
MTL-9001-1,0.052295298062426464
MTL-9002-1,0.060549994240904945
MTL-9003-1,0.4616620502759091
MTL-9004-1,0.04030629860672094
MTL-9005-1,0.17977832314098321
MTL-9006-1,0.5008639981578049
NCD-10-1,0.1644365763546798
NCD-1019-1,0.6267236431545792
NCD-1020-1,0.32645454449359385
NCD-1021-1,1.6808007328273726
NCD-1023-1,2.708405903265955
NCD-1024-1,2.2172230550543555
NCD-1026-1,2.2317754447437608
NCD-1027-1,0.303773664237108
NCD-1028-1,1.3535420626983194
NCD-1029-1,1.2984345982678647
NCD-1030-1,2.981628768673151
NCD-1031-1,1.2234814097209579
NCD-1032-1,0.3108536511160131
NCD-1033-1,2.3984334544841697
NCD-1034-1,1.4850192380978156
NCD-1035-1,0.6263421084212586
NCD-1036-1,1.3771952303593278
NCD-1037-1,0.8563971134252121
NCD-1038-1,0.4090515723522341
NCD-125-1,0.2777293297697777
NCD-127-1,0.4994000265835796
NCD-14-1,0.27204433497536945
NCD-143-1,0.10993844054773567
NCD-148-1,0.18999999999999997
NCD-151-1,0.8311766778436201
NCD-158-1,0.933521524124412
NCD-164-1,0.7628460446994819
NCD-17-1,0.609436206537487
NCD-171-1,0.8795422343181363
NCD-172-1,0.613781607567987
NCD-178-1,0.415193394791765
NCD-18-1,0.9246810888720084
NCD-19-1,0.5712208570619512
NCD-2-1,0.03
NCD-20-1,0.9504033251231527
NCD-21-1,1.890064664697959
NCD-224-1,1.1264314143113117
NCD-259-1,1.5718385240387571
NCD-26-1,0.5791472722620613
NCD-260-1,0.5482032323359449
NCD-268-1,1.1494605733952254
NCD-27-1,0.5445755636234699
NCD-272-1,1.0910794432693813
NCD-275-1,1.3998408478326985
NCD-276-1,1.9019412778059055
NCD-277-1,0.6319602273152912
NCD-285-1,0.5973121038939407
NCD-289-1,0.48686557503786826
NCD-295-1,1.1651528594951177
NCD-298-1,0.0643687912967375
NCD-299-1,0.02
NCD-3-1,0.03
NCD-310-1,0.6755226806908361
NCD-338-1,1.5228756837662543
NCD-339-1,0.44960099849502827
NCD-344-1,0.28827172214564
NCD-356-1,0.5404597893863694
NCD-364-1,0.03514453882171132
NCD-37-1,0.6603859308792847
NCD-371-2,1.7092118226600983
NCD-393-1,0.8894465602559244
NCD-424-1,0.03971078535707178
NCD-44-1,0.020439334303774075
NCD-448-1,0.04032573724265148
NCD-449-1,1.0373690337601862
NCD-451-1,0.9060299980672506
NCD-452-1,0.6333871995559182
NCD-470-1,0.5510244470314318
NCD-51-1,0.04046684291675294
NCD-510-1,0.24501313595318253
NCD-517-1,0.7925399519284732
NCD-52-1,0.2806540576080641
NCD-523-1,0.37975438352039054
NCD-53-1,0.6581893513175852
NCD-537-1,1.0147176892527163
NCD-54-1,0.26749577057635143
NCD-550-1,0.9779299507547471
NCD-552-1,1.1068268001911774
NCD-555-1,0.5178445500214999
NCD-557-1,0.19250984599001458
NCD-558-1,0.9155014615667157
NCD-559-1,1.1701862555602056
NCD-56-1,0.5608965551175489
NCD-57-1,0.2753449807698935
NCD-574-1,0.01
NCD-58-1,0.598259204466495
NCD-587-1,0.07416279742240162
NCD-59-1,0.6332959905660378
NCD-598-1,0.039543114543114544
NCD-6-1,0.16
NCD-620-1,0.8128275716314936
NCD-623-1,1.5492301702167826
NCD-629-1,0.10703182144392855
NCD-642-1,0.09296996923578428
NCD-653-1,0.04011255055210254
NCD-655-1,0.02
NCD-676-1,0.28426674637384763
NCD-68-1,0.8049233490566038
NCD-70-1,1.1226474056603775
NCD-701-1,0.3078444151785246
NCD-71-1,0.9551593229115038
NCD-72-1,1.0667090032192494
NCD-728-1,0.26078817733990145
NCD-730-1,0.153090725900742
NCD-8-1,0.05999999999999999
NCD-809-1,0.36999999999999994
NCD-83-1,0.03431430381799546
NCD-885-1,0.05999329304304712
NCD-89-1,1.3220404584561922
NCD-9-1,0.21441771582733815
NCD-902-1,0.09
NCD-903-1,0.09000000000000001
NHC-9000-1,0.23122929229799571
NHC-9001-1,0.19427409800687356
NHC-9002-1,0.01427571621292436
NHC-9003-1,0.2204069163774678
NHC-9004-1,0.5758810687476515
NHC-9005-1,0.28445768231764146
NHC-9006-1,0.7981762962031573
NHC-9007-1,0.7902208877113908
NLH-9000-1,0.17937307988610493
NLH-9001-1,0.6669911074779109
NLH-9002-1,0.8634867831250724
NLH-9003-1,0.03692747088160179
NLH-9004-1,0.24128922596384839
NLH-9005-1,0.8277047272141184
NLH-9007-1,0.019869355555403354
NLH-9008-1,0.3821710609763725
NLH-9009-1,0.4308357626898095
NLH-9010-1,0.08856777913241673
NLH-9011-1,0.03622282571723603
NLH-9012-1,0.4061728784442342
NLH-9013-1,0.32595661292686007
P2REEF-15-1,0.8426470203029786
P2REEF-23-1,0.01232019219578013
P2REEF-24-1,0.009754509429217087
P2REEF-25-1,0.018158083553318594
P2REEF-42-1,0.1029804298409016
P2REEF-43-1,0.08042796527972641
P2REEF-44-1,0.012694539970307341
P2REEF-45-1,0.010002253074620644
P2REEF-46-1,0.009980998152285585
P2REEF-5-1,0.6344517335398081
P2REEF-508-1,0.009712420892333535
P2REEF-509-1,0.07744140625000001
P2REEF-510-1,0.010008412052613432
P2REEF-53-1,0.02015597871657668
P2REEF-56-1,0.030153836688804746
P2REEF-58-1,0.026766782433548394
P2REEF-73-1,0.09450702750273224
P2REEF-9-1,0.023338585984333568
P2REEF-94-1,1.1401640030878901
P2REEF-96-1,0.35546875
P2REEF-99-1,0.658264588469803
PCS-6000-1,0.03604740153759262
PCS-6002-1,0.03517098124763225
PCS-6003-1,0.02999999841456251
PCS-6005-1,0.010000039414730039
PCS-6009-1,0.07401565616211954
PCS-6011-1,0.05744235162446119
PCS-6012-1,0.02999999899824924
PCS-6013-1,0.04939977087955141
PCS-6014-1,0.03348884766988591
PCS-6015-1,0.04792931941041017
PCS-6017-1,0.06008295167217686
PCS-6020-1,0.0314650265603819
PCS-6021-1,0.027575191363867654
PCS-6022-1,0.04523222311324504
PCS-6023-1,0.019751897776624897
PCS-6024-1,0.010000010893176491
PCS-6025-1,0.013942116426939846
PCS-6026-1,0.06027470832902034
PCS-6028-1,0.02004634700180743
PCS-6029-1,0.013862118114960431
PCS-724-1,0.4157369738581875
PCS-725-1,0.25701991257060225
PCS-727-1,0.15879387992397595
PLS-1-1,0.029942830550904166
PLS-13-1,0.5962617568505413
PLS-14-1,0.022453794420597223
PLS-18-1,0.027526172427092172
PLS-5-1,0.06337952412773827
PLS-7-1,0.28614850140379466
PLS-8-1,0.009996365804780123
QCS-76-1,0.6743417046670181
RAV-6002-1,0.8692977279815319
RAV-6003-1,0.03396142832233423
RAV-6013-1,0.009999999999999998
RAV-6015-1,0.017665933362135247
RAV-6016-1,0.009999999471407476
RAV-6017-1,0.009999893533164187
RAV-6018-1,0.010005179551177107
RAV-6019-1,0.02091413128326526
RAV-6022-1,0.04040093977074504
RAV-6023-1,0.021558606965174126
RAV-6024-1,0.0099293080222276
RAV-6028-1,0.05539400440709913
RAV-6029-1,0.009999631079470658
RAV-6033-1,0.010021126877392404
RAV-6036-1,0.013480406096635552
RAV-6037-1,0.02000130538327327
RAV-6038-1,0.10553365958737751
RAV-6039-1,0.010003845309689632
RUSS-38-1,0.05838184062002365
RUSS-40-1,0.01986378176282031
SALTC-349-1,0.38923090743351657
SALTC-350-1,1.522613987133422
SALTC-351-1,1.118536402223691
SALTC-400-1,4.564668087454049
SALTE-738-1,0.0896126353954078
SALTE-740-1,0.08888526795760876
SALTE-741-1,0.06990219541636772
SALTE-742-1,0.10887071555506157
SALTE-744-1,0.09894953785637692
SALTE-745-1,0.06055598745698376
SALTE-746-1,1.0466356135438202
SALTE-749-1,0.5736481584696237
SALTN-504-1,0.07251538951217636
SALTN-507-1,0.6356483782001366
SALTN-508-1,0
SALTN-509-1,1.050980852236057
SALTN-510-1,1.8574117056115247
SALTN-511-1,1.7540207330328828
SALTN-514-1,3.043074744350302
SALTS-72-1,0.9167161844462739
SAR-102-1,0.30319946389764235
SAR-103-1,0.34871468261564653
SAR-104-1,0.09394487508632657
SAR-105-1,0.03
SAR-106-1,0.07927517878131889
SAR-107-1,0.19131863325214318
SAR-108-1,0.03
SAR-109-1,0.11990842443463734
SAR-111-1,0.07349834180967804
SAR-113-1,0.09349834180967803
SAR-114-1,0.3400000000000001
SAR-115-1,0.12854856908652101
SAR-116-1,0.31410196147341135
SAR-118-1,0.029999999999999995
SAR-120-1,0.23775533536585358
SAR-123-1,0.0687296001631987
SAR-125-1,0.02
SAR-126-1,0.10431402439024388
SAR-127-1,0.12478578043594109
SAR-130-1,0.83
SAR-131-1,0.06087327075098814
SAR-132-1,0.07999999999999999
SAR-133-1,0.02
SAR-135-1,0.020000000000000004
SAR-136-1,0.021279918377492536
SAR-137-1,0.021303554891014733
SAR-138-1,0.621782192575406
SAR-139-1,0.38212461890243904
SAR-140-1,0.27763719512195123
SAR-142-1,0.10279117286473234
SAR-143-1,0.029999999999999995
SAR-145-1,0.03
SAR-151-1,0.04
SAR-154-1,0.030702121505683598
SAR-155-1,0.030646834545503248
SAR-156-1,0.08
SAR-158-1,0.01946293149890183
SAR-160-1,0.010000000000000002
SAR-162-1,0.05
SAR-163-1,0.08160512731804548
SAR-166-1,0.04365853658536585
SAR-169-1,0.05157250889679714
SAR-174-1,0.3807607796329703
SAR-175-1,0.03
SAR-176-1,0.04474308300395258
SAR-181-1,0.010096153846153847
SAR-182-1,0.10337197580645162
SAR-183-1,0.02
SAR-188-1,0.05082668798454981
SAR-203-1,0.11955952795590438
SAR-209-1,0.06700864324074038
SAR-210-1,0.030000000000000002
SAR-213-1,0.132539500194489
SAR-215-1,0.03
SAR-216-1,0.13261306398830824
SAR-221-1,0.13073670043120214
SAR-226-1,0.20921045706372424
SAR-227-1,0.3333459393874958
SAR-230-1,0.22793695763201763
SAR-233-1,0.020010998230732914
SAR-235-1,0.025791072897192388
SAR-241-1,0.040146159647004964
SAR-248-1,0.14485274940011486
SAR-253-1,0.03023188648780986
SAR-256-1,0.0641906474820144
SAR-265-1,0.10153884793729548
SAR-270-1,0.09202004522282758
SAR-279-1,0.09674424258683037
SAR-600-1,0.17472844325895734
SAR-601-1,0.3438864404192676
SAR-602-1,0.08584659137977259
SAR-603-1,0.009845462650204964
SAR-604-1,0.11075186752289128
SAR-605-1,1.1926345508410583
SBNS-2-1,0.08111887039305489
SBNS-3-1,0.3413508662910187
SBNS-32-1,0.5180317058443861
SBNS-4-1,0.4746038902048682
SBNS-42-1,0.031065533080550285
SBNS-47-1,0.19081366434714986
SBNS-49-1,0.23022954577141855
SBNS-52-1,0.7772069432936944
SBNS-58-1,0.6172056730474745
SBNS-6-1,1.4966721559413578
SBNS-62-1,0.08831269213374572
SBT-9000-1,0.5795387989344085
SBT-9001-1,0.04748436938794771
SBT-9002-1,0.17528679590747634
SBT-9003-1,0.04980501142944938
SBT-9004-1,0.03000000101208984
SBT-9005-1,0.046560362759224115
SBT-9006-1,0.046813576662876784
SBT-9007-1,0.04697393876429794
SBT-9008-1,0.36993242820794386
SBT-9009-1,0.42450086075176585
SBT-9010-1,0.010436374517263092
SBT-9011-1,0.15289768917147076
SBT-9012-1,0.08640964352145017
SBT-9013-1,0.08640964352145017
SBT-9014-1,0.14570793507980598
SBT-9015-1,0.37189013062358767
SBT-9016-1,0.0801348382931759
SBT-9017-1,0.029998115560182333
SBT-9018-1,0.05756922938178765
SBT-9019-1,0.02986202628131273
SBT-9020-1,0.23982994627211976
SBT-9021-1,0.02999999999993381
SBT-9022-1,0.10748456175944798
SBT-9023-1,0.28713343180284956
SBT-9024-1,0.03996417648022183
SBT-9025-1,1.962281367918854
SBT-9026-1,0.8895664320094814
SBT-9027-1,0.08506660192249442
SBT-9028-1,0.1299148227477371
SBT-9029-1,0.02000000021892262
SBT-9031-1,0.9100163303963787
SBT-9032-1,0.816950609511251
SBT-9034-1,0.5146056767453174
SBT-9035-1,0.508226443290001
SBT-9036-1,0.38727772682854555
SBT-9037-1,0.1159195952050199
SBT-9039-1,0.07358996046126505
SERES-48-1,0.0540963107448651
SERES-49-1,0.2877567208977322
SERES-50-1,0.07744591870611627
SERES-51-1,0.08574101188756565
SERES-52-1,0.11795660639847078
SERES-53-1,0.10932307648287731
SERES-54-1,0.26850437901901053
SERES-55-1,0.39849848542291594
SERES-56-1,0.08229107700380495
SERES-57-1,0.3024274111375787
SERES-58-1,0.44116689843142765
SERES-59-1,0.3892906255248944
SERES-60-1,0.04424540750613289
SERES-61-1,0.24238625522997378
SERES-62-1,0.019368936798733645
SERES-63-1,0.479697746903767
SERES-64-1,0.03897923124068073
SERES-65-1,0.14923578694092937
SERES-66-1,0.07412260535028391
SERES-67-1,0.27899335943071674
SERES-68-1,0.103521197792148
SERES-69-1,0.06082802384410723
SERES-70-1,0.039454540392648216
SERES-71-1,0.12211193044917246
SERES-72-1,0.05099522083247637
SERES-73-1,0.14810932778281766
SERES-74-1,0.46558324092075093
SERES-75-1,0.038758983394694906
SERES-76-1,0.48695675501015534
SERES-85-1,0.03821102206830552
SERES-86-1,0.09244120338279883
SERES-87-1,0.15748061515209402
SFS-103-1,1.108192371858643
SFS-126-1,0.9793476636731583
SFS-152-1,0.5266363661648841
SFS-176-1,0.6991223716754772
SFS-200-1,0.5195013648920701
SFS-229-1,0.19515296315173186
SFS-253-1,0.20519443605502768
SFS-26-1,0.5997348275926361
SFS-29-1,0.35785408984778644
SFS-30-1,1.6959487440168954
SFS-300-1,0.16061728434162442
SFS-302-1,0.06511115011588364
SFS-31-1,0.5258959858132788
SFS-32-1,0.7073048795580607
SFS-325-1,0.07170830154400047
SFS-327-1,0.09403497189966949
SFS-400-1,0.10501912878977337
SFS-405-1,0.17422017684469407
SFS-454-1,0.15383789062500003
SFS-457-1,0.375756381743444
SFS-506-1,0.07814068423903231
SFS-507-1,0.02
SFS-515-1,0.5692544141740742
SFS-522-1,0.23662998846080652
SFS-55-1,0.20932793143954317
SFS-56-1,3.7196715651558083
SFS-600-1,1.0172192118334153
SFS-601-1,0.3083844161833796
SFS-604-1,0.35493843770074657
SFS-76-1,0.43816186081632125
SFS-8-1,0.06983303759540738
SFS-9-1,0.11800990842693804
SJS-9000-1,0.009900132766102627
SJS-9002-1,0.019756503429776404
SJS-9003-1,0.04454019161480291
SLK-1006-1,0.3375761182644991
SLK-1016-1,0.11385390437320887
SLK-1050-1,0.7073905391800559
SLK-1076-1,0.640833086276591
SLK-1089-1,0.7041100405336601
SLK-9000-1,0.2309587703533661
SLK-9001-1,0.08059474702766659
SLK-9003-1,0.43360592861613523
SLK-9004-1,0.09194456772235102
SLK-9005-1,0.2724391114218251
SLK-9006-1,1.1930429144562913
SLK-9007-1,0.043034579519777356
SLK-9008-1,0.14569219302045147
SLK-9009-1,0.8403653966096873
SLK-9010-1,0.778211160273412
SLK-994-1,0.02228137603579109
SPY-95-1,0.020333211641165676
TAB-2475-1,0.009854109050465354
TAB-2476-1,0.07694768743262344
TAB-2477-1,0.009861814024141087
TAB-2478-1,0.020014877922159443
TAB-2479-1,0.029203135577773844
TAB-2480-1,0.028557664367577524
TAB-2481-1,0.015710157420506424
TAB-2482-1,0.009998596422437788
TAB-2483-1,0.010007757525292524
TAB-2484-1,0.009998034991412906
TAB-2485-1,0.019839512527048266
TAB-2486-1,0.009921882772194841
TAB-2487-1,0.029234294999654936
UBRISS-195-1,0.032407987489580986
UBRISS-196-1,0.11251466452141698
UBRISS-197-1,0.02407441234787885
UBRISS-198-1,1.1098845357655827
UBRISS-198-2,0.8662688001826307
UBRISS-199-1,0.02007091831009399
UBRISS-200-1,0.03073885541622939
UBRISS-202-1,0.01981215217183535
UBRISS-205-1,0.03650722340251208
UBRISS-206-1,0.024743306956688062
UBRISS-207-2,0.8360120692983731
UCS-9000-1,0.00984679460338996
UCS-9002-1,0.013212756560848029
WAN-23-1,1.3086917421409956
WAN-6-1,0.34159146386302386
WCS-1001-1,0.07647381951645527
WCS-1002-1,0.17980598537575265
WCS-1003-1,0.6060709487590626
WCS-1004-1,1.3371794516207773
WCS-1005-1,1.4563129157233254
WCS-1106-1,0.14868570047816032
WCS-1114-1,0.2368565270935961
WCS-1143-1,0.2564532019704434
WCS-1170-1,0.10036894903309394
WCS-1201-1,0.05
WCS-1228-1,0.3701809448753144
WCS-1252-1,0.020000000000000004
WCS-1306-1,0.13856663936605143
WCS-1311-1,0.12
WCS-1328-1,0.039999999999999994
WCS-1331-1,0.029999999999999995
WCS-1350-1,0.49
WCS-1407-1,0.05935973611702903
WCS-1422-1,0.03001148505340413
WCS-1429-1,0.09055864099632205
WCS-1439-1,0.03011570804427235
WCS-1497-1,0.04299908228596381
WCS-1602-1,0.04972370725511036
WCS-1607-1,0.02
WCS-1608-1,0.13082887823466896
WCS-1609-1,0.01966314234468788
WCS-1612-1,0.03959667487684729
WCS-1900-1,0.029999999999999992
WCS-1936-1,0.019999999999999993
WCS-1977-1,0.029659563409563404
WCS-2005-1,0.19645320197044336
WCS-2079-1,0.6799999999999999
WCS-2161-1,0.53
WCS-2186-1,0.05999999999999999
WCS-2201-1,0.1709743144774314
WCS-2218-1,0.9583129433109889
WCS-2228-1,0.11568621681352871
WCS-2229-1,0.02000710222610649
WCS-2247-1,0.06010754190309924
WCS-2251-1,0.7282063726753463
WCS-2272-1,0.15999999999999998
WCS-2273-1,0.2850067446043166
WCS-2283-1,0.11068125052397805
WCS-2305-1,0.25467775467775466
WCS-2411-1,0.05
WCS-2472-1,0.06029581142028115
WCS-2484-1,0.0702783755649804
WCS-2489-1,0.07
WCS-2500-1,0.15494712990936554
WCS-2505-1,0.01879002463054187
WCS-2507-1,0.01978050115089678
WCS-2536-1,0.008527428057553958
WCS-2538-1,0.00870245641838352
WCS-2552-1,0.05
WCS-2557-1,0.009120892310407407
WCS-2567-1,0.019698480957888922
WCS-2579-1,0.030441910974055082
WCS-2604-1,0.16000000000000003
WCS-2803-1,0.029454711744670105
WCS-2823-1,0.01974941285637995
WCS-2833-1,0.22139161125841855
WCS-2862-1,0.27272410745270176
WCS-2866-1,0.1495473332468626
WCS-2867-1,0.05000000000000002
WCS-4039-1,0.07963357516494106
WCS-4064-1,0.8615108669289332
WCS-4346-1,0.13068608089916497
WCS-4543-1,0.11
WCS-4820-1,0.5721874452452104
WCS-6000-1,0.029996597084280294
WCS-6001-1,0.19995194655402646
WCS-6003-1,0.3076874034956543
WCS-6006-1,0.026700730258372843
WCS-6007-1,0.493726454347539
WCS-6008-1,0.14950009141910253
WCS-6009-1,0.03661318068707101
WCS-6010-1,0.0470509900754047
WCS-6011-1,0.3591789811548213
WCS-6012-1,0.022473827357754442
WCS-6013-1,1.267271967619523
WCS-6015-1,0.0366651270233132
WCS-6016-1,0.7559061886557378
WCS-6017-1,0.15175395753521606
WCS-6018-1,0.0330849811263231
WCS-6019-1,0.30802057250319165
WCS-6020-1,0.05004395975918104
WCS-6021-1,0.029957182133314355
WCS-6022-1,0.05048225825068288
WCS-6023-1,0.03967446711764154
WCS-6024-1,0.1699625991225558
WCS-6025-1,0.016922305069007323
WCS-6026-1,0.8300907888285985
WCS-6027-1,0.9804375055319821
WCS-6028-1,0.01999999999999448
WCS-6029-1,0.026440116729457983
WCS-6030-1,0.4084008067272252
WCS-6031-1,0.20020362034203912
WCS-6032-1,0.7743911357842
WCS-6033-1,0.019999983799311026
WCS-6034-1,0.4432501301745807
WCS-759-1,0.04795738045738045
WCS-780-1,0.39989425981873117
WCS-781-1,0.09809482273270725
WCS-782-1,0.19000000000000003
WCS-785-1,0.2193543391920856
WCS-787-1,0.18
WCS-796-1,0.10965709383544078
WCS-813-1,0.020000000000000004
WCS-814-1,0.4700000000000001
WCS-816-1,0.31008312807881777
WCS-832-1,0.06024882609208661
WCS-833-1,0.19999999999999996
WCS-857-1,0.2409537507335693
WCS-864-1,0.2844177158273382
WCS-866-1,0.2603889728096677
WCS-868-1,0.07
WCS-873-1,0.27
WCS-874-1,0.6342336361736853
WCS-875-1,0.04358999171779282
WCS-876-1,0.020000000000000004
WCS-880-1,0.6626075256860738
WCS-885-1,0.020000000000000004
WCS-886-1,0.05069582152974505
WCS-897-1,0.030000000000000002
WCS-899-1,0.029626980817302688
WCS-903-1,0.24139964692441387
WCS-913-1,0.02758004926108374
WCS-931-1,0.05
WCS-938-1,0.14102980339359916
WCS-942-1,0.030000000000000006
WCS-943-1,0.050000000000000024
WCS-952-1,0.2693995468277946
WDH-1024-1,0.04
WDH-1063-1,0.01
WDH-1223-1,0.08
WDH-1291-1,0.06
WDH-1508-1,0.019999999999999997
WDH-1787-1,0.02
WDH-2145-1,0.03
WDH-2159-1,0.02
WDH-331-1,0.01
WDH-332-1,0.029999999999999995
WDH-339-1,0.029999999999999995
WDH-340-1,0.01
WDH-347-1,0.02
WDH-351-1,0.019999999999999997
WDH-352-1,0.09
WDH-353-1,0.039999999999999994
WDH-571-1,0.009999999999999998
WDH-698-1,0.03
WDH-699-1,0.01
WDH-701-1,0.02
WDH-702-1,0.01
WDH-718-1,0.07
WDH-731-1,0.1
WDH-751-1,0.07999999999999999
WDH-757-1,0.09
WDH-760-1,0.02
WDH-825-1,NA
WDH-9001-1,0.5570081656426047
WDH-9007-1,0.6867003545964089
WDH-9012-1,0.37498259058560074
WDH-9019-1,0.684444733630455
WDH-9020-1,0.45421589104617793
WDH-9026-1,0.5211635196626299
WDH-9027-1,0.3676860518584321
WDH-9028-1,1.222529155243486
WDH-9029-1,1.012485852911436
WDH-9030-1,1.6232240554700463
WDH-9031-1,2.249863053613181
WDH-9032-1,0.6606230774552312
WDH-9033-1,0.17602588500835017
WDH-9050-1,1.522287506039406
WDH-9051-1,0.6410945730029479
WDH-9054-1,0.1858884520814736
WDH-9055-1,1.629302483055875
WDH-9056-1,1.4598490364465653
WDH-9064-1,0.08244299170113932
WDH-9080-1,1.120520262722416
WDH-9081-1,1.190886475301407
WDH-9089-1,0.24374380400027215
WDH-9090-1,0.17206866079776625
WDH-9091-1,0.35777775460246375
WDH-9092-1,0.6332173887435737
WDH-9104-1,1.60408894651326
WDH-9106-1,0.34443975826668904
WDH-9107-1,1.7915545223298033
WDH-9115-1,1.797992583014841
WDH-935-1,0.08999999999999998
WDH-968-1,1.4204184906755761
WDH-973-1,0.17999999999999997
WDH-995-1,1.4501749525842165
WIN-101-1,0.029999999999999992
WIN-117-1,0.32
WIN-119-1,0.07999999999999999
WIN-122-1,0.019999999999999997
WIN-149-1,0.39000000000000007
WIN-162-1,0.029999999999999992
WIN-202-1,0.37999999999999995
WIN-209-1,0.18000000000000002
WIN-254-1,0.09
WIN-256-1,0.2499999999999999
WIN-262-1,0.07999999999999999
WIN-279-1,0.020010020772718844
WIN-289-1,0.29929743210872584
WIN-333-1,0.6735616355072933
WIN-340-1,0.12999999999999998
WIN-37-1,0.39999999999999997
WIN-486-1,0.9414378330691231
WIN-531-1,0.22931235310206036
WIN-545-1,0.593128170986738
WIN-658-1,0.3058367758882579
WIN-686-1,0.06999999999999999
WIN-73-1,0.02
WIN-90-1,0.51
WIN-94-1,0.47999999999999987
WRS-9005-1,0.019721162355509428
WRS-9012-1,0.030025637413582947
WTC-6000-1,0.010055238090541147
WTC-6001-1,0.012968954078337506
WTC-6002-1,0.009950898405116919
WTC-6003-1,0.010593607029535152
WTC-6004-1,0.010016463610204753
WTC-6005-1,0.00999921787642697
WTC-6006-1,0.009791094323052333
WTC-6007-1,0.019846840931033855
WTC-6008-1,0.009643640820094314
WTC-6009-1,0.010503791643379178
WTC-6010-1,0.010006849230704856
WTC-6011-1,0.010008690283010536
WTC-6016-1,0.039613648726936616
WTC-6017-1,0.02166905088258134
WTC-6018-1,0.024319999128883496
WTC-6019-1,0.029678101661424323
WTC-6020-1,0.01001445275187473
WTC-6021-1,0.020208298149875632
WTC-6022-1,0.010026415950644949
WTC-6023-1,0.019641296496427887
WTC-6024-1,0.6383858135742649
WTC-6025-1,0.39931075754685375
WTC-6026-1,0.10072374808507022
WTC-6027-1,0.09193435688664527
WTC-6028-1,0.03000951234608491
WTC-6029-1,0.061720422662121285
WTC-6030-1,0.3949483629404079
WTC-6031-1,0.06846561261093773
WTC-6032-1,0.019028265681780128
WTC-6033-1,0.042107144000007576
WTC-6034-1,0.01000016818030792
WTC-6035-1,0.020403253825459294
WTC-6036-1,0.05407085423587149
WTC-6037-1,0.027876995481878632
WTC-6038-1,0.2208091378030215
WTC-6039-1,0.09138833664784478
WTC-6040-1,0.019652907512470088
WTC-6041-1,0.09488074091649472
WTC-6042-1,0.02215842019294179
WTC-6043-1,0.020099953651794372
WTC-6044-1,0.019930080686735265
WTC-6045-1,0.01069695918099267
WTC-6046-1,0.0198242074316214
WTC-6047-1,0.02429940702884245
WTC-6048-1,0.015965829369458482
WTC-6049-1,0.01985734726196837
WTC-6050-1,0.03219279845153927
WTC-6051-1,0.012151186623576268
WTC-6052-1,0.043185909301557655
WTC-6053-1,0.03592078761024912
WTC-6054-1,0.021511458777774977
WTC-6055-1,0.03215122813733638
WTC-6056-1,0.03212032792852234
WTC-6057-1,0.02251703677145115
WTC-6058-1,0.009633735784664345
WTC-6059-1,0.01911626511932281
WTC-9000-1,0.010239578613502495
WTC-9001-1,0.010006135328955593
WTC-9002-1,0.44350155942086533
WTC-9003-1,0.235624755664218
WTC-9005-1,0.02
WTC-9006-1,0.11344315482961419
WTC-9010-1,0.019365896009428844
WTC-9014-1,0.03018646631731238
WTC-9015-1,0.009999124145122803
WTC-9017-1,0.015731311746231564
WTC-9018-1,0.015443660273092304
WTC-9019-1,0.009998686217684205
WTC-9020-1,0.020252056044570275
WTC-9022-1,0.05714196298529041
WTC-9024-1,0.009999744725476677
WTC-9025-1,0.009999562072561403
WTC-9028-1,0.32311650874139763
WTC-9029-1,0.010008304401798621
WTC-9030-1,0.02
WTC-9032-1,0.03
WTC-9033-1,0.009999395507015885
WTC-9034-1,0.03
WTC-9036-1,0.01000017095297328
WTC-9037-1,0.14271850620459842
WTC-9038-1,0.013857469101054655
WTC-9039-1,0.010002037468880622
WTC-9041-1,0.04
WTC-9042-1,0.020011002639698496
WTC-9044-1,0.0855787837487369
WTC-9045-1,0.04740517815343569
WTC-9046-1,0.02
WTC-9047-1,0.989600729991988
WTC-9049-1,0.009985608235934617
WTC-9050-1,0.009999744725476677
WTC-9051-1,0.029999999999999995
WTC-9052-1,0.00999684031016551
WTC-9053-1,0.04
WTC-9054-1,0.019445672800155658
WTC-9055-1,0.019999999999999997
WTC-9057-1,0.030000000000000002
WTC-9064-1,0.08348191868208757
WTC-9065-1,0.41689764992197836
WTC-9066-1,0.01
WTC-9067-1,0.16000000000000003
WTC-9068-1,0.010534746987735344
WTC-9069-1,0.010002037468880622
WTC-9071-1,0.042429894062138346
WTC-9072-1,0.009997686577586384
WTC-9073-1,0.013206644113927132
WTC-9075-1,0.00985654181936299
WTC-9076-1,0.01612455541425561
WTC-9077-1,0.039999999999999994
WTC-9078-1,0.08516723896425502
WTC-9079-1,0.0808090663167202
WTC-9080-1,0.009861123475474052
WTC-9081-1,0.009891262610433797
WTC-9082-1,0.015822280979523786
WTC-9086-1,0.009755538355468893
WTC-9088-1,0.020887869691129723
WTC-9089-1,0.015438948401534867
WTC-9090-1,0.009999645326177153
WTC-9091-1,0.04084524263008247
WTC-9092-1,0.010011747762558747
WTC-9093-1,0.0439155704363319
WTC-9094-1,0.02085684648554173
WTC-9095-1,0.009812060758895477
WTC-9096-1,0.00997355816145838
ZED-6000-1,0.03068556439331142
ZED-6001-1,0.14691830965962796
ZED-6002-1,0.047394992711983226
ZED-6003-1,0.010331638996693898
ZED-6008-1,0.4812762657747007
ZED-6010-1,0.8672238343327694
ZED-6013-1,1.4039453132153945
ARD-9011-1,0.00975182763265476
BAN-5-1,0.347330967098198
BBC-6022-1,0.010003081704402068
BDS-877-2,0.010005937963863006
BER-9047-1,0.03153388040658056
BPA-1-1,0.009842921712979616
BPA-13-1,0.023706128175563015
BPA-22-1,1.4602108462888153
BPA-3-1,0.009993872141943862
CBW-1025-1,0.009536490784906626
CIS-9004-1,0.7591079887663792
CQH-1364-1,0.020000000000000004
CQH-401-1,0.021112956176515506
CQH-616-1,0.009999997908415593
CTI-6012-1,0.023560321911639866
CTI-6016-1,0.020301916744155237
CTI-6030-1,0.03993553249477043
CTI-6031-1,0.024308060139464054
CTI-9001-1,0.01000000000403906
CTI-9008-1,0.020443311135033324
CTI-9027-1,0.020523152314601133
CTI-9038-1,0.009998784257825133
DLR-1023-1,0.020296973227946078
DLR-1776-1,0.17410870161918607
ESH-6006-1,0.7497847304785634
GCL-9005-1,0.020011632468665278
KCM-9049-1,0.020216049382716046
LFZ-379-1,0.06
LFZ-486-1,0.030404290414364057
MCL-9012-1,0.01000668989218884
MCL-9056-1,0.009999993132249918
MDIA-457-1,0.010454589981859986
MHB-447-1,0.01021936124358467
MHB-56-1,0.04845518867924529
MIPS-46-1,0.009999763363368979
MISCQ-53-1,0.019988084094291876
P2REEF-22-1,0.009999661921525165
P2REEF-26-1,0.0197514308157714
PCS-6008-1,0.009999555674631708
PCS-6010-1,0.010000152170557218
PLS-26-1,0.05978461325413535
SWRES-781-1,1.2742033940649318
WCS-1507-1,0.020000000000000004
WIN-297-1,0.020183306818027772
WIN-335-1,0.030132153067409656
WTC-6012-1,0.080152893996461555
WTC-6013-1,0.020218771923564444
WTC-6014-1,0.010006529058853481
WTC-6015-1,0.00974966517307464
WTC-9007-1,0.010005118814381698
WTC-9070-1,0.010030734029163043
