NAME,VALUE
1ACH1,9.199548749445587
1ADb,4.680271716121763
1ADb-2,7.746306805278096
1ADb-7,13.159442366735046
1ADb-Dd,11.48395308522943
1ADd-3,14.645874566258172
1ADd-4,18.34013172629458
1ADE1,0.07533948987514136
1ADE2,2.8415872442454804
1AKA1,0.04959136908819151
1ARU1,0.010000000000000002
1ATE1,0.01
1AUg-12,13.697554512936705
1AUg-13,18.56461902965788
1AUg-2,10.475468700417066
1AUg-3,8.777528248056027
1AUg-4,4.710640376960712
1AVE1,8.161229840340972
1AVE2,9.709964906627839
1AVE4,11.409040772534913
1AVE6,15.193648326314689
1CHa,6.1212234825365
1CHb,4.067141005466239
1DEa,3.118671329975289
1Dyd,21.104402044379054
1KTa,0.01
1SOa,8.008023677439294
1SOb,9.819264494986433
1Uga,14.088554349766827
1Ugd,10.660225138849936
1Ugf,23.313517692055903
2ADb-1,10.903298841948569
2AUf-Ug-3,19.633429881896106
2AUg-3,11.884525134126715
2AUg-7,14.23830941485583
2AUg-8m,17.216994215393456
2AUg-9m,16.9513425051274
2AUgg-1m,20.78138489602353
2AUgg-2m,19.68088164851292
2AVE2,2.372114019213242
2Dba,31.01326968364535
2Dbb,35.75477103954634
2Dbc,22.187342053083032
2Dbd,18.55242513729913
2Dda,22.794048177609387
2Dda2,33.432343135108184
2Ddb,37.40635001952092
2Dya,24.606127022824957
2Dyb,34.929947187933514
2Dyc,12.09237103448595
2Uga,13.901448535058794
2Ugc,16.212033631627037
2UgcW,8.352359655370126
2Ugd,11.256437911932398
2ugd2,12.203351386021797
2Uge,15.852017452575215
2Ugf,9.178971659022036
2Ugg,10.623495047142455
2Ugh,13.663394526739468
2Ugk,13.865081113850188
2VEa,16.648092864805847
2VEb,12.224331335542916
2VEe,9.080685644714768
2VEx,13.991258182914445
2VEy,20.290567120915835
3ASO2,14.183831074045871
3AUf,2.892928588765136
3AUf-Ug-1m,0.01
3AUf-Ug-2m,13.246116936495202
3AUf-Ug-3d,11.752500207594503
3AUf-Ug-6m,19.23147210498132
3AUg-2,4.730658298322665
3CHx,3.430047327588991
3SOb,2.744494833524685
3Uge,9.799843804599561
3VEa,22.646607601681705
3VEb,24.233201399018537
3VEc,12.694937381217692
3VEw,17.10841465238618
3VEy,15.717085493416707
3VEz,12.986330318301691
4AUf,22.28868266223934
4Dyd,46.667483549424
4Dyj,18.49481918929318
4Gnb,0.01
4Ucc,0.01
5Dra,0.8435568784037365
5Dya,0.01
5Dyc,30.77076002429809
5Dye,0.01
5Uga,3.687565343403394
5Ugb,1.8487297835393726
5Ugc  Depression,19.83225642497389
6ADb-1,20.742157814663187
6ADb-4,24.384803285126058
6ADy-3,16.38084173937954
6AUg-10,17.72204916611144
6AUg-12,14.560419554291235
6AUg-3,12.549094872184874
6AUg-4,12.488417582536064
6AUg-5,9.579761809557187
6AUg-6,15.545235529556367
6AUg-8,17.117662648969265
6AUg-9,13.239994131708118
6Db,0.01
6Dba,38.845303689751944
6Dbb,8.996782500249873
6Dbc,0.01
6Dbd,3.399462396740532
6Dbe,0.011183894094513962
6Dbf,0.6417259938407981
6Dbg,0.01
6Dbh,32.85002728086839
6Dda,25.227918914677858
6Dra,0.01
6Drb,2.3037793494285626
6Drc,1.8124987416844753
6Dya,0.01
6Dyb,18.182091815476287
6Dyc,2.442614327134361
6Dyd,9.58900251569105
6Dye,11.927724467195802
6Dyf,7.111307831530876
6Dyf2,8.136197728466572
6Dyg,39.85527189451459
6Dyj,45.129599357229885
6Gn,0.01
6Gnb,0.01
6Gnc,38.533756112622115
6Gnd,0.010000000000000002
6Ucc,0.010000000000000002
6Uma,0.09915322498486366
6Umb,0.010000000000000002
Abercorn,28.599573425255365
Abergowrie,0.01
Abergowrie Sandy Phase,0.01
Albert,10.017362116232357
Aldershot,1.1215370351016674
Allandale,9.124920224307834
"Allandale, Strongly Sodic Variant",86.3863821357073
Alloway,0.010000000000000002
Alma,0.01
Althaus,39.15927161609699
Andergrove,0.010000000000000002
Andergrove Water Table Variant,0.010000000000000002
Anyarro,0.010000000000000002
Apron,4.882243302277254
Archookoora,9.80683051264947
Arnot,0.010000000000000002
Aroa,0.9572322364405687
Arriga,23.437701800425796
Ashgrove,8.556031278105873
Ashton,0.010000000000000002
Auburn,17.14432366928905
Avondale,30.244578310163362
Awoonga,43.96552059886696
Babinda,0.010000000000000004
Baddow,0.01
Balberra,14.599150541092532
Bally,0.01
Banana,7.442550288113473
Banban,13.466874320574686
Banyan,0.010000000000000002
Barron,0.01
Bauhinia,10.923843540005896
Bauple,24.5561884790859
Beeron,28.37365738680962
Bell,1.7833426892363975
Bells,24.63960038076986
Belmunda,0.3972519087061951
Belvedere,15.316597500431323
Benholme,15.392699956219671
Berris,42.32993260815975
Bicton,0.010000000000000002
Bidwill,0.01
Bilboolan,26.224130958325564
Bingera,10.289227341365724
Blackburn,0.01
Blair,22.437867402893755
Bluewater,0.010000000000000002
Bluff,9.62722852927154
Bonavista,6.457950836126103
Bonnie Crofts,15.591059493091791
Bonwell,5.366187340457555
Boonenne,30.15843559521466
Booyal,4.560284185974232
Bovekel,4.491762141967621
Boyanda,0.01
Boyles,2.225669466403162
Boyne,0.01
Boynewood,0.9783529238274886
Brae,5.0045999487700445
Brightley,6.691548227033237
Brooweena,37.378601080105305
Brooyar,0.012192896806662919
Brosnan,0.01
Bubbler,1.0341046291116098
BUca,0.01
Bucca,5.586052473510102
Buckley,19.983813907643995
BUfa,0.7911729313710861
BUfb,2.800775534218464
BUfc,7.455597395149731
BUfe,13.466539400029838
Buffel,0.01
BUg-10,2.3896353697752453
BUg-2,0.913150626831863
BUg-3,0.339246000999898
BUg-4,4.282196975953613
BUg-6,2.8325722638162922
BUga,29.25472474882764
Bulgun,0.010000000000000002
Bulguru,0.01
Bullhead,2.3607089608287675
BUma,0.01
BUmb,3.818771274698561
Bungadoo,6.14315746914261
Burdekin,0.01
Burdekin Buried Soils Or D Horizons Vary,0.01
Burnett,6.670408509277593
Burnett Coarse Sandy Variant,0.3046456578254864
Burradoo,16.30695259089527
Burrum,0.01
Bushnell,29.452965664775526
Butcher,24.77805522809939
BVE1,7.4614462791833445
Byabra,17.89914898577757
Byee,5.768577365216373
Cabbage Tree,3.0602815332369184
Calen,11.645847325718998
Callide,2.0156309231604927
Cameron,0.010000000000000002
Canoe,0.010000000000000002
Cape,8.157692991203126
Carew,9.276989721699552
Carfax,4.178260722384304
Carmila,60.941739423907336
Cassidy,0.01
Castleview,20.12302969413435
Catherina,13.33169000716408
Cattle,17.16441032185709
CDba,0.010000000000000002
Ceratodus,2.0881840059168364
Chelmsford,0.010000000000000002
Cherry Tree,36.43631768647121
Chessborough,13.85975955278414
Childers,0.010000000000000002
Clayton,0.01
Clifton,0.01
Cliftonville,6.948341231895675
Cole,5.751345606072402
Condor,10.177632686464696
Conjuboy,0.010000000000000002
Conway (Cqh),3.5549999999999997
Coolabunia,0.01
Coom,0.01
Coonoon,0.01
Coorooman,0.01
Copenhagen,0.010000000000000002
Corduroy,8.34966951226465
Cottonham,2.42046405328644
Creek,2.106811190735108
CUca,0.01
Cudmore,0.01
CUfb,5.921298412813717
Curlewis,0.01
Cushnie,10.85890461433187
CVE1,17.012213234870543
CVE3,29.304511924259636
CVE4,16.199606333691285
CVE5,19.590386962344553
Dagun,0.01
Dale,7.790000000000001
Dalgangal,18.59227512478866
Dalrymple,66.76099976633283
Darts,0.01
Derra,24.416954144289228
Derra (CWL),0.01
Diamond (Kcm),23.44903117124359
"Diamond (Kcm), Footslope Variant",12.705923323088662
Dickson,0.01
Dingo (Pss),0.01
Dittmer,0.01
Dixie,0.01
Don,6.622498068962871
Doolbi,0.01
Doonside,0.010000000000000002
Dotswood,14.051544084370548
Dove,21.744778325123153
Drinan,0.01
Dryander,10.960000000000003
Dudgeon,92.918964952761
Dundula,20.553740214301854
Dunstan,0.08079409389569453
Dunwold,1.4001950367735876
Durong,12.93047635855413
Earlsfield,17.233161991264588
Eastgate,24.883162639740878
Edgecumbe,4.92484059442685
Edmonton,8.246088137659962
Eerwah,0.01
Egera,20.348173716738877
Eleanor,17.246746840266745
"Eleanor, Mottled Phase",20.707989586514962
Elizabeth,0.01
Elliot,0.01
Ellis,1.3095051495416485
Emerald,0.01
Endeavour,0.01
Eton,8.540312341924892
Etowrie,9.683557424875636
Eubenangee,0.01
Eversleigh,2.797357503650413
Fairdale,4.728466980927571
Fairview,22.74433525363885
Fairydale,8.51360063804069
Fairymead,31.582326515044922
Falkner,1.1281567291091439
Fanning River,0.01
Farleigh,0.010000000000000002
Farnsfield,0.01
Farnsfield Sandy Variant,0.01
Feluga,0.01
Finch Hatton,1.576576143451143
Finley,3.3170498654733658
Fison,0.6317930177170274
Flagstone,3.97793113466204
Fletcher,2.310332345000876
Fletcher - Brcl,17.074827586206897
Fowler,21.910621139876483
Foxleigh,19.685827288756713
Freddy,13.15626350907833
Galmara,0.01
Gander,20.478094927415125
Gargett,5.945229784613726
Garradunga,0.01
Garrett,0.01
Gibson - Bab,5.867005837054743
Gigoon,30.639394834390323
Gillinbin,8.794800296797954
Givelda,24.884293227980677
Glenella,1.9105703900353175
Glenroc,19.242035264934266
Glenrock,0.010000000000000002
Gooburrum,0.01
Goodbye,14.820383226936833
Goodger,16.1500801596473
Goorganga,8.233189578325703
Goovigen,34.63298584042944
Gordonbrook,0.01
Graham,10.127380368322225
Granville,18.486424800952527
Grevillea,24.55993530960803
Greycliffe,23.195415966430733
Greycliffe Melonhole Phase,20.859820792627225
Gueena,13.015926615811862
Habana,2.818119518314634
Haden,12.072574266780023
Haly,8.531023038458335
Hamleigh,2.3936667136701684
Hannan,2.5313769735510077
Harris,10.601139149328384
Harwood,9.996144580273812
Hawkwood,8.34833599556564
Hector (PCS),0.2605114340564878
Hewitt,0.010000000000000002
Highbury,1.9894718602716939
Hillgrove,0.010000000000000002
Hillsborough,18.756607957720902
Hillview,0.01
Hind,22.081539907242593
Hodge,7.959954682779458
Hodge (BAN),0.01
Holding,8.861758788578916
Hopevale,0.01
IDE1,1.4180206993126294
Ilbilbie,0.01
Ingham,0.1642142759345087
Inlet,0.01
Innisfail,0.01
Innot,0.01
Inverdon,0.01
Iona,2.958076335918363
Isis,0.010000000000000002
Jambin,13.190880575978397
Jaro,21.371902253294277
Jarra,0.01
Julian,1.4039655172413792
Jumper,34.517637868820394
Jumpo,22.214218393038106
Kaban,0.01
Kaber,8.599933365110491
Kailla,23.700352368522154
Kairi,0.01
Kalah,32.920397474518985
Karloo,10.011857733558726
Kawl Kawl,7.081692109262972
Kaygaroo,0.01
Kelona A Horizon Variant,43.54485322140189
Kelona Buried Soils Or D Horizons Vary,59.42218012849071
Kenlogan,0.2548832956867807
Kenmar,22.86198451018353
Kepnock,7.538312889640013
Keppel,13.799092694217011
Kiama,0.01
Kilburnie,15.78544928928231
Kinchant,24.61041891018952
"Kinchant, Coarse Sandy Variant",0.01
Kingjack,41.95775601713955
Kinkuna,0.01
Kirrama,0.01
Koberinga Mottled Phase (3uga9),9.062435932274724
Koberinga Pebbly Phase (3uga8),7.429324934713862
Koberinga Pebbly Phase (3uge8),11.208583322744982
Kokutungo,21.028252626763987
Kolan,30.536897614559074
Kolan Red Variant,27.353959140859143
Kolbore,0.01
Kooingal,26.277488530938765
Koolachu,26.98817798832269
Kooringa,9.083119358414946
Koumala,4.195778441530441
Kowari,0.01
Kumbia,1.6257861426869715
Kungurri,19.70605076168121
Kurrimine,0.010000000000000002
Kuttabul,7.546399799992802
"Kuttabul, Alluvial-Colluvial Variant",0.01
Lacon,19.616782170525564
Langley-Wdh,15.046907335129868
Lannercost,5.455230963868235
Lascelles,20.925306037391227
Laura,0.01
Leach,4.129240016375747
Leadingham,44.309999999999995
Lee,0.010000000000000002
Lillypool,38.87723714677507
Lily,11.755995601500391
Lindsay,18.748155946124694
Lingilor,22.302859737266328
Littabella,14.498068512527809
Liverpool,0.01
Lizard,0.01
Logcamp,0.01
Lorna,16.82
Louisa,7.569252291485602
Lucy,0.01
Lugger,0.01
Maalan,0.01
Macknade,0.01
Maclean (Lak),0.01
Mahogany,0.01
Maiden,29.851491171206405
Manar,18.077725711254793
Mandam,46.529528957985114
Manoa Red Variant,27.9010046728972
Manor,5.3497716123093175
Maraconda,5.4139322874037585
Maria,0.01
Marian,2.7536064581553097
Marlow,2.0941610910264634
Maroondan,2.252887205806043
Marshlands,34.19632824683902
Martin,0.01
Martyr,14.202524119515317
Marwood,0.01
Mary,2.911530955934142
Mary Dark Variant,2.321882470729098
Maryvale,10.514447985758078
May,2.6751320554105025
May Shallow Phase,0.5498332678362101
Mceuen,0.4435056380510991
Meadowvale,0.010000000000000002
Meilland,0.01
Melton,4.283306850077869
Memerambi,0.08890769612848473
Mentmore,4.988721688845823
Midden,10.143832679839395
Midway,3.790362303511374
Millstream,0.14820117616475406
Mirani,0.15841650053931472
Miskin,0.01
Mission,0.01
Miva,16.185574675424625
Molonga,18.265897045605833
Mondure,23.37502186925459
Monkland,3.098425105486929
Moore Park,11.949708140332216
Moramana,10.33793909348442
"Moramana, Gilgai Phase",4.093867874798099
Morecambe,0.010000000000000002
Morganbury,0.01
Mossman,0.01
Muldoon,1.68
Mulei,0.01
Mullaburra,0.010000000000000002
Mulligan,0.010000000000000004
Mulligan Gravelly Phase,0.010000000000000002
Munbura,0.01
Mundoo,0.01
Mungar,18.790793335621743
Murphy,7.933699966614306
Murray,0.01
Myrtle,6.7729254948198285
Nabilla,4.232137720424171
Nail,14.296655004476154
Narcotic,0.01
Narpi,9.639869726893066
Needep,0.151120788033846
Nessvale,5.4442909907761
Netherdale,0.010000000000000002
Niagara,9.29619753076114
Nicotine,0.01
Nicotine Yellow,0.01
Nilotica,87.9157209585388
Nind,0.01
Normanby,2.198146824172834
Nullinga,0.01
Nursery,0.99520449338100625
O'Bil Bil,2.748269634804151
Oakwood,0.01
Oombabeer,20.192500869858065
Orient,9.979075001180735
Ossa,16.368221233867356
Ossa (Cobbly Variant),11.35371552390264
Otoo,0.01
Owanyilla,13.78107252391066
Pakington,17.134283170223316
Palm,0.010000000000000002
Palmyra,9.160132045949176
Palouse,24.431340791842693
Pearlinga,25.16026499498678
Peep,41.65449358754442
Pelion,27.077812906869944
Penman,3.8655332293845577
Pennsfield,20.32197834862138
Pentland,0.01
Picardy,8.246151881489054
Picardy Surface Seal Phase,7.622694888746832
Pin Gin,0.01
Pindi,23.67991186664758
Pinnacle - Cq,0.01
Pioneer,4.313915756566007
"Pioneer, Red B Horizon Variant",0.010432069711734404
Pluto,0.01
Police Camp,8.327394163310542
Poplar,5.814213201268736
Porter,10.652416463829669
Powerhouse,24.433148313971884
Powlathanga,22.53572315625921
Prendergast,3.9347998446179058
Price,0.01
Pring,0.4510208979445702
Prior,0.01
Proserpine,0.01
Quart,0.01
Racetrack,37.480585556903875
Ram,6.555918468775863
Ramleh,0.01
Rankin,16.39158077056682
Raven,0.01
RDya,38.57451298690579
Red Flank,0.01
Retro,20.87423595135789
Retro (BAN),21.79696216931469
Riordanvale,0.010000000000000002
Ripple,1.9515550198739182
Riverleigh,5.923290150439104
Robur,6.201064031608698
Rolleston,16.214250233
Ronnoc,2.0043386766534574
Roper,11.62310898142222
Royston,0.4365228500023862
Ruby,1.9051091698087248
Rubyanna,8.582103220799379
Rudd,12.170279531867491
Rugb,31.161116258947633
RUgc,0.05990965222983974
RUgd,14.643679427359466
Rungoo,0.01
Russell,0.8588348936008888
Saddle,2.538322995126721
Samourgassi,0.01
Sandalwood,32.90211556421441
Sandiford,11.13247898313043
Sandiford (Silty Topsoil Variant),14.953386271272517
Santo,0.5466958041958042
Seaforth,2.630141085637632
Seaview,23.95742302955665
Septimus,0.010000000000000004
Silent Grove,2.9864943372669073
Silkwood,0.01
Slater,13.951124342605652
Solferino,46.23277971173688
Spanos,0.01
Spier,3.7408020165025815
Springs,17.470705259377485
SSO1,26.13417595643971
St Helens,5.018625805670963
Sugarbag,0.01
Sunnyside,10.143170445332808
Sunter,0.010000000000000002
Tailing,29.240254315556744
Tanby,8.257425054700011
Tandora,32.25344544568905
Tannalo,0.010000000000000002
Tarong,24.6949457457681
Tarramba,21.98981497843247
Tawalla,0.01
TbUg-1,6.376159871027427
TbUg-11,1.1374777499753899
TbUg-13,10.326568294258674
TbUg-2,6.706769778858324
TbUg-4,8.384495089039882
TbUg-6,14.174224551297884
Te_El_Kabir,5.268999334535797
Tedlands,25.45706158270731
Telegraph,10.185402852358004
Tenmile,21.303211624817916
Thalberg,11.235941990430575
Thompson,0.01
Thompson - Mrc,1.3969259080316347
Thorpe,0.01
Tiaro,2.8733973105508612
Timara,0.01
Timbrell,31.862934750791133
Tiny,20.80254531156333
Tirrabella,0.01
Tirroan,22.63640220953492
Tirroan Non-Sodic Variant,7.950799118542249
Tognolini,2.991570710907148
Tolga,0.01
Toobanna,22.078009138381194
Toondoon,29.496819469668512
Tralee,26.789243681951987
Tranters,0.010000000000000002
Trebonne,0.01
TsDr-1,5.340544707946298
TsDy-1,17.639496243187686
TsGn-3,0.01
TsGn-4,0.010000000000000002
TsGn-5,1.7960490091923353
TsGn-6,0.010061252588995439
TsUc-2,0.01
TsUf-3,12.127178737515418
TsUf-6,21.524666978546477
TsUg-7,21.315318933859178
TsUgg-2,22.369882687058993
Tully,0.010000000000000002
Tureen,2.014052909548332
Turnor,8.804878429825425
Turpad,0.01
Turpin,28.996217263117856
Tyson,0.01
Ulogie,35.686922355358476
Umala - Tab,0.01
Up River,0.010000000000000002
Urannah,0.01
Uruba,0.010000000000000002
Utchee,0.01
Valetta,0.010000000000000002
Vicenza,14.345379813873674
Victoria Plains,6.363556566119892
Virgil,0.01
Voewood,15.290000000000006
Wagoora,5.00386523184711
"Wagoora, Basic Parent Material Variant",0.6511769580270179
Walkamin,0.01
Walker - Mhb,7.761485272205321
Walla,19.14349207617567
Walsch,14.57561031409267
Walsh,0.010000000000000002
Wandarra,0.01
Watalgan,0.01
Watalgan Mottled Variant,0.010000000000000002
Weir,9.892989417763557
Weithew,59.507587210025115
Well,14.423326822472188
"Well, Footslope Variant",10.308867277429288
Wheatlands,2.136577246766622
Whelan,0.010000000000000002
Whiptail,34.31814188412092
White,4.673495133204047
Windermere,23.932743987093623
Windradene,0.010000000000000002
Witton,0.17534794757012634
Wivenhoe,20.07223841041266
Woco,14.364877928626928
Wollingford,8.68700119278774
Woober,33.768613080282506
Woodleigh,2.5197013435934026
Woolmer,1.194386570329191
Woongarra,6.821153781084995
Woonton,5.912963580881715
Wooroolin,2.820026821911511
Wygong,4.832020827177285
Yandaran,8.37201272306929
Yaringa,14.849723644963047
Yarraman,9.976737445931942
Yarrol,24.30738383586301
Yuruga,14.185787678877212
Uruba Alluvial-Colluvial Variant,5.456404374741641
