id,VALUE
ABC-1-1,6.880969580291117
ABC-220-1,7.26227002323328
ABC-48-1,7.394593172394899
ABC-52-1,7.333209851561747
ABC-6-1,6.917633581097714
ABS-99-1,6.2
ACL-127-1,5.8527203071395855
ACL-137-1,5.291043618375598
ACL-138-1,5.240580003333084
ACL-63-1,5.515895873457286
ARD-507-1,6.833351340977105
ARD-9000-1,9.107621650323322
ARD-9001-1,6.143838426794035
ARD-9002-1,6.818007028923775
ARD-9003-1,5.960390904826403
ARD-9005-1,8.669141853492754
ARD-9006-1,8.80951094280496
ARD-9007-1,7.6220711052062065
ARD-9008-1,8.70643964113186
ARD-9009-1,9.188629602048522
ARD-9010-1,8.625484924515483
ARD-9012-1,7.421363480849454
ARD-9013-1,7.21098755559263
ARD-9014-1,7.894322008774255
ASOM-10-1,5.77733276043672
ASOM-12-1,5.3965821920486405
ASOM-13-1,5.038283144937965
ASOM-14-1,5.163791595702583
ASOM-15-1,5.27929553537855
ASOM-16-1,5.4407616174371976
ASOM-17-1,5.430772263687225
ASOM-23-1,5.50302171434374
ASOM-24-1,5.898516161135092
ASOM-25-1,5.314688667710978
ASOM-26-1,6.853382661902278
ASOM-27-1,7.914083771264181
ASOM-29-1,4.8868274599633015
ASOM-30-1,5.90094690749088
ASOM-9-1,5.510872907558836
ATB-6000-1,5.455469862716228
ATB-6001-1,6.123434372311472
ATB-6002-1,5.120178817936253
ATB-6003-1,4.174083041221472
ATB-6004-1,4.993472836161158
ATB-6007-1,5.5702917699779055
ATB-6008-1,5.492608689025602
ATB-6010-1,5.504008248632947
ATB-6011-1,6.264838680166797
ATB-6012-1,4.967923072876662
ATB-6013-1,6.93063527555924
ATB-6015-1,5.290026764478802
ATB-6016-1,6.9411385914214385
ATB-6017-1,6.886224662282962
ATB-6018-1,6.181334786337507
ATB-6019-1,6.530443064281595
ATB-6020-1,6.465361541477653
ATB-6021-1,5.600037691096564
ATB-6022-1,6.099999766356525
ATB-6024-1,5.895193307206685
ATB-6025-1,6.503406907390667
ATB-6026-1,5.62780874365583
ATB-6028-1,5.508083419449217
ATB-6029-1,9.062260088722816
ATB-6030-1,6.325420307012126
ATB-6031-1,5.854697784756227
BAB-9001-1,7.896028061976342
BAB-9002-1,4.1011455840367095
BAB-9003-1,6.0482009807693595
BAB-9004-1,6.298543463607859
BAB-9005-1,7.764353681420762
BAB-9006-1,6.183643117425896
BAB-9007-1,5.215673757296348
BAB-9008-1,4.562265166436738
BAB-9009-1,7.248228604572263
BAB-9010-1,7.511826860884445
BAB-9011-1,6.657189045641822
BAB-9012-1,5.048140985800609
BAB-9013-1,5.175900011510313
BAB-9014-1,5.0881726973438495
BAN-1041-1,7
BAN-1052-1,5.299999999999999
BAN-1059-1,6.200000000000001
BAN-1088-1,8.438398925632773
BAN-1142-1,8.010643759281724
BAN-1147-1,6.699999999999998
BAN-121-1,7.3999999999999995
BAN-1374-1,8.2
BAN-1377-1,6.6
BAN-1381-1,6.099999999999999
BAN-139-1,5.9
BAN-150-1,5.6487979046461865
BAN-1533-1,6.3
BAN-1542-1,7.099999999999999
BAN-1569-1,5.8
BAN-1601-1,8.90052590815852
BAN-1625-1,8.901905533539715
BAN-1648-1,4.624751565276721
BAN-1655-1,7.700000000000001
BAN-1660-1,6.5
BAN-1668-1,6.9
BAN-1702-1,6.800000000000001
BAN-1703-1,5.8999999999999995
BAN-1717-1,6.3
BAN-1734-1,7
BAN-1749-1,6.499999999999999
BAN-1763-1,7
BAN-1771-1,6.200000000000001
BAN-1781-1,6.800000000000001
BAN-1805-1,7.893496825989909
BAN-181-1,6.277155172413793
BAN-1811-1,8.099999929784529
BAN-1812-1,8.362992624445564
BAN-1815-1,6.099999999999999
BAN-185-1,8.40100449945934
BAN-1858-1,7.500000000000001
BAN-1872-1,6.443396226415095
BAN-19-1,6.9
BAN-1903-1,6.804668674698794
BAN-1914-1,7.1425824175824175
BAN-1971-1,6.796477494009848
BAN-1983-1,4.662521993160369
BAN-2015-1,4.59957310152097
BAN-2023-1,6.4
BAN-2034-1,7.113222543352599
BAN-2037-1,7.9
BAN-2038-1,7.337755102040816
BAN-2090-1,7.252704023414673
BAN-2096-1,8.341306188767176
BAN-2097-1,8.310776773052329
BAN-2099-1,7.7331034352906585
BAN-21-1,8.641512345679013
BAN-2105-1,8.530732123215198
BAN-2128-1,8.533542060585313
BAN-2164-1,8.263114211644115
BAN-2172-1,6.9
BAN-2256-1,4.855237019175788
BAN-2257-1,8.5557308775948009
BAN-2258-1,7.978524370101017
BAN-2259-1,4.825482813362413
BAN-2262-1,8.47260098411042
BAN-2263-1,8.62600700780029
BAN-2264-1,8.489243056305815
BAN-2265-1,8.511447395362872
BAN-2298-1,8.800000327501813
BAN-2332-1,7
BAN-2350-1,7.099999999999999
BAN-2455-1,6.5
BAN-2497-1,6.400000000000002
BAN-2531-1,6
BAN-2537-1,6.599999999999999
BAN-2597-1,4.824401994655323
BAN-2598-1,7.74916189608924
BAN-271-1,9.119027022325257
BAN-286-1,8.292305764866047
BAN-289-1,8.776029851489223
BAN-29-1,7.099999999999999
BAN-301-1,7.3285703465555905
BAN-322-1,7.200000000000001
BAN-339-1,8.605987582555347
BAN-365-1,7.1000000000000005
BAN-368-1,6.5
BAN-474-1,8.999315713709262
BAN-507-1,8.417059958644202
BAN-508-1,9.292815229394511
BAN-510-1,7.765860121456181
BAN-511-1,8.978223227315528
BAN-513-1,8.31237532535479
BAN-516-1,8.751170708262494
BAN-522-1,8.821885731301625
BAN-599-1,7.811280715178695
BAN-6-1,8.785237424973516
BAN-657-1,7.860728162460249
BAN-682-1,8.32152277776153
BAN-708-1,8.3
BAN-723-1,8.028666909405366
BAN-73-1,6.3
BAN-738-1,6.8
BAN-748-1,5.098956820290985
BAN-761-1,8
BAN-790-1,6.107932991931822
BAN-804-1,8.759579924299024
BAN-820-1,6.9
BAN-835-1,8.0524541124939
BAN-858-1,8.394644275505298
BAN-859-1,7.477463605113306
BAN-865-1,8.908014771812244
BAN-947-1,5.392954951831264
BAN-949-1,6.299999999999999
BAN-95-1,6.798055744089673
BAN-97-1,5.7671276164087715
BBC-6002-1,5.9573936587000444
BBC-6003-1,5.896610614938299
BBC-6004-1,6.091380141046109
BBC-6005-1,5.081213569365294
BBC-6006-1,4.995075460164863
BBC-6010-1,5.555832941867276
BBC-6012-1,5.714252511376522
BBC-6013-1,5.128491108614902
BBC-6016-1,5.4688607103550755
BBC-6017-1,4.925100753824924
BBC-6019-1,5.543276477481277
BBC-6020-1,5.1004952302829825
BDS-1142-2,8.07437528097451
BDS-1186-2,7.367006903322557
BDS-1225-2,7.497427722828537
BDS-1313-2,7.599951440134916
BDS-1381-2,7.233348866553876
BDS-1397-2,7.000198027729997
BDS-1431-2,9.299593979001468
BDS-1502-1,5.779656254125452
BDS-198-2,7.6939389475873305
BDS-209-2,7.229615958876402
BDS-265-2,8.200001001844617
BDS-276-2,8.154795453727608
BDS-369-2,7.171390570550425
BDS-589-2,8.495423242558278
BDS-689-2,7.752159184877855
BDS-755-2,7.0998285497583185
BDS-800-2,8.71379605719617
BER-9000-1,5.863184872808436
BER-9001-1,8.742904261382632
BER-9002-1,7.586874440507862
BER-9003-1,8.94238907170956
BER-9004-1,8.165753329024891
BER-9006-1,6.90278105009722
BER-9007-1,7.001695944583175
BER-9008-1,8.743059529191378
BER-9009-1,7.339878851095116
BER-9011-1,5.739672139040036
BER-9016-1,7.028312365058519
BER-9017-1,6.651794351062386
BER-9018-1,7.882197468739736
BER-9019-1,8.914655436716911
BER-9020-1,9.313488025448482
BER-9021-1,8.574388167400521
BER-9027-1,7.971527895614116
BER-9028-1,8.895086763670399
BER-9029-1,8.549728433604002
BER-9030-1,6.87388934293395
BER-9032-1,9.5789597257595691
BER-9034-1,8.773830164843416
BER-9040-1,7.060803194369793
BER-9041-1,7.985941030201672
BER-9042-1,7.5914632325896205
BER-9046-1,7.268588202193152
BER-9050-1,6.76103877854271
BER-9051-1,6.73210790237195
BER-9052-1,9.161519450797437
BER-9053-1,9.486137819753852
BER-9054-1,8.106806124777451
BLS-9000-1,7.730444389713604
BLS-9001-1,7.608635233678227
BLS-9005-1,7.631299591961768
BLS-9007-1,8.180358490602032
BLS-9008-1,7.7262459839565345
BLS-9009-1,7.261357636315939
BLS-9010-1,7.209614922152481
BMSE-60-1,7.5231221176548475
BMSE-62-1,8.292655759536135
BPS-9007-1,7.52491944107248
BPS-9008-1,6.921612891786585
BPS-9009-1,7.051064287671088
BPS-9010-1,8.686205887601805
BPS-9012-1,8.532531594192916
BPS-9013-1,8.37430431898899
BPS-9015-1,8.653450059479027
BRB-6006-1,9.033873099011139
BRB-6007-1,8.82118517677295
BRB-6008-1,9.019567377607334
BRB-6009-1,8.758284056401125
BRB-6014-1,9.868731433741344
BRB-6019-1,7.211800010552387
BRB-6020-1,8.910940018729557
BRB-6042-1,9.699432982220948
BRB-6053-1,7.9910131049404125
BRB-6054-1,9.310700834424734
BRB-6055-1,9.179011058160327
BRB-6057-1,8.465806666228437
BRB-6064-1,9.470583417572692
BRB-6065-1,9.124363887957132
BRCL-16-1,8.97862940201106
BRCL-2-1,8.427049465582902
BRCL-4-1,6.929135182907903
BRCL-51-1,7.970407268080044
BRCL-61-1,6.178151607464149
BRCL-9-1,8.77670824617051
BRL-9000-1,7.816026159168153
BRL-9001-1,7.182653685438243
BRL-9002-1,7.902747528914641
BRL-9003-1,8.951592094423154
BRL-9004-1,7.360120539973157
BRL-9005-1,7.845587406011317
BRL-9006-1,8.84575613159723
BRL-9007-1,9.354402281375775
BRL-9008-1,8.436320306037704
BRL-9009-1,7.1217979605042
BRL-9010-1,9.20320147214386
BRL-9011-1,6.630109283769922
BRL-9012-1,6.69989646057217
BRL-9013-1,8.142899262488294
BRL-9014-1,9.599999778608376
BRL-9016-1,6.742837370427687
BRL-9017-1,7.656913987185633
BRL-9018-1,6.971135957305378
BRL-9019-1,8.845593752584053
BRL-9020-1,7.7770251097903484
BRL-9021-1,8.464999027309771
BRL-9022-1,7.385011115913521
BRL-9023-1,7.194406186533634
BRL-9024-1,9.414176469785465
BRL-9025-1,6.9989131796190325
BRL-9026-1,8.183475347338495
BRL-9027-1,7.233212285886206
BRL-9028-1,6.536424205239506
BRL-9029-1,7.782992133614781
BRL-9030-1,8.656990211160931
BRL-9031-1,9.100068409165557
BRL-9032-1,8.229896006425564
BRL-9033-1,6.94467367528473
BRL-9034-1,9.074896521390167
BRL-9035-1,6.330270651922237
BRL-9036-1,9.132479524256714
BRL-9039-1,8.87710967308647
BRL-9040-1,8.8809098386955
BRL-9041-1,8.771474249511439
BRL-9042-1,8.983050366712515
BRL-9043-1,6.827830030492002
BRL-9044-1,9.026622942061465
BRL-9045-1,6.833212647639945
BRL-9046-1,6.574375064262128
BRL-9047-1,6.891401139487286
BRL-9048-1,9.763794992717886
BRL-9049-1,6.225813642601941
BRL-9050-1,8.856985086140645
BRL-9051-1,6.394582639750592
BRL-9052-1,9.05435644045256
BRL-9053-1,9.223606282397443
BRL-9054-1,6.890417139272338
BRL-9055-1,6.578433597354675
BRL-9056-1,6.913491431627054
BRL-9059-1,7.990451049414167
BRL-9060-1,9.253855768552032
BRL-9062-1,6.12388534363559
BRL-9064-1,5.264959865200739
BRL-9065-1,7.852828498312473
BRL-9066-1,6.416224302014166
BRL-9067-1,9.171693144137773
BRS-6011-1,6.67537537634727
BRS-6015-1,6.957225454268813
BRS-6050-1,7.452144650716351
BRS-6057-1,6.888738245061531
BRS-6059-1,6.59964890654038
BRS-6077-1,6.530443064281595
BRS-6079-1,6.857335049308604
BRS-6081-1,6.181334786337507
BSA-11-1,6.4784674859566564
BSA-15-1,7.065044029296613
BSA-17-1,7.3058860226920155
BSA-22-1,7.7999337743125245
BSA-23-1,7.02338804644371
BSA-25-1,9.471251882123115
BSA-26-1,7.064117622826719
BSA-28-1,6.963706937208476
BSA-7-1,5.632516708138358
BSA-8-1,6.680084824894368
BSS-1-1,8.594128788525538
BSS-12-1,5.899725304053216
BSS-13-1,6.591185365429276
BSS-16-1,5.599377024324269
BSS-17-1,8.58518444169979
BSS-18-1,5.002187873195606
BSS-19-1,5.217490698555273
BSS-2-1,5.736991846240936
BSS-20-1,5.8563589817729085
BSS-22-1,6.591269826718655
BSS-23-1,6.2259440820081196
BSS-24-1,5.786902740439475
BSS-25-1,5.706172175508237
BSS-26-1,5.276031012500393
BSS-27-1,4.475942856392112
BSS-28-1,5.415562626867773
BSS-29-1,6.298235526652533
BSS-3-1,5.30604922333238
BSS-30-1,5.200071864349359
BSS-32-1,4.996788780767029
BSS-33-1,5.543925184162098
BSS-37-1,4.3129377717345525
BSS-38-1,4.900104142845651
BSS-4-1,5.8970919372024495
BSS-41-1,5.521845678924571
BSS-45-1,5.8620494377505254
BSS-7-1,4.799148557812919
BSS-8-1,5.601816898513675
BSS-9-1,5.011729956609343
BUN-103-1,5.3590909090909085
BUN-108-1,6.009652350635958
BUN-109-1,7.071798702426432
BUN-110-1,6.1412475259962065
BUN-111-1,5.144146790253782
BUN-112-1,4.9732474706887455
BUN-113-1,5.301709146132521
BUN-114-1,6.224409250768884
BUN-115-1,4.488314772647043
BUN-116-1,4.525309106820363
BUN-117-1,5.527584402644835
BUN-120-1,7.054387358447375
BUN-122-1,5.444817800456035
BUN-123-1,4.778320256272325
BUN-6001-1,7.132107902371952
BUN-6002-1,5.7698758124494844
CBW-1024-1,5.747178006526933
CBW-1026-1,7.497231544627999
CBW-263-1,6.122685303784065
CBW-264-1,5.718777393053734
CBW-265-1,4.891314031196875
CBW-266-1,5.81731098963509
CBW-267-1,6.005304710549813
CBW-268-1,5.7235465777525105
CBW-269-1,5.706935885050951
CBW-270-1,5.128538016174586
CBW-271-1,4.477179842002416
CBW-272-1,4.317334031945101
CBW-273-1,4.825830289343936
CBW-274-1,5.818917384564494
CBW-275-1,6.221798465485411
CBW-276-1,5.899694948081982
CBW-277-1,6.24649367527514
CBW-278-1,5.652914717520773
CBW-279-1,5.742368479864052
CBW-280-1,5.691088851427137
CBW-281-1,5.0779889655991735
CBW-282-1,4.788945575737763
CBW-283-1,5.672356940399671
CBW-284-1,6.30721244411996
CBW-285-1,5.31228092718492
CBW-286-1,6.45483797849443
CBW-287-1,5.068983320985234
CBW-288-1,4.910316944071129
CBW-289-1,7.004925441216265
CBW-9000-1,5.12320380277277
CBW-9001-1,5.29089649070239
CBW-9002-1,4.8441126343624346
CBW-9003-1,4.29003449192878
CBW-9004-1,6.974859554367214
CBW-9005-1,5.840450277477219
CBW-9006-1,8.629949988853902
CBW-9007-1,6.630878787928162
CBW-9008-1,7.585492399195384
CBW-9009-1,5.389069070594436
CBW-9010-1,4.996883922556852
CBW-9011-1,6.504753051411572
CBW-9012-1,5.553841617292884
CBW-911-1,6.367797770991775
CBW-918-1,4.798776942005127
CCL-325-1,6.928995747785342
CIS-9000-1,6.75124814384079
CIS-9001-1,8.80237048804424
CIS-9003-1,8.70655497076374
CIS-9005-1,8.708063587900199
CIS-9006-1,9.206122156958209
CIS-9007-1,7.997337605268339
CIS-9008-1,7.492228223176871
CIS-9009-1,7.271922022887938
CIS-9010-1,8.033156210590537
CIS-9011-1,7.421983175511288
CIS-9012-1,6.982693875368381
CIS-9013-1,8.80533128440542
CIS-9014-1,8.396595236746112
CQCS-2-1,5.631315375696302
CQG-109-1,8.101454333679797
CQG-110-1,9
CQG-140-1,8.5
CQG-149-1,8.3
CQG-29-1,6.699999999999998
CQG-3-1,6.799999999999998
CQG-5-1,8.7
CQG-8-1,8.1
CQH-1002-1,4.8
CQH-1008-1,5.4
CQH-1018-1,6.2523714568222974
CQH-1019-1,8.772487082986432
CQH-1021-1,5.7
CQH-1025-1,7.300000000000002
CQH-1032-1,7.300000000000002
CQH-1035-1,7.299999999999999
CQH-1038-1,4.999999999999998
CQH-1043-1,6.299999999999999
CQH-1048-1,6.599999999999999
CQH-1056-1,6.800000000000001
CQH-1058-1,6.799999999999999
CQH-1066-1,7
CQH-1092-1,6.1
CQH-11-1,5.5
CQH-1102-1,6.8
CQH-1103-1,7.199999999999999
CQH-1107-1,7.299999999999998
CQH-1109-1,8.413376985705359
CQH-1128-1,5.399999999999998
CQH-1159-1,5.599999999999999
CQH-1161-1,5.499999999999999
CQH-1163-1,6.000000000000001
CQH-1173-1,6
CQH-1188-1,5.799999999999999
CQH-1198-1,6.3
CQH-12-1,5.1000000000000005
CQH-1201-1,5.8
CQH-1203-1,5.999999999999998
CQH-1205-1,5.599999999999999
CQH-1208-1,5.399999999999998
CQH-1210-1,5.2
CQH-1212-1,5.900000000000001
CQH-1217-1,6.599999999999999
CQH-1227-1,7.4
CQH-1241-1,7.5
CQH-1243-1,7.599999999999997
CQH-1261-1,7.099999999999999
CQH-1277-1,7.499999999999997
CQH-128-1,7.743158753340239
CQH-1285-1,6.9
CQH-1300-1,6.099999999999999
CQH-1304-1,5.699999999999998
CQH-1307-1,5.799999999999999
CQH-1312-1,7.299999999999998
CQH-1342-1,5.8
CQH-1346-1,7.9999999999999964
CQH-136-1,5.6
CQH-1370-1,5.399999999999998
CQH-1377-1,5.599999999999999
CQH-1395-1,5.399999999999998
CQH-1398-1,5.299999999999999
CQH-152-1,5.5
CQH-155-1,5.8
CQH-158-1,5.199999999999999
CQH-16-1,7.1
CQH-165-1,4.499999999999998
CQH-17-1,5.599999999999998
CQH-172-1,5.199999999999999
CQH-18-1,4.899999999999999
CQH-180-1,5.199999999999999
CQH-190-1,5.1000000000000005
CQH-199-1,5.499999999999998
CQH-2-1,6.131066945606695
CQH-20-1,6.099999999999999
CQH-208-1,5
CQH-21-1,6.5
CQH-210-1,6.4775989624973755
CQH-227-1,7.300000000000001
CQH-248-1,5.925483115315838
CQH-250-1,6.748891141414576
CQH-259-1,5.399999999999998
CQH-26-1,5.89110763002822
CQH-274-1,6.4
CQH-275-1,6.9
CQH-277-1,5.3
CQH-289-1,7.532930545913823
CQH-29-1,4.6
CQH-295-1,5.819380689689662
CQH-302-1,5.5
CQH-303-1,5.399999999999998
CQH-329-1,5
CQH-331-1,5.3189040244342785
CQH-333-1,4.8737889273356405
CQH-334-1,5.599999999999999
CQH-351-1,4.799999999999998
CQH-352-1,7.599999999999997
CQH-354-1,7.299999999999998
CQH-357-1,4.700000000000001
CQH-366-1,5.3
CQH-374-1,5.499999999999999
CQH-384-1,5.2259994890195545
CQH-387-1,5.8999999999999995
CQH-404-1,4.8999999999999995
CQH-408-1,4.999999999999999
CQH-41-1,5.499999999999999
CQH-412-1,5.3891244271437415
CQH-419-1,5.100000000000001
CQH-423-1,5.699893431825381
CQH-424-1,6.500000000000001
CQH-426-1,4.7
CQH-429-1,7.799999999999997
CQH-430-1,7.1
CQH-431-1,6.899999999999999
CQH-432-1,7.200000000000001
CQH-438-1,5.6
CQH-44-1,5.5
CQH-440-1,4.8999999999999995
CQH-450-1,5.199999999999999
CQH-452-1,5.097215475584942
CQH-455-1,5.558281981099082
CQH-459-1,4.872990586687402
CQH-461-1,5.099999999999997
CQH-466-1,5.599999999999999
CQH-467-1,4.889876172219057
CQH-469-1,6.1
CQH-471-1,6
CQH-479-1,5.000000000000001
CQH-480-1,5.5
CQH-481-1,5.3
CQH-484-1,4.8
CQH-487-1,5.599999999999999
CQH-488-1,5.199999999999999
CQH-493-1,4.699999999999999
CQH-500-1,5.299999999999999
CQH-503-1,6.1
CQH-51-1,5.599999999999998
CQH-513-1,5.3
CQH-515-1,5.400000000000002
CQH-519-1,5
CQH-576-1,5.099999999999997
CQH-58-1,4.9
CQH-590-1,5.5
CQH-60-1,5.499999999999998
CQH-612-1,5.199999999999999
CQH-615-1,5.381465569612132
CQH-646-1,5.6000000000000005
CQH-67-1,5.240241644221352
CQH-681-1,6.4
CQH-682-1,6.299999999999999
CQH-695-1,5.1069020116973425
CQH-707-1,6.6999999999999975
CQH-723-1,5.300000000000001
CQH-727-1,5.8100469233965555
CQH-728-1,5.9
CQH-737-1,6.1000000000000005
CQH-749-1,6.299999999999999
CQH-754-1,6.499999999999999
CQH-759-1,6.6999999999999975
CQH-760-1,6.399999999999998
CQH-761-1,6.199999999999998
CQH-763-1,6.300000000000008
CQH-778-1,6.500000000000001
CQH-788-1,5.499999999999998
CQH-796-1,5.9
CQH-802-1,6.021405632411068
CQH-807-1,5.099999999999999
CQH-812-1,7.1000000000000005
CQH-820-1,7.375444664031622
CQH-822-1,6.772051445069818
CQH-830-1,6.999999999999998
CQH-832-1,6.206532939719279
CQH-838-1,5.799999999999999
CQH-857-1,4.699999999999999
CQH-863-1,5.199999999999999
CQH-889-1,4.9
CQH-898-1,4.999999999999998
CQH-901-1,5.199999999999999
CQH-923-1,6.1
CQH-928-1,4.899999999999999
CQH-935-1,5.8
CQH-940-1,4.808732707509882
CQH-946-1,4.957272326317813
CQH-960-1,4.799999999999998
CQH-982-1,5.3
CQH-985-1,4.599999999999999
CQH-987-1,5.299999999999999
CQH-989-1,5.100000000000001
CQH-995-1,5.4
CTAP-1-1,5.741585540001189
CTAP-106-1,9.396149226093083
CTAP-119-1,7.028330593781075
CTAP-146-1,8.83943477796869
CTAP-177-1,8.822708385924237
CTAP-189-1,6.800000489868598
CTAP-211-1,8.39492934644685
CTAP-228-1,7.627573201516022
CTAP-238-1,8.399039446531999
CTAP-245-1,8.605386365592366
CTAP-247-1,7.790598232881483
CTAP-5-1,8.984793089635685
CTAP-59-1,8.35501272858179
CTAP-8-1,6.697170206181888
CTI-310-1,5.004256832292629
CTI-311-1,5.133887472111717
CTI-314-1,5.692939925555563
CTI-315-1,5.229552912128673
CTI-316-1,5.024572459059033
CTI-317-1,5.117050470942596
CTI-318-1,4.9113590734407575
CTI-320-1,5.055264238200147
CTI-321-1,4.488150410445629
CTI-327-1,5.135259463581341
CTI-328-1,5.39612674415756
CTI-370-1,6.400000198213862
CTI-378-1,6.204104252893943
CTI-412-1,5.505089613369739
CTI-6001-1,5.716361183173534
CTI-6002-1,4.622548447187112
CTI-6003-1,4.6989375760681575
CTI-6004-1,5.190303463417596
CTI-6005-1,4.842226560744688
CTI-6006-1,4.839517540125445
CTI-6007-1,5.213851847271626
CTI-6008-1,4.634739289518097
CTI-6009-1,5.350487092563087
CTI-6010-1,5.079928176463099
CTI-6013-1,3.741280328188303
CTI-6015-1,5.295904475518955
CTI-6017-1,5.387437401885701
CTI-6018-1,4.975583928265523
CTI-6019-1,4.986542684834331
CTI-6020-1,5.637247045147865
CTI-6021-1,5.023460761117127
CTI-6022-1,5.199123111943484
CTI-6025-1,4.780625397762821
CTI-6027-1,5.3722596120397705
CTI-6028-1,5.213676708443056
CTI-6029-1,5.104619238944667
CTI-9000-1,5.494613456356487
CTI-9003-1,5.855678597564705
CTI-9005-1,5.677016191941391
CTI-9006-1,6.387211458646208
CTI-9007-1,6.200666206357606
CTI-9009-1,5.083185331568752
CTI-9012-1,5.347964826598996
CTI-9013-1,5.079294360838501
CTI-9014-1,6.2044530011672245
CTI-9015-1,5.829534323767097
CTI-9029-1,5.613968285324054
CTI-9030-1,5.001900026633361
CTI-9032-1,6.011524160403818
CTI-9033-1,5.564143242038269
CTI-9034-1,5.2576106884988825
CTI-9035-1,5.399176089394011
CTI-9037-1,5.155005421425127
CTI-9039-1,5.935369787576011
CWR-9000-1,8.848289376459443
CWR-9001-1,8.915129470322052
CWR-9002-1,8.630046354273611
CWR-9003-1,9.675983978859882
CWR-9004-1,8.666521451811185
CWR-9005-1,9.033489022039548
CWR-9007-1,9.090619238587095
CWR-9008-1,8.871167895916017
CWR-9010-1,9.38295402120203
CYP-392-1,5.901273823542218
CYP-836-1,5.782422131734427
DHR-6001-1,9.593892691747953
DLR-100-1,6.99633334236228
DLR-101-1,8.84460617317421
DLR-1010-1,6.221300187031506
DLR-1013-1,7.1808746466076805
DLR-1015-1,8.915907445623876
DLR-1017-1,7.0037336972300155
DLR-1018-1,9.491433235879022
DLR-1019-1,8.128238257865533
DLR-1020-1,8.823708891862218
DLR-1022-1,8.390656904364267
DLR-1024-1,6.702805617524988
DLR-1027-1,7.499646552960295
DLR-1028-1,7.042937928319508
DLR-1029-1,8.559574869023722
DLR-1033-1,6.714906160035008
DLR-1034-1,6.2604231245914
DLR-1035-1,6.910276180207934
DLR-1037-1,4.648804394322679
DLR-1039-1,9.287081892236497
DLR-1042-1,9.332455491794873
DLR-1044-1,5.617341657516315
DLR-1045-1,4.70707846210761
DLR-1047-1,9.621408577732874
DLR-1048-1,8.447892075117894
DLR-1050-1,5.335632650303946
DLR-1051-1,5.233890182683451
DLR-1053-1,6.204317008484858
DLR-1054-1,6.55743473813134
DLR-1057-1,8.775276802223035
DLR-1059-1,8.98634548678271
DLR-1061-1,9.390842341307495
DLR-1064-1,9.248904578316699
DLR-1065-1,6.210315115190634
DLR-1066-1,6.772739491691105
DLR-1068-1,6.400152516522623
DLR-1072-1,5.000061056024463
DLR-1077-1,6.102196803417546
DLR-1078-1,6.379880095235363
DLR-1079-1,7.806152309576392
DLR-108-1,7.503330280543553
DLR-1081-1,7.5113251331178645
DLR-1082-1,7.194987523722499
DLR-1083-1,6.940824151486629
DLR-1085-1,8.301522409463287
DLR-1086-1,8.171416596390888
DLR-1087-1,8.617464337472095
DLR-1088-1,6.88707291859941
DLR-1089-1,7.002551023859223
DLR-1096-1,8.448709285892985
DLR-1098-1,7.234913652655591
DLR-11-1,8.10776349909375
DLR-1103-1,7.465625000000001
DLR-1104-1,8.403071163986777
DLR-111-1,7.1170539062671665
DLR-1113-1,7.099999999999999
DLR-1117-1,7.633391915641476
DLR-1122-1,7.804411980440096
DLR-1127-1,5.9611822583367555
DLR-113-1,9.770976762086056
DLR-1135-1,7.977317394615581
DLR-114-1,6.13102192882412
DLR-1140-1,6.312420491074483
DLR-1141-1,6.701126178917181
DLR-1142-1,4.773546225113345
DLR-1148-1,7.99799368157785
DLR-1149-1,6.993647259986924
DLR-1153-1,6.804370231833502
DLR-1154-1,7.1063709488665046
DLR-1155-1,6.618360721541246
DLR-1156-1,7.007139237309296
DLR-1158-1,6.67775978581897
DLR-1162-1,6.425803576788279
DLR-1165-1,6.868445198810285
DLR-1166-1,7.524886869516586
DLR-1167-1,6.787563729410763
DLR-1169-1,6.910892044519986
DLR-117-1,6.5
DLR-1170-1,8.040524672323507
DLR-1175-1,5.9925606658285
DLR-1176-1,6.220689859276302
DLR-119-1,7.4158219270940195
DLR-1190-1,7.1508427251279985
DLR-1194-1,6.922538411505667
DLR-1200-1,6.199999999999999
DLR-1201-1,8.31616817586915
DLR-1205-1,6.383420378294994
DLR-1206-1,7.408481832569221
DLR-1209-1,5.7316525010282895
DLR-121-1,8.936563051700304
DLR-1216-1,8.812397548683716
DLR-1217-1,8.100000000000001
DLR-1218-1,7.703337623894144
DLR-122-1,6.955351762300989
DLR-1220-1,8.55054815529858
DLR-1222-1,7.5207256878980875
DLR-1224-1,6.961389096340555
DLR-1225-1,7.763561833378921
DLR-1229-1,8.400000000000002
DLR-123-1,7.050882006795125
DLR-1233-1,6.2401668090797635
DLR-1234-1,7.429829678706806
DLR-1238-1,8.469483738658406
DLR-124-1,6.989509385217235
DLR-1245-1,6.817742417191206
DLR-1246-1,8.496203816894935
DLR-1251-1,6.3834842060476245
DLR-1253-1,8.603903860887034
DLR-126-1,6.745011220618818
DLR-1262-1,6.180144632459837
DLR-1267-1,6.272995476973684
DLR-127-1,6.673817624433987
DLR-128-1,6.818068034235789
DLR-1285-1,6.894319453064884
DLR-1288-1,6.52269905821918
DLR-1296-1,8.618717032487238
DLR-1298-1,7.778915137859689
DLR-13-1,5.504214182598142
DLR-1300-1,6.421013891449997
DLR-1305-1,6.35937424066898
DLR-1311-1,6.371402519237095
DLR-1312-1,6.207400332564576
DLR-1313-1,6.116792916148899
DLR-1316-1,6.21058632831467
DLR-1319-1,5.796980218005652
DLR-1321-1,5.3887863963673315
DLR-1323-1,7.255566973067924
DLR-1324-1,7.018745970830013
DLR-133-1,7.410850777799116
DLR-1331-1,6.9025381918560775
DLR-1334-1,9.140039607855996
DLR-134-1,9.024237850642884
DLR-1340-1,6.267076574219432
DLR-1348-1,6.353376562345414
DLR-1353-1,6.366787658802179
DLR-1357-1,6.194047741749293
DLR-1358-1,6.8
DLR-136-1,7.111662814536314
DLR-1364-1,6.820287258444
DLR-1370-1,6.588300536184184
DLR-1371-1,8.814891649388732
DLR-1372-1,6.609368695321223
DLR-1379-1,8.306115616169063
DLR-138-1,9.454529411057589
DLR-1380-1,6.880207497420612
DLR-1383-1,6.8430295654621025
DLR-1385-1,6.959282748893719
DLR-139-1,9.03762361126771
DLR-1391-1,6.097231311535188
DLR-1394-1,5.915357967667436
DLR-1395-1,4.860070708594966
DLR-14-1,4.585220265526708
DLR-140-1,7.240046987761699
DLR-1406-1,6.046433288606832
DLR-1409-1,6.252257644564008
DLR-142-1,6.137844118619009
DLR-1425-1,5.551791254013054
DLR-143-1,6.894599916786429
DLR-1430-1,6.3370892018779355
DLR-1432-1,8.109964322824563
DLR-1434-1,5.520818478906714
DLR-1437-1,6.3517578496987985
DLR-144-1,8.461564137794396
DLR-1442-1,8.109783582923425
DLR-1447-1,6.374428833493346
DLR-1457-1,8.697074931540953
DLR-1459-1,8.444747706422017
DLR-1474-1,5.900000000000001
DLR-1479-1,5.861465321194956
DLR-1484-1,6.513619599578504
DLR-149-1,7.880293872460622
DLR-1490-1,6.8
DLR-15-1,7.587971219773733
DLR-1505-1,4.224146239808279
DLR-1511-1,8.80562118126273
DLR-1513-1,7.490195751843526
DLR-152-1,6.519926226391709
DLR-1521-1,6.154860540715632
DLR-1523-1,6.379738440027829
DLR-1524-1,6.43345208485535
DLR-1526-1,6.545020614490402
DLR-1528-1,7.861840031033792
DLR-153-1,7.41751632065365
DLR-1532-1,7.1830654008804276
DLR-154-1,6.006696653977158
DLR-1543-1,8.126737126327754
DLR-1545-1,8.118243855255283
DLR-1546-1,6.927001595723983
DLR-1549-1,4.316660808513069
DLR-155-1,6.880289190224573
DLR-156-1,6.2817495884397285
DLR-1565-1,5.707099402195688
DLR-1567-1,6.800000000000001
DLR-1569-1,6.232252983405358
DLR-157-1,6.09864437221694
DLR-1574-1,6.116891125423887
DLR-1578-1,5.915408436558421
DLR-1579-1,6.303145698158972
DLR-159-1,6.31308634123072
DLR-1601-1,7.500457375363303
DLR-161-1,8.612523172882835
DLR-164-1,6.9672552009460755
DLR-1654-1,5.7770083102493075
DLR-166-1,6.8686325096042715
DLR-168-1,7.115102313167258
DLR-169-1,7.015412661584356
DLR-17-1,8.047551903708413
DLR-174-1,6.894007087981851
DLR-1768-1,7.382682616498639
DLR-1769-1,7.299904102482573
DLR-1772-1,6.797863491669183
DLR-1773-1,8.373194220568204
DLR-1777-1,6.504615828211333
DLR-1778-1,6.715015477384369
DLR-1780-1,6.863866624428504
DLR-1783-1,8.901643169427262
DLR-1785-1,6.415927587848952
DLR-1788-1,6.506508975711843
DLR-1789-1,8.73676234152425
DLR-179-1,6.771270237126045
DLR-1790-1,8.57369964988899
DLR-180-1,8.25003327416591
DLR-183-1,7.636544545444422
DLR-185-1,8.386500900937378
DLR-186-1,7.096722436500998
DLR-187-1,8.754312571195552
DLR-188-1,7.821588809821462
DLR-189-1,5.261370591093937
DLR-195-1,6.643680484595141
DLR-198-1,6.393949653159428
DLR-199-1,6.898967822442121
DLR-2-1,9.215658452754102
DLR-200-1,7.219118763904603
DLR-201-1,8.028333990793934
DLR-202-1,7.688582605766991
DLR-205-1,9.52002504619328
DLR-207-1,6.075282680426504
DLR-208-1,7.361946823452344
DLR-21-1,8.412222736307655
DLR-210-1,7.206998935596599
DLR-211-1,8.33388168173593
DLR-217-1,7.375465154688257
DLR-22-1,8.153887545099584
DLR-222-1,6.855942630474075
DLR-224-1,7.001900607229761
DLR-225-1,6.6981024723237805
DLR-226-1,6.949881126867804
DLR-227-1,6.697654186870159
DLR-229-1,7.57194441392366
DLR-23-1,8.171863776699643
DLR-231-1,7.025677695264235
DLR-233-1,6.827109353841332
DLR-2330-1,6.275216447018496
DLR-2331-1,6.068358971943228
DLR-2332-1,4.8279030374758065
DLR-2338-1,7.153989369566501
DLR-2340-1,6.406143678051926
DLR-2341-1,6.381887755102041
DLR-2342-1,6.311328125
DLR-2343-1,5.787370994024987
DLR-2344-1,5.262755473406477
DLR-2346-1,7.251830378272109
DLR-2347-1,6.713771929824562
DLR-2349-1,8.978357030015797
DLR-235-1,6.952814180378017
DLR-2352-1,4.5108859856919
DLR-2353-1,6.313789382822616
DLR-2356-1,8.861813529189478
DLR-2357-1,6.825565843621399
DLR-2358-1,4.703238565756973
DLR-236-1,7.408452634868957
DLR-2360-1,6.439680603948896
DLR-2362-1,5.693251373120106
DLR-2364-1,6.618569973097203
DLR-2366-1,8.331470264379707
DLR-2367-1,7.5829648570218176
DLR-2368-1,6.378178976696797
DLR-2369-1,9.425800543226748
DLR-237-1,7.3886890664551474
DLR-2370-1,5.7327474772854945
DLR-2371-1,5.569469188735683
DLR-2372-1,6.432207550363977
DLR-2373-1,7.198578118132669
DLR-2376-1,5.600712927756654
DLR-2377-1,7.733059210526318
DLR-2379-1,5.291371391076116
DLR-238-1,6.9861241240255305
DLR-2382-1,6.685209713024281
DLR-240-1,8.146861074986276
DLR-244-1,7.520083872168994
DLR-2441-1,6.118902439024389
DLR-246-1,7.190724942908791
DLR-247-1,6.478359367837169
DLR-249-1,7.298778163896675
DLR-25-1,8.578659985182084
DLR-250-1,9.053674236805895
DLR-251-1,7.627407551124245
DLR-252-1,6.710419929150989
DLR-253-1,7.280119566136679
DLR-254-1,7.832317171402274
DLR-256-1,8.615424895259471
DLR-257-1,7.575710958036993
DLR-263-1,6.904780811213527
DLR-264-1,6.849153324890126
DLR-266-1,6.589712992434309
DLR-267-1,6.6155813238512495
DLR-269-1,7.597972634100186
DLR-27-1,8.862026218868564
DLR-274-1,6.905150108141167
DLR-275-1,8.088538202083877
DLR-276-1,6.989794710240256
DLR-279-1,6.919648533944293
DLR-28-1,7.534965748510463
DLR-282-1,6.20329947960405
DLR-285-1,8.234981721359436
DLR-286-1,7.143791342818361
DLR-289-1,7.362403495490948
DLR-29-1,7.299605847234484
DLR-290-1,9.12735464209836
DLR-307-1,7.201427738927739
DLR-31-1,8.013510192210582
DLR-314-1,8.438326493973744
DLR-316-1,6.583232241642927
DLR-317-1,6.815109072756906
DLR-321-1,5.977512877391325
DLR-322-1,8.492548116187496
DLR-324-1,8.13389081484599
DLR-325-1,7.481408798241896
DLR-326-1,9.337414995461366
DLR-327-1,7.726834024413875
DLR-33-1,7.354476664781583
DLR-35-1,6.11347371043803
DLR-365-1,7.645790972669723
DLR-37-1,7.779085783706434
DLR-376-1,8.7
DLR-38-1,7.965844715914138
DLR-386-1,9.122003859536854
DLR-39-1,7.08497471674113
DLR-391-1,7.7622745168959675
DLR-394-1,7.699999999999999
DLR-4-1,8.086474383611078
DLR-407-1,7.510443304541563
DLR-409-1,7.216562658473133
DLR-414-1,8.150303434825206
DLR-415-1,7.377860508921257
DLR-426-1,6.917677028515435
DLR-429-1,5.374650635781385
DLR-430-1,7.127097479971544
DLR-433-1,7.511713576083779
DLR-435-1,6.493021014578736
DLR-437-1,6.4002126536609785
DLR-444-1,5.785130278526505
DLR-445-1,5.720995706102795
DLR-452-1,8.152602163668684
DLR-465-1,6.249664256198348
DLR-472-1,7.298023045639404
DLR-48-1,6.60774244302021
DLR-489-1,8.724553603529461
DLR-496-1,8.2552534483168
DLR-50-1,7.048726023578663
DLR-500-1,8.99044236758677
DLR-501-1,6.664975020159665
DLR-504-1,7.762189897747609
DLR-505-1,7.160547143354529
DLR-508-1,7.520116419918896
DLR-510-1,8.338098061303135
DLR-511-1,6.919592414411519
DLR-513-1,7.474941068842008
DLR-516-1,6.737413525995152
DLR-517-1,6.728009432587152
DLR-519-1,7.038727949992019
DLR-526-1,8.267638162283262
DLR-535-1,8.522184472806929
DLR-536-1,8.129003166561114
DLR-537-1,6.8320564849459275
DLR-539-1,8.660895002049891
DLR-543-1,6.706543352358937
DLR-544-1,5.991761751048404
DLR-547-1,6.302988092646137
DLR-548-1,9.046955064927964
DLR-549-1,7.227758101995313
DLR-550-1,7.652375192354974
DLR-581-1,7.378991636849264
DLR-582-1,7.905427953419867
DLR-591-1,6.765549564496058
DLR-592-1,8.08128399024758
DLR-6-1,8.2350109376509
DLR-603-1,8.884800140936688
DLR-604-1,6.626095498333351
DLR-627-1,9.892242228667602
DLR-630-1,7.214515893307108
DLR-637-1,8.616183622020678
DLR-64-1,5.599068550554631
DLR-646-1,6.15145370504687
DLR-65-1,7.932558222603229
DLR-66-1,7.509425089686406
DLR-668-1,4.582898692062807
DLR-67-1,7.318313047037107
DLR-672-1,8.17934379168829
DLR-673-1,7.525045545404669
DLR-675-1,6.199273347835124
DLR-676-1,8.688462600251944
DLR-678-1,6.333575905461848
DLR-693-1,6.669556487476936
DLR-694-1,8.855915551096489
DLR-695-1,8.675626664036189
DLR-698-1,9.004452168156241
DLR-699-1,8.450321085814402
DLR-7-1,9.945623577808785
DLR-703-1,6.68066435861596
DLR-706-1,7.35082942136948
DLR-708-1,7.2620623490309475
DLR-711-1,4.138787266010567
DLR-712-1,7.52437558760029
DLR-715-1,8.173936717517353
DLR-72-1,8.580428020083023
DLR-725-1,6.633969122746146
DLR-727-1,7.838512363115303
DLR-73-1,9.574252115022961
DLR-730-1,9.057853268707367
DLR-733-1,8.805833002253218
DLR-738-1,7.768461909095775
DLR-739-1,7.26271945806562
DLR-74-1,8.13574406223444
DLR-75-1,6.890449579831934
DLR-76-1,6.714566983254186
DLR-763-1,5.770004765581195
DLR-78-1,6.397927049196446
DLR-782-1,6.128589060140189
DLR-789-1,7.822009202453989
DLR-79-1,6.190632864996945
DLR-790-1,7.779332806473081
DLR-80-1,6.46883945632485
DLR-807-1,7.631540285541842
DLR-809-1,6.146606862160549
DLR-814-1,5.489638262179014
DLR-815-1,7.337821900021639
DLR-82-1,8.364941894247531
DLR-827-1,8.013880813953486
DLR-83-1,8.265549600992257
DLR-840-1,7.930977164487535
DLR-841-1,8.640636194737874
DLR-85-1,7.444680573388874
DLR-853-1,8.303841476571685
DLR-86-1,8.347848182207017
DLR-860-1,8.12420515796842
DLR-875-1,8.195520478189977
DLR-876-1,8.300000000000002
DLR-880-1,6.8742967159535695
DLR-885-1,8.257161221803935
DLR-888-1,6.782808716707021
DLR-89-1,7.544956447231876
DLR-90-1,8.175091932288161
DLR-905-1,6.633364887048728
DLR-909-1,8.025732638313743
DLR-911-1,6.262560105745623
DLR-916-1,6.62084259440802
DLR-917-1,7.8999999999999995
DLR-92-1,5.362288696034157
DLR-923-1,8.650049183770044
DLR-924-1,8.022547237080484
DLR-928-1,9.387528706839715
DLR-930-1,8.693146751125107
DLR-936-1,6.584215609368268
DLR-938-1,5.586753170299896
DLR-942-1,6.3782505155595
DLR-945-1,5.457006369426752
DLR-946-1,5.2367918293992135
DLR-95-1,8.994682947123614
DLR-955-1,6.144753833736884
DLR-956-1,6.621830576596073
DLR-96-1,8.681014112272456
DLR-964-1,6.095803949224258
DLR-968-1,6.67215929850201
DLR-969-1,6.2883454734651405
DLR-970-1,6.305758054024616
DLR-971-1,7.302143523263438
DLR-972-1,5.573737394374448
DLR-973-1,6.976739758403363
DLR-98-1,8.03548660354939
DLR-984-1,5.988616552123962
DLR-992-1,6.022933884297521
DLR-994-1,5.781056164846564
DLR-996-1,8.898046463386137
DLR-998-1,9.748783200127836
DLR-999-1,7.5
EIE-401-1,7.299999999999999
EIL-1-1,7.792509136565602
EIL-15-1,8.32597916267703
EIL-16-1,8.495603839236267
EIL-17-1,7.87571669874101
EIL-18-1,7.200764740753531
EIL-19-1,8.223253460208966
EIL-2-1,7.846266912751156
EIL-20-1,8.403461309808236
EIL-21-1,8.474015055667461
EIL-22-1,8.528134373275705
EIL-23-1,7.6031070515298245
EIL-24-1,8.091372602916191
EIL-25-1,8.966812090927696
EIL-26-1,8.857160814175636
EIL-27-1,8.759626487298922
EIL-28-1,8.77699722826384
EIL-3-1,8.238066143392182
EIL-31-1,8.5742172003411
EIL-33-1,7.529276349926105
EIL-34-1,7.969787572272352
EIL-35-1,8.319518431718702
EIL-36-1,8.168630423589269
EIL-38-1,7.276255000367476
EIL-4-1,8.402970046451534
EIL-40-1,6.619745784442425
EIL-42-1,7.966043788148173
EIL-44-1,8.341960843123768
EIL-46-1,8.19772417408548
EIL-48-1,8.199822075225475
EIL-5-1,8.138264586568289
EIL-50-1,6.715668219209947
EIL-51-1,5.846344339622642
EIL-53-1,8.536592595211683
EIL-55-1,8.48015657283928
EIL-56-1,5.791873430564762
EIL-58-1,8.578185620081786
EIL-59-1,8.832437814588348
EIL-6-1,8.062487625952844
EIL-62-1,8.02041560951559
EIL-63-1,7.770004562458547
EIL-64-1,8.328706618539004
EIL-65-1,8.67559603530498
EIL-66-1,8.465023288405
EIL-68-1,9.046455782963449
EIL-69-1,8.80777979552314
EIL-7-1,7.89824855442085
EIL-71-1,8.325729756084897
EIL-72-1,8.463535443615479
EIL-75-1,8.744113761844442
EIL-76-1,8.543139596063238
EIL-77-1,8.53340734834119
EIL-78-1,8.203707858482236
EIL-79-1,8.390095115584469
EIL-80-1,8.306667117632296
EIL-82-1,8.7319248948583
EIL-83-1,8.37535948899233
EIL-84-1,5.683658671787368
EIR-1000-1,9.007728028049339
EIR-1001-1,8.971821148202565
EIR-1002-1,7.028845513182509
EIR-1003-1,8.577103222688502
EIR-1004-1,7.285416756271566
EIR-1005-1,7.72076632765522
EIR-9001-1,7.680080521684622
EIR-9002-1,7.941640206158445
EIR-9003-1,8.700023631950167
EIR-9004-1,7.680387460293653
EIR-9005-1,7.027543527420444
EIR-9006-1,7.3624709647030615
EIR-9007-1,7.4409834484435535
EIR-9008-1,6.880720372834588
EIR-9009-1,6.058970333514325
EIR-9012-1,8.479834151433902
EIR-9013-1,8.620302324495011
EIR-9014-1,7.274741928316164
EIR-9015-1,7.701920083932217
EIR-9016-1,8.842851973007317
EIR-9017-1,9.000381377323253
EIR-9019-1,7.229918103576734
EIR-9020-1,8.048432565805198
EIR-9022-1,9.011371756061534
EIR-9023-1,7.081219722411807
EIR-9024-1,8.10632631822311
EIR-9025-1,6.590990113342805
EIR-9027-1,8.900750828077463
EIR-9028-1,9.268494755503195
EIR-9030-1,9.331352916115062
EIR-9031-1,8.800937155137634
EIR-9034-1,9.181702071556579
EIR-9035-1,8.704331967323037
EIR-9037-1,7.944806814753886
EIR-9042-1,8.8188233842781
EIR-9043-1,8.795824937449076
EIR-9044-1,5.119931445414032
EIR-9046-1,8.520218318846092
EIR-9047-1,7.6724100990321995
EIR-9048-1,8.220342337651196
EIR-9049-1,7.938007860240592
EIR-9050-1,8.404922535551934
EIR-9052-1,8.504481859632671
EME-9008-1,8.795620148985448
ESH-6000-1,7.900081847159616
ESH-6001-1,8.14947809241396
ESH-6002-1,6.453689239547707
ESH-6003-1,7.987385655138753
ESH-6004-1,6.497821095513788
ESH-6005-1,7.707235437626777
ESH-6007-1,7.480084830800081
ESH-6010-1,9.077685729057169
ESH-6012-1,4.906545121226546
ESH-6013-1,5.069394041174735
ESH-6014-1,4.704271222854886
ESH-6015-1,5.587893895441754
ESH-6016-1,7.933004158137119
ESH-6017-1,8.820487929711224
ESH-6019-1,5.797402842563143
ESH-6020-1,8.54516628774975
FSE-184-1,8.395288303933764
FSE-200-1,8.142925185267094
FSE-210-1,6.656756658334101
FSE-223-1,8.745208832345126
FSE-235-1,8.876202689961852
FSE-273-1,7.243438594315154
FSE-31-1,8.681058536042597
FSE-43-1,8.665593405075768
FSE-81-1,5.207972665148063
GAY-6002-1,8.978456569754554
GCL-9000-1,7.464420428783913
GCL-9001-1,8.928313696419362
GCL-9002-1,6.828988091903422
GCL-9004-1,5.516244932437158
GCL-9006-1,8.121910167675674
GCL-9007-1,7.059951806488843
GCL-9008-1,7.04773134998069
GCL-9009-1,6.13598861267755
GRU-121-1,8.699999999999998
GRU-158-1,9.899999999999999
GRU-188-1,8.901555331997756
GRU-197-1,9.6
GRU-299-1,8.423349266714874
GRU-313-1,8.240264605871893
GRU-319-1,6.889335510257487
GRU-331-1,6.019402610919351
GRU-36-1,7.207710280373833
GRU-388-1,8.896956192572034
GRU-58-1,8
GRU-62-1,5.920017837576293
GULLY-64-1,9.237873374663788
GULLY-66-1,9.04357566168626
GULLY-73-1,8.887442458621825
HRT-1-1,8.50255289258134
HRT-10-1,7.35934628099727
HRT-11-1,7.656808882315449
HRT-12-1,7.248608551361044
HRT-13-1,6.750525129877959
HRT-3-1,6.800122444768999
HRT-4-1,7.105643626034133
HRT-5-1,7.194113578790865
HRT-6-1,7.2086088027510815
HTC-9000-1,8.908766110341427
HTC-9001-1,8.462394085754097
HTC-9002-1,8.8218158051659
HTC-9003-1,8.344354365779015
HTC-9005-1,6.615505521872314
HTC-9006-1,5.722110925681026
HTN-9000-1,9.025261109001248
HTN-9001-1,6.792186001674382
HTN-9002-1,6.953037980809159
HTN-9003-1,7.101493258950288
HTN-9004-1,7.800429333280015
HTN-9005-1,8.086521144834892
HTN-9006-1,9.543196489566645
HTN-9008-1,6.723999525865845
HTN-9009-1,9.028183890102513
HTN-9010-1,8.938336335521225
HTN-9011-1,7.05199945060328
HTR-9001-1,9.28533916347265
HTR-9002-1,7.753978250984907
HTR-9003-1,8.76292652077111
HTR-9004-1,8.892590101015294
HTR-9005-1,7.789301412330938
HTR-9008-1,8.126117632410093
HTR-9009-1,6.528292670214498
HTR-9010-1,6.156401277934996
HTS-152-1,9.754026566568315
HTS-153-1,9.270315489170434
HTS-161-1,9.697821315051865
HTS-195-1,8.639948959561426
HTS-204-1,8.89653440957194
HTS-208-1,8.335156368328658
HTS-209-1,8.883217116389067
HTS-323-1,9.144123718968807
HTS-328-1,7.394937408334694
HTS-372-1,9.569693301358729
HTS-381-1,9.639114869124235
HTS-392-1,9.470775330631788
HTS-393-1,9.144979949325952
HTS-397-1,8.40383638229575
HTS-399-1,9.284498595246054
HTS-402-1,7.88962654390195
HTS-460-1,9.289230358198726
HTS-470-1,9.625299820602345
HTS-571-1,6.714091240030005
HTS-596-1,8.12129692782568
HTS-608-1,8.936434816998194
HTS-660-1,7.643123925934317
HTS-9001-1,9.378974577578811
HTS-9002-1,8.659913135406079
HTS-9003-1,6.841554797131253
HTS-9004-1,9.100021515725093
HTS-9005-1,7.319788489428404
HTS-9006-1,7.9336922505394405
HTS-9007-1,6.114990737191718
HTS-9008-1,8.784146910118379
HTS-9009-1,8.173739960991357
HTS-9010-1,9.346704741697902
HTS-9011-1,9.374650282215088
HTS-9012-1,7.681976313173703
HTS-9013-1,9.79634302233145
HTS-98-1,8.871029635543193
INK-8000-1,8.911317420645393
INK-8001-1,8.855158728691492
INK-8002-1,7.37824387865425
INK-8003-1,6.759947976104512
INK-8004-1,8.166618628319698
INK-9000-1,8.987216779861544
INK-9001-1,8.558661649980762
INK-9002-1,9.30184360120684
INK-9003-1,8.370962880255451
INK-9004-1,8.145653270844955
INK-9005-1,8.898284821644204
INK-9006-1,8.496047798274516
INK-9007-1,9.207732254289303
INK-9008-1,9.049383066733649
INK-9009-1,9.00377789701762
INK-9010-1,8.61341018548891
INK-9013-1,9.188676197205064
INK-9014-1,9.090164521449806
IPB-1-1,8.284266599875158
IPB-10-1,7.771566448428437
IPB-2-1,7.696683260890779
IPB-4-1,7.22079580434407
IPB-5-1,8.16507731002941
IPB-6-1,9.195875759948711
IPB-7-1,7.477025797891871
IPB-8-1,9.028166383773447
IPB-9-1,8.077884970391874
JFD-9000-1,6.3481530734810425
JFD-9001-1,8.803285438929533
JFD-9003-1,7.242331920966832
JFD-9004-1,7.571607494394338
JFD-9005-1,6.714056566831414
JFD-9006-1,6.3498755484053735
JFD-9007-1,8.045042247182801
JFD-9008-1,6.760795208126714
JFD-9009-1,6.6039777318723525
JFD-9010-1,8.355593178594093
JFD-9011-1,8.349556488063392
JFD-9012-1,5.498473254648574
KAI-6001-1,7.300426161056872
KAI-6004-1,6.2726197345239
KAI-6006-1,5.905721613005485
KCM-9001-1,8.602854553202494
KCM-9002-1,7.807874452136851
KCM-9005-1,8.745169387724514
KCM-9006-1,8.938695616215727
KCM-9007-1,8.400448881180642
KCM-9008-1,7.799573221402498
KCM-9009-1,9.000343645535253
KCM-9010-1,8.819992719317298
KCM-9011-1,5.664745354242579
KCM-9012-1,5.337561551057642
KCM-9013-1,8.399959727719313
KCM-9014-1,7.4243854318237865
KCM-9015-1,8.060136435116533
KCM-9016-1,7.86942954497534
KCM-9017-1,8.23874161829476
KCM-9019-1,8.544388197633095
KCM-9022-1,5.241422096014825
KCM-9024-1,8.315336319843837
KCM-9027-1,8.901456236530194
KCM-9028-1,8.832926440154894
KCM-9029-1,8.964913032317261
KCM-9030-1,4.7700017169401345
KCM-9031-1,8.966154744598812
KCM-9032-1,8.241210971616397
KCM-9033-1,7.611369218926676
KCM-9035-1,8.999999999843727
KCM-9036-1,7.883786985359975
KCM-9040-1,8.749435959382039
KCM-9041-1,8.560944203216842
KCM-9042-1,8.774964835554309
KCM-9043-1,8.80060173976955
KCM-9044-1,7.678788471302241
KCM-9045-1,8.600000579710304
KCM-9046-1,8.558675010378703
KCM-9047-1,7.188279381530582
KCM-9050-1,7.4540094339622645
KCM-9051-1,8.740833004801322
KCM-9052-1,4.236401482515183
KCM-9053-1,7.7478698812900655
KCM-9054-1,8.701877073935316
LAK-9000-1,6.783500470257727
LAK-9001-1,6.29074727587014
LAK-9002-1,6.727887413313272
LAK-9003-1,6.493759909349213
LAK-9004-1,7.310610997171483
LAK-9005-1,6.850698460937225
LAK-9006-1,7.526270787318287
LDR-9000-1,9.005343450249354
LDR-9001-1,8.078259255258626
LDR-9003-1,8.986976618072541
LDR-9004-1,9.307322825020854
LDR-9005-1,9.223227386857697
LDR-9006-1,8.91963785299057
LFZ-11-1,6.6999999999999975
LFZ-125-1,5.3
LFZ-127-1,6.3
LFZ-128-1,7.400000000000001
LFZ-129-1,5.5
LFZ-145-1,6.099999999999999
LFZ-152-1,7.199999999999999
LFZ-17-1,7.720963172804533
LFZ-228-1,6.999999999999997
LFZ-231-1,8.299999999999997
LFZ-270-1,8
LFZ-275-1,6.5
LFZ-3-1,6.909277620396602
LFZ-30-1,8.991933497536946
LFZ-307-1,7.399999999999998
LFZ-309-1,8.48386699507389
LFZ-310-1,7.699999999999999
LFZ-334-1,8.9
LFZ-374-1,6.3999999999999995
LFZ-382-1,6
LFZ-450-1,8.102993499213959
LFZ-451-1,9.195966748768472
LFZ-453-1,8.199999999999996
LFZ-454-1,5.999999999999998
LFZ-455-1,5.043534482758621
LFZ-459-1,8.58499963273884
LFZ-460-1,8.887889741092732
LFZ-461-1,8.968017578125
LFZ-462-1,5.691102216748769
LFZ-464-1,9.054100046681667
LFZ-467-1,6.933735537825059
LFZ-468-1,6.525671545991809
LFZ-471-1,8.179853409072306
LFZ-472-1,8.595245951105266
LFZ-473-1,8.740573646211173
LFZ-487-1,6.46257893487095
LFZ-488-1,7.551354673843105
LFZ-489-1,8.162478761160923
LFZ-490-1,8.300399141752365
LFZ-491-1,8.799490371139381
LFZ-494-1,6.902366480837793
LFZ-496-1,7.134129301060029
LFZ-497-1,8.510239721503124
LFZ-499-1,8.818644716684632
LFZ-50-1,8.599999999999996
LFZ-500-1,3.748719441807752
LFZ-502-1,7.9000598914521145
LFZ-503-1,5.419155621435998
LFZ-504-1,7.4524573334380495
LFZ-505-1,8.695185779485424
LFZ-506-1,8.679649274869295
LFZ-507-1,6.302707455611894
LFZ-58-1,7.399999999999998
LFZ-6-1,7.420874645892352
LFZ-60-1,8
LFZ-80-1,7.199999999999999
LFZ-98-1,9.15504385964912
LIA-15-1,6.771735241502683
LIA-194-1,8.497942913347577
LIA-195-1,7.093334156046877
LIA-211-1,6.802674791856817
LIA-261-1,6.799778665867098
LIA-267-1,6.8247064641375
LIA-86-1,5.61268180669011
MAK-106-1,6.599142741379431
MAK-13-1,6.338355819817483
MAK-37-1,5.1442427742663615
MAK-38-1,5.749864238844067
MBN-54-1,8.092959279763596
MBN-6-1,8.473866179261497
MBP-6006-1,5.879215149799299
MCL-9000-1,6.072205871700135
MCL-9001-1,6.586279579190225
MCL-9002-1,9.486141880432614
MCL-9003-1,6.368338590760977
MCL-9004-1,8.016287531399598
MCL-9005-1,6.207335051932132
MCL-9006-1,7.740283149844024
MCL-9007-1,7.103340794967714
MCL-9008-1,6.489969099953951
MCL-9009-1,6.865451591646209
MCL-9010-1,5.681806990463563
MCL-9011-1,5.5722843004567615
MCL-9013-1,6.150122960827881
MCL-9014-1,6.0025108931198465
MCL-9015-1,6.726539657981103
MCL-9016-1,6.3795783703625375
MCL-9017-1,5.3835345549932425
MCL-9018-1,5.881822683850901
MCL-9019-1,6.499325279916136
MCL-9020-1,5.881129638869627
MCL-9022-1,6.219685451128427
MCL-9023-1,7.464120744191092
MCL-9024-1,6.626028502716857
MCL-9025-1,6.057916067531586
MCL-9026-1,6.3174145391589
MCL-9027-1,5.671834512075673
MCL-9028-1,7.302988503621306
MCL-9029-1,6.608883134627256
MCL-9030-1,6.078358163596043
MCL-9031-1,5.624769317212352
MCL-9032-1,9.828027140027213
MCL-9033-1,5.381602211208673
MCL-9034-1,5.202156683240936
MCL-9035-1,5.794545505941541
MCL-9036-1,6.400342149397255
MCL-9037-1,4.91991179447367
MCL-9038-1,5.56024913832423
MCL-9039-1,5.8694084221628335
MCL-9040-1,5.522426731516945
MCL-9041-1,5.986083511388247
MCL-9042-1,5.679091229705441
MCL-9043-1,5.498271524525977
MCL-9044-1,5.09944154162683
MCL-9045-1,5.638289856140315
MCL-9046-1,5.756446241366449
MCL-9047-1,6.314640361256847
MCL-9048-1,5.6975579365645865
MCL-9049-1,6.147112678979213
MCL-9050-1,8.13294470531731
MCL-9051-1,5.1785569819725685
MCL-9052-1,7.15185300519946
MCL-9053-1,6.474097336273346
MCL-9054-1,5.79029512903629
MCL-9055-1,6.846354028238024
MCL-9057-1,5.312967389947428
MCL-9058-1,5.861064952150164
MCL-9059-1,6.952954253677169
MCL-9060-1,6.093723050894159
MDIA-1107-1,6.564740405922864
MDIA-1108-1,6.393533297073439
MDIA-1109-1,6.601343529726325
MDIA-1130-1,8.199999999999998
MDIA-1238-1,8.436063614324715
MDIA-401-1,6.907467864080135
MDIA-404-1,6.476330766476202
MDIA-408-1,8.666524214806534
MDIA-409-1,6.991530481407446
MDIA-410-1,6.883391411961869
MDIA-412-1,7.206111121393827
MDIA-413-1,6.6013690363524695
MDIA-414-1,6.702575874163934
MDIA-415-1,6.412229588542577
MDIA-416-1,6.439364153535057
MDIA-417-1,6.6034456613278705
MDIA-418-1,6.722312368887094
MDIA-421-1,6.679141402644212
MDIA-423-1,6.582610492513899
MDIA-424-1,6.50164534587119
MDIA-425-1,6.384400275754248
MDIA-426-1,6.6796347667223674
MDIA-427-1,6.178692968480748
MDIA-428-1,5.751311669090445
MDIA-434-1,8.73688027364669
MDIA-435-1,6.408182631050591
MDIA-436-1,6.25856741369447
MDIA-437-1,6.747731135458166
MDIA-445-1,6.3980878378118335
MDIA-446-1,6.875099471217161
MDIA-447-1,7.11000570525024
MDIA-449-1,6.900148356460396
MDIA-450-1,6.8046690078421515
MDIA-451-1,6.820040596146133
MDIA-452-1,5.761542696685972
MDIA-453-1,6.34587574857868
MDIA-454-1,6.203276792613058
MDIA-455-1,6.089724849996472
MDIA-458-1,6.1809269134127485
MDIA-459-1,5.991094423229567
MDIA-705-1,7.3999999999999995
MDIA-727-1,6.99613380448975
MDIA-733-1,7.392302065499442
MDIA-735-1,7.187566889349776
MDIA-737-1,6.8138746020579335
MDIA-743-1,6.09928123576366
MDIA-755-1,6.196297225305217
MDIA-761-1,7.477182191934917
MDIA-887-1,8.617692101764346
MGR-9001-1,8.702459458935325
MGR-9002-1,9.174355811620083
MGR-9003-1,9.032619528791086
MGR-9004-1,7.313206113024352
MGR-9005-1,9.03321231870302
MGR-9007-1,7.104988980566822
MGR-9008-1,6.770061599421454
MHB-386-1,3.575757485184042
MHB-448-1,5.230230225523346
MHB-449-1,4.4999326452862025
MHB-450-1,4.90449581016867
MHB-451-1,5.231820698801902
MHB-558-1,6.315077681928228
MHB-57-1,5.238129882070039
MIPS-1-1,6.329176442784265
MIPS-19-1,4.548546074818416
MIPS-2-1,5.224273761292909
MIPS-47-1,5.434242342000191
MIPS-55-1,5.710176088520967
MISCQ-300-1,7.101096911115871
MISCQ-301-1,7.320496710790539
MISCQ-304-1,7.20730184641645
MISCQ-305-1,7.540008479454836
MISCQ-306-1,6.581575169916498
MISCQ-307-1,6.748423810414931
MISCQ-308-1,7.330502592978208
MISCQ-309-1,6.155352735298444
MISCQ-311-1,7.740866246902352
MISCQ-42-1,6.076361355112556
MISCQ-44-1,6.422373839242169
MISCQ-45-1,5.760922098727609
MISCQ-49-1,6.120468641403685
MISCQ-50-1,4.874122857397378
MISCQ-54-1,5.845944354260743
MISCQ-56-1,6.826259328527123
MISCQ-58-1,7.067054914572546
MISCQ-66-1,7.247193027724573
MISCQ-67-1,9.056297289556861
MISCQ-68-1,6.513597544433903
MISCQ-69-1,8.488288327571098
MISCQ-70-1,8.6560489436468
MISCQ-71-1,8.919350584057137
MISCQ-72-1,8.952900600839389
MISCQ-73-1,8.437374061227725
MISCQ-74-1,7.782510881303456
MISCQ-75-1,6.939794983218726
MISCQ-76-1,8.988488843761639
MISCQ-77-1,8.07437648355276
MISCQ-78-1,6.2492575929148195
MISCQ-79-1,5.010728248846804
MISCQ-80-1,7.656181335888914
MISCQ-81-1,7.329935829837311
MISCQ-82-1,8.857241254181464
MISCQ-83-1,7.658316348022167
MISCQ-84-1,7.03452988388449
MISCQ-85-1,6.9237444295595605
MISCQ-86-1,7.2991830450028745
MISCQ-87-1,6.218890251797857
MISCQ-88-1,7.883575504702601
MISNQ-10-1,8.805155930028477
MISNQ-101-1,4.7724527579193685
MISNQ-102-1,5.451117831172002
MISNQ-103-1,5.852733898379841
MISNQ-109-1,5.902482269167326
MISNQ-11-1,9.426057999810745
MISNQ-115-1,5.756397131546209
MISNQ-128-1,5.300500155327968
MISNQ-139-1,4.7000585901139615
MISNQ-145-1,8.14306530669787
MISNQ-147-1,7.438057406694053
MISNQ-162-1,5.46558621226969
MISNQ-163-1,5.147394931854607
MISNQ-164-1,4.787243789537737
MISNQ-166-1,5.160908972922518
MISNQ-167-1,5.039625850393839
MISNQ-170-1,5.1869418960044404
MISNQ-171-1,5.042975013139625
MISNQ-172-1,4.917542698303668
MISNQ-175-1,5.040695580094385
MISNQ-177-1,4.053559355485652
MISNQ-178-1,5.0735753289974355
MISNQ-179-1,5.004429453319483
MISNQ-181-1,4.94494179833498
MISNQ-183-1,4.58920890658512
MISNQ-185-1,4.901947991006786
MISNQ-186-1,5.496229094947862
MISNQ-189-1,4.899030666470172
MISNQ-191-1,5.451219929923795
MISNQ-192-1,5.423773413221071
MISNQ-195-1,5.660040823816979
MISNQ-197-1,5.2282140536132875
MISNQ-203-1,5.099218951395587
MISNQ-206-1,6.385749367057298
MISNQ-208-1,5.105267906658835
MISNQ-209-1,4.402288662446909
MISNQ-210-1,5.685227503099005
MISNQ-212-1,4.309771398283332
MISNQ-219-1,5.297504493426406
MISNQ-6-1,9.282600803158612
MISNQ-8-1,8.795237588951649
MISSE-101-1,5.039272558482027
MISSE-102-1,7.004670457913457
MISSE-111-1,8.273019180474952
MISSE-150-1,7.736203299768955
MISSE-151-1,9.060530572622103
MISSE-162-1,7.791774701223811
MISSE-163-1,8.116753697094566
MISSE-164-1,7.344352046275635
MJA-6000-1,4.283307096976332
MJA-6001-1,5.09937414936223
MJA-6003-1,5.872170394614041
MJA-6004-1,4.576613391243713
MJA-6005-1,4.94720533930726
MJA-6006-1,5.360518618040836
MJA-6007-1,5.553825494888568
MJA-6010-1,5.665692571714896
MJA-6011-1,4.429910658528693
MJA-6012-1,5.017318165161635
MJA-6014-1,5.514130991616329
MJA-6015-1,4.814218875667119
MJA-6018-1,4.8542274105897505
MJA-6021-1,4.399711861841743
MJA-6022-1,5.208990404644087
MJA-6023-1,4.780991331994467
MJA-6024-1,5.634044797060331
MLG-9000-1,8.473391821435676
MLG-9001-1,8.415343733455913
MLG-9002-1,7.450617231888847
MLG-9003-1,8.619871025593996
MLG-9004-1,7.956229301482673
MLG-9005-1,7.001305500897861
MLG-9006-1,5.957382111487097
MLG-9007-1,7.901635095242922
MLG-9008-1,7.289733903604737
MLG-9009-1,8.857113410965725
MLG-9010-1,8.406630224652986
MLG-9011-1,8.960277124706726
MLG-9012-1,8.573711771476932
MON-6000-1,4.618329570149538
MON-6001-1,5.0456406739545
MON-6002-1,7.066347343337452
MON-6003-1,8.559698926597841
MON-6005-1,6.644064363754113
MON-6006-1,5.456976246729172
MON-6007-1,5.369259851339273
MON-6009-1,6.176873535565645
MON-6010-1,6.399964903605082
MON-6011-1,6.156085035017488
MON-6012-1,5.599961791860765
MON-6013-1,5.700553952381315
MON-6014-1,4.658828042135316
MON-6015-1,4.297900770737
MON-6091-1,5.7671276164087715
MON-6092-1,7.925623995942926
MON-6093-1,8.70918966652242
MON-6094-1,7.3285703465555905
MON-6095-1,7.765860121456181
MRC-1058-1,5.546889854122275
MRC-1061-1,4.404006517800514
MRC-1072-1,8.234937667356387
MRC-1116-1,7.561827696146383
MRC-1117-1,5.206931437422523
MRC-22-1,4.252026265644323
MRC-233-1,6.836422996343911
MRC-268-1,7.620070473470844
MRC-313-1,5.636802132852347
MRC-36-1,5.707165645789506
MRC-372-1,7.343713511540364
MRC-515-1,4.6760883763330465
MRC-769-1,5.3872507651298625
MRC-830-1,5.3652617000908025
MRC-859-1,6.69515564323506
MRC-866-1,5.485419335898838
MRC-90-1,6.826155366296993
MRC-993-1,9.013387149647597
MSL-217-1,4.780811340524204
MTL-282-1,5.397926181414876
MTL-299-1,9.222704659125931
MTL-315-1,8.265624530472337
MTL-350-1,7.777654728744236
MTL-576-1,4.59631746183299
MTL-583-1,6.266245902331275
MTL-9000-1,5.102974588658748
MTL-9001-1,5.779086122249971
MTL-9002-1,5.09448432236715
MTL-9003-1,8.942101101813499
MTL-9004-1,6.896149861657715
MTL-9005-1,8.725669064107361
MTL-9006-1,6.324873168215838
NCD-10-1,8.232266009852218
NCD-1019-1,8.963579926472447
NCD-1020-1,9.004710529184635
NCD-1021-1,7.759867229393386
NCD-1023-1,8.159930902582978
NCD-1024-1,7.507495328846508
NCD-1026-1,8.036028907390769
NCD-1027-1,8.776540503393155
NCD-1028-1,8.57826440605524
NCD-1029-1,8.68214488786064
NCD-1030-1,7.987999630433757
NCD-1031-1,5.996414618491779
NCD-1032-1,9.542769724697624
NCD-1033-1,8.388130496876778
NCD-1034-1,8.365962590345
NCD-1035-1,7.1873923905907775
NCD-1036-1,4.9404665222277035
NCD-1037-1,8.52604071722302
NCD-1038-1,8.37029050136367
NCD-125-1,8.353695693613583
NCD-127-1,6.540151988499661
NCD-14-1,7.118226600985222
NCD-143-1,8.523454678111962
NCD-148-1,7.999999999999998
NCD-151-1,9.093685888189473
NCD-158-1,8.958471455673132
NCD-164-1,8.533163613273443
NCD-17-1,8.013924634762818
NCD-171-1,8.489427261953454
NCD-172-1,8.711120987110508
NCD-178-1,9.200872284225019
NCD-18-1,8.144538784585349
NCD-19-1,6.044943313511415
NCD-2-1,7.199999999999999
NCD-20-1,8.91613300492611
NCD-21-1,7.720663562281723
NCD-224-1,8.102489263565884
NCD-259-1,7.391694871322345
NCD-26-1,9.102801253786915
NCD-260-1,8.999269001248047
NCD-268-1,5.7333291467457626
NCD-27-1,8.89661788318124
NCD-272-1,7.9982880260729186
NCD-275-1,8.489043933339627
NCD-276-1,8.128843270034452
NCD-277-1,8.19584698618459
NCD-285-1,8.239463064066769
NCD-289-1,8.843500643500645
NCD-295-1,8.594238009837543
NCD-298-1,7.948297804176595
NCD-299-1,6
NCD-3-1,7
NCD-310-1,9.000096134771658
NCD-338-1,8.212398137369032
NCD-339-1,9.43501094979756
NCD-344-1,9.067590882975592
NCD-356-1,8.770558790454922
NCD-364-1,6.426097787231457
NCD-37-1,8.775626018309906
NCD-371-2,8.3
NCD-393-1,8.80249034291263
NCD-424-1,7.286311635297934
NCD-44-1,7.851293769798019
NCD-448-1,8.405798307001861
NCD-449-1,8.66006025982743
NCD-451-1,5.187988787057471
NCD-452-1,5.200494173901388
NCD-470-1,8.272060535506402
NCD-51-1,8.356030716224197
NCD-510-1,8.316037399448343
NCD-517-1,8.494758386855601
NCD-52-1,8.401189621533529
NCD-523-1,8.688038004743476
NCD-53-1,9.301397778592717
NCD-537-1,9.057195423708421
NCD-54-1,6.823063909465698
NCD-550-1,8.664466383734888
NCD-552-1,8.599781928943743
NCD-555-1,7.5207121806656145
NCD-557-1,7.923522866575334
NCD-558-1,9.1970506197098
NCD-559-1,8.699849315168617
NCD-56-1,8.5041340152871
NCD-57-1,8.701090355281275
NCD-574-1,6.8
NCD-58-1,8.403906943485108
NCD-587-1,7.962514551804422
NCD-59-1,8.800000000000002
NCD-598-1,7.005004996681364
NCD-6-1,7.1
NCD-620-1,8.449368262430214
NCD-623-1,8.296719420235137
NCD-629-1,7.863592846130682
NCD-642-1,8.635639630829411
NCD-653-1,6.524515327067781
NCD-655-1,7.3147928774691104
NCD-676-1,8.54877824773052
NCD-68-1,8.884551886792453
NCD-70-1,8.876827830188681
NCD-701-1,8.89687314122704
NCD-71-1,7.369161937176927
NCD-72-1,8.691441846923183
NCD-728-1,8.011330049261085
NCD-730-1,8.638584230228815
NCD-8-1,7.799999999999999
NCD-809-1,7.599999999999997
NCD-83-1,8.154274394345869
NCD-885-1,7.829556139576114
NCD-89-1,8.699998695385949
NCD-9-1,6.71178057553957
NCD-902-1,8.2
NCD-903-1,6.400000000000001
NHC-9000-1,6.698191582712305
NHC-9001-1,5.90770873896492
NHC-9002-1,6.468649622283792
NHC-9003-1,6.3890897511480125
NHC-9004-1,8.406335411623223
NHC-9005-1,8.000025256536404
NHC-9006-1,9.281105716225396
NHC-9007-1,9.175628587576707
NLH-9000-1,7.709857830934574
NLH-9001-1,7.993914065250596
NLH-9002-1,7.789413668352101
NLH-9003-1,7.343118028965189
NLH-9004-1,8.462949143333145
NLH-9005-1,8.216455769178744
NLH-9007-1,6.547772605863734
NLH-9008-1,8.702542748963808
NLH-9009-1,6.278337702698767
NLH-9010-1,7.27228184534486
NLH-9011-1,7.320661673379822
NLH-9012-1,8.89463929849141
NLH-9013-1,8.540785899318298
P2REEF-15-1,7.605007688628348
P2REEF-23-1,5.659777005624647
P2REEF-24-1,4.928574671166272
P2REEF-25-1,4.690325896391809
P2REEF-42-1,7.6626820812437195
P2REEF-43-1,7.204402591229475
P2REEF-44-1,4.5371502324102595
P2REEF-45-1,5.103376251253423
P2REEF-46-1,4.883300124795461
P2REEF-5-1,9.540435214581247
P2REEF-508-1,4.531655786440332
P2REEF-509-1,4.606396484375001
P2REEF-510-1,4.462122719047283
P2REEF-53-1,5.23343824916419
P2REEF-56-1,5.201528599317899
P2REEF-58-1,4.831324556232687
P2REEF-73-1,7.185235034483306
P2REEF-9-1,7.6684560167739315
P2REEF-94-1,7.817297932099272
P2REEF-96-1,6.6421874999999995
P2REEF-99-1,8.073232978796648
PCS-6000-1,7.469171201023095
PCS-6002-1,7.355378770352521
PCS-6003-1,6.907344717665966
PCS-6005-1,6.014776512287673
PCS-6009-1,6.455307912393287
PCS-6011-1,6.076091997903779
PCS-6012-1,6.571040797545273
PCS-6013-1,5.415002846647997
PCS-6014-1,7.616562471133827
PCS-6015-1,7.469933686250277
PCS-6017-1,6.101010844803919
PCS-6020-1,8.039793899219728
PCS-6021-1,7.049287437823898
PCS-6022-1,5.7396137606205135
PCS-6023-1,7.340773154592919
PCS-6024-1,6.103574041446808
PCS-6025-1,6.041656987676555
PCS-6026-1,8.042361104343428
PCS-6028-1,6.4026161662862355
PCS-6029-1,6.376492039353647
PCS-724-1,9.89902868533042
PCS-725-1,9.887052700827638
PCS-727-1,7.567735750397748
PLS-1-1,5.564269517271053
PLS-13-1,5.074965637069996
PLS-14-1,5.900048795685345
PLS-18-1,5.491362231287989
PLS-5-1,5.5362933904086535
PLS-7-1,9.600660572460194
PLS-8-1,5.897287849129922
QCS-76-1,7.630924122201799
RAV-6002-1,8.630425314185564
RAV-6003-1,5.0789859097556
RAV-6013-1,6.300864539536789
RAV-6015-1,6.465934930141376
RAV-6016-1,6.69439378328253
RAV-6017-1,6.8015213809540125
RAV-6018-1,6.88007156580169
RAV-6019-1,6.679623695331246
RAV-6022-1,5.858107013574392
RAV-6023-1,6.297915091210614
RAV-6024-1,4.982510176646706
RAV-6028-1,7.504092026271489
RAV-6029-1,6.1212734584340724
RAV-6033-1,6.7962852039949695
RAV-6036-1,7.167603237877722
RAV-6037-1,5.499991297444845
RAV-6038-1,8.292480476898207
RAV-6039-1,6.1398886696443
RUSS-38-1,5.001444846822182
RUSS-40-1,5.586113549561907
SALTC-349-1,9.053679534120894
SALTC-350-1,8.687689768178434
SALTC-351-1,8.524459231713866
SALTC-400-1,5.457741254502947
SALTE-738-1,6.208136948794691
SALTE-740-1,4.887480857956222
SALTE-741-1,5.19507376912394
SALTE-742-1,4.760237066078644
SALTE-744-1,7.128679961936514
SALTE-745-1,6.408231840286547
SALTE-746-1,8.632528752735276
SALTE-749-1,8.713904600236333
SALTN-504-1,7.933660922572352
SALTN-507-1,8.599533375569631
SALTN-508-1,8.122461287271838
SALTN-509-1,8.259543185814268
SALTN-510-1,7.727238762508592
SALTN-511-1,4.830537553032866
SALTN-514-1,5.535452881560874
SALTS-72-1,5.182370046711646
SAR-102-1,7.795036140063026
SAR-103-1,6.765360119617349
SAR-104-1,7.198621877158164
SAR-105-1,5.339382988091822
SAR-106-1,7.771007151252754
SAR-107-1,7.282012420539853
SAR-108-1,7.227680815858973
SAR-109-1,8.284929352296892
SAR-111-1,5.908745854524195
SAR-113-1,8.257425381435512
SAR-114-1,8.800000000000002
SAR-115-1,8.032032589491283
SAR-116-1,8.32034314802205
SAR-118-1,6.6999999999999975
SAR-120-1,8.68700457317073
SAR-123-1,8.432201142390863
SAR-125-1,5.9
SAR-126-1,8.75685975609756
SAR-127-1,7.460893353269557
SAR-130-1,9.9
SAR-131-1,8.843663537549407
SAR-132-1,8.299999999999997
SAR-133-1,7.120667199613744
SAR-135-1,6.741006210269926
SAR-136-1,6.4360040811253745
SAR-137-1,6.647857804359411
SAR-138-1,8.043532482598609
SAR-139-1,7.313471798780487
SAR-140-1,7.798818597560975
SAR-142-1,7.725602778912954
SAR-143-1,6.099999999999999
SAR-145-1,7.97346792009644
SAR-151-1,7.017955043859648
SAR-154-1,6.400000000000001
SAR-155-1,4.528848199994642
SAR-156-1,7.1541850220264305
SAR-158-1,7.016112055032945
SAR-160-1,6.900000000000001
SAR-162-1,5.1
SAR-163-1,7.221401697573941
SAR-166-1,6.736585365853657
SAR-169-1,6.831450177935941
SAR-174-1,7.957166641800156
SAR-175-1,5.400000000000001
SAR-176-1,6.668577075098814
SAR-181-1,4.899038461538462
SAR-182-1,5.305619959677419
SAR-183-1,6.2523962450592885
SAR-188-1,6.949601279072987
SAR-203-1,7.399266510417278
SAR-209-1,6.609971189197531
SAR-210-1,6.8969733159367825
SAR-213-1,6.276467595032398
SAR-215-1,6.000000000000001
SAR-216-1,7.574036813002067
SAR-221-1,6.255652508303999
SAR-226-1,9.061083793978185
SAR-227-1,8.707193805087995
SAR-230-1,8.11038759628765
SAR-233-1,6.482353998160598
SAR-235-1,7.092414246192002
SAR-241-1,6.844564613076313
SAR-248-1,5.940737398870429
SAR-253-1,7.243064706557473
SAR-256-1,7.190467625899282
SAR-265-1,7.869578929161245
SAR-270-1,7.545974114810502
SAR-279-1,7.454712886341254
SAR-600-1,8.4316792880407
SAR-601-1,9.136723352369383
SAR-602-1,7.805084874044183
SAR-603-1,4.897286812891828
SAR-604-1,7.023305249323221
SAR-605-1,9.577531918206219
SBNS-2-1,7.896067406131859
SBNS-3-1,8.680624131331422
SBNS-32-1,8.51681640579281
SBNS-4-1,8.541524668245842
SBNS-42-1,9.049636827241416
SBNS-47-1,8.388677604104798
SBNS-49-1,8.129706948455347
SBNS-52-1,8.449509254139095
SBNS-58-1,8.572907653003709
SBNS-6-1,9.097702564404603
SBNS-62-1,8.23267078652491
SBT-9000-1,6.571797270753431
SBT-9001-1,6.904377578687714
SBT-9002-1,6.6640681760769915
SBT-9003-1,6.098650904069612
SBT-9004-1,5.298793670488326
SBT-9005-1,4.604396208602135
SBT-9006-1,5.829225631010809
SBT-9007-1,6.620800035971494
SBT-9008-1,8.19820473257622
SBT-9009-1,8.399497908071888
SBT-9010-1,6.135101526146611
SBT-9011-1,7.755828388210705
SBT-9012-1,6.344305656690747
SBT-9013-1,6.344305656690747
SBT-9014-1,5.999489036325016
SBT-9015-1,4.570757485923389
SBT-9016-1,5.778709954366243
SBT-9017-1,6.019717004212697
SBT-9018-1,4.1450951839306205
SBT-9019-1,6.059852305004995
SBT-9020-1,7.620507469494346
SBT-9021-1,6.304385882969944
SBT-9022-1,8.458546899027246
SBT-9023-1,8.059640034466176
SBT-9024-1,4.545628866136757
SBT-9025-1,8.233836034660635
SBT-9026-1,8.824731159360649
SBT-9027-1,6.1946748129440365
SBT-9028-1,4.263779903949781
SBT-9029-1,6.704972990887559
SBT-9031-1,8.988599013977984
SBT-9032-1,8.966093986690186
SBT-9034-1,7.3713823067541
SBT-9035-1,6.906062175547313
SBT-9036-1,8.127898944456996
SBT-9037-1,6.4300378215260645
SBT-9039-1,6.498579814658395
SERES-48-1,6.085966465377458
SERES-49-1,6.171350871390708
SERES-50-1,4.89589398562405
SERES-51-1,5.286351938153939
SERES-52-1,6.405078905543131
SERES-53-1,6.41986479331936
SERES-54-1,7.224959742179995
SERES-55-1,5.1322629003363405
SERES-56-1,7.571482630838887
SERES-57-1,6.569637372028458
SERES-58-1,7.257186296604566
SERES-59-1,6.362448582464177
SERES-60-1,5.573074613133125
SERES-61-1,5.123020165494532
SERES-62-1,6.122168369606773
SERES-63-1,5.935820244584429
SERES-64-1,5.987578609209501
SERES-65-1,5.974192853855632
SERES-66-1,6.048766064415733
SERES-67-1,5.755585332990365
SERES-68-1,6.109626702815595
SERES-69-1,5.281837423472959
SERES-70-1,6.581693526161584
SERES-71-1,6.257074862679808
SERES-72-1,6.14049395838155
SERES-73-1,5.9269837961202185
SERES-74-1,6.036375071609211
SERES-75-1,6.618182135308085
SERES-76-1,6.286095129559358
SERES-85-1,6.682385076818055
SERES-86-1,6.266900918962824
SERES-87-1,5.993937135427419
SFS-103-1,8.544559213491254
SFS-126-1,8.709179994499882
SFS-152-1,9.300547793208414
SFS-176-1,8.935525521962068
SFS-200-1,8.920391399935873
SFS-229-1,9.230138126532225
SFS-253-1,8.930927937256161
SFS-26-1,8.831970163079971
SFS-29-1,8.806570544800447
SFS-30-1,8.03770329443573
SFS-300-1,8.789766913018761
SFS-302-1,8.266513918827533
SFS-31-1,8.824738264739558
SFS-32-1,8.509729113458821
SFS-325-1,8.026838148661403
SFS-327-1,8.811353450824598
SFS-400-1,8.813553999499424
SFS-405-1,8.59651317138277
SFS-454-1,8.825585937500001
SFS-457-1,8.996058255790174
SFS-506-1,8.705070861166273
SFS-507-1,7.199999999999999
SFS-515-1,9.099244078584952
SFS-522-1,9.303172146474774
SFS-55-1,8.899962295968248
SFS-56-1,8.096520892351275
SFS-600-1,7.865114692828595
SFS-601-1,8.308779459966573
SFS-604-1,8.27560536986392
SFS-76-1,8.642611318646573
SFS-8-1,8.434000166058192
SFS-9-1,8.50126229878734
SJS-9000-1,5.075977384660141
SJS-9002-1,5.215819763967547
SJS-9003-1,6.136879268275748
SLK-1006-1,7.569806012046318
SLK-1016-1,6.828021923284325
SLK-1050-1,8.891504208737796
SLK-1076-1,8.574143036743632
SLK-1089-1,7.417109208179164
SLK-9000-1,6.213140707516172
SLK-9001-1,7.4107126381043695
SLK-9003-1,8.523734428776503
SLK-9004-1,7.4714185740113175
SLK-9005-1,8.456934815036409
SLK-9006-1,8.983738939662018
SLK-9007-1,6.956164686603428
SLK-9008-1,8.190982064609855
SLK-9009-1,7.146242764823295
SLK-9010-1,8.787776960021942
SLK-994-1,6.6275177256494215
SPY-95-1,5.941104552092725
TAB-2475-1,5.784044702460504
TAB-2476-1,7.105138257136459
TAB-2477-1,6.332276381042567
TAB-2478-1,6.505066472800367
TAB-2479-1,4.98892942608279
TAB-2480-1,5.591516121756164
TAB-2481-1,5.096332247810687
TAB-2482-1,4.8192805421753455
TAB-2483-1,5.072317750054026
TAB-2484-1,5.310479217504298
TAB-2485-1,5.053496768204427
TAB-2486-1,6.882899304851086
TAB-2487-1,7.5058154801594625
UBRISS-195-1,7.467194728279666
UBRISS-196-1,8.077604754845858
UBRISS-197-1,7.758822866154553
UBRISS-198-1,8.421014802854762
UBRISS-198-2,8.44905462304247
UBRISS-199-1,7.111864642128134
UBRISS-200-1,7.24900858403149
UBRISS-202-1,6.79403777849383
UBRISS-205-1,7.3802886631112274
UBRISS-206-1,7.086814678656945
UBRISS-207-2,8.414930843669392
UCS-9000-1,5.337637280721246
UCS-9002-1,5.390761163241804
WAN-23-1,8.600208707826635
WAN-6-1,5.9958273305443495
WCS-1001-1,6.438345831025858
WCS-1002-1,8.379907520721254
WCS-1003-1,8.250406134318977
WCS-1004-1,4.068171499446658
WCS-1005-1,8.571403101067062
WCS-1106-1,9.121647286242066
WCS-1114-1,8.452432266009854
WCS-1143-1,7.976631773399015
WCS-1170-1,7.417525079071964
WCS-1201-1,5.4
WCS-1228-1,9.200075917320119
WCS-1252-1,6
WCS-1306-1,7.706472685421466
WCS-1311-1,5.4
WCS-1328-1,5.8999999999999995
WCS-1331-1,5.8999999999999995
WCS-1350-1,9.8
WCS-1407-1,7.796105284884154
WCS-1422-1,6.454571117837876
WCS-1429-1,5.627086106857476
WCS-1439-1,6.188352930976972
WCS-1497-1,5.861525795378467
WCS-1602-1,5.906446830714092
WCS-1607-1,6.216773367477594
WCS-1608-1,5.9
WCS-1609-1,5.808421441382803
WCS-1612-1,6.091933497536945
WCS-1900-1,6.299999999999999
WCS-1936-1,6.101621222962459
WCS-1977-1,6.117021829521828
WCS-2005-1,5.816133004926108
WCS-2079-1,6.499999999999999
WCS-2161-1,6.6
WCS-2186-1,6
WCS-2201-1,5.3979121832626475
WCS-2218-1,8.99978151441077
WCS-2228-1,5.5699567515137725
WCS-2229-1,5.131005890139728
WCS-2247-1,5.598386871453512
WCS-2251-1,5.333958002227073
WCS-2272-1,5.3
WCS-2273-1,4.98527428057554
WCS-2283-1,5.187737490568397
WCS-2305-1,7.399999999999999
WCS-2411-1,6.107785261489699
WCS-2472-1,7.312818494878849
WCS-2484-1,7.509743144774315
WCS-2489-1,6
WCS-2500-1,6.524735649546829
WCS-2505-1,6.932266009852218
WCS-2507-1,6.907316628303442
WCS-2536-1,6.502945143884893
WCS-2538-1,6.810380348652932
WCS-2552-1,6.4
WCS-2557-1,6.814651794826544
WCS-2567-1,7.315075952105553
WCS-2579-1,6.928724213313581
WCS-2604-1,5.200000000000001
WCS-2803-1,6.598636779361674
WCS-2823-1,6.803508220010681
WCS-2833-1,7.712369877852611
WCS-2862-1,5.291827677641894
WCS-2866-1,6.009053335062747
WCS-2867-1,6.101913016644299
WCS-4039-1,6.464372566872305
WCS-4064-1,8.25233170378714
WCS-4346-1,8.035447513123522
WCS-4543-1,5.7
WCS-4820-1,6.909499257584654
WCS-6000-1,5.994928056049836
WCS-6001-1,5.403827916733974
WCS-6003-1,8.7643134945877
WCS-6006-1,5.666304426266876
WCS-6007-1,8.30040157558781
WCS-6008-1,7.818778647876194
WCS-6009-1,6.999116654771605
WCS-6010-1,6.3822096363062135
WCS-6011-1,8.205473451520803
WCS-6012-1,6.779153957500716
WCS-6013-1,5.226274170678251
WCS-6015-1,5.299566195141324
WCS-6016-1,4.703212320142519
WCS-6017-1,5.53718760772586
WCS-6018-1,6.7082317778883445
WCS-6019-1,7.900046286714133
WCS-6020-1,5.996168749785807
WCS-6021-1,4.896644839670676
WCS-6022-1,5.996035454684885
WCS-6023-1,7.159968816760532
WCS-6024-1,6.888176341008905
WCS-6025-1,5.732178393980139
WCS-6026-1,9.296907564497848
WCS-6027-1,6.712804066605507
WCS-6028-1,7.396897290426855
WCS-6029-1,7.227429459607649
WCS-6030-1,9.699516305102659
WCS-6031-1,8.600569588432279
WCS-6032-1,7.697510403569332
WCS-6033-1,7.06400327856359
WCS-6034-1,7.716541870240753
WCS-759-1,6.420426195426195
WCS-780-1,5.7
WCS-781-1,5.602116863630325
WCS-782-1,5.800000000000001
WCS-785-1,7.9249040597338425
WCS-787-1,5.099999999999999
WCS-796-1,5.910287184936777
WCS-813-1,5.800000000000001
WCS-814-1,5.7
WCS-816-1,8.492764778325123
WCS-832-1,5.490046956316534
WCS-833-1,5.699999999999999
WCS-857-1,8.034062526198904
WCS-864-1,5.5
WCS-866-1,5.704947129909366
WCS-868-1,6.4
WCS-873-1,5.1
WCS-874-1,7.624028745850646
WCS-875-1,6.086737913898881
WCS-876-1,6
WCS-880-1,6.206258061646578
WCS-885-1,6.4
WCS-886-1,5.48840297450425
WCS-897-1,5.7
WCS-899-1,6.295026410897369
WCS-903-1,4.591335519039342
WCS-913-1,5.883866995073893
WCS-931-1,5.9
WCS-938-1,7.206865355957328
WCS-942-1,6.200000000000003
WCS-943-1,7.508295959118668
WCS-952-1,5.270317220543807
WDH-1024-1,6.7
WDH-1063-1,6.6000000000000005
WDH-1223-1,5.9
WDH-1291-1,6.5
WDH-1508-1,5.9
WDH-1787-1,6.4
WDH-2145-1,5.7
WDH-2159-1,6.7
WDH-331-1,6.4
WDH-332-1,6.8
WDH-339-1,7.099999999999999
WDH-340-1,6.6
WDH-347-1,6.4
WDH-351-1,6
WDH-352-1,5.6
WDH-353-1,6.9
WDH-571-1,5.9
WDH-698-1,6.8
WDH-699-1,6.5
WDH-701-1,6.6
WDH-702-1,6.5
WDH-718-1,6
WDH-731-1,6
WDH-751-1,5.9
WDH-757-1,5.9
WDH-760-1,7.1
WDH-825-1,NA
WDH-9001-1,9.46296063439243
WDH-9007-1,8.982892852932805
WDH-9012-1,8.996722734723686
WDH-9019-1,9.773387200052653
WDH-9020-1,9.428379235184464
WDH-9026-1,8.602569192796068
WDH-9027-1,8.397575781562907
WDH-9028-1,8.80008658422744
WDH-9029-1,8.603365142637577
WDH-9030-1,7.94145843998482
WDH-9031-1,8.436876525292634
WDH-9032-1,8.850339510148837
WDH-9033-1,8.899582559802761
WDH-9050-1,8.899652757082775
WDH-9051-1,8.502567438525897
WDH-9054-1,8.899730296365172
WDH-9055-1,7.023592886307333
WDH-9056-1,5.294525968785595
WDH-9064-1,7.889121616446323
WDH-9080-1,8.566918530239231
WDH-9081-1,8.036785495007472
WDH-9089-1,7.928380181853137
WDH-9090-1,8.802275597412198
WDH-9091-1,9.00364474615513
WDH-9092-1,9.234180041652943
WDH-9104-1,8.200000043450542
WDH-9106-1,8.459948865397482
WDH-9107-1,8.602041939427615
WDH-9115-1,8.305920229312596
WDH-935-1,6.799999999999999
WDH-968-1,7.919810329674625
WDH-973-1,6.299999999999999
WDH-995-1,8.144988534094566
WIN-101-1,5.4
WIN-117-1,5
WIN-149-1,6.599999999999999
WIN-162-1,5.099999999999999
WIN-202-1,5.699999999999999
WIN-209-1,5.200000000000001
WIN-256-1,6.6999999999999975
WIN-279-1,5.502334106816219
WIN-289-1,8.518073459661826
WIN-333-1,7.5978833409763356
WIN-37-1,4.9
WIN-486-1,6.700456925390868
WIN-531-1,9.425773302931159
WIN-545-1,8.610305784740314
WIN-658-1,8.593470023664805
WIN-686-1,5.8
WIN-73-1,5
WIN-90-1,6.299999999999999
WIN-94-1,5.2
WRS-9005-1,6.253351558653955
WRS-9012-1,5.895776370638356
WTC-6000-1,5.514937022505251
WTC-6001-1,5.636683807072852
WTC-6002-1,5.603480173341984
WTC-6003-1,5.880791070941276
WTC-6004-1,6.458319193368733
WTC-6005-1,5.701991098836003
WTC-6006-1,5.665257778178117
WTC-6007-1,4.746391422346513
WTC-6008-1,5.9021362077540305
WTC-6009-1,5.643426343356218
WTC-6010-1,5.3892838527099185
WTC-6011-1,5.5179141156723945
WTC-6016-1,5.975137828832915
WTC-6017-1,5.252740251952373
WTC-6018-1,6.7012189710617145
WTC-6019-1,6.806176390558296
WTC-6020-1,5.61861149504124
WTC-6021-1,4.798007846526985
WTC-6022-1,6.531121667147437
WTC-6023-1,6.44039668541949
WTC-6024-1,5.0238657959527
WTC-6025-1,5.097311479151868
WTC-6026-1,6.717525195831236
WTC-6027-1,7.342586583335019
WTC-6028-1,5.904569616690212
WTC-6029-1,6.087450477602085
WTC-6030-1,7.9318744340361915
WTC-6031-1,7.379227771407747
WTC-6032-1,7.032605121501483
WTC-6033-1,5.62461807258447
WTC-6034-1,6.544934089618809
WTC-6035-1,6.25545371316225
WTC-6036-1,7.032698966305257
WTC-6037-1,7.102886758315141
WTC-6038-1,7.698998720927577
WTC-6039-1,8.40817480067246
WTC-6040-1,6.983794234524601
WTC-6041-1,5.97556538271702
WTC-6042-1,6.11507383028978
WTC-6043-1,6.599146868232143
WTC-6044-1,7.254920362948649
WTC-6045-1,7.059838235512037
WTC-6046-1,6.50026939188491
WTC-6047-1,6.802741524546957
WTC-6048-1,5.64294396550528
WTC-6049-1,5.811692094943151
WTC-6050-1,6.457863920993217
WTC-6051-1,5.993336480308789
WTC-6052-1,5.478384221595741
WTC-6053-1,5.317252013459301
WTC-6054-1,6.260468999470629
WTC-6055-1,6.643164909907321
WTC-6056-1,6.375420693114892
WTC-6057-1,6.655369966659258
WTC-6058-1,5.770650948480642
WTC-6059-1,5.3329444826897365
WTC-9000-1,5.388642199063586
WTC-9001-1,5.800126577210779
WTC-9002-1,8.934229178530183
WTC-9003-1,7.5916746772994
WTC-9005-1,5.499999999999999
WTC-9006-1,6.36679030030168
WTC-9010-1,5.697799435360936
WTC-9014-1,5.511716402672513
WTC-9015-1,5.467503316118063
WTC-9017-1,6.2866911790818225
WTC-9018-1,5.709791126135755
WTC-9019-1,5.671717985840855
WTC-9020-1,6.159261150517931
WTC-9022-1,7.5930540353076506
WTC-9024-1,5.10004585486808
WTC-9025-1,5.672782230303606
WTC-9028-1,4.698816652957795
WTC-9029-1,6.080522047497394
WTC-9030-1,5.499999999999999
WTC-9032-1,5.299999999999999
WTC-9033-1,6.210335398154591
WTC-9034-1,5.7
WTC-9036-1,5.406246811591371
WTC-9037-1,7.184734941977672
WTC-9038-1,5.320913379211957
WTC-9039-1,5.407263141472166
WTC-9041-1,5.3
WTC-9042-1,5.888365913371866
WTC-9044-1,6.682968285346387
WTC-9045-1,5.285379048651895
WTC-9046-1,5.2
WTC-9047-1,4.135613816433722
WTC-9049-1,5.8768050834067225
WTC-9050-1,5.887042814964173
WTC-9051-1,5.199999999999999
WTC-9052-1,5.3055542538942655
WTC-9053-1,5.2
WTC-9054-1,5.088265473046788
WTC-9055-1,5.5
WTC-9057-1,5.6
WTC-9064-1,5.636111948107225
WTC-9065-1,8.63729448280883
WTC-9066-1,5.4
WTC-9067-1,4.9
WTC-9068-1,6.00097465426333
WTC-9069-1,5.924456049432764
WTC-9071-1,7.142557642660021
WTC-9072-1,5.463365411500779
WTC-9073-1,5.434671119912884
WTC-9075-1,5.574846598623116
WTC-9076-1,6.147626879975883
WTC-9077-1,5.3999999999999995
WTC-9078-1,6.177698026043288
WTC-9079-1,8.04134755010709
WTC-9080-1,5.501313095344075
WTC-9081-1,6.152414448375026
WTC-9082-1,5.729186242804288
WTC-9086-1,6.4015809258107454
WTC-9088-1,5.958805649847762
WTC-9089-1,6.457197033313494
WTC-9090-1,6.308413140255232
WTC-9091-1,5.804877868484478
WTC-9092-1,6.010907517430979
WTC-9093-1,5.391190359115487
WTC-9094-1,6.23987766661319
WTC-9095-1,6.257600602696827
WTC-9096-1,5.576178626244078
ZED-6000-1,6.184778703325191
ZED-6001-1,5.68153909286409
ZED-6002-1,7.1824861440985925
ZED-6003-1,6.30018193940913
ZED-6008-1,9.301544411016703
ZED-6010-1,9.551010200553083
ZED-6013-1,8.952958745852143
ARD-9011-1,7.402675775580558
BAN-5-1,9.23990074317063
BBC-6021-1,4.900573219411248
BBC-6022-1,5.496046292939396
BDS-877-2,6.704525014218551
BER-9047-1,9.005172934101152
BPA-1-1,6.907057179212575
BPA-13-1,6.885277233450865
BPA-22-1,8.322260698132606
BPA-3-1,6.508293605662827
CBW-1025-1,7.113367445362501
CIS-9004-1,7.590442203154325
CQH-1364-1,6.4087847912524865
CQH-401-1,5.819107879065507
CQH-616-1,5.297405345572982
CTI-6012-1,5.6601764188513375
CTI-6016-1,5.497117552136151
CTI-6030-1,5.056011298095348
CTI-6031-1,4.9496993622946635
CTI-9001-1,6.286927652448256
CTI-9008-1,5.503229793274524
CTI-9027-1,5.253863315282121
CTI-9038-1,5.653099863997792
DLR-1023-1,7.825976778122065
DLR-1076-1,5.5856215672425495
DLR-1090-1,6.5041870177673955
DLR-1091-1,6.803148718903582
DLR-1093-1,6.802453366003816
DLR-1177-1,5.6264342653460755
DLR-1244-1,6.455782300270359
DLR-1538-1,7.529478314932742
DLR-163-1,8.406110901037167
DLR-1776-1,8.805062181959896
DLR-182-1,6.7619646226471515
DLR-2348-1,7.389528009501113
DLR-278-1,7.014699409810701
DLR-335-1,7.323534983642303
DLR-459-1,6.938435382025153
DLR-799-1,6.697762440330139
DLR-940-1,8.254573813252287
DLR-944-1,5.93307783018868
DLR-951-1,5.716303619302949
DLR-966-1,6.36277030611788
ESH-6006-1,7.504238526930826
GCL-9005-1,6.970399783134522
KCM-9049-1,5.806481481481481
LFZ-379-1,6.2
LFZ-486-1,7.49593023241038
MCL-9012-1,6.007535870182619
MCL-9056-1,6.201124827086894
MDIA-457-1,6.490927219328819
MHB-447-1,4.995687754364596
MHB-56-1,5.269103773584906
MIPS-46-1,4.90000375936153
MISCQ-53-1,6.2023755457618925
P2REEF-22-1,5.904982189773343
P2REEF-26-1,4.297509296529926
PCS-6008-1,6.299768309895334
PCS-6010-1,5.69739116815089
PLS-26-1,7.299999415212826
SWRES-781-1,4.79202774934395
WCS-1507-1,6.900037191325211
WIN-297-1,5.703666136360555
WIN-335-1,5.199348169498504
WTC-6012-1,6.710548028062496
WTC-6013-1,6.193233333225195
WTC-6014-1,6.189520194158604
WTC-6015-1,6.004729859603612
WTC-9007-1,6.198123376804899
WTC-9070-1,5.504944192937915
