NAME,VALUE
1ACH1,14
1ADb,5
1ADb-2,13
1ADb-7,14
1ADb-Dd,15
1ADd-3,13
1ADd-4,15
1ADE1,11
1ADE2,16.5
1AKA1,7
1ARU1,11
1ATE1,5
1AUg-12,21
1AUg-13,20
1AUg-2,16
1AUg-3,9.5
1AUg-4,11
1AVE1,21
1AVE2,25
1AVE4,17.5
1AVE6,17
1CHa,12
1CHb,6
1DEa,11
1Dyd,17
1KTa,4
1SOa,15
1SOb,15
1Uga,16
1Ugd,16.5
1Ugf,17
2ADb-1,4
2AUf-Ug-3,10
2AUg-3,10
2AUg-7,17
2AUg-8m,11
2AUg-9m,6
2AUgg-1m,11.5
2AUgg-2m,4
2AVE2,18
2Dba,21
2Dbb,21
2Dbc,18
2Dbd,24
2Dda,20
2Dda2,21.5
2Ddb,19
2Dya,22
2Dyb,21
2Dyc,20
2Uga,20
2Ugc,18.5
2UgcW,22
2Ugd,20
2ugd2,19
2Uge,20
2Ugf,21.5
2Ugg,18
2Ugh,23
2Ugk,27
2VEa,20
2VEb,19
2VEe,14
2VEx,12
2VEy,9
3ASO2,12
3AUf,2
3AUf-Ug-1m,1
3AUf-Ug-2m,6
3AUf-Ug-3d,12
3AUf-Ug-6m,8
3AUg-2,8
3CHx,2
3SOb,6
3Uge,15
3VEa,13
3VEb,22
3VEc,17
3VEw,16.5
3VEy,19
3VEz,9.5
4AUf,13
4Dyd,3
4Dyj,7
4Gnb,4.5
4Ucc,3
5Dra,13.5
5Dya,8
5Dyc,15
5Dye,9
5Uga,18
5Ugb,11
5Ugc  Depression,15
6ADb-1,8
6ADb-4,9
6ADy-3,4
6AUg-10,15.5
6AUg-12,14.5
6AUg-3,20
6AUg-4,10
6AUg-5,18
6AUg-6,19
6AUg-8,15.5
6AUg-9,19.5
6Db,6
6Dba,12.5
6Dbb,24
6Dbc,8
6Dbd,13
6Dbe,13.5
6Dbf,9
6Dbg,5
6Dbh,22
6Dda,16
6Dra,10
6Drb,13.5
6Drc,17
6Dya,9
6Dyb,8
6Dyc,13
6Dyd,9.5
6Dye,15
6Dyf,13
6Dyf2,12
6Dyg,16.5
6Dyj,15
6Gn,9
6Gnb,4
6Gnc,10
6Gnd,6
6Ucc,6
6Uma,5
6Umb,23
Abercorn,19
Abergowrie,14
Abergowrie Sandy Phase,7
Albert,23
Aldershot,14
Allandale,6
"Allandale, Strongly Sodic Variant",6
Alloway,10
Alma,9
Althaus,15
Andergrove,1
Andergrove Water Table Variant,2
Anyarro,9
Apron,11
Archookoora,10.5
Arnot,3.5
Aroa,10.5
Arriga,26
Ashgrove,30
Ashton,10.5
Auburn,18
Avondale,8
Awoonga,25
Babinda,53
Baddow,7
Balberra,20.5
Bally,20
Banana,15
Banban,18
Banyan,4
Barron,23
Bauhinia,19
Bauple,13
Beeron,16
Bell,24
Bells,10
Belmunda,16
Belvedere,22
Benholme,24
Berris,12
Bicton,14
Bidwill,12
Bilboolan,23
Bingera,16
Blackburn,15.5
Blair,18
Bluewater,10
Bluff,7
Bonavista,24
Bonnie Crofts,12
Bonwell,15.5
Boonenne,3
Booyal,11.5
Bovekel,16
Boyanda,5
Boyles,17
Boyne,6
Boynewood,13
Brae,26
Brightley,18
Brooweena,21
Brooyar,15
Brosnan,4
Bubbler,10
BUca,5
Bucca,15
Buckley,3
BUfa,16
BUfb,19
BUfc,24
BUfe,28
Buffel,11
BUg-10,13.5
BUg-2,13
BUg-3,12
BUg-4,7
BUg-6,12
BUga,30
Bulgun,23
Bulguru,15
Bullhead,13.5
BUma,10
BUmb,12
Bungadoo,12
Burdekin,6
Burdekin Buried Soils Or D Horizons Vary,6
Burnett,7.5
Burnett Coarse Sandy Variant,7
Burradoo,14.5
Burrum,2
Bushnell,13
Butcher,19
BVE1,9
Byabra,14
Byee,16.5
Cabbage Tree,16
Calen,17
Callide,21
Cameron,7
Canoe,11
Cape,17
Carew,16.5
Carfax,12.5
Carmila,10
Cassidy,1
Castleview,8
Catherina,33
Cattle,17
CDba,9
Ceratodus,18
Chelmsford,6
Cherry Tree,23.5
Chessborough,9
Childers,10.5
Clayton,14.5
Clifton,41
Cliftonville,24
Cole,42
Condor,11
Conjuboy,7
Conway (Cqh),19
Coolabunia,17
Coom,36
Coonoon,14
Coorooman,28
Copenhagen,19
Corduroy,15
Cottonham,20
Creek,16
CUca,5
Cudmore,16
CUfb,7
Curlewis,7
Cushnie,3
CVE1,23
CVE3,8
CVE4,14
CVE5,15
Dagun,13
Dale,13
Dalgangal,22
Dalrymple,6
Darts,19
Derra,14
Derra (CWL),13
Diamond (Kcm),12
"Diamond (Kcm), Footslope Variant",9
Dickson,11
Dingo (Pss),5
Dittmer,8
Dixie,1
Don,10
Doolbi,19
Doonside,16
Dotswood,12
Dove,12
Drinan,25
Dryander,21
Dudgeon,32.5
Dundula,21
Dunstan,19
Dunwold,4.5
Durong,20
Earlsfield,13.5
Eastgate,17.5
Edgecumbe,19
Edmonton,46
Eerwah,14
Egera,12
Eleanor,14.5
"Eleanor, Mottled Phase",15
Elizabeth,16.5
Elliot,8
Ellis,9
Emerald,5
Endeavour,11
Eton,17
Etowrie,17.5
Eubenangee,22
Eversleigh,22
Fairdale,12
Fairview,20
Fairydale,12
Fairymead,19
Falkner,13
Fanning River,11.5
Farleigh,10
Farnsfield,8
Farnsfield Sandy Variant,4
Feluga,11
Finch Hatton,16
Finley,10
Fison,10
Flagstone,19.5
Fletcher,13
Fletcher - Brcl,25
Fowler,15
Foxleigh,4
Freddy,21
Galmara,15
Gander,14
Gargett,12.5
Garradunga,19
Garrett,25
Gibson - Bab,19
Gigoon,10
Gillinbin,16
Givelda,26
Glenella,26
Glenroc,8
Glenrock,5
Gooburrum,5.5
Goodbye,13
Goodger,19
Goorganga,31
Goovigen,18
Gordonbrook,6
Graham,18
Granville,23.5
Grevillea,19.5
Greycliffe,17
Greycliffe Melonhole Phase,17.5
Gueena,20
Habana,24
Haden,28
Haly,11
Hamleigh,22.5
Hannan,13
Harris,14
Harwood,23
Hawkwood,9
Hector (PCS),26
Hewitt,37
Highbury,12
Hillgrove,7
Hillsborough,14
Hillview,12
Hind,13
Hodge,11
Hodge (BAN),9
Holding,12.5
Hopevale,10
Hull,1
IDE1,16
Ilbilbie,7
Ingham,17.5
Inlet,25
Innisfail,22
Innot,6
Inverdon,6
Iona,13
Isis,9
Jambin,20
Jaro,23.5
Jarra,15
Julian,9
Jumper,17
Jumpo,18
Kaban,9
Kaber,10
Kailla,3
Kairi,19
Kalah,27
Karloo,26
Kawl Kawl,14
Kaygaroo,1
Kelona A Horizon Variant,12
Kelona Buried Soils Or D Horizons Vary,10
Kenlogan,12
Kenmar,10.5
Kepnock,11
Keppel,18.5
Kiama,6
Kilburnie,16.5
Kinchant,8.5
"Kinchant, Coarse Sandy Variant",3
Kingjack,13
Kinkuna,7.5
Kirrama,9
Koberinga Mottled Phase (3uga9),14
Koberinga Pebbly Phase (3uga8),14.5
Koberinga Pebbly Phase (3uge8),14.5
Kokutungo,12
Kolan,11
Kolan Red Variant,17
Kolbore,12
Kooingal,13
Koolachu,7.5
Kooringa,8
Koumala,13
Kowari,14
Kumbia,10
Kungurri,10
Kurrimine,2
Kuttabul,16
"Kuttabul, Alluvial-Colluvial Variant",7
Lacon,13
Langley-Wdh,14
Lannercost,13
Lascelles,15
Laura,10.5
Leach,26
Leadingham,18
Lee,12
Lillypool,19
Lily,10.5
Lindsay,18
Lingilor,13.5
Littabella,14
Liverpool,7.5
Lizard,13
Logcamp,17
Lorna,26
Louisa,20
Lucy,9
Lugger,10.5
Maalan,22
Macknade,4
Maclean (Lak),24
Mahogany,8
Maiden,7
Manar,11
Mandam,11
Manoa Red Variant,13
Manor,21.5
Maraconda,12.5
Maria,11.5
Marian,14
Marlow,13
Maroondan,17
Marshlands,9
Martin,11
Martyr,12.5
Marwood,2
Mary,22
Mary Dark Variant,33
Maryvale,15
May,11.5
May Shallow Phase,12
Mceuen,19
Meadowvale,11
Meilland,10
Melton,24
Memerambi,13
Mentmore,16
Midden,11
Midway,31
Millstream,10
Mirani,9
Miskin,8
Mission,6
Miva,29
Molonga,16.5
Mondure,8
Monkland,17
Moore Park,4
Moramana,15
"Moramana, Gilgai Phase",13.5
Morecambe,7
Morganbury,5
Mossman,12
Muldoon,11
Mulei,6
Mullaburra,25
Mulligan,7
Mulligan Gravelly Phase,14
Munbura,9
Mundoo,9.5
Mungar,25
Murphy,13
Murray,22
Myrtle,24
Nabilla,17
Nail,19
Narcotic,7
Narpi,25
Needep,2
Nessvale,9.5
Netherdale,17
Niagara,13
Nicotine,1
Nicotine Yellow,5
Nilotica,20
Nind,7
Normanby,15
Nullinga,8
Nursery,17
O'Bil Bil,13
Oakwood,8
Oombabeer,10
Orient,13
Ossa,14
Ossa (Cobbly Variant),20
Otoo,12
Owanyilla,15
Pakington,22
Palm,11
Palmyra,24
Palouse,9
Pearlinga,14
Peep,31
Pelion,19
Penman,30
Pennsfield,10
Pentland,5
Picardy,12
Picardy Surface Seal Phase,12.5
Pin Gin,15
Pindi,10.5
Pinnacle - Cq,11
Pioneer,14.5
"Pioneer, Red B Horizon Variant",9.5
Pluto,13
Police Camp,15
Poplar,10
Porter,8
Powerhouse,13
Powlathanga,15
Prendergast,17
Price,13
Pring,7.5
Prior,7
Proserpine,12
Quart,7.5
Racetrack,7.5
Ram,21
Ramleh,40
Rankin,18
Raven,11
RDya,37
Red Flank,7
Retro,16
Retro (BAN),17
Riordanvale,23
Ripple,13.5
Riverleigh,11
Robur,8
Rolleston,19
Ronnoc,12.5
Roper,13.5
Royston,28
Ruby,20
Rubyanna,23
Rudd,18.5
Rugb,28
RUgc,20
RUgd,28
Rungoo,2
Russell,12
Saddle,28
Samourgassi,24
Sandalwood,15
Sandiford,16
Sandiford (Silty Topsoil Variant),26
Santo,9
Seaforth,14
Seaview,23
Septimus,7
Silent Grove,15
Silkwood,17
Slater,16
Solferino,14
Spanos,2.5
Spier,9.5
Springs,13
SSO1,24
St Helens,21
Sugarbag,8
Sunnyside,20
Sunter,20
Tailing,12
Tanby,11
Tandora,19
Tannalo,20
Tarong,15
Tarramba,22
Tawalla,3
TbUg-1,14
TbUg-11,6
TbUg-13,10
TbUg-2,18
TbUg-4,8
TbUg-6,8
Te_El_Kabir,22
Tedlands,26.5
Telegraph,15
Tenmile,10
Thalberg,10
Thompson,13
Thompson - Mrc,33
Thorpe,9
Tiaro,19
Timara,34
Timbrell,20.5
Tiny,12
Tirrabella,9
Tirroan,9
Tirroan Non-Sodic Variant,7
Tognolini,23
Tolga,10
Toobanna,21
Toondoon,14
Tralee,22.5
Tranters,13
Trebonne,13
TsDr-1,6
TsDy-1,5
TsGn-3,1
TsGn-4,3
TsGn-5,2
TsGn-6,4
TsUc-2,3
TsUf-3,8
TsUf-6,9
TsUg-7,11
TsUgg-2,8
Tully,18
Tureen,18
Turnor,12
Turpad,3
Turpin,12
Tyson,8.5
Ulogie,7
Umala - Tab,17
Up River,2
Urannah,10
Uruba,9
Utchee,12.5
Valetta,9
Vicenza,13
Victoria Plains,18
Virgil,11
Voewood,16
Wagoora,24.5
"Wagoora, Basic Parent Material Variant",23
Walkamin,8
Walker - Mhb,15
Walla,28.5
Walsch,7
Walsh,19.5
Wandarra,8.5
Watalgan,14.5
Watalgan Mottled Variant,16.5
Weir,21
Weithew,21
Well,10.5
"Well, Footslope Variant",16
Wheatlands,2
Whelan,48
Whiptail,16
White,23
Windermere,14
Windradene,12
Winfield,6
Witton,13
Wivenhoe,8
Woco,11
Wollingford,20
Woober,32
Woodleigh,16
Woolmer,11
Woongarra,19
Woonton,6
Wooroolin,16
Wygong,15
Yandaran,6
Yaringa,26
Yarraman,15
Yarrol,20.5
Yuruga,11
Uruba Alluvial-Colluvial Variant,13.5
