NAME,VALUE
1ADE1,0.17054193672292933
1ADE2,0.5824359206758055
1AVE2,0.8666440817349796
1Ugd,0.6398415631561314
4Dyg,0.9099999999999999
6Dbf,0.07201917562500856
6Dbi,0.36
6Dyf2,2.3999999999999995
6Dyg,0.9795138114907389
6Dyj,0.13721974941235274
Alma,0.13096405002085793
Arnot,0.04245265467952623
Babinda,6.787869409258085
Bluff,0.38253688877981995
Brosnan,0.05672238492395783
Burdekin,0.19358098895342404
Calen,0.05000000000000001
Canoe,0.17589527702480226
Cattle,0.5003625871740595
Clifton,0.13902166629075208
Conjuboy,0.36648566615250106
Coom,0.41043702201360965
Cudmore,0.06060656560478663
CVE5,0.18695063126034953
"Diamond (Kcm), Footslope Variant",0.5593562594662195
Dingo,0.31198790936350157
Dotswood,0.338
Edmonton,0.17900877815584046
Eton,0.0910876125235896
Eubenangee,0.6159530530616106
Feluga Red Variant,0.24904200425732567
Gargett,0.13
Hewitt,1.8549332868408683
Hillview,0.08903936409207237
Hillview Fine Variant,0.12807753941313796
Inlet,0.13526501778159994
Jarra,0.7792891129736335
Kingjack,0.22544443992038773
Malbon,0.3853654134858064
Maryvale,0.3582001933818654
Mission,0.266614428040577
Normanby,0.5871303669923752
Pin Gin,0.4858620540154617
Police Camp,0.7390703331001454
Prior,0.58657192927162
Rankin,0.8263092306003621
Ronnoc,0.7381487859160033
Rungoo,0.8157066845633024
Sandiford,0.13
Thorpe,0.16666429432871296
Timara,1.0639185596889382
Tully,0.36393654448893714
Tyson,0.14630713150262056
Ulogie,0.2053104389924084
Virgil,0.2904505757149639
Warrami,0.11375011977737401
Whitfield,0.41349753969335434
