"NAME","UD","LD","BD","cnt_sites","midPnt_cm"
"Balberra",0,10,1.35,1,5
"Balberra",10,30,1.37,1,20
"Balberra",30,50,1.47,1,40
"Balberra",50,70,1.58,1,60
"Balberra",70,90,1.65,1,80
"Balberra",90,120,1.74,1,105
"Balberra",120,150,1.81,1,135
"Balberra",150,160,1.81,1,155
"Brightley",0,10,1.27,2,5
"Brightley",10,30,1.33,2,20
"Brightley",30,50,1.46,2,40
"Brightley",50,70,1.54,2,60
"Brightley",70,90,1.61,2,80
"Brightley",90,120,1.67,2,105
"Brightley",120,150,1.75,2,135
"Brightley",150,160,1.57,1,155
"Brightley",150,170,1.9,1,160
"Calen",0,10,1.48,4,5
"Calen",10,30,1.52,4,20
"Calen",30,50,1.57,4,40
"Calen",50,70,1.56,4,60
"Calen",70,90,1.6,4,80
"Calen",90,120,1.73,4,105
"Calen",120,150,1.77,4,135
"Calen",150,160,1.73,3,155
"Calen",150,170,1.77,1,160
"Eton",0,10,1.45,3,5
"Eton",10,30,1.58,3,20
"Eton",30,50,1.66,3,40
"Eton",50,70,1.68,3,60
"Eton",70,90,1.74,3,80
"Eton",90,120,1.72,3,105
"Eton",120,150,1.74,3,135
"Eton",150,160,1.68,2,155
"Eton",150,170,NA,1,160
"Gargett",0,10,1.42,1,5
"Gargett",10,30,1.43,1,20
"Gargett",30,50,1.55,1,40
"Gargett",50,70,1.65,1,60
"Gargett",70,90,1.7,1,80
"Gargett",90,120,1.78,1,105
"Gargett",120,150,1.85,1,135
"Gargett",150,170,1.79,1,160
"Kinchant",0,10,1.62,1,5
"Kinchant",10,30,1.71,1,20
"Kinchant",30,50,1.66,1,40
"Kinchant",50,70,1.65,1,60
"Kinchant",70,90,1.73,1,80
"Kinchant",90,120,1.74,1,105
"Kinchant",120,150,1.71,1,135
"Kinchant",150,160,1.71,1,155
"Marian",0,10,1.47,3,5
"Marian",10,30,1.59,3,20
"Marian",30,50,1.56,3,40
"Marian",50,70,1.58,3,60
"Marian",70,90,1.67,3,80
"Marian",90,120,1.72,3,105
"Marian",120,150,1.83,3,135
"Marian",150,160,1.81,2,155
"Marian",150,170,NA,1,160
"Marian Yellow B Horizon Variant",0,10,1.61,1,5
"Marian Yellow B Horizon Variant",10,30,1.64,1,20
"Marian Yellow B Horizon Variant",30,50,1.75,1,40
"Marian Yellow B Horizon Variant",50,70,1.75,1,60
"Marian Yellow B Horizon Variant",70,90,1.81,1,80
"Marian Yellow B Horizon Variant",90,120,1.83,1,105
"Marian Yellow B Horizon Variant",120,150,1.77,1,135
"Marian Yellow B Horizon Variant",150,170,NA,1,160
"Mirani",0,10,1.34,1,5
"Mirani",10,30,1.48,1,20
"Mirani",30,50,1.6,1,40
"Mirani",50,70,1.61,1,60
"Mirani",70,90,1.57,1,80
"Mirani",90,120,1.53,1,105
"Mirani",120,150,1.6,1,135
"Mirani",150,170,NA,1,160
"Munbura",0,10,1.46,1,5
"Munbura",10,30,1.5,1,20
"Munbura",30,50,1.66,1,40
"Munbura",50,70,1.67,1,60
"Munbura",70,90,1.69,1,80
"Munbura",90,120,1.67,1,105
"Munbura",120,150,1.7,1,135
"Munbura",150,160,1.7,1,155
"Nabilla",0,10,1.46,1,5
"Nabilla",10,30,1.53,1,20
"Nabilla",30,50,1.67,1,40
"Nabilla",50,70,1.66,1,60
"Nabilla",70,90,1.58,1,80
"Nabilla",90,120,1.53,1,105
"Nabilla",120,150,1.56,1,135
"Nabilla",150,160,NA,1,155
"Pioneer",0,10,1.41,1,5
"Pioneer",10,30,1.43,1,20
"Pioneer",30,50,1.46,1,40
"Pioneer",50,70,1.53,1,60
"Pioneer",70,90,1.64,1,80
"Pioneer",90,120,1.75,1,105
"Pioneer",120,150,1.8,1,135
"Pioneer",150,170,1.79,1,160
"Pioneer Red Variant",0,10,1.19,1,5
"Pioneer Red Variant",10,30,1.27,1,20
"Pioneer Red Variant",30,50,1.48,1,40
"Pioneer Red Variant",50,70,1.6,1,60
"Pioneer Red Variant",70,90,1.65,1,80
"Pioneer Red Variant",90,120,1.71,1,105
"Pioneer Red Variant",120,150,1.83,1,135
"Pioneer Red Variant",150,160,1.84,1,155
"Sandiford ",0,10,1.38,1,5
"Sandiford ",10,30,1.49,1,20
"Sandiford ",30,50,1.58,1,40
"Sandiford ",50,70,1.61,1,60
"Sandiford ",70,90,1.58,1,80
"Sandiford ",90,120,1.58,1,105
"Sandiford ",120,150,1.6,1,135
"Sandiford ",150,170,1.58,1,160
"Silent Grove",0,10,1.35,1,5
"Silent Grove",10,30,1.54,1,20
"Silent Grove",30,50,1.63,1,40
"Silent Grove",50,70,1.62,1,60
"Silent Grove",70,90,1.58,1,80
"Silent Grove",90,120,1.56,1,105
"Silent Grove",120,150,1.6,1,135
"Silent Grove",150,160,1.66,1,155
"Sunnyside",0,10,1.15,1,5
"Sunnyside",10,30,1.32,1,20
"Sunnyside",30,50,1.43,1,40
"Sunnyside",50,70,1.42,1,60
"Sunnyside",70,90,1.46,1,80
"Sunnyside",90,120,1.56,1,105
"Sunnyside",120,150,1.61,1,135
"Sunnyside",150,160,1.63,1,155
"Uruba Alluvial-Colluvial Variant",0,10,1.29,2,5
"Uruba Alluvial-Colluvial Variant",10,30,1.36,2,20
"Uruba Alluvial-Colluvial Variant",30,50,1.58,2,40
"Uruba Alluvial-Colluvial Variant",50,70,1.66,2,60
"Uruba Alluvial-Colluvial Variant",70,90,1.71,2,80
"Uruba Alluvial-Colluvial Variant",90,120,1.68,2,105
"Uruba Alluvial-Colluvial Variant",120,150,1.77,2,135
"Uruba Alluvial-Colluvial Variant",150,160,1.78,2,155
"Victoria Plains",0,10,1.27,2,5
"Victoria Plains",10,30,1.31,2,20
"Victoria Plains",30,50,1.27,2,40
"Victoria Plains",50,70,1.29,2,60
"Victoria Plains",70,90,1.35,2,80
"Victoria Plains",90,120,1.39,2,105
"Victoria Plains",120,150,1.52,2,135
"Victoria Plains",150,160,1.72,1,155
"Victoria Plains",150,170,1.47,1,160
"Wagoora",0,10,1.32,1,5
"Wagoora",10,30,1.39,1,20
"Wagoora",30,50,1.4,1,40
"Wagoora",50,70,1.36,1,60
"Wagoora",70,90,1.4,1,80
"Wagoora",90,120,1.48,1,105
"Wagoora",120,150,1.5,1,135
"Wagoora",150,160,NA,1,155
