TAB,2487,1,1,8,0.01 - 0.06,NAL-TAB2487-01-08,18/02/1994,SS,BD-01-AMB-R-R1,S_BDPSR,1,BD,0.879,,0.879,18/02/1994,0.1,Y,A,19/05/2022
TAB,2487,1,2,9,0.10 - 0.15,NAL-TAB2487-01-09,18/02/1994,SS,BD-01-AMB-R-R1,S_BDPSR,1,BD,1.053,,1.053,18/02/1994,0.1,Y,A,19/05/2022
TAB,2487,1,3,10,0.60 - 0.65,NAL-TAB2487-01-10,18/02/1994,SS,BD-01-AMB-R-R1,S_BDPSR,1,BD,1.22,,1.22,18/02/1994,0.1,Y,A,19/05/2022
TAB,2487,1,4,11,1.00 - 1.05,NAL-TAB2487-01-11,18/02/1994,SS,BD-01-AMB-R-R1,S_BDPSR,1,BD,1.364,,1.364,18/02/1994,0.1,Y,A,19/05/2022
TAB,2475,1,1,8,0.03 - 0.08,NAL-TAB2475-01-08,16/02/1994,SS,BD-01-AMB-R-R1,S_BDPSR,1,BD,1.061,,1.061,16/02/1994,0.1,Y,A,19/05/2022
TAB,2475,1,2,9,0.25 - 0.30,NAL-TAB2475-01-09,16/02/1994,SS,BD-01-AMB-R-R1,S_BDPSR,1,BD,1.13,,1.13,16/02/1994,0.1,Y,A,19/05/2022
TAB,2475,1,3,10,0.45 - 0.50,NAL-TAB2475-01-10,16/02/1994,SS,BD-01-AMB-R-R1,S_BDPSR,1,BD,1.212,,1.212,16/02/1994,0.1,Y,A,19/05/2022
TAB,2475,1,4,11,0.70 - 0.75,NAL-TAB2475-01-11,16/02/1994,SS,BD-01-AMB-R-R1,S_BDPSR,1,BD,1.293,,1.293,16/02/1994,0.1,Y,A,19/05/2022
TAB,2476,1,1,8,0.03 - 0.08,NAL-TAB2476-01-08,16/02/1994,SS,BD-01-AMB-R-R1,S_BDPSR,1,BD,1.197,,1.197,16/02/1994,0.1,Y,A,19/05/2022
TAB,2476,1,2,9,0.25 - 0.30,NAL-TAB2476-01-09,16/02/1994,SS,BD-01-AMB-R-R1,S_BDPSR,1,BD,1.138,,1.138,16/02/1994,0.1,Y,A,19/05/2022
TAB,2476,1,3,10,0.65 - 0.70,NAL-TAB2476-01-10,16/02/1994,SS,BD-01-AMB-R-R1,S_BDPSR,1,BD,1.298,,1.298,16/02/1994,0.1,Y,A,19/05/2022
TAB,2476,1,4,11,1.10 - 1.15,NAL-TAB2476-01-11,16/02/1994,SS,BD-01-AMB-R-R1,S_BDPSR,1,BD,1.347,,1.347,16/02/1994,0.1,Y,A,19/05/2022
TAB,2486,1,1,8,0.03 - 0.08,NAL-TAB2486-01-08,21/01/1994,SS,BD-01-AMB-R-R1,S_BDPSR,1,BD,1.205,,1.205,21/01/1994,0.1,Y,A,19/05/2022
TAB,2486,1,2,9,0.35 - 0.40,NAL-TAB2486-01-09,21/01/1994,SS,BD-01-AMB-R-R1,S_BDPSR,1,BD,1.279,,1.279,21/01/1994,0.1,Y,A,19/05/2022
TAB,2486,1,3,10,0.85 - 0.90,NAL-TAB2486-01-10,21/01/1994,SS,BD-01-AMB-R-R1,S_BDPSR,1,BD,1.305,,1.305,21/01/1994,0.1,Y,A,19/05/2022
TAB,2486,1,4,11,1.20 - 1.25,NAL-TAB2486-01-11,21/01/1994,SS,BD-01-AMB-R-R1,S_BDPSR,1,BD,1.301,,1.301,21/01/1994,0.1,Y,A,19/05/2022
TAB,2479,1,1,8,0.03 - 0.08,NAL-TAB2479-01-08,16/02/1994,SS,BD-01-AMB-R-R1,S_BDPSR,1,BD,1.066,,1.066,16/02/1994,0.1,Y,A,19/05/2022
TAB,2479,1,3,9,0.10 - 0.15,NAL-TAB2479-01-09,16/02/1994,SS,BD-01-AMB-R-R1,S_BDPSR,1,BD,1.133,,1.133,16/02/1994,0.1,Y,A,19/05/2022
TAB,2479,1,3,10,0.25 - 0.30,NAL-TAB2479-01-10,16/02/1994,SS,BD-01-AMB-R-R1,S_BDPSR,1,BD,1.206,,1.206,16/02/1994,0.1,Y,A,19/05/2022
TAB,2479,1,4,11,0.60 - 0.65,NAL-TAB2479-01-11,16/02/1994,SS,BD-01-AMB-R-R1,S_BDPSR,1,BD,1.312,,1.312,16/02/1994,0.1,Y,A,19/05/2022
TAB,2479,1,5,12,1.00 - 1.05,NAL-TAB2479-01-12,16/02/1994,SS,BD-01-AMB-R-R1,S_BDPSR,1,BD,1.352,,1.352,16/02/1994,0.1,Y,A,19/05/2022
TAB,2480,1,1,7,0.03 - 0.08,NAL-TAB2480-01-07,17/02/1994,SS,BD-01-AMB-R-R1,S_BDPSR,1,BD,1.267,,1.267,17/02/1994,0.1,Y,A,19/05/2022
TAB,2480,1,2,8,0.13 - 0.18,NAL-TAB2480-01-08,17/02/1994,SS,BD-01-AMB-R-R1,S_BDPSR,1,BD,1.348,,1.348,17/02/1994,0.1,Y,A,19/05/2022
TAB,2480,1,3,9,0.30 - 0.35,NAL-TAB2480-01-09,17/02/1994,SS,BD-01-AMB-R-R1,S_BDPSR,1,BD,1.406,,1.406,17/02/1994,0.1,Y,A,19/05/2022
TAB,2481,1,1,8,0.03 - 0.08,NAL-TAB2481-01-08,17/02/1994,SS,BD-01-AMB-R-R1,S_BDPSR,1,BD,0.899,,0.899,17/02/1994,0.1,Y,A,19/05/2022
TAB,2481,1,2,9,0.12 - 0.17,NAL-TAB2481-01-09,17/02/1994,SS,BD-01-AMB-R-R1,S_BDPSR,1,BD,0.916,,0.916,17/02/1994,0.1,Y,A,19/05/2022
TAB,2481,1,3,10,0.25 - 0.30,NAL-TAB2481-01-10,17/02/1994,SS,BD-01-AMB-R-R1,S_BDPSR,1,BD,1.087,,1.087,17/02/1994,0.1,Y,A,19/05/2022
TAB,2481,1,4,11,0.65 - 0.70,NAL-TAB2481-01-11,17/02/1994,SS,BD-01-AMB-R-R1,S_BDPSR,1,BD,1.142,,1.142,17/02/1994,0.1,Y,A,19/05/2022
TAB,2481,1,5,12,1.05 - 1.10,NAL-TAB2481-01-12,17/02/1994,SS,BD-01-AMB-R-R1,S_BDPSR,1,BD,1.217,,1.217,17/02/1994,0.1,Y,A,19/05/2022
TAB,2482,1,1,8,0.03 - 0.08,NAL-TAB2482-01-08,17/02/1994,SS,BD-01-AMB-R-R1,S_BDPSR,1,BD,1.145,,1.145,17/02/1994,0.1,Y,A,19/05/2022
TAB,2482,1,2,9,0.10 - 0.15,NAL-TAB2482-01-09,17/02/1994,SS,BD-01-AMB-R-R1,S_BDPSR,1,BD,1.428,,1.428,17/02/1994,0.1,Y,A,19/05/2022
TAB,2482,1,3,10,0.30 - 0.40,NAL-TAB2482-01-10,17/02/1994,SS,BD-01-AMB-R-R1,S_BDPSR,1,BD,1.476,,1.476,17/02/1994,0.1,Y,A,19/05/2022
TAB,2482,1,4,11,0.70 - 0.75,NAL-TAB2482-01-11,17/02/1994,SS,BD-01-AMB-R-R1,S_BDPSR,1,BD,1.57,,1.57,17/02/1994,0.1,Y,A,19/05/2022
TAB,2483,1,1,8,0.03 - 0.08,NAL-TAB2483-01-08,17/02/1994,SS,BD-01-AMB-R-R1,S_BDPSR,1,BD,0.896,,0.896,17/02/1994,0.1,Y,A,19/05/2022
TAB,2483,1,2,9,0.12 - 0.17,NAL-TAB2483-01-09,17/02/1994,SS,BD-01-AMB-R-R1,S_BDPSR,1,BD,1.16,,1.16,17/02/1994,0.1,Y,A,19/05/2022
TAB,2483,1,3,10,0.35 - 0.40,NAL-TAB2483-01-10,17/02/1994,SS,BD-01-AMB-R-R1,S_BDPSR,1,BD,1.196,,1.196,17/02/1994,0.1,Y,A,19/05/2022
TAB,2483,1,4,11,0.50 - 0.60,NAL-TAB2483-01-11,17/02/1994,SS,BD-01-AMB-R-R1,S_BDPSR,1,BD,1.282,,1.282,17/02/1994,0.1,Y,A,19/05/2022
TAB,2487,1,1,8,0.01 - 0.06,NAL-TAB2487-01-08,21/01/1994,SS,VO-01-0.1 bar-P-R1,S_BDPSR,1,WC,0.434,,0.434,21/01/1994,0.01,Y,A,19/05/2022
TAB,2487,1,2,9,0.10 - 0.15,NAL-TAB2487-01-09,21/01/1994,SS,VO-01-0.1 bar-P-R1,S_BDPSR,1,WC,0.397,,0.397,21/01/1994,0.01,Y,A,19/05/2022
TAB,2487,1,3,10,0.60 - 0.65,NAL-TAB2487-01-10,21/01/1994,SS,VO-01-0.1 bar-P-R1,S_BDPSR,1,WC,0.46,,0.46,21/01/1994,0.01,Y,A,19/05/2022
TAB,2487,1,4,11,1.00 - 1.05,NAL-TAB2487-01-11,21/01/1994,SS,VO-01-0.1 bar-P-R1,S_BDPSR,1,WC,0.432,,0.432,21/01/1994,0.01,Y,A,19/05/2022
TAB,2475,1,1,8,0.03 - 0.08,NAL-TAB2475-01-08,16/02/1994,SS,VO-01-0.1 bar-P-R1,S_BDPSR,1,WC,0.358,,0.358,16/02/1994,0.01,Y,A,19/05/2022
TAB,2475,1,2,9,0.25 - 0.30,NAL-TAB2475-01-09,16/02/1994,SS,VO-01-0.1 bar-P-R1,S_BDPSR,1,WC,0.381,,0.381,16/02/1994,0.01,Y,A,19/05/2022
TAB,2475,1,3,10,0.45 - 0.50,NAL-TAB2475-01-10,16/02/1994,SS,VO-01-0.1 bar-P-R1,S_BDPSR,1,WC,0.367,,0.367,16/02/1994,0.01,Y,A,19/05/2022
TAB,2475,1,4,11,0.70 - 0.75,NAL-TAB2475-01-11,16/02/1994,SS,VO-01-0.1 bar-P-R1,S_BDPSR,1,WC,0.408,,0.408,16/02/1994,0.01,Y,A,19/05/2022
TAB,2476,1,1,8,0.03 - 0.08,NAL-TAB2476-01-08,16/02/1994,SS,VO-01-0.1 bar-P-R1,S_BDPSR,1,WC,0.379,,0.379,16/02/1994,0.01,Y,A,19/05/2022
TAB,2476,1,2,9,0.25 - 0.30,NAL-TAB2476-01-09,16/02/1994,SS,VO-01-0.1 bar-P-R1,S_BDPSR,1,WC,0.345,,0.345,16/02/1994,0.01,Y,A,19/05/2022
TAB,2476,1,3,10,0.65 - 0.70,NAL-TAB2476-01-10,16/02/1994,SS,VO-01-0.1 bar-P-R1,S_BDPSR,1,WC,0.366,,0.366,16/02/1994,0.01,Y,A,19/05/2022
TAB,2476,1,4,11,1.10 - 1.15,NAL-TAB2476-01-11,16/02/1994,SS,VO-01-0.1 bar-P-R1,S_BDPSR,1,WC,0.426,,0.426,16/02/1994,0.01,Y,A,19/05/2022
TAB,2486,1,1,8,0.03 - 0.08,NAL-TAB2486-01-08,21/01/1994,SS,VO-01-0.1 bar-P-R1,S_BDPSR,1,WC,0.467,,0.467,21/01/1994,0.01,Y,A,19/05/2022
TAB,2486,1,2,9,0.35 - 0.40,NAL-TAB2486-01-09,21/01/1994,SS,VO-01-0.1 bar-P-R1,S_BDPSR,1,WC,0.41,,0.41,21/01/1994,0.01,Y,A,19/05/2022
TAB,2486,1,3,10,0.85 - 0.90,NAL-TAB2486-01-10,21/01/1994,SS,VO-01-0.1 bar-P-R1,S_BDPSR,1,WC,0.49,,0.49,21/01/1994,0.01,Y,A,19/05/2022
TAB,2486,1,4,11,1.20 - 1.25,NAL-TAB2486-01-11,21/01/1994,SS,VO-01-0.1 bar-P-R1,S_BDPSR,1,WC,0.5,,0.5,21/01/1994,0.01,Y,A,19/05/2022
TAB,2479,1,1,8,0.03 - 0.08,NAL-TAB2479-01-08,16/02/1994,SS,VO-01-0.1 bar-P-R1,S_BDPSR,1,WC,0.498,,0.498,16/02/1994,0.01,Y,A,19/05/2022
TAB,2479,1,3,9,0.10 - 0.15,NAL-TAB2479-01-09,16/02/1994,SS,VO-01-0.1 bar-P-R1,S_BDPSR,1,WC,0.471,,0.471,16/02/1994,0.01,Y,A,19/05/2022
TAB,2479,1,3,10,0.25 - 0.30,NAL-TAB2479-01-10,16/02/1994,SS,VO-01-0.1 bar-P-R1,S_BDPSR,1,WC,0.472,,0.472,16/02/1994,0.01,Y,A,19/05/2022
TAB,2479,1,4,11,0.60 - 0.65,NAL-TAB2479-01-11,16/02/1994,SS,VO-01-0.1 bar-P-R1,S_BDPSR,1,WC,0.504,,0.504,16/02/1994,0.01,Y,A,19/05/2022
TAB,2479,1,5,12,1.00 - 1.05,NAL-TAB2479-01-12,16/02/1994,SS,VO-01-0.1 bar-P-R1,S_BDPSR,1,WC,0.502,,0.502,16/02/1994,0.01,Y,A,19/05/2022
TAB,2480,1,1,7,0.03 - 0.08,NAL-TAB2480-01-07,17/02/1994,SS,VO-01-0.1 bar-P-R1,S_BDPSR,1,WC,0.403,,0.403,17/02/1994,0.01,Y,A,19/05/2022
TAB,2480,1,2,8,0.13 - 0.18,NAL-TAB2480-01-08,17/02/1994,SS,VO-01-0.1 bar-P-R1,S_BDPSR,1,WC,0.355,,0.355,17/02/1994,0.01,Y,A,19/05/2022
TAB,2480,1,3,9,0.30 - 0.35,NAL-TAB2480-01-09,17/02/1994,SS,VO-01-0.1 bar-P-R1,S_BDPSR,1,WC,0.364,,0.364,17/02/1994,0.01,Y,A,19/05/2022
TAB,2481,1,1,8,0.03 - 0.08,NAL-TAB2481-01-08,17/02/1994,SS,VO-01-0.1 bar-P-R1,S_BDPSR,1,WC,0.572,,0.572,17/02/1994,0.01,Y,A,19/05/2022
TAB,2481,1,2,9,0.12 - 0.17,NAL-TAB2481-01-09,17/02/1994,SS,VO-01-0.1 bar-P-R1,S_BDPSR,1,WC,0.489,,0.489,17/02/1994,0.01,Y,A,19/05/2022
TAB,2481,1,3,10,0.25 - 0.30,NAL-TAB2481-01-10,17/02/1994,SS,VO-01-0.1 bar-P-R1,S_BDPSR,1,WC,0.491,,0.491,17/02/1994,0.01,Y,A,19/05/2022
TAB,2481,1,4,11,0.65 - 0.70,NAL-TAB2481-01-11,17/02/1994,SS,VO-01-0.1 bar-P-R1,S_BDPSR,1,WC,0.496,,0.496,17/02/1994,0.01,Y,A,19/05/2022
TAB,2481,1,5,12,1.05 - 1.10,NAL-TAB2481-01-12,17/02/1994,SS,VO-01-0.1 bar-P-R1,S_BDPSR,1,WC,0.539,,0.539,17/02/1994,0.01,Y,A,19/05/2022
TAB,2482,1,1,8,0.03 - 0.08,NAL-TAB2482-01-08,17/02/1994,SS,VO-01-0.1 bar-P-R1,S_BDPSR,1,WC,0.42,,0.42,17/02/1994,0.01,Y,A,19/05/2022
TAB,2482,1,2,9,0.10 - 0.15,NAL-TAB2482-01-09,17/02/1994,SS,VO-01-0.1 bar-P-R1,S_BDPSR,1,WC,0.374,,0.374,17/02/1994,0.01,Y,A,19/05/2022
TAB,2482,1,3,10,0.30 - 0.40,NAL-TAB2482-01-10,17/02/1994,SS,VO-01-0.1 bar-P-R1,S_BDPSR,1,WC,0.35,,0.35,17/02/1994,0.01,Y,A,19/05/2022
TAB,2482,1,4,11,0.70 - 0.75,NAL-TAB2482-01-11,17/02/1994,SS,VO-01-0.1 bar-P-R1,S_BDPSR,1,WC,0.351,,0.351,17/02/1994,0.01,Y,A,19/05/2022
TAB,2483,1,1,8,0.03 - 0.08,NAL-TAB2483-01-08,17/02/1994,SS,VO-01-0.1 bar-P-R1,S_BDPSR,1,WC,0.353,,0.353,17/02/1994,0.01,Y,A,19/05/2022
TAB,2483,1,2,9,0.12 - 0.17,NAL-TAB2483-01-09,17/02/1994,SS,VO-01-0.1 bar-P-R1,S_BDPSR,1,WC,0.476,,0.476,17/02/1994,0.01,Y,A,19/05/2022
TAB,2483,1,3,10,0.35 - 0.40,NAL-TAB2483-01-10,17/02/1994,SS,VO-01-0.1 bar-P-R1,S_BDPSR,1,WC,0.478,,0.478,17/02/1994,0.01,Y,A,19/05/2022
TAB,2483,1,4,11,0.50 - 0.60,NAL-TAB2483-01-11,17/02/1994,SS,VO-01-0.1 bar-P-R1,S_BDPSR,1,WC,0.494,,0.494,17/02/1994,0.01,Y,A,19/05/2022
TAB,2487,1,1,8,0.01 - 0.06,NAL-TAB2487-01-08,18/02/1994,SS,VO-01-15 bar-P-R1,S_BDPSR,1,WC,0.255,,0.255,18/02/1994,0.01,Y,A,19/05/2022
TAB,2487,1,2,9,0.10 - 0.15,NAL-TAB2487-01-09,18/02/1994,SS,VO-01-15 bar-P-R1,S_BDPSR,1,WC,0.284,,0.284,18/02/1994,0.01,Y,A,19/05/2022
TAB,2487,1,3,10,0.60 - 0.65,NAL-TAB2487-01-10,18/02/1994,SS,VO-01-15 bar-P-R1,S_BDPSR,1,WC,0.293,,0.293,18/02/1994,0.01,Y,A,19/05/2022
TAB,2487,1,4,11,1.00 - 1.05,NAL-TAB2487-01-11,18/02/1994,SS,VO-01-15 bar-P-R1,S_BDPSR,1,WC,0.341,,0.341,18/02/1994,0.01,Y,A,19/05/2022
TAB,2475,1,1,8,0.03 - 0.08,NAL-TAB2475-01-08,16/02/1994,SS,VO-01-15 bar-P-R1,S_BDPSR,1,WC,0.244,,0.244,16/02/1994,0.01,Y,A,19/05/2022
TAB,2475,1,2,9,0.25 - 0.30,NAL-TAB2475-01-09,16/02/1994,SS,VO-01-15 bar-P-R1,S_BDPSR,1,WC,0.249,,0.249,16/02/1994,0.01,Y,A,19/05/2022
TAB,2475,1,3,10,0.45 - 0.50,NAL-TAB2475-01-10,16/02/1994,SS,VO-01-15 bar-P-R1,S_BDPSR,1,WC,0.267,,0.267,16/02/1994,0.01,Y,A,19/05/2022
TAB,2475,1,4,11,0.70 - 0.75,NAL-TAB2475-01-11,16/02/1994,SS,VO-01-15 bar-P-R1,S_BDPSR,1,WC,0.291,,0.291,16/02/1994,0.01,Y,A,19/05/2022
TAB,2476,1,1,8,0.30 - 0.80,NAL-TAB2476-01-08,16/02/1994,SS,VO-01-15 bar-P-R1,S_BDPSR,1,WC,0.335,,0.335,16/02/1994,0.01,Y,A,19/05/2022
TAB,2476,1,2,9,0.25 - 0.30,NAL-TAB2476-01-09,16/02/1994,SS,VO-01-15 bar-P-R1,S_BDPSR,1,WC,0.296,,0.296,16/02/1994,0.01,Y,A,19/05/2022
TAB,2476,1,3,10,0.65 - 0.70,NAL-TAB2476-01-10,16/02/1994,SS,VO-01-15 bar-P-R1,S_BDPSR,1,WC,0.344,,0.344,16/02/1994,0.01,Y,A,19/05/2022
TAB,2476,1,4,11,1.10 - 1.15,NAL-TAB2476-01-11,16/02/1994,SS,VO-01-15 bar-P-R1,S_BDPSR,1,WC,0.35,,0.35,16/02/1994,0.01,Y,A,19/05/2022
TAB,2486,1,1,8,0.03 - 0.08,NAL-TAB2486-01-08,21/01/1994,SS,VO-01-15 bar-P-R1,S_BDPSR,1,WC,0.289,,0.289,21/01/1994,0.01,Y,A,19/05/2022
TAB,2486,1,2,9,0.35 - 0.40,NAL-TAB2486-01-09,21/01/1994,SS,VO-01-15 bar-P-R1,S_BDPSR,1,WC,0.332,,0.332,21/01/1994,0.01,Y,A,19/05/2022
TAB,2486,1,3,10,0.85 - 0.90,NAL-TAB2486-01-10,21/01/1994,SS,VO-01-15 bar-P-R1,S_BDPSR,1,WC,0.365,,0.365,21/01/1994,0.01,Y,A,19/05/2022
TAB,2486,1,4,11,1.20 - 1.25,NAL-TAB2486-01-11,21/01/1994,SS,VO-01-15 bar-P-R1,S_BDPSR,1,WC,0.325,,0.325,21/01/1994,0.01,Y,A,19/05/2022
TAB,2479,1,1,8,0.03 - 0.08,NAL-TAB2479-01-08,16/02/1994,SS,VO-01-15 bar-P-R1,S_BDPSR,1,WC,0.277,,0.277,16/02/1994,0.01,Y,A,19/05/2022
TAB,2479,1,3,9,0.10 - 0.15,NAL-TAB2479-01-09,16/02/1994,SS,VO-01-15 bar-P-R1,S_BDPSR,1,WC,0.295,,0.295,16/02/1994,0.01,Y,A,19/05/2022
TAB,2479,1,3,10,0.25 - 0.30,NAL-TAB2479-01-10,16/02/1994,SS,VO-01-15 bar-P-R1,S_BDPSR,1,WC,0.301,,0.301,16/02/1994,0.01,Y,A,19/05/2022
TAB,2479,1,4,11,0.60 - 0.65,NAL-TAB2479-01-11,16/02/1994,SS,VO-01-15 bar-P-R1,S_BDPSR,1,WC,0.354,,0.354,16/02/1994,0.01,Y,A,19/05/2022
TAB,2479,1,5,12,1.00 - 1.05,NAL-TAB2479-01-12,16/02/1994,SS,VO-01-15 bar-P-R1,S_BDPSR,1,WC,0.406,,0.406,16/02/1994,0.01,Y,A,19/05/2022
TAB,2480,1,1,7,0.03 - 8.00,NAL-TAB2480-01-07,17/02/1994,SS,VO-01-15 bar-P-R1,S_BDPSR,1,WC,0.121,,0.121,17/02/1994,0.01,Y,A,19/05/2022
TAB,2480,1,2,8,0.13 - 0.18,NAL-TAB2480-01-08,17/02/1994,SS,VO-01-15 bar-P-R1,S_BDPSR,1,WC,0.102,,0.102,17/02/1994,0.01,Y,A,19/05/2022
TAB,2480,1,3,9,0.30 - 0.35,NAL-TAB2480-01-09,17/02/1994,SS,VO-01-15 bar-P-R1,S_BDPSR,1,WC,0.131,,0.131,17/02/1994,0.01,Y,A,19/05/2022
TAB,2481,1,1,8,0.03 - 0.08,NAL-TAB2481-01-08,17/02/1994,SS,VO-01-15 bar-P-R1,S_BDPSR,1,WC,0.234,,0.234,17/02/1994,0.01,Y,A,19/05/2022
TAB,2481,1,2,9,0.12 - 0.17,NAL-TAB2481-01-09,17/02/1994,SS,VO-01-15 bar-P-R1,S_BDPSR,1,WC,0.238,,0.238,17/02/1994,0.01,Y,A,19/05/2022
TAB,2481,1,3,10,0.25 - 0.30,NAL-TAB2481-01-10,17/02/1994,SS,VO-01-15 bar-P-R1,S_BDPSR,1,WC,0.283,,0.283,17/02/1994,0.01,Y,A,19/05/2022
TAB,2481,1,4,11,0.65 - 0.70,NAL-TAB2481-01-11,17/02/1994,SS,VO-01-15 bar-P-R1,S_BDPSR,1,WC,0.282,,0.282,17/02/1994,0.01,Y,A,19/05/2022
TAB,2481,1,5,12,1.05 - 1.10,NAL-TAB2481-01-12,17/02/1994,SS,VO-01-15 bar-P-R1,S_BDPSR,1,WC,0.329,,0.329,17/02/1994,0.01,Y,A,19/05/2022
TAB,2482,1,1,8,0.03 - 0.08,NAL-TAB2482-01-08,17/02/1994,SS,VO-01-15 bar-P-R1,S_BDPSR,1,WC,0.203,,0.203,17/02/1994,0.01,Y,A,19/05/2022
TAB,2482,1,2,9,0.10 - 0.15,NAL-TAB2482-01-09,17/02/1994,SS,VO-01-15 bar-P-R1,S_BDPSR,1,WC,0.293,,0.293,17/02/1994,0.01,Y,A,19/05/2022
TAB,2482,1,3,10,0.30 - 0.40,NAL-TAB2482-01-10,17/02/1994,SS,VO-01-15 bar-P-R1,S_BDPSR,1,WC,0.337,,0.337,17/02/1994,0.01,Y,A,19/05/2022
TAB,2482,1,4,11,0.70 - 0.75,NAL-TAB2482-01-11,17/02/1994,SS,VO-01-15 bar-P-R1,S_BDPSR,1,WC,0.353,,0.353,17/02/1994,0.01,Y,A,19/05/2022
TAB,2483,1,1,8,0.03 - 0.08,NAL-TAB2483-01-08,17/02/1994,SS,VO-01-15 bar-P-R1,S_BDPSR,1,WC,0.233,,0.233,17/02/1994,0.01,Y,A,19/05/2022
TAB,2483,1,2,9,0.12 - 0.17,NAL-TAB2483-01-09,17/02/1994,SS,VO-01-15 bar-P-R1,S_BDPSR,1,WC,0.296,,0.296,17/02/1994,0.01,Y,A,19/05/2022
TAB,2483,1,3,10,0.35 - 0.40,NAL-TAB2483-01-10,17/02/1994,SS,VO-01-15 bar-P-R1,S_BDPSR,1,WC,0.311,,0.311,17/02/1994,0.01,Y,A,19/05/2022
TAB,2483,1,4,11,0.50 - 0.60,NAL-TAB2483-01-11,17/02/1994,SS,VO-01-15 bar-P-R1,S_BDPSR,1,WC,0.346,,0.346,17/02/1994,0.01,Y,A,19/05/2022
TAB,2487,1,1,8,0.01 - 0.06,NAL-TAB2487-01-08,18/02/1994,SS,VO-01-SAT-P-R1,S_BDPSR,1,WC,0.646,,0.646,18/02/1994,0.01,Y,A,19/05/2022
TAB,2487,1,2,9,0.10 - 0.15,NAL-TAB2487-01-09,18/02/1994,SS,VO-01-SAT-P-R1,S_BDPSR,1,WC,0.603,,0.603,18/02/1994,0.01,Y,A,19/05/2022
TAB,2487,1,3,10,0.60 - 0.65,NAL-TAB2487-01-10,18/02/1994,SS,VO-01-SAT-P-R1,S_BDPSR,1,WC,0.536,,0.536,18/02/1994,0.01,Y,A,19/05/2022
TAB,2487,1,4,11,1.00 - 1.05,NAL-TAB2487-01-11,18/02/1994,SS,VO-01-SAT-P-R1,S_BDPSR,1,WC,0.482,,0.482,18/02/1994,0.01,Y,A,19/05/2022
TAB,2475,1,1,8,0.03 - 0.08,NAL-TAB2475-01-08,16/02/1994,SS,VO-01-SAT-P-R1,S_BDPSR,1,WC,0.585,,0.585,16/02/1994,0.01,Y,A,19/05/2022
TAB,2475,1,2,9,0.25 - 0.30,NAL-TAB2475-01-09,16/02/1994,SS,VO-01-SAT-P-R1,S_BDPSR,1,WC,0.567,,0.567,16/02/1994,0.01,Y,A,19/05/2022
TAB,2475,1,3,10,0.45 - 0.50,NAL-TAB2475-01-10,16/02/1994,SS,VO-01-SAT-P-R1,S_BDPSR,1,WC,0.545,,0.545,16/02/1994,0.01,Y,A,19/05/2022
TAB,2475,1,4,11,0.70 - 0.75,NAL-TAB2475-01-11,16/02/1994,SS,VO-01-SAT-P-R1,S_BDPSR,1,WC,0.499,,0.499,16/02/1994,0.01,Y,A,19/05/2022
TAB,2476,1,1,8,0.03 - 0.08,NAL-TAB2476-01-08,16/02/1994,SS,VO-01-SAT-P-R1,S_BDPSR,1,WC,0.545,,0.545,16/02/1994,0.01,Y,A,19/05/2022
TAB,2476,1,2,9,0.25 - 0.30,NAL-TAB2476-01-09,16/02/1994,SS,VO-01-SAT-P-R1,S_BDPSR,1,WC,0.568,,0.568,16/02/1994,0.01,Y,A,19/05/2022
TAB,2476,1,3,10,0.65 - 0.70,NAL-TAB2476-01-10,16/02/1994,SS,VO-01-SAT-P-R1,S_BDPSR,1,WC,0.507,,0.507,16/02/1994,0.01,Y,A,19/05/2022
TAB,2476,1,4,11,1.10 - 1.15,NAL-TAB2476-01-11,16/02/1994,SS,VO-01-SAT-P-R1,S_BDPSR,1,WC,0.502,,0.502,16/02/1994,0.01,Y,A,19/05/2022
TAB,2486,1,1,8,0.03 - 0.08,NAL-TAB2486-01-08,21/01/1994,SS,VO-01-SAT-P-R1,S_BDPSR,1,WC,0.552,,0.552,21/01/1994,0.01,Y,A,19/05/2022
TAB,2486,1,2,9,0.35 - 0.40,NAL-TAB2486-01-09,21/01/1994,SS,VO-01-SAT-P-R1,S_BDPSR,1,WC,0.489,,0.489,21/01/1994,0.01,Y,A,19/05/2022
TAB,2486,1,3,10,0.85 - 0.90,NAL-TAB2486-01-10,21/01/1994,SS,VO-01-SAT-P-R1,S_BDPSR,1,WC,0.509,,0.509,21/01/1994,0.01,Y,A,19/05/2022
TAB,2486,1,4,11,1.20 - 1.25,NAL-TAB2486-01-11,21/01/1994,SS,VO-01-SAT-P-R1,S_BDPSR,1,WC,0.539,,0.539,21/01/1994,0.01,Y,A,19/05/2022
TAB,2479,1,1,8,0.03 - 0.08,NAL-TAB2479-01-08,16/02/1994,SS,VO-01-SAT-P-R1,S_BDPSR,1,WC,0.625,,0.625,16/02/1994,0.01,Y,A,19/05/2022
TAB,2479,1,3,10,0.10 - 0.15,NAL-TAB2479-01-10,16/02/1994,SS,VO-01-SAT-P-R1,S_BDPSR,1,WC,0.597,,0.597,16/02/1994,0.01,Y,A,19/05/2022
TAB,2479,1,3,10,0.25 - 0.30,NAL-TAB2479-01-10,16/02/1994,SS,VO-01-SAT-P-R1,S_BDPSR,1,WC,0.571,,0.571,16/02/1994,0.01,Y,A,19/05/2022
TAB,2479,1,4,11,0.60 - 0.65,NAL-TAB2479-01-11,16/02/1994,SS,VO-01-SAT-P-R1,S_BDPSR,1,WC,0.544,,0.544,16/02/1994,0.01,Y,A,19/05/2022
TAB,2479,1,5,12,1.00 - 1.05,NAL-TAB2479-01-12,16/02/1994,SS,VO-01-SAT-P-R1,S_BDPSR,1,WC,0.538,,0.538,16/02/1994,0.01,Y,A,19/05/2022
TAB,2480,1,1,7,0.03 - 0.08,NAL-TAB2480-01-07,17/02/1994,SS,VO-01-SAT-P-R1,S_BDPSR,1,WC,0.519,,0.519,17/02/1994,0.01,Y,A,19/05/2022
TAB,2480,1,2,8,0.13 - 0.18,NAL-TAB2480-01-08,17/02/1994,SS,VO-01-SAT-P-R1,S_BDPSR,1,WC,0.465,,0.465,17/02/1994,0.01,Y,A,19/05/2022
TAB,2480,1,3,9,0.30 - 0.35,NAL-TAB2480-01-09,17/02/1994,SS,VO-01-SAT-P-R1,S_BDPSR,1,WC,0.456,,0.456,17/02/1994,0.01,Y,A,19/05/2022
TAB,2481,1,1,8,0.03 - 0.08,NAL-TAB2481-01-08,17/02/1994,SS,VO-01-SAT-P-R1,S_BDPSR,1,WC,0.663,,0.663,17/02/1994,0.01,Y,A,19/05/2022
TAB,2481,1,2,9,0.12 - 0.17,NAL-TAB2481-01-09,17/02/1994,SS,VO-01-SAT-P-R1,S_BDPSR,1,WC,0.652,,0.652,17/02/1994,0.01,Y,A,19/05/2022
TAB,2481,1,3,10,0.25 - 0.30,NAL-TAB2481-01-10,17/02/1994,SS,VO-01-SAT-P-R1,S_BDPSR,1,WC,0.586,,0.586,17/02/1994,0.01,Y,A,19/05/2022
TAB,2481,1,4,11,0.65 - 0.70,NAL-TAB2481-01-11,17/02/1994,SS,VO-01-SAT-P-R1,S_BDPSR,1,WC,0.581,,0.581,17/02/1994,0.01,Y,A,19/05/2022
TAB,2481,1,5,12,0.05 - 1.10,NAL-TAB2481-01-12,17/02/1994,SS,VO-01-SAT-P-R1,S_BDPSR,1,WC,0.569,,0.569,17/02/1994,0.01,Y,A,19/05/2022
TAB,2482,1,1,8,0.03 - 0.08,NAL-TAB2482-01-08,17/02/1994,SS,VO-01-SAT-P-R1,S_BDPSR,1,WC,0.535,,0.535,17/02/1994,0.01,Y,A,19/05/2022
TAB,2482,1,2,9,0.10 - 0.15,NAL-TAB2482-01-09,17/02/1994,SS,VO-01-SAT-P-R1,S_BDPSR,1,WC,0.436,,0.436,17/02/1994,0.01,Y,A,19/05/2022
TAB,2482,1,3,10,0.30 - 0.40,NAL-TAB2482-01-10,17/02/1994,SS,VO-01-SAT-P-R1,S_BDPSR,1,WC,0.408,,0.408,17/02/1994,0.01,Y,A,19/05/2022
TAB,2482,1,4,11,0.70 - 0.75,NAL-TAB2482-01-11,17/02/1994,SS,VO-01-SAT-P-R1,S_BDPSR,1,WC,0.393,,0.393,17/02/1994,0.01,Y,A,19/05/2022
TAB,2483,1,1,8,0.03 - 0.08,NAL-TAB2483-01-08,17/02/1994,SS,VO-01-SAT-P-R1,S_BDPSR,1,WC,0.585,,0.585,17/02/1994,0.01,Y,A,19/05/2022
TAB,2483,1,2,9,0.12 - 0.17,NAL-TAB2483-01-09,17/02/1994,SS,VO-01-SAT-P-R1,S_BDPSR,1,WC,0.541,,0.541,17/02/1994,0.01,Y,A,19/05/2022
TAB,2483,1,3,10,0.35 - 0.40,NAL-TAB2483-01-10,17/02/1994,SS,VO-01-SAT-P-R1,S_BDPSR,1,WC,0.529,,0.529,17/02/1994,0.01,Y,A,19/05/2022
TAB,2483,1,4,11,0.50 - 0.60,NAL-TAB2483-01-11,17/02/1994,SS,VO-01-SAT-P-R1,S_BDPSR,1,WC,0.519,,0.519,17/02/1994,0.01,Y,A,19/05/2022
