"NAME","PROJECT_CODE","SITE_ID","UD","LD","BD","midPnt_cm","ID","NAME_ID","Source"
"Brightley","MISCQ",301,0,10,1.41,5,"MISCQ-301-1","Brightley_MISCQ-301-1","Jenny splined"
"Brightley","MISCQ",301,10,20,1.46,15,"MISCQ-301-1","Brightley_MISCQ-301-1","Jenny splined"
"Brightley","MISCQ",301,20,30,1.51,25,"MISCQ-301-1","Brightley_MISCQ-301-1","Jenny splined"
"Brightley","MISCQ",301,30,40,1.54,35,"MISCQ-301-1","Brightley_MISCQ-301-1","Jenny splined"
"Brightley","MISCQ",301,40,50,1.58,45,"MISCQ-301-1","Brightley_MISCQ-301-1","Jenny splined"
"Brightley","MISCQ",301,50,60,1.66,55,"MISCQ-301-1","Brightley_MISCQ-301-1","Jenny splined"
"Brightley","MISCQ",301,60,70,1.74,65,"MISCQ-301-1","Brightley_MISCQ-301-1","Jenny splined"
"Brightley","MISCQ",301,70,80,1.8,75,"MISCQ-301-1","Brightley_MISCQ-301-1","Jenny splined"
"Brightley","MISCQ",301,80,90,1.83,85,"MISCQ-301-1","Brightley_MISCQ-301-1","Jenny splined"
"Brightley","MISCQ",301,90,100,1.85,95,"MISCQ-301-1","Brightley_MISCQ-301-1","Jenny splined"
"Brightley","MISCQ",301,100,110,1.87,105,"MISCQ-301-1","Brightley_MISCQ-301-1","Jenny splined"
"Brightley","MISCQ",301,110,120,1.89,115,"MISCQ-301-1","Brightley_MISCQ-301-1","Jenny splined"
"Brightley","MISCQ",301,120,130,1.9,125,"MISCQ-301-1","Brightley_MISCQ-301-1","Jenny splined"
"Brightley","MISCQ",301,130,140,1.89,135,"MISCQ-301-1","Brightley_MISCQ-301-1","Jenny splined"
"Brightley","MISCQ",301,140,150,1.89,145,"MISCQ-301-1","Brightley_MISCQ-301-1","Jenny splined"
"Brightley","MISCQ",301,150,160,1.89,155,"MISCQ-301-1","Brightley_MISCQ-301-1","Jenny splined"
"Brightley","MISCQ",301,160,170,1.93,165,"MISCQ-301-1","Brightley_MISCQ-301-1","Jenny splined"
"Calen","MISCQ",300,0,10,1.42,5,"MISCQ-300-1","Calen_MISCQ-300-1","Jenny splined"
"Calen","MISCQ",300,10,20,1.47,15,"MISCQ-300-1","Calen_MISCQ-300-1","Jenny splined"
"Calen","MISCQ",300,20,30,1.5,25,"MISCQ-300-1","Calen_MISCQ-300-1","Jenny splined"
"Calen","MISCQ",300,30,40,1.53,35,"MISCQ-300-1","Calen_MISCQ-300-1","Jenny splined"
"Calen","MISCQ",300,40,50,1.55,45,"MISCQ-300-1","Calen_MISCQ-300-1","Jenny splined"
"Calen","MISCQ",300,50,60,1.58,55,"MISCQ-300-1","Calen_MISCQ-300-1","Jenny splined"
"Calen","MISCQ",300,60,70,1.6,65,"MISCQ-300-1","Calen_MISCQ-300-1","Jenny splined"
"Calen","MISCQ",300,70,80,1.63,75,"MISCQ-300-1","Calen_MISCQ-300-1","Jenny splined"
"Calen","MISCQ",300,80,90,1.65,85,"MISCQ-300-1","Calen_MISCQ-300-1","Jenny splined"
"Calen","MISCQ",300,90,100,1.67,95,"MISCQ-300-1","Calen_MISCQ-300-1","Jenny splined"
"Calen","MISCQ",300,100,110,1.7,105,"MISCQ-300-1","Calen_MISCQ-300-1","Jenny splined"
"Calen","MISCQ",300,110,120,1.72,115,"MISCQ-300-1","Calen_MISCQ-300-1","Jenny splined"
"Calen","MISCQ",300,120,130,1.74,125,"MISCQ-300-1","Calen_MISCQ-300-1","Jenny splined"
"Calen","MISCQ",300,130,140,1.75,135,"MISCQ-300-1","Calen_MISCQ-300-1","Jenny splined"
"Calen","MISCQ",300,140,150,1.75,145,"MISCQ-300-1","Calen_MISCQ-300-1","Jenny splined"
"Calen","MISCQ",300,150,160,1.77,155,"MISCQ-300-1","Calen_MISCQ-300-1","Jenny splined"
"Calen","MISCQ",300,160,170,1.76,165,"MISCQ-300-1","Calen_MISCQ-300-1","Jenny splined"
"Eton","MISCQ",308,0,10,1.36,5,"MISCQ-308-1","Eton_MISCQ-308-1","Jenny splined"
"Eton","MISCQ",308,10,20,1.52,15,"MISCQ-308-1","Eton_MISCQ-308-1","Jenny splined"
"Eton","MISCQ",308,20,30,1.67,25,"MISCQ-308-1","Eton_MISCQ-308-1","Jenny splined"
"Eton","MISCQ",308,30,40,1.7,35,"MISCQ-308-1","Eton_MISCQ-308-1","Jenny splined"
"Eton","MISCQ",308,40,50,1.71,45,"MISCQ-308-1","Eton_MISCQ-308-1","Jenny splined"
"Eton","MISCQ",308,50,60,1.74,55,"MISCQ-308-1","Eton_MISCQ-308-1","Jenny splined"
"Eton","MISCQ",308,60,70,1.77,65,"MISCQ-308-1","Eton_MISCQ-308-1","Jenny splined"
"Eton","MISCQ",308,70,80,1.8,75,"MISCQ-308-1","Eton_MISCQ-308-1","Jenny splined"
"Eton","MISCQ",308,80,90,1.82,85,"MISCQ-308-1","Eton_MISCQ-308-1","Jenny splined"
"Eton","MISCQ",308,90,100,1.83,95,"MISCQ-308-1","Eton_MISCQ-308-1","Jenny splined"
"Eton","MISCQ",308,100,110,1.85,105,"MISCQ-308-1","Eton_MISCQ-308-1","Jenny splined"
"Eton","MISCQ",308,110,120,1.87,115,"MISCQ-308-1","Eton_MISCQ-308-1","Jenny splined"
"Eton","MISCQ",308,120,130,1.87,125,"MISCQ-308-1","Eton_MISCQ-308-1","Jenny splined"
"Eton","MISCQ",308,130,140,1.89,135,"MISCQ-308-1","Eton_MISCQ-308-1","Jenny splined"
"Eton","MISCQ",308,140,150,1.89,145,"MISCQ-308-1","Eton_MISCQ-308-1","Jenny splined"
"Eton","MISCQ",308,150,160,NA,155,"MISCQ-308-1","Eton_MISCQ-308-1","Jenny splined"
"Eton","MISCQ",308,160,170,NA,165,"MISCQ-308-1","Eton_MISCQ-308-1","Jenny splined"
"Gargett","MISCQ",311,0,10,1.42,5,"MISCQ-311-1","Gargett_MISCQ-311-1","Jenny splined"
"Gargett","MISCQ",311,10,20,1.41,15,"MISCQ-311-1","Gargett_MISCQ-311-1","Jenny splined"
"Gargett","MISCQ",311,20,30,1.45,25,"MISCQ-311-1","Gargett_MISCQ-311-1","Jenny splined"
"Gargett","MISCQ",311,30,40,1.52,35,"MISCQ-311-1","Gargett_MISCQ-311-1","Jenny splined"
"Gargett","MISCQ",311,40,50,1.59,45,"MISCQ-311-1","Gargett_MISCQ-311-1","Jenny splined"
"Gargett","MISCQ",311,50,60,1.63,55,"MISCQ-311-1","Gargett_MISCQ-311-1","Jenny splined"
"Gargett","MISCQ",311,60,70,1.67,65,"MISCQ-311-1","Gargett_MISCQ-311-1","Jenny splined"
"Gargett","MISCQ",311,70,80,1.69,75,"MISCQ-311-1","Gargett_MISCQ-311-1","Jenny splined"
"Gargett","MISCQ",311,80,90,1.7,85,"MISCQ-311-1","Gargett_MISCQ-311-1","Jenny splined"
"Gargett","MISCQ",311,90,100,1.72,95,"MISCQ-311-1","Gargett_MISCQ-311-1","Jenny splined"
"Gargett","MISCQ",311,100,110,1.78,105,"MISCQ-311-1","Gargett_MISCQ-311-1","Jenny splined"
"Gargett","MISCQ",311,110,120,1.85,115,"MISCQ-311-1","Gargett_MISCQ-311-1","Jenny splined"
"Gargett","MISCQ",311,120,130,1.87,125,"MISCQ-311-1","Gargett_MISCQ-311-1","Jenny splined"
"Gargett","MISCQ",311,130,140,1.84,135,"MISCQ-311-1","Gargett_MISCQ-311-1","Jenny splined"
"Gargett","MISCQ",311,140,150,1.81,145,"MISCQ-311-1","Gargett_MISCQ-311-1","Jenny splined"
"Gargett","MISCQ",311,150,160,1.79,155,"MISCQ-311-1","Gargett_MISCQ-311-1","Jenny splined"
"Gargett","MISCQ",311,160,170,NA,165,"MISCQ-311-1","Gargett_MISCQ-311-1","Jenny splined"
"Marian","MISCQ",42,0,10,1.59,5,"MISCQ-42-1","Marian_MISCQ-42-1","Jenny splined"
"Marian","MISCQ",42,10,20,1.61,15,"MISCQ-42-1","Marian_MISCQ-42-1","Jenny splined"
"Marian","MISCQ",42,20,30,1.58,25,"MISCQ-42-1","Marian_MISCQ-42-1","Jenny splined"
"Marian","MISCQ",42,30,40,1.52,35,"MISCQ-42-1","Marian_MISCQ-42-1","Jenny splined"
"Marian","MISCQ",42,40,50,1.41,45,"MISCQ-42-1","Marian_MISCQ-42-1","Jenny splined"
"Marian","MISCQ",42,50,60,1.34,55,"MISCQ-42-1","Marian_MISCQ-42-1","Jenny splined"
"Marian","MISCQ",42,60,70,1.37,65,"MISCQ-42-1","Marian_MISCQ-42-1","Jenny splined"
"Marian","MISCQ",42,70,80,1.42,75,"MISCQ-42-1","Marian_MISCQ-42-1","Jenny splined"
"Marian","MISCQ",42,80,90,1.5,85,"MISCQ-42-1","Marian_MISCQ-42-1","Jenny splined"
"Marian","MISCQ",42,90,100,1.51,95,"MISCQ-42-1","Marian_MISCQ-42-1","Jenny splined"
"Marian","MISCQ",42,100,110,1.39,105,"MISCQ-42-1","Marian_MISCQ-42-1","Jenny splined"
"Marian","MISCQ",42,110,120,NA,115,"MISCQ-42-1","Marian_MISCQ-42-1","Jenny splined"
"Marian","MISCQ",42,120,130,NA,125,"MISCQ-42-1","Marian_MISCQ-42-1","Jenny splined"
"Marian","MISCQ",42,130,140,NA,135,"MISCQ-42-1","Marian_MISCQ-42-1","Jenny splined"
"Marian","MISCQ",42,140,150,NA,145,"MISCQ-42-1","Marian_MISCQ-42-1","Jenny splined"
"Marian","MISCQ",42,150,160,NA,155,"MISCQ-42-1","Marian_MISCQ-42-1","Jenny splined"
"Marian","MISCQ",42,160,170,NA,165,"MISCQ-42-1","Marian_MISCQ-42-1","Jenny splined"
"Marian Yellow B Horizon Variant","MISCQ",47,0,10,1.61,5,"MISCQ-47-1","Marian Yellow B Horizon Variant_MISCQ-47-1","Jenny splined"
"Marian Yellow B Horizon Variant","MISCQ",47,10,20,1.61,15,"MISCQ-47-1","Marian Yellow B Horizon Variant_MISCQ-47-1","Jenny splined"
"Marian Yellow B Horizon Variant","MISCQ",47,20,30,1.66,25,"MISCQ-47-1","Marian Yellow B Horizon Variant_MISCQ-47-1","Jenny splined"
"Marian Yellow B Horizon Variant","MISCQ",47,30,40,1.73,35,"MISCQ-47-1","Marian Yellow B Horizon Variant_MISCQ-47-1","Jenny splined"
"Marian Yellow B Horizon Variant","MISCQ",47,40,50,1.76,45,"MISCQ-47-1","Marian Yellow B Horizon Variant_MISCQ-47-1","Jenny splined"
"Marian Yellow B Horizon Variant","MISCQ",47,50,60,1.76,55,"MISCQ-47-1","Marian Yellow B Horizon Variant_MISCQ-47-1","Jenny splined"
"Marian Yellow B Horizon Variant","MISCQ",47,60,70,1.75,65,"MISCQ-47-1","Marian Yellow B Horizon Variant_MISCQ-47-1","Jenny splined"
"Marian Yellow B Horizon Variant","MISCQ",47,70,80,1.77,75,"MISCQ-47-1","Marian Yellow B Horizon Variant_MISCQ-47-1","Jenny splined"
"Marian Yellow B Horizon Variant","MISCQ",47,80,90,1.84,85,"MISCQ-47-1","Marian Yellow B Horizon Variant_MISCQ-47-1","Jenny splined"
"Marian Yellow B Horizon Variant","MISCQ",47,90,100,1.86,95,"MISCQ-47-1","Marian Yellow B Horizon Variant_MISCQ-47-1","Jenny splined"
"Marian Yellow B Horizon Variant","MISCQ",47,100,110,1.83,105,"MISCQ-47-1","Marian Yellow B Horizon Variant_MISCQ-47-1","Jenny splined"
"Marian Yellow B Horizon Variant","MISCQ",47,110,120,1.78,115,"MISCQ-47-1","Marian Yellow B Horizon Variant_MISCQ-47-1","Jenny splined"
"Marian Yellow B Horizon Variant","MISCQ",47,120,130,1.76,125,"MISCQ-47-1","Marian Yellow B Horizon Variant_MISCQ-47-1","Jenny splined"
"Marian Yellow B Horizon Variant","MISCQ",47,130,140,1.78,135,"MISCQ-47-1","Marian Yellow B Horizon Variant_MISCQ-47-1","Jenny splined"
"Marian Yellow B Horizon Variant","MISCQ",47,140,150,1.79,145,"MISCQ-47-1","Marian Yellow B Horizon Variant_MISCQ-47-1","Jenny splined"
"Marian Yellow B Horizon Variant","MISCQ",47,150,160,NA,155,"MISCQ-47-1","Marian Yellow B Horizon Variant_MISCQ-47-1","Jenny splined"
"Marian Yellow B Horizon Variant","MISCQ",47,160,170,NA,165,"MISCQ-47-1","Marian Yellow B Horizon Variant_MISCQ-47-1","Jenny splined"
"Mirani","MISCQ",309,0,10,1.34,5,"MISCQ-309-1","Mirani_MISCQ-309-1","Jenny splined"
"Mirani","MISCQ",309,10,20,1.43,15,"MISCQ-309-1","Mirani_MISCQ-309-1","Jenny splined"
"Mirani","MISCQ",309,20,30,1.52,25,"MISCQ-309-1","Mirani_MISCQ-309-1","Jenny splined"
"Mirani","MISCQ",309,30,40,1.58,35,"MISCQ-309-1","Mirani_MISCQ-309-1","Jenny splined"
"Mirani","MISCQ",309,40,50,1.61,45,"MISCQ-309-1","Mirani_MISCQ-309-1","Jenny splined"
"Mirani","MISCQ",309,50,60,1.62,55,"MISCQ-309-1","Mirani_MISCQ-309-1","Jenny splined"
"Mirani","MISCQ",309,60,70,1.61,65,"MISCQ-309-1","Mirani_MISCQ-309-1","Jenny splined"
"Mirani","MISCQ",309,70,80,1.59,75,"MISCQ-309-1","Mirani_MISCQ-309-1","Jenny splined"
"Mirani","MISCQ",309,80,90,1.56,85,"MISCQ-309-1","Mirani_MISCQ-309-1","Jenny splined"
"Mirani","MISCQ",309,90,100,1.53,95,"MISCQ-309-1","Mirani_MISCQ-309-1","Jenny splined"
"Mirani","MISCQ",309,100,110,1.52,105,"MISCQ-309-1","Mirani_MISCQ-309-1","Jenny splined"
"Mirani","MISCQ",309,110,120,1.62,115,"MISCQ-309-1","Mirani_MISCQ-309-1","Jenny splined"
"Mirani","MISCQ",309,120,130,1.61,125,"MISCQ-309-1","Mirani_MISCQ-309-1","Jenny splined"
"Mirani","MISCQ",309,130,140,1.6,135,"MISCQ-309-1","Mirani_MISCQ-309-1","Jenny splined"
"Mirani","MISCQ",309,140,150,1.6,145,"MISCQ-309-1","Mirani_MISCQ-309-1","Jenny splined"
"Mirani","MISCQ",309,150,160,NA,155,"MISCQ-309-1","Mirani_MISCQ-309-1","Jenny splined"
"Mirani","MISCQ",309,160,170,NA,165,"MISCQ-309-1","Mirani_MISCQ-309-1","Jenny splined"
"Pioneer","MISCQ",305,0,10,1.41,5,"MISCQ-305-1","Pioneer_MISCQ-305-1","Jenny splined"
"Pioneer","MISCQ",305,10,20,1.42,15,"MISCQ-305-1","Pioneer_MISCQ-305-1","Jenny splined"
"Pioneer","MISCQ",305,20,30,1.43,25,"MISCQ-305-1","Pioneer_MISCQ-305-1","Jenny splined"
"Pioneer","MISCQ",305,30,40,1.44,35,"MISCQ-305-1","Pioneer_MISCQ-305-1","Jenny splined"
"Pioneer","MISCQ",305,40,50,1.47,45,"MISCQ-305-1","Pioneer_MISCQ-305-1","Jenny splined"
"Pioneer","MISCQ",305,50,60,1.5,55,"MISCQ-305-1","Pioneer_MISCQ-305-1","Jenny splined"
"Pioneer","MISCQ",305,60,70,1.55,65,"MISCQ-305-1","Pioneer_MISCQ-305-1","Jenny splined"
"Pioneer","MISCQ",305,70,80,1.61,75,"MISCQ-305-1","Pioneer_MISCQ-305-1","Jenny splined"
"Pioneer","MISCQ",305,80,90,1.67,85,"MISCQ-305-1","Pioneer_MISCQ-305-1","Jenny splined"
"Pioneer","MISCQ",305,90,100,1.72,95,"MISCQ-305-1","Pioneer_MISCQ-305-1","Jenny splined"
"Pioneer","MISCQ",305,100,110,1.75,105,"MISCQ-305-1","Pioneer_MISCQ-305-1","Jenny splined"
"Pioneer","MISCQ",305,110,120,1.78,115,"MISCQ-305-1","Pioneer_MISCQ-305-1","Jenny splined"
"Pioneer","MISCQ",305,120,130,1.8,125,"MISCQ-305-1","Pioneer_MISCQ-305-1","Jenny splined"
"Pioneer","MISCQ",305,130,140,1.81,135,"MISCQ-305-1","Pioneer_MISCQ-305-1","Jenny splined"
"Pioneer","MISCQ",305,140,150,1.81,145,"MISCQ-305-1","Pioneer_MISCQ-305-1","Jenny splined"
"Pioneer","MISCQ",305,150,160,1.79,155,"MISCQ-305-1","Pioneer_MISCQ-305-1","Jenny splined"
"Pioneer","MISCQ",305,160,170,1.79,165,"MISCQ-305-1","Pioneer_MISCQ-305-1","Jenny splined"
"Sandiford ","MISCQ",304,0,10,1.38,5,"MISCQ-304-1","Sandiford _MISCQ-304-1","Jenny splined"
"Sandiford ","MISCQ",304,10,20,1.46,15,"MISCQ-304-1","Sandiford _MISCQ-304-1","Jenny splined"
"Sandiford ","MISCQ",304,20,30,1.53,25,"MISCQ-304-1","Sandiford _MISCQ-304-1","Jenny splined"
"Sandiford ","MISCQ",304,30,40,1.57,35,"MISCQ-304-1","Sandiford _MISCQ-304-1","Jenny splined"
"Sandiford ","MISCQ",304,40,50,1.59,45,"MISCQ-304-1","Sandiford _MISCQ-304-1","Jenny splined"
"Sandiford ","MISCQ",304,50,60,1.61,55,"MISCQ-304-1","Sandiford _MISCQ-304-1","Jenny splined"
"Sandiford ","MISCQ",304,60,70,1.61,65,"MISCQ-304-1","Sandiford _MISCQ-304-1","Jenny splined"
"Sandiford ","MISCQ",304,70,80,1.59,75,"MISCQ-304-1","Sandiford _MISCQ-304-1","Jenny splined"
"Sandiford ","MISCQ",304,80,90,1.57,85,"MISCQ-304-1","Sandiford _MISCQ-304-1","Jenny splined"
"Sandiford ","MISCQ",304,90,100,1.57,95,"MISCQ-304-1","Sandiford _MISCQ-304-1","Jenny splined"
"Sandiford ","MISCQ",304,100,110,1.58,105,"MISCQ-304-1","Sandiford _MISCQ-304-1","Jenny splined"
"Sandiford ","MISCQ",304,110,120,1.58,115,"MISCQ-304-1","Sandiford _MISCQ-304-1","Jenny splined"
"Sandiford ","MISCQ",304,120,130,1.6,125,"MISCQ-304-1","Sandiford _MISCQ-304-1","Jenny splined"
"Sandiford ","MISCQ",304,130,140,1.59,135,"MISCQ-304-1","Sandiford _MISCQ-304-1","Jenny splined"
"Sandiford ","MISCQ",304,140,150,1.59,145,"MISCQ-304-1","Sandiford _MISCQ-304-1","Jenny splined"
"Sandiford ","MISCQ",304,150,160,1.58,155,"MISCQ-304-1","Sandiford _MISCQ-304-1","Jenny splined"
"Sandiford ","MISCQ",304,160,170,1.59,165,"MISCQ-304-1","Sandiford _MISCQ-304-1","Jenny splined"
"Victoria Plains","P2REEF",575,0,10,1.2,5,"P2REEF-575-1","Victoria Plains_P2REEF-575-1","Jenny splined"
"Victoria Plains","P2REEF",575,10,20,1.24,15,"P2REEF-575-1","Victoria Plains_P2REEF-575-1","Jenny splined"
"Victoria Plains","P2REEF",575,20,30,1.29,25,"P2REEF-575-1","Victoria Plains_P2REEF-575-1","Jenny splined"
"Victoria Plains","P2REEF",575,30,40,1.32,35,"P2REEF-575-1","Victoria Plains_P2REEF-575-1","Jenny splined"
"Victoria Plains","P2REEF",575,40,50,1.33,45,"P2REEF-575-1","Victoria Plains_P2REEF-575-1","Jenny splined"
"Victoria Plains","P2REEF",575,50,60,1.32,55,"P2REEF-575-1","Victoria Plains_P2REEF-575-1","Jenny splined"
"Victoria Plains","P2REEF",575,60,70,1.32,65,"P2REEF-575-1","Victoria Plains_P2REEF-575-1","Jenny splined"
"Victoria Plains","P2REEF",575,70,80,1.32,75,"P2REEF-575-1","Victoria Plains_P2REEF-575-1","Jenny splined"
"Victoria Plains","P2REEF",575,80,90,1.33,85,"P2REEF-575-1","Victoria Plains_P2REEF-575-1","Jenny splined"
"Victoria Plains","P2REEF",575,90,100,1.34,95,"P2REEF-575-1","Victoria Plains_P2REEF-575-1","Jenny splined"
"Victoria Plains","P2REEF",575,100,110,1.35,105,"P2REEF-575-1","Victoria Plains_P2REEF-575-1","Jenny splined"
"Victoria Plains","P2REEF",575,110,120,1.37,115,"P2REEF-575-1","Victoria Plains_P2REEF-575-1","Jenny splined"
"Victoria Plains","P2REEF",575,120,130,1.39,125,"P2REEF-575-1","Victoria Plains_P2REEF-575-1","Jenny splined"
"Victoria Plains","P2REEF",575,130,140,1.42,135,"P2REEF-575-1","Victoria Plains_P2REEF-575-1","Jenny splined"
"Victoria Plains","P2REEF",575,140,150,1.44,145,"P2REEF-575-1","Victoria Plains_P2REEF-575-1","Jenny splined"
"Victoria Plains","P2REEF",575,150,160,1.47,155,"P2REEF-575-1","Victoria Plains_P2REEF-575-1","Jenny splined"
"Victoria Plains","P2REEF",575,160,170,NA,165,"P2REEF-575-1","Victoria Plains_P2REEF-575-1","Jenny splined"
