"id","soil depth","UD","LD","BD","SITE_ID","Rep","midPnt_cm","PROJECT_CODE","NAME","NAME_ID"
"300-Field core 1",153,0,10,1.32,300,"Field core 1",5,"MISCQ","Calen","Calen_MISCQ-300-1"
"300-Field core 1",153,10,30,1.45,300,"Field core 1",20,"MISCQ","Calen","Calen_MISCQ-300-1"
"300-Field core 1",153,30,60,1.57,300,"Field core 1",45,"MISCQ","Calen","Calen_MISCQ-300-1"
"300-Field core 1",153,60,90,1.59,300,"Field core 1",75,"MISCQ","Calen","Calen_MISCQ-300-1"
"300-Field core 1",153,90,130,1.69,300,"Field core 1",110,"MISCQ","Calen","Calen_MISCQ-300-1"
"300-Field core 1",153,130,150,1.73,300,"Field core 1",140,"MISCQ","Calen","Calen_MISCQ-300-1"
"300-Field core 1",153,150,170,1.73,300,"Field core 1",160,"MISCQ","Calen","Calen_MISCQ-300-1"
"300-Field Core 2",302,0,10,1.63,300,"Field Core 2",5,"MISCQ","Calen","Calen_MISCQ-300-1"
"300-Field Core 2",302,10,30,1.58,300,"Field Core 2",20,"MISCQ","Calen","Calen_MISCQ-300-1"
"300-Field Core 2",302,30,60,1.58,300,"Field Core 2",45,"MISCQ","Calen","Calen_MISCQ-300-1"
"300-Field Core 2",302,60,90,1.68,300,"Field Core 2",75,"MISCQ","Calen","Calen_MISCQ-300-1"
"300-Field Core 2",302,90,130,1.73,300,"Field Core 2",110,"MISCQ","Calen","Calen_MISCQ-300-1"
"300-Field Core 2",302,130,150,1.76,300,"Field Core 2",140,"MISCQ","Calen","Calen_MISCQ-300-1"
"300-Field Core 2",302,150,170,1.76,300,"Field Core 2",160,"MISCQ","Calen","Calen_MISCQ-300-1"
"300-Field Core 3",265,0,10,1.24,300,"Field Core 3",5,"MISCQ","Calen","Calen_MISCQ-300-1"
"300-Field Core 3",265,10,30,1.46,300,"Field Core 3",20,"MISCQ","Calen","Calen_MISCQ-300-1"
"300-Field Core 3",265,30,60,1.63,300,"Field Core 3",45,"MISCQ","Calen","Calen_MISCQ-300-1"
"300-Field Core 3",265,60,90,1.61,300,"Field Core 3",75,"MISCQ","Calen","Calen_MISCQ-300-1"
"300-Field Core 3",265,90,130,1.72,300,"Field Core 3",110,"MISCQ","Calen","Calen_MISCQ-300-1"
"300-Field Core 3",265,130,150,1.79,300,"Field Core 3",140,"MISCQ","Calen","Calen_MISCQ-300-1"
"300-Field Core 3",265,150,170,1.77,300,"Field Core 3",160,"MISCQ","Calen","Calen_MISCQ-300-1"
"300-Field Core 4",150,0,10,1.31,300,"Field Core 4",5,"MISCQ","Calen","Calen_MISCQ-300-1"
"300-Field Core 4",150,10,30,1.4,300,"Field Core 4",20,"MISCQ","Calen","Calen_MISCQ-300-1"
"300-Field Core 4",150,30,60,1.53,300,"Field Core 4",45,"MISCQ","Calen","Calen_MISCQ-300-1"
"300-Field Core 4",150,60,90,1.63,300,"Field Core 4",75,"MISCQ","Calen","Calen_MISCQ-300-1"
"300-Field Core 4",150,90,130,1.64,300,"Field Core 4",110,"MISCQ","Calen","Calen_MISCQ-300-1"
"300-Field Core 4",150,130,150,1.61,300,"Field Core 4",140,"MISCQ","Calen","Calen_MISCQ-300-1"
"300-Field Core 4",150,150,170,NA,300,"Field Core 4",160,"MISCQ","Calen","Calen_MISCQ-300-1"
"300-Ring 1, Core 1",138,0,10,1.35,300,"Ring 1, Core 1",5,"MISCQ","Calen","Calen_MISCQ-300-1"
"300-Ring 1, Core 1",138,10,30,1.53,300,"Ring 1, Core 1",20,"MISCQ","Calen","Calen_MISCQ-300-1"
"300-Ring 1, Core 1",138,30,60,1.53,300,"Ring 1, Core 1",45,"MISCQ","Calen","Calen_MISCQ-300-1"
"300-Ring 1, Core 1",138,60,90,1.6,300,"Ring 1, Core 1",75,"MISCQ","Calen","Calen_MISCQ-300-1"
"300-Ring 1, Core 1",138,90,130,1.71,300,"Ring 1, Core 1",110,"MISCQ","Calen","Calen_MISCQ-300-1"
"300-Ring 1, Core 1",138,130,150,1.79,300,"Ring 1, Core 1",140,"MISCQ","Calen","Calen_MISCQ-300-1"
"300-Ring 1, Core 1",138,150,170,NA,300,"Ring 1, Core 1",160,"MISCQ","Calen","Calen_MISCQ-300-1"
"300-Ring 1, Core 2",156,0,10,1.41,300,"Ring 1, Core 2",5,"MISCQ","Calen","Calen_MISCQ-300-1"
"300-Ring 1, Core 2",156,10,30,1.52,300,"Ring 1, Core 2",20,"MISCQ","Calen","Calen_MISCQ-300-1"
"300-Ring 1, Core 2",156,30,60,1.45,300,"Ring 1, Core 2",45,"MISCQ","Calen","Calen_MISCQ-300-1"
"300-Ring 1, Core 2",156,60,90,1.59,300,"Ring 1, Core 2",75,"MISCQ","Calen","Calen_MISCQ-300-1"
"300-Ring 1, Core 2",156,90,130,1.71,300,"Ring 1, Core 2",110,"MISCQ","Calen","Calen_MISCQ-300-1"
"300-Ring 1, Core 2",156,130,150,1.75,300,"Ring 1, Core 2",140,"MISCQ","Calen","Calen_MISCQ-300-1"
"300-Ring 1, Core 2",156,150,170,1.75,300,"Ring 1, Core 2",160,"MISCQ","Calen","Calen_MISCQ-300-1"
"300-Ring 1, Core 3",150,0,10,1.34,300,"Ring 1, Core 3",5,"MISCQ","Calen","Calen_MISCQ-300-1"
"300-Ring 1, Core 3",150,10,30,1.41,300,"Ring 1, Core 3",20,"MISCQ","Calen","Calen_MISCQ-300-1"
"300-Ring 1, Core 3",150,30,60,1.53,300,"Ring 1, Core 3",45,"MISCQ","Calen","Calen_MISCQ-300-1"
"300-Ring 1, Core 3",150,60,90,1.66,300,"Ring 1, Core 3",75,"MISCQ","Calen","Calen_MISCQ-300-1"
"300-Ring 1, Core 3",150,90,130,1.7,300,"Ring 1, Core 3",110,"MISCQ","Calen","Calen_MISCQ-300-1"
"300-Ring 1, Core 3",150,130,150,1.73,300,"Ring 1, Core 3",140,"MISCQ","Calen","Calen_MISCQ-300-1"
"300-Ring 1, Core 3",150,150,170,NA,300,"Ring 1, Core 3",160,"MISCQ","Calen","Calen_MISCQ-300-1"
"300-Ring 2, Core 1",152,0,10,1.44,300,"Ring 2, Core 1",5,"MISCQ","Calen","Calen_MISCQ-300-1"
"300-Ring 2, Core 1",152,10,30,1.43,300,"Ring 2, Core 1",20,"MISCQ","Calen","Calen_MISCQ-300-1"
"300-Ring 2, Core 1",152,30,60,1.47,300,"Ring 2, Core 1",45,"MISCQ","Calen","Calen_MISCQ-300-1"
"300-Ring 2, Core 1",152,60,90,1.61,300,"Ring 2, Core 1",75,"MISCQ","Calen","Calen_MISCQ-300-1"
"300-Ring 2, Core 1",152,90,130,1.71,300,"Ring 2, Core 1",110,"MISCQ","Calen","Calen_MISCQ-300-1"
"300-Ring 2, Core 1",152,130,150,1.8,300,"Ring 2, Core 1",140,"MISCQ","Calen","Calen_MISCQ-300-1"
"300-Ring 2, Core 1",152,150,170,1.82,300,"Ring 2, Core 1",160,"MISCQ","Calen","Calen_MISCQ-300-1"
"300-Ring 2, Core 2",160,0,10,1.31,300,"Ring 2, Core 2",5,"MISCQ","Calen","Calen_MISCQ-300-1"
"300-Ring 2, Core 2",160,10,30,1.38,300,"Ring 2, Core 2",20,"MISCQ","Calen","Calen_MISCQ-300-1"
"300-Ring 2, Core 2",160,30,60,1.48,300,"Ring 2, Core 2",45,"MISCQ","Calen","Calen_MISCQ-300-1"
"300-Ring 2, Core 2",160,60,90,1.58,300,"Ring 2, Core 2",75,"MISCQ","Calen","Calen_MISCQ-300-1"
"300-Ring 2, Core 2",160,90,130,1.72,300,"Ring 2, Core 2",110,"MISCQ","Calen","Calen_MISCQ-300-1"
"300-Ring 2, Core 2",160,130,150,1.79,300,"Ring 2, Core 2",140,"MISCQ","Calen","Calen_MISCQ-300-1"
"300-Ring 2, Core 2",160,150,170,1.77,300,"Ring 2, Core 2",160,"MISCQ","Calen","Calen_MISCQ-300-1"
"300-Ring 2, Core 3",143,0,10,1.44,300,"Ring 2, Core 3",5,"MISCQ","Calen","Calen_MISCQ-300-1"
"300-Ring 2, Core 3",143,10,30,1.49,300,"Ring 2, Core 3",20,"MISCQ","Calen","Calen_MISCQ-300-1"
"300-Ring 2, Core 3",143,30,60,1.52,300,"Ring 2, Core 3",45,"MISCQ","Calen","Calen_MISCQ-300-1"
"300-Ring 2, Core 3",143,60,90,1.54,300,"Ring 2, Core 3",75,"MISCQ","Calen","Calen_MISCQ-300-1"
"300-Ring 2, Core 3",143,90,130,1.68,300,"Ring 2, Core 3",110,"MISCQ","Calen","Calen_MISCQ-300-1"
"300-Ring 2, Core 3",143,130,150,1.77,300,"Ring 2, Core 3",140,"MISCQ","Calen","Calen_MISCQ-300-1"
"300-Ring 2, Core 3",143,150,170,NA,300,"Ring 2, Core 3",160,"MISCQ","Calen","Calen_MISCQ-300-1"
"300-Ring 3, Core 1",138,0,10,1.48,300,"Ring 3, Core 1",5,"MISCQ","Calen","Calen_MISCQ-300-1"
"300-Ring 3, Core 1",138,10,30,1.49,300,"Ring 3, Core 1",20,"MISCQ","Calen","Calen_MISCQ-300-1"
"300-Ring 3, Core 1",138,30,60,1.68,300,"Ring 3, Core 1",45,"MISCQ","Calen","Calen_MISCQ-300-1"
"300-Ring 3, Core 1",138,60,90,1.74,300,"Ring 3, Core 1",75,"MISCQ","Calen","Calen_MISCQ-300-1"
"300-Ring 3, Core 1",138,90,130,1.72,300,"Ring 3, Core 1",110,"MISCQ","Calen","Calen_MISCQ-300-1"
"300-Ring 3, Core 1",138,130,150,1.76,300,"Ring 3, Core 1",140,"MISCQ","Calen","Calen_MISCQ-300-1"
"300-Ring 3, Core 1",138,150,170,NA,300,"Ring 3, Core 1",160,"MISCQ","Calen","Calen_MISCQ-300-1"
"300-Ring 3, Core 2",152,0,10,1.6,300,"Ring 3, Core 2",5,"MISCQ","Calen","Calen_MISCQ-300-1"
"300-Ring 3, Core 2",152,10,30,1.58,300,"Ring 3, Core 2",20,"MISCQ","Calen","Calen_MISCQ-300-1"
"300-Ring 3, Core 2",152,30,60,1.58,300,"Ring 3, Core 2",45,"MISCQ","Calen","Calen_MISCQ-300-1"
"300-Ring 3, Core 2",152,60,90,1.63,300,"Ring 3, Core 2",75,"MISCQ","Calen","Calen_MISCQ-300-1"
"300-Ring 3, Core 2",152,90,130,1.73,300,"Ring 3, Core 2",110,"MISCQ","Calen","Calen_MISCQ-300-1"
"300-Ring 3, Core 2",152,130,150,1.73,300,"Ring 3, Core 2",140,"MISCQ","Calen","Calen_MISCQ-300-1"
"300-Ring 3, Core 2",152,150,170,1.73,300,"Ring 3, Core 2",160,"MISCQ","Calen","Calen_MISCQ-300-1"
"300-Ring 4, Core 1",147,0,10,1.61,300,"Ring 4, Core 1",5,"MISCQ","Calen","Calen_MISCQ-300-1"
"300-Ring 4, Core 1",147,10,30,1.5,300,"Ring 4, Core 1",20,"MISCQ","Calen","Calen_MISCQ-300-1"
"300-Ring 4, Core 1",147,30,60,1.61,300,"Ring 4, Core 1",45,"MISCQ","Calen","Calen_MISCQ-300-1"
"300-Ring 4, Core 1",147,60,90,1.68,300,"Ring 4, Core 1",75,"MISCQ","Calen","Calen_MISCQ-300-1"
"300-Ring 4, Core 1",147,90,130,1.66,300,"Ring 4, Core 1",110,"MISCQ","Calen","Calen_MISCQ-300-1"
"300-Ring 4, Core 1",147,130,150,1.74,300,"Ring 4, Core 1",140,"MISCQ","Calen","Calen_MISCQ-300-1"
"300-Ring 4, Core 1",147,150,170,NA,300,"Ring 4, Core 1",160,"MISCQ","Calen","Calen_MISCQ-300-1"
"300-Ring 4, Core 2",152,0,10,1.55,300,"Ring 4, Core 2",5,"MISCQ","Calen","Calen_MISCQ-300-1"
"300-Ring 4, Core 2",152,10,30,1.55,300,"Ring 4, Core 2",20,"MISCQ","Calen","Calen_MISCQ-300-1"
"300-Ring 4, Core 2",152,30,60,1.57,300,"Ring 4, Core 2",45,"MISCQ","Calen","Calen_MISCQ-300-1"
"300-Ring 4, Core 2",152,60,90,1.64,300,"Ring 4, Core 2",75,"MISCQ","Calen","Calen_MISCQ-300-1"
"300-Ring 4, Core 2",152,90,130,1.72,300,"Ring 4, Core 2",110,"MISCQ","Calen","Calen_MISCQ-300-1"
"300-Ring 4, Core 2",152,130,150,1.78,300,"Ring 4, Core 2",140,"MISCQ","Calen","Calen_MISCQ-300-1"
"300-Ring 4, Core 2",152,150,170,1.79,300,"Ring 4, Core 2",160,"MISCQ","Calen","Calen_MISCQ-300-1"
"300-Ring 4, Core 3",142,0,10,1.64,300,"Ring 4, Core 3",5,"MISCQ","Calen","Calen_MISCQ-300-1"
"300-Ring 4, Core 3",142,10,30,1.53,300,"Ring 4, Core 3",20,"MISCQ","Calen","Calen_MISCQ-300-1"
"300-Ring 4, Core 3",142,30,60,1.68,300,"Ring 4, Core 3",45,"MISCQ","Calen","Calen_MISCQ-300-1"
"300-Ring 4, Core 3",142,60,90,1.65,300,"Ring 4, Core 3",75,"MISCQ","Calen","Calen_MISCQ-300-1"
"300-Ring 4, Core 3",142,90,130,1.73,300,"Ring 4, Core 3",110,"MISCQ","Calen","Calen_MISCQ-300-1"
"300-Ring 4, Core 3",142,130,150,1.73,300,"Ring 4, Core 3",140,"MISCQ","Calen","Calen_MISCQ-300-1"
"300-Ring 4, Core 3",142,150,170,NA,300,"Ring 4, Core 3",160,"MISCQ","Calen","Calen_MISCQ-300-1"
"300-Ring 5, Core 1",154,0,10,1.38,300,"Ring 5, Core 1",5,"MISCQ","Calen","Calen_MISCQ-300-1"
"300-Ring 5, Core 1",154,10,30,1.57,300,"Ring 5, Core 1",20,"MISCQ","Calen","Calen_MISCQ-300-1"
"300-Ring 5, Core 1",154,30,60,1.43,300,"Ring 5, Core 1",45,"MISCQ","Calen","Calen_MISCQ-300-1"
"300-Ring 5, Core 1",154,60,90,1.56,300,"Ring 5, Core 1",75,"MISCQ","Calen","Calen_MISCQ-300-1"
"300-Ring 5, Core 1",154,90,130,1.72,300,"Ring 5, Core 1",110,"MISCQ","Calen","Calen_MISCQ-300-1"
"300-Ring 5, Core 1",154,130,150,1.8,300,"Ring 5, Core 1",140,"MISCQ","Calen","Calen_MISCQ-300-1"
"300-Ring 5, Core 1",154,150,170,1.8,300,"Ring 5, Core 1",160,"MISCQ","Calen","Calen_MISCQ-300-1"
"300-Ring 5, Core 2",157,0,10,1.16,300,"Ring 5, Core 2",5,"MISCQ","Calen","Calen_MISCQ-300-1"
"300-Ring 5, Core 2",157,10,30,1.38,300,"Ring 5, Core 2",20,"MISCQ","Calen","Calen_MISCQ-300-1"
"300-Ring 5, Core 2",157,30,60,1.57,300,"Ring 5, Core 2",45,"MISCQ","Calen","Calen_MISCQ-300-1"
"300-Ring 5, Core 2",157,60,90,1.66,300,"Ring 5, Core 2",75,"MISCQ","Calen","Calen_MISCQ-300-1"
"300-Ring 5, Core 2",157,90,130,1.73,300,"Ring 5, Core 2",110,"MISCQ","Calen","Calen_MISCQ-300-1"
"300-Ring 5, Core 2",157,130,150,1.77,300,"Ring 5, Core 2",140,"MISCQ","Calen","Calen_MISCQ-300-1"
"300-Ring 5, Core 2",157,150,170,1.78,300,"Ring 5, Core 2",160,"MISCQ","Calen","Calen_MISCQ-300-1"
"301-B1",147,0,10,1.31,301,"B1",5,"MISCQ","Brightley","Brightley_MISCQ-301-1"
"301-B1",147,10,30,1.44,301,"B1",20,"MISCQ","Brightley","Brightley_MISCQ-301-1"
"301-B1",147,30,60,1.59,301,"B1",45,"MISCQ","Brightley","Brightley_MISCQ-301-1"
"301-B1",147,60,90,1.81,301,"B1",75,"MISCQ","Brightley","Brightley_MISCQ-301-1"
"301-B1",147,90,130,1.9,301,"B1",110,"MISCQ","Brightley","Brightley_MISCQ-301-1"
"301-B1",147,130,150,1.9,301,"B1",140,"MISCQ","Brightley","Brightley_MISCQ-301-1"
"301-B1",147,150,170,NA,301,"B1",160,"MISCQ","Brightley","Brightley_MISCQ-301-1"
"301-B2",169,0,10,1.42,301,"B2",5,"MISCQ","Brightley","Brightley_MISCQ-301-1"
"301-B2",169,10,30,1.49,301,"B2",20,"MISCQ","Brightley","Brightley_MISCQ-301-1"
"301-B2",169,30,60,1.57,301,"B2",45,"MISCQ","Brightley","Brightley_MISCQ-301-1"
"301-B2",169,60,90,1.78,301,"B2",75,"MISCQ","Brightley","Brightley_MISCQ-301-1"
"301-B2",169,90,130,1.87,301,"B2",110,"MISCQ","Brightley","Brightley_MISCQ-301-1"
"301-B2",169,130,150,1.88,301,"B2",140,"MISCQ","Brightley","Brightley_MISCQ-301-1"
"301-B2",169,150,170,1.92,301,"B2",160,"MISCQ","Brightley","Brightley_MISCQ-301-1"
"301-B3",156,0,10,1.49,301,"B3",5,"MISCQ","Brightley","Brightley_MISCQ-301-1"
"301-B3",156,10,30,1.51,301,"B3",20,"MISCQ","Brightley","Brightley_MISCQ-301-1"
"301-B3",156,30,60,1.62,301,"B3",45,"MISCQ","Brightley","Brightley_MISCQ-301-1"
"301-B3",156,60,90,1.79,301,"B3",75,"MISCQ","Brightley","Brightley_MISCQ-301-1"
"301-B3",156,90,130,1.86,301,"B3",110,"MISCQ","Brightley","Brightley_MISCQ-301-1"
"301-B3",156,130,150,1.88,301,"B3",140,"MISCQ","Brightley","Brightley_MISCQ-301-1"
"301-B3",156,150,170,1.87,301,"B3",160,"MISCQ","Brightley","Brightley_MISCQ-301-1"
"304-Field core 1",245,0,10,1.47,304,"Field core 1",5,"MISCQ","Sandiford ","Sandiford _MISCQ-304-1"
"304-Field core 1",245,10,30,1.46,304,"Field core 1",20,"MISCQ","Sandiford ","Sandiford _MISCQ-304-1"
"304-Field core 1",245,30,60,1.51,304,"Field core 1",45,"MISCQ","Sandiford ","Sandiford _MISCQ-304-1"
"304-Field core 1",245,60,90,1.62,304,"Field core 1",75,"MISCQ","Sandiford ","Sandiford _MISCQ-304-1"
"304-Field core 1",245,90,130,1.64,304,"Field core 1",110,"MISCQ","Sandiford ","Sandiford _MISCQ-304-1"
"304-Field core 1",245,130,150,1.6,304,"Field core 1",140,"MISCQ","Sandiford ","Sandiford _MISCQ-304-1"
"304-Field core 1",245,150,170,1.63,304,"Field core 1",160,"MISCQ","Sandiford ","Sandiford _MISCQ-304-1"
"304-Field Core 2",297,0,10,1.47,304,"Field Core 2",5,"MISCQ","Sandiford ","Sandiford _MISCQ-304-1"
"304-Field Core 2",297,10,30,1.46,304,"Field Core 2",20,"MISCQ","Sandiford ","Sandiford _MISCQ-304-1"
"304-Field Core 2",297,30,60,1.52,304,"Field Core 2",45,"MISCQ","Sandiford ","Sandiford _MISCQ-304-1"
"304-Field Core 2",297,60,90,1.6,304,"Field Core 2",75,"MISCQ","Sandiford ","Sandiford _MISCQ-304-1"
"304-Field Core 2",297,90,130,1.54,304,"Field Core 2",110,"MISCQ","Sandiford ","Sandiford _MISCQ-304-1"
"304-Field Core 2",297,130,150,1.54,304,"Field Core 2",140,"MISCQ","Sandiford ","Sandiford _MISCQ-304-1"
"304-Field Core 2",297,150,170,1.56,304,"Field Core 2",160,"MISCQ","Sandiford ","Sandiford _MISCQ-304-1"
"304-Field Core 3",165,0,10,1.49,304,"Field Core 3",5,"MISCQ","Sandiford ","Sandiford _MISCQ-304-1"
"304-Field Core 3",165,10,30,1.5,304,"Field Core 3",20,"MISCQ","Sandiford ","Sandiford _MISCQ-304-1"
"304-Field Core 3",165,30,60,1.51,304,"Field Core 3",45,"MISCQ","Sandiford ","Sandiford _MISCQ-304-1"
"304-Field Core 3",165,60,90,1.51,304,"Field Core 3",75,"MISCQ","Sandiford ","Sandiford _MISCQ-304-1"
"304-Field Core 3",165,90,130,1.57,304,"Field Core 3",110,"MISCQ","Sandiford ","Sandiford _MISCQ-304-1"
"304-Field Core 3",165,130,150,1.61,304,"Field Core 3",140,"MISCQ","Sandiford ","Sandiford _MISCQ-304-1"
"304-Field Core 3",165,150,170,1.62,304,"Field Core 3",160,"MISCQ","Sandiford ","Sandiford _MISCQ-304-1"
"304-Field Core 4",146,0,10,1.43,304,"Field Core 4",5,"MISCQ","Sandiford ","Sandiford _MISCQ-304-1"
"304-Field Core 4",146,10,30,1.41,304,"Field Core 4",20,"MISCQ","Sandiford ","Sandiford _MISCQ-304-1"
"304-Field Core 4",146,30,60,1.5,304,"Field Core 4",45,"MISCQ","Sandiford ","Sandiford _MISCQ-304-1"
"304-Field Core 4",146,60,90,1.69,304,"Field Core 4",75,"MISCQ","Sandiford ","Sandiford _MISCQ-304-1"
"304-Field Core 4",146,90,130,1.63,304,"Field Core 4",110,"MISCQ","Sandiford ","Sandiford _MISCQ-304-1"
"304-Field Core 4",146,130,150,1.6,304,"Field Core 4",140,"MISCQ","Sandiford ","Sandiford _MISCQ-304-1"
"304-Field Core 4",146,150,170,NA,304,"Field Core 4",160,"MISCQ","Sandiford ","Sandiford _MISCQ-304-1"
"304-Ring 1 core 1",130,0,10,1.52,304,"Ring 1 core 1",5,"MISCQ","Sandiford ","Sandiford _MISCQ-304-1"
"304-Ring 1 core 1",130,10,30,1.58,304,"Ring 1 core 1",20,"MISCQ","Sandiford ","Sandiford _MISCQ-304-1"
"304-Ring 1 core 1",130,30,60,1.69,304,"Ring 1 core 1",45,"MISCQ","Sandiford ","Sandiford _MISCQ-304-1"
"304-Ring 1 core 1",130,60,90,1.74,304,"Ring 1 core 1",75,"MISCQ","Sandiford ","Sandiford _MISCQ-304-1"
"304-Ring 1 core 1",130,90,130,1.71,304,"Ring 1 core 1",110,"MISCQ","Sandiford ","Sandiford _MISCQ-304-1"
"304-Ring 1 core 1",130,130,150,NA,304,"Ring 1 core 1",140,"MISCQ","Sandiford ","Sandiford _MISCQ-304-1"
"304-Ring 1 core 1",130,150,170,NA,304,"Ring 1 core 1",160,"MISCQ","Sandiford ","Sandiford _MISCQ-304-1"
"304-Ring 1 core 2",110,0,10,1.32,304,"Ring 1 core 2",5,"MISCQ","Sandiford ","Sandiford _MISCQ-304-1"
"304-Ring 1 core 2",110,10,30,1.47,304,"Ring 1 core 2",20,"MISCQ","Sandiford ","Sandiford _MISCQ-304-1"
"304-Ring 1 core 2",110,30,60,1.65,304,"Ring 1 core 2",45,"MISCQ","Sandiford ","Sandiford _MISCQ-304-1"
"304-Ring 1 core 2",110,60,90,1.7,304,"Ring 1 core 2",75,"MISCQ","Sandiford ","Sandiford _MISCQ-304-1"
"304-Ring 1 core 2",110,90,130,1.65,304,"Ring 1 core 2",110,"MISCQ","Sandiford ","Sandiford _MISCQ-304-1"
"304-Ring 1 core 2",110,130,150,NA,304,"Ring 1 core 2",140,"MISCQ","Sandiford ","Sandiford _MISCQ-304-1"
"304-Ring 1 core 2",110,150,170,NA,304,"Ring 1 core 2",160,"MISCQ","Sandiford ","Sandiford _MISCQ-304-1"
"304-Ring 2 core 1",156,0,10,1.28,304,"Ring 2 core 1",5,"MISCQ","Sandiford ","Sandiford _MISCQ-304-1"
"304-Ring 2 core 1",156,10,30,1.53,304,"Ring 2 core 1",20,"MISCQ","Sandiford ","Sandiford _MISCQ-304-1"
"304-Ring 2 core 1",156,30,60,1.64,304,"Ring 2 core 1",45,"MISCQ","Sandiford ","Sandiford _MISCQ-304-1"
"304-Ring 2 core 1",156,60,90,1.54,304,"Ring 2 core 1",75,"MISCQ","Sandiford ","Sandiford _MISCQ-304-1"
"304-Ring 2 core 1",156,90,130,1.59,304,"Ring 2 core 1",110,"MISCQ","Sandiford ","Sandiford _MISCQ-304-1"
"304-Ring 2 core 1",156,130,150,1.62,304,"Ring 2 core 1",140,"MISCQ","Sandiford ","Sandiford _MISCQ-304-1"
"304-Ring 2 core 1",156,150,170,1.57,304,"Ring 2 core 1",160,"MISCQ","Sandiford ","Sandiford _MISCQ-304-1"
"304-Ring 2 core 2",158,0,10,1.29,304,"Ring 2 core 2",5,"MISCQ","Sandiford ","Sandiford _MISCQ-304-1"
"304-Ring 2 core 2",158,10,30,1.48,304,"Ring 2 core 2",20,"MISCQ","Sandiford ","Sandiford _MISCQ-304-1"
"304-Ring 2 core 2",158,30,60,1.6,304,"Ring 2 core 2",45,"MISCQ","Sandiford ","Sandiford _MISCQ-304-1"
"304-Ring 2 core 2",158,60,90,1.5,304,"Ring 2 core 2",75,"MISCQ","Sandiford ","Sandiford _MISCQ-304-1"
"304-Ring 2 core 2",158,90,130,1.56,304,"Ring 2 core 2",110,"MISCQ","Sandiford ","Sandiford _MISCQ-304-1"
"304-Ring 2 core 2",158,130,150,1.61,304,"Ring 2 core 2",140,"MISCQ","Sandiford ","Sandiford _MISCQ-304-1"
"304-Ring 2 core 2",158,150,170,1.57,304,"Ring 2 core 2",160,"MISCQ","Sandiford ","Sandiford _MISCQ-304-1"
"304-Ring 3 core 1",170,0,10,1.5,304,"Ring 3 core 1",5,"MISCQ","Sandiford ","Sandiford _MISCQ-304-1"
"304-Ring 3 core 1",170,10,30,1.62,304,"Ring 3 core 1",20,"MISCQ","Sandiford ","Sandiford _MISCQ-304-1"
"304-Ring 3 core 1",170,30,60,1.66,304,"Ring 3 core 1",45,"MISCQ","Sandiford ","Sandiford _MISCQ-304-1"
"304-Ring 3 core 1",170,60,90,1.55,304,"Ring 3 core 1",75,"MISCQ","Sandiford ","Sandiford _MISCQ-304-1"
"304-Ring 3 core 1",170,90,130,1.59,304,"Ring 3 core 1",110,"MISCQ","Sandiford ","Sandiford _MISCQ-304-1"
"304-Ring 3 core 1",170,130,150,1.63,304,"Ring 3 core 1",140,"MISCQ","Sandiford ","Sandiford _MISCQ-304-1"
"304-Ring 3 core 1",170,150,170,1.59,304,"Ring 3 core 1",160,"MISCQ","Sandiford ","Sandiford _MISCQ-304-1"
"304-Ring 3 core 2",166,0,10,1.25,304,"Ring 3 core 2",5,"MISCQ","Sandiford ","Sandiford _MISCQ-304-1"
"304-Ring 3 core 2",166,10,30,1.42,304,"Ring 3 core 2",20,"MISCQ","Sandiford ","Sandiford _MISCQ-304-1"
"304-Ring 3 core 2",166,30,60,1.56,304,"Ring 3 core 2",45,"MISCQ","Sandiford ","Sandiford _MISCQ-304-1"
"304-Ring 3 core 2",166,60,90,1.51,304,"Ring 3 core 2",75,"MISCQ","Sandiford ","Sandiford _MISCQ-304-1"
"304-Ring 3 core 2",166,90,130,1.57,304,"Ring 3 core 2",110,"MISCQ","Sandiford ","Sandiford _MISCQ-304-1"
"304-Ring 3 core 2",166,130,150,1.57,304,"Ring 3 core 2",140,"MISCQ","Sandiford ","Sandiford _MISCQ-304-1"
"304-Ring 3 core 2",166,150,170,1.54,304,"Ring 3 core 2",160,"MISCQ","Sandiford ","Sandiford _MISCQ-304-1"
"304-Ring 4 core 1",164,0,10,1.36,304,"Ring 4 core 1",5,"MISCQ","Sandiford ","Sandiford _MISCQ-304-1"
"304-Ring 4 core 1",164,10,30,1.58,304,"Ring 4 core 1",20,"MISCQ","Sandiford ","Sandiford _MISCQ-304-1"
"304-Ring 4 core 1",164,30,60,1.62,304,"Ring 4 core 1",45,"MISCQ","Sandiford ","Sandiford _MISCQ-304-1"
"304-Ring 4 core 1",164,60,90,1.55,304,"Ring 4 core 1",75,"MISCQ","Sandiford ","Sandiford _MISCQ-304-1"
"304-Ring 4 core 1",164,90,130,1.59,304,"Ring 4 core 1",110,"MISCQ","Sandiford ","Sandiford _MISCQ-304-1"
"304-Ring 4 core 1",164,130,150,1.58,304,"Ring 4 core 1",140,"MISCQ","Sandiford ","Sandiford _MISCQ-304-1"
"304-Ring 4 core 1",164,150,170,1.55,304,"Ring 4 core 1",160,"MISCQ","Sandiford ","Sandiford _MISCQ-304-1"
"304-Ring 4 core 2",166,0,10,1.41,304,"Ring 4 core 2",5,"MISCQ","Sandiford ","Sandiford _MISCQ-304-1"
"304-Ring 4 core 2",166,10,30,1.45,304,"Ring 4 core 2",20,"MISCQ","Sandiford ","Sandiford _MISCQ-304-1"
"304-Ring 4 core 2",166,30,60,1.5,304,"Ring 4 core 2",45,"MISCQ","Sandiford ","Sandiford _MISCQ-304-1"
"304-Ring 4 core 2",166,60,90,1.6,304,"Ring 4 core 2",75,"MISCQ","Sandiford ","Sandiford _MISCQ-304-1"
"304-Ring 4 core 2",166,90,130,1.54,304,"Ring 4 core 2",110,"MISCQ","Sandiford ","Sandiford _MISCQ-304-1"
"304-Ring 4 core 2",166,130,150,1.59,304,"Ring 4 core 2",140,"MISCQ","Sandiford ","Sandiford _MISCQ-304-1"
"304-Ring 4 core 2",166,150,170,1.6,304,"Ring 4 core 2",160,"MISCQ","Sandiford ","Sandiford _MISCQ-304-1"
"304-Ring 4 core 3",150,0,10,1.26,304,"Ring 4 core 3",5,"MISCQ","Sandiford ","Sandiford _MISCQ-304-1"
"304-Ring 4 core 3",150,10,30,1.44,304,"Ring 4 core 3",20,"MISCQ","Sandiford ","Sandiford _MISCQ-304-1"
"304-Ring 4 core 3",150,30,60,1.62,304,"Ring 4 core 3",45,"MISCQ","Sandiford ","Sandiford _MISCQ-304-1"
"304-Ring 4 core 3",150,60,90,1.54,304,"Ring 4 core 3",75,"MISCQ","Sandiford ","Sandiford _MISCQ-304-1"
"304-Ring 4 core 3",150,90,130,1.51,304,"Ring 4 core 3",110,"MISCQ","Sandiford ","Sandiford _MISCQ-304-1"
"304-Ring 4 core 3",150,130,150,1.58,304,"Ring 4 core 3",140,"MISCQ","Sandiford ","Sandiford _MISCQ-304-1"
"304-Ring 4 core 3",150,150,170,NA,304,"Ring 4 core 3",160,"MISCQ","Sandiford ","Sandiford _MISCQ-304-1"
"304-Ring 5 core 1",132,0,10,1.42,304,"Ring 5 core 1",5,"MISCQ","Sandiford ","Sandiford _MISCQ-304-1"
"304-Ring 5 core 1",132,10,30,1.56,304,"Ring 5 core 1",20,"MISCQ","Sandiford ","Sandiford _MISCQ-304-1"
"304-Ring 5 core 1",132,30,60,1.65,304,"Ring 5 core 1",45,"MISCQ","Sandiford ","Sandiford _MISCQ-304-1"
"304-Ring 5 core 1",132,60,90,1.55,304,"Ring 5 core 1",75,"MISCQ","Sandiford ","Sandiford _MISCQ-304-1"
"304-Ring 5 core 1",132,90,130,1.55,304,"Ring 5 core 1",110,"MISCQ","Sandiford ","Sandiford _MISCQ-304-1"
"304-Ring 5 core 1",132,130,150,1.55,304,"Ring 5 core 1",140,"MISCQ","Sandiford ","Sandiford _MISCQ-304-1"
"304-Ring 5 core 1",132,150,170,NA,304,"Ring 5 core 1",160,"MISCQ","Sandiford ","Sandiford _MISCQ-304-1"
"304-Ring 5 core 2",151,0,10,1.34,304,"Ring 5 core 2",5,"MISCQ","Sandiford ","Sandiford _MISCQ-304-1"
"304-Ring 5 core 2",151,10,30,1.45,304,"Ring 5 core 2",20,"MISCQ","Sandiford ","Sandiford _MISCQ-304-1"
"304-Ring 5 core 2",151,30,60,1.61,304,"Ring 5 core 2",45,"MISCQ","Sandiford ","Sandiford _MISCQ-304-1"
"304-Ring 5 core 2",151,60,90,1.63,304,"Ring 5 core 2",75,"MISCQ","Sandiford ","Sandiford _MISCQ-304-1"
"304-Ring 5 core 2",151,90,130,1.55,304,"Ring 5 core 2",110,"MISCQ","Sandiford ","Sandiford _MISCQ-304-1"
"304-Ring 5 core 2",151,130,150,1.57,304,"Ring 5 core 2",140,"MISCQ","Sandiford ","Sandiford _MISCQ-304-1"
"304-Ring 5 core 2",151,150,170,1.57,304,"Ring 5 core 2",160,"MISCQ","Sandiford ","Sandiford _MISCQ-304-1"
"304-Ring 5 core 3",150,0,10,1.21,304,"Ring 5 core 3",5,"MISCQ","Sandiford ","Sandiford _MISCQ-304-1"
"304-Ring 5 core 3",150,10,30,1.44,304,"Ring 5 core 3",20,"MISCQ","Sandiford ","Sandiford _MISCQ-304-1"
"304-Ring 5 core 3",150,30,60,1.64,304,"Ring 5 core 3",45,"MISCQ","Sandiford ","Sandiford _MISCQ-304-1"
"304-Ring 5 core 3",150,60,90,1.66,304,"Ring 5 core 3",75,"MISCQ","Sandiford ","Sandiford _MISCQ-304-1"
"304-Ring 5 core 3",150,90,130,1.57,304,"Ring 5 core 3",110,"MISCQ","Sandiford ","Sandiford _MISCQ-304-1"
"304-Ring 5 core 3",150,130,150,1.58,304,"Ring 5 core 3",140,"MISCQ","Sandiford ","Sandiford _MISCQ-304-1"
"304-Ring 5 core 3",150,150,170,NA,304,"Ring 5 core 3",160,"MISCQ","Sandiford ","Sandiford _MISCQ-304-1"
"305-P1",247,0,10,1.44,305,"P1",5,"MISCQ","Pioneer","Pioneer_MISCQ-305-1"
"305-P1",247,10,30,1.45,305,"P1",20,"MISCQ","Pioneer","Pioneer_MISCQ-305-1"
"305-P1",247,30,60,1.52,305,"P1",45,"MISCQ","Pioneer","Pioneer_MISCQ-305-1"
"305-P1",247,60,90,1.67,305,"P1",75,"MISCQ","Pioneer","Pioneer_MISCQ-305-1"
"305-P1",247,90,130,1.84,305,"P1",110,"MISCQ","Pioneer","Pioneer_MISCQ-305-1"
"305-P1",247,130,150,1.86,305,"P1",140,"MISCQ","Pioneer","Pioneer_MISCQ-305-1"
"305-P1",247,150,170,1.84,305,"P1",160,"MISCQ","Pioneer","Pioneer_MISCQ-305-1"
"305-P2",270,0,10,1.37,305,"P2",5,"MISCQ","Pioneer","Pioneer_MISCQ-305-1"
"305-P2",270,10,30,1.42,305,"P2",20,"MISCQ","Pioneer","Pioneer_MISCQ-305-1"
"305-P2",270,30,60,1.46,305,"P2",45,"MISCQ","Pioneer","Pioneer_MISCQ-305-1"
"305-P2",270,60,90,1.58,305,"P2",75,"MISCQ","Pioneer","Pioneer_MISCQ-305-1"
"305-P2",270,90,130,1.7,305,"P2",110,"MISCQ","Pioneer","Pioneer_MISCQ-305-1"
"305-P2",270,130,150,1.73,305,"P2",140,"MISCQ","Pioneer","Pioneer_MISCQ-305-1"
"305-P2",270,150,170,1.73,305,"P2",160,"MISCQ","Pioneer","Pioneer_MISCQ-305-1"
"305-P3",145,0,10,1.43,305,"P3",5,"MISCQ","Pioneer","Pioneer_MISCQ-305-1"
"305-P3",145,10,30,1.42,305,"P3",20,"MISCQ","Pioneer","Pioneer_MISCQ-305-1"
"305-P3",145,30,60,1.44,305,"P3",45,"MISCQ","Pioneer","Pioneer_MISCQ-305-1"
"305-P3",145,60,90,1.58,305,"P3",75,"MISCQ","Pioneer","Pioneer_MISCQ-305-1"
"305-P3",145,90,130,1.74,305,"P3",110,"MISCQ","Pioneer","Pioneer_MISCQ-305-1"
"305-P3",145,130,150,1.83,305,"P3",140,"MISCQ","Pioneer","Pioneer_MISCQ-305-1"
"305-P3",145,150,170,NA,305,"P3",160,"MISCQ","Pioneer","Pioneer_MISCQ-305-1"
"308-E1",143,0,10,1.42,308,"E1",5,"MISCQ","Eton","Eton_MISCQ-308-1"
"308-E1",143,10,30,1.62,308,"E1",20,"MISCQ","Eton","Eton_MISCQ-308-1"
"308-E1",143,30,60,1.73,308,"E1",45,"MISCQ","Eton","Eton_MISCQ-308-1"
"308-E1",143,60,90,1.8,308,"E1",75,"MISCQ","Eton","Eton_MISCQ-308-1"
"308-E1",143,90,130,1.88,308,"E1",110,"MISCQ","Eton","Eton_MISCQ-308-1"
"308-E1",143,130,150,1.89,308,"E1",140,"MISCQ","Eton","Eton_MISCQ-308-1"
"308-E1",143,150,170,NA,308,"E1",160,"MISCQ","Eton","Eton_MISCQ-308-1"
"308-E2",123,0,10,1.29,308,"E2",5,"MISCQ","Eton","Eton_MISCQ-308-1"
"308-E2",123,10,30,1.55,308,"E2",20,"MISCQ","Eton","Eton_MISCQ-308-1"
"308-E2",123,30,60,1.72,308,"E2",45,"MISCQ","Eton","Eton_MISCQ-308-1"
"308-E2",123,60,90,1.81,308,"E2",75,"MISCQ","Eton","Eton_MISCQ-308-1"
"308-E2",123,90,130,1.83,308,"E2",110,"MISCQ","Eton","Eton_MISCQ-308-1"
"308-E2",123,130,150,NA,308,"E2",140,"MISCQ","Eton","Eton_MISCQ-308-1"
"308-E2",123,150,170,NA,308,"E2",160,"MISCQ","Eton","Eton_MISCQ-308-1"
"308-E3",126,0,10,1.36,308,"E3",5,"MISCQ","Eton","Eton_MISCQ-308-1"
"308-E3",126,10,30,1.61,308,"E3",20,"MISCQ","Eton","Eton_MISCQ-308-1"
"308-E3",126,30,60,1.7,308,"E3",45,"MISCQ","Eton","Eton_MISCQ-308-1"
"308-E3",126,60,90,1.78,308,"E3",75,"MISCQ","Eton","Eton_MISCQ-308-1"
"308-E3",126,90,130,1.85,308,"E3",110,"MISCQ","Eton","Eton_MISCQ-308-1"
"308-E3",126,130,150,NA,308,"E3",140,"MISCQ","Eton","Eton_MISCQ-308-1"
"308-E3",126,150,170,NA,308,"E3",160,"MISCQ","Eton","Eton_MISCQ-308-1"
"309-M2",102,0,10,1.2,309,"M2",5,"MISCQ","Mirani","Mirani_MISCQ-309-1"
"309-M2",102,10,30,1.48,309,"M2",20,"MISCQ","Mirani","Mirani_MISCQ-309-1"
"309-M2",102,30,60,1.64,309,"M2",45,"MISCQ","Mirani","Mirani_MISCQ-309-1"
"309-M2",102,60,90,1.51,309,"M2",75,"MISCQ","Mirani","Mirani_MISCQ-309-1"
"309-M2",102,90,130,1.43,309,"M2",110,"MISCQ","Mirani","Mirani_MISCQ-309-1"
"309-M2",102,130,150,NA,309,"M2",140,"MISCQ","Mirani","Mirani_MISCQ-309-1"
"309-M2",102,150,170,NA,309,"M2",160,"MISCQ","Mirani","Mirani_MISCQ-309-1"
"309-M3",148,0,10,1.48,309,"M3",5,"MISCQ","Mirani","Mirani_MISCQ-309-1"
"309-M3",148,10,30,1.48,309,"M3",20,"MISCQ","Mirani","Mirani_MISCQ-309-1"
"309-M3",148,30,60,1.57,309,"M3",45,"MISCQ","Mirani","Mirani_MISCQ-309-1"
"309-M3",148,60,90,1.66,309,"M3",75,"MISCQ","Mirani","Mirani_MISCQ-309-1"
"309-M3",148,90,130,1.63,309,"M3",110,"MISCQ","Mirani","Mirani_MISCQ-309-1"
"309-M3",148,130,150,1.6,309,"M3",140,"MISCQ","Mirani","Mirani_MISCQ-309-1"
"309-M3",148,150,170,NA,309,"M3",160,"MISCQ","Mirani","Mirani_MISCQ-309-1"
"311-G1",146,0,10,1.43,311,"G1",5,"MISCQ","Gargett","Gargett_MISCQ-311-1"
"311-G1",146,10,30,1.43,311,"G1",20,"MISCQ","Gargett","Gargett_MISCQ-311-1"
"311-G1",146,30,60,1.58,311,"G1",45,"MISCQ","Gargett","Gargett_MISCQ-311-1"
"311-G1",146,60,90,1.69,311,"G1",75,"MISCQ","Gargett","Gargett_MISCQ-311-1"
"311-G1",146,90,130,1.8,311,"G1",110,"MISCQ","Gargett","Gargett_MISCQ-311-1"
"311-G1",146,130,150,1.86,311,"G1",140,"MISCQ","Gargett","Gargett_MISCQ-311-1"
"311-G1",146,150,170,NA,311,"G1",160,"MISCQ","Gargett","Gargett_MISCQ-311-1"
"311-G2",155,0,10,1.57,311,"G2",5,"MISCQ","Gargett","Gargett_MISCQ-311-1"
"311-G2",155,10,30,1.56,311,"G2",20,"MISCQ","Gargett","Gargett_MISCQ-311-1"
"311-G2",155,30,60,1.58,311,"G2",45,"MISCQ","Gargett","Gargett_MISCQ-311-1"
"311-G2",155,60,90,1.68,311,"G2",75,"MISCQ","Gargett","Gargett_MISCQ-311-1"
"311-G2",155,90,130,1.8,311,"G2",110,"MISCQ","Gargett","Gargett_MISCQ-311-1"
"311-G2",155,130,150,1.81,311,"G2",140,"MISCQ","Gargett","Gargett_MISCQ-311-1"
"311-G2",155,150,170,1.78,311,"G2",160,"MISCQ","Gargett","Gargett_MISCQ-311-1"
"311-G3",157,0,10,1.25,311,"G3",5,"MISCQ","Gargett","Gargett_MISCQ-311-1"
"311-G3",157,10,30,1.29,311,"G3",20,"MISCQ","Gargett","Gargett_MISCQ-311-1"
"311-G3",157,30,60,1.59,311,"G3",45,"MISCQ","Gargett","Gargett_MISCQ-311-1"
"311-G3",157,60,90,1.69,311,"G3",75,"MISCQ","Gargett","Gargett_MISCQ-311-1"
"311-G3",157,90,130,1.81,311,"G3",110,"MISCQ","Gargett","Gargett_MISCQ-311-1"
"311-G3",157,130,150,1.82,311,"G3",140,"MISCQ","Gargett","Gargett_MISCQ-311-1"
"311-G3",157,150,170,1.79,311,"G3",160,"MISCQ","Gargett","Gargett_MISCQ-311-1"
"42-1",96,0,10,1.6,42,"1",5,"MISCQ","Marian","Marian_MISCQ-42-1"
"42-1",96,10,30,1.6,42,"1",20,"MISCQ","Marian","Marian_MISCQ-42-1"
"42-1",96,30,60,1.41,42,"1",45,"MISCQ","Marian","Marian_MISCQ-42-1"
"42-1",96,60,90,1.44,42,"1",75,"MISCQ","Marian","Marian_MISCQ-42-1"
"42-1",96,90,130,1.63,42,"1",110,"MISCQ","Marian","Marian_MISCQ-42-1"
"42-1",96,130,150,NA,42,"1",140,"MISCQ","Marian","Marian_MISCQ-42-1"
"42-1",96,150,170,NA,42,"1",160,"MISCQ","Marian","Marian_MISCQ-42-1"
"42-2",75,0,10,1.55,42,"2",5,"MISCQ","Marian","Marian_MISCQ-42-1"
"42-2",75,10,30,1.55,42,"2",20,"MISCQ","Marian","Marian_MISCQ-42-1"
"42-2",75,30,60,1.48,42,"2",45,"MISCQ","Marian","Marian_MISCQ-42-1"
"42-2",75,60,90,1.39,42,"2",75,"MISCQ","Marian","Marian_MISCQ-42-1"
"42-2",75,90,130,NA,42,"2",110,"MISCQ","Marian","Marian_MISCQ-42-1"
"42-2",75,130,150,NA,42,"2",140,"MISCQ","Marian","Marian_MISCQ-42-1"
"42-2",75,150,170,NA,42,"2",160,"MISCQ","Marian","Marian_MISCQ-42-1"
"42-3",105,0,10,1.63,42,"3",5,"MISCQ","Marian","Marian_MISCQ-42-1"
"42-3",105,10,30,1.63,42,"3",20,"MISCQ","Marian","Marian_MISCQ-42-1"
"42-3",105,30,60,1.38,42,"3",45,"MISCQ","Marian","Marian_MISCQ-42-1"
"42-3",105,60,90,1.42,42,"3",75,"MISCQ","Marian","Marian_MISCQ-42-1"
"42-3",105,90,130,1.4,42,"3",110,"MISCQ","Marian","Marian_MISCQ-42-1"
"42-3",105,130,150,NA,42,"3",140,"MISCQ","Marian","Marian_MISCQ-42-1"
"42-3",105,150,170,NA,42,"3",160,"MISCQ","Marian","Marian_MISCQ-42-1"
"47-1",150,0,10,1.6,47,"1",5,"MISCQ","Marian Yellow B Horizon Variant","Marian Yellow B Horizon Variant_MISCQ-47-1"
"47-1",150,10,30,1.62,47,"1",20,"MISCQ","Marian Yellow B Horizon Variant","Marian Yellow B Horizon Variant_MISCQ-47-1"
"47-1",150,30,60,1.74,47,"1",45,"MISCQ","Marian Yellow B Horizon Variant","Marian Yellow B Horizon Variant_MISCQ-47-1"
"47-1",150,60,90,1.81,47,"1",75,"MISCQ","Marian Yellow B Horizon Variant","Marian Yellow B Horizon Variant_MISCQ-47-1"
"47-1",150,90,130,1.81,47,"1",110,"MISCQ","Marian Yellow B Horizon Variant","Marian Yellow B Horizon Variant_MISCQ-47-1"
"47-1",150,130,150,1.8,47,"1",140,"MISCQ","Marian Yellow B Horizon Variant","Marian Yellow B Horizon Variant_MISCQ-47-1"
"47-1",150,150,170,NA,47,"1",160,"MISCQ","Marian Yellow B Horizon Variant","Marian Yellow B Horizon Variant_MISCQ-47-1"
"47-2",130,0,10,1.51,47,"2",5,"MISCQ","Marian Yellow B Horizon Variant","Marian Yellow B Horizon Variant_MISCQ-47-1"
"47-2",130,10,30,1.55,47,"2",20,"MISCQ","Marian Yellow B Horizon Variant","Marian Yellow B Horizon Variant_MISCQ-47-1"
"47-2",130,30,60,1.79,47,"2",45,"MISCQ","Marian Yellow B Horizon Variant","Marian Yellow B Horizon Variant_MISCQ-47-1"
"47-2",130,60,90,1.76,47,"2",75,"MISCQ","Marian Yellow B Horizon Variant","Marian Yellow B Horizon Variant_MISCQ-47-1"
"47-2",130,90,130,1.82,47,"2",110,"MISCQ","Marian Yellow B Horizon Variant","Marian Yellow B Horizon Variant_MISCQ-47-1"
"47-2",130,130,150,NA,47,"2",140,"MISCQ","Marian Yellow B Horizon Variant","Marian Yellow B Horizon Variant_MISCQ-47-1"
"47-2",130,150,170,NA,47,"2",160,"MISCQ","Marian Yellow B Horizon Variant","Marian Yellow B Horizon Variant_MISCQ-47-1"
"47-3",150,0,10,1.73,47,"3",5,"MISCQ","Marian Yellow B Horizon Variant","Marian Yellow B Horizon Variant_MISCQ-47-1"
"47-3",150,10,30,1.74,47,"3",20,"MISCQ","Marian Yellow B Horizon Variant","Marian Yellow B Horizon Variant_MISCQ-47-1"
"47-3",150,30,60,1.72,47,"3",45,"MISCQ","Marian Yellow B Horizon Variant","Marian Yellow B Horizon Variant_MISCQ-47-1"
"47-3",150,60,90,1.8,47,"3",75,"MISCQ","Marian Yellow B Horizon Variant","Marian Yellow B Horizon Variant_MISCQ-47-1"
"47-3",150,90,130,1.8,47,"3",110,"MISCQ","Marian Yellow B Horizon Variant","Marian Yellow B Horizon Variant_MISCQ-47-1"
"47-3",150,130,150,1.77,47,"3",140,"MISCQ","Marian Yellow B Horizon Variant","Marian Yellow B Horizon Variant_MISCQ-47-1"
"47-3",150,150,170,NA,47,"3",160,"MISCQ","Marian Yellow B Horizon Variant","Marian Yellow B Horizon Variant_MISCQ-47-1"
"575-VP 10",97,0,10,1.22,575,"VP 10",5,"P2REEF","Victoria Plains","Victoria Plains_P2REEF-575-1"
"575-VP 10",97,10,30,1.26,575,"VP 10",20,"P2REEF","Victoria Plains","Victoria Plains_P2REEF-575-1"
"575-VP 10",97,30,60,1.31,575,"VP 10",45,"P2REEF","Victoria Plains","Victoria Plains_P2REEF-575-1"
"575-VP 10",97,60,90,1.31,575,"VP 10",75,"P2REEF","Victoria Plains","Victoria Plains_P2REEF-575-1"
"575-VP 10",97,90,130,1.35,575,"VP 10",110,"P2REEF","Victoria Plains","Victoria Plains_P2REEF-575-1"
"575-VP 10",97,130,150,NA,575,"VP 10",140,"P2REEF","Victoria Plains","Victoria Plains_P2REEF-575-1"
"575-VP 10",97,150,170,NA,575,"VP 10",160,"P2REEF","Victoria Plains","Victoria Plains_P2REEF-575-1"
"575-VP 2",155,0,10,1.22,575,"VP 2",5,"P2REEF","Victoria Plains","Victoria Plains_P2REEF-575-1"
"575-VP 2",155,10,30,1.24,575,"VP 2",20,"P2REEF","Victoria Plains","Victoria Plains_P2REEF-575-1"
"575-VP 2",155,30,60,1.28,575,"VP 2",45,"P2REEF","Victoria Plains","Victoria Plains_P2REEF-575-1"
"575-VP 2",155,60,90,1.33,575,"VP 2",75,"P2REEF","Victoria Plains","Victoria Plains_P2REEF-575-1"
"575-VP 2",155,90,130,1.38,575,"VP 2",110,"P2REEF","Victoria Plains","Victoria Plains_P2REEF-575-1"
"575-VP 2",155,130,150,1.42,575,"VP 2",140,"P2REEF","Victoria Plains","Victoria Plains_P2REEF-575-1"
"575-VP 2",155,150,170,1.43,575,"VP 2",160,"P2REEF","Victoria Plains","Victoria Plains_P2REEF-575-1"
"575-VP 3",150,0,10,1.29,575,"VP 3",5,"P2REEF","Victoria Plains","Victoria Plains_P2REEF-575-1"
"575-VP 3",150,10,30,1.28,575,"VP 3",20,"P2REEF","Victoria Plains","Victoria Plains_P2REEF-575-1"
"575-VP 3",150,30,60,1.29,575,"VP 3",45,"P2REEF","Victoria Plains","Victoria Plains_P2REEF-575-1"
"575-VP 3",150,60,90,1.34,575,"VP 3",75,"P2REEF","Victoria Plains","Victoria Plains_P2REEF-575-1"
"575-VP 3",150,90,130,1.38,575,"VP 3",110,"P2REEF","Victoria Plains","Victoria Plains_P2REEF-575-1"
"575-VP 3",150,130,150,1.44,575,"VP 3",140,"P2REEF","Victoria Plains","Victoria Plains_P2REEF-575-1"
"575-VP 3",150,150,170,NA,575,"VP 3",160,"P2REEF","Victoria Plains","Victoria Plains_P2REEF-575-1"
"575-VP 4",150,0,10,1.07,575,"VP 4",5,"P2REEF","Victoria Plains","Victoria Plains_P2REEF-575-1"
"575-VP 4",150,10,30,1.18,575,"VP 4",20,"P2REEF","Victoria Plains","Victoria Plains_P2REEF-575-1"
"575-VP 4",150,30,60,1.27,575,"VP 4",45,"P2REEF","Victoria Plains","Victoria Plains_P2REEF-575-1"
"575-VP 4",150,60,90,1.27,575,"VP 4",75,"P2REEF","Victoria Plains","Victoria Plains_P2REEF-575-1"
"575-VP 4",150,90,130,1.34,575,"VP 4",110,"P2REEF","Victoria Plains","Victoria Plains_P2REEF-575-1"
"575-VP 4",150,130,150,1.41,575,"VP 4",140,"P2REEF","Victoria Plains","Victoria Plains_P2REEF-575-1"
"575-VP 4",150,150,170,NA,575,"VP 4",160,"P2REEF","Victoria Plains","Victoria Plains_P2REEF-575-1"
"575-VP 5",76,0,10,1.15,575,"VP 5",5,"P2REEF","Victoria Plains","Victoria Plains_P2REEF-575-1"
"575-VP 5",76,10,30,1.19,575,"VP 5",20,"P2REEF","Victoria Plains","Victoria Plains_P2REEF-575-1"
"575-VP 5",76,30,60,1.27,575,"VP 5",45,"P2REEF","Victoria Plains","Victoria Plains_P2REEF-575-1"
"575-VP 5",76,60,90,1.28,575,"VP 5",75,"P2REEF","Victoria Plains","Victoria Plains_P2REEF-575-1"
"575-VP 5",76,90,130,NA,575,"VP 5",110,"P2REEF","Victoria Plains","Victoria Plains_P2REEF-575-1"
"575-VP 5",76,130,150,NA,575,"VP 5",140,"P2REEF","Victoria Plains","Victoria Plains_P2REEF-575-1"
"575-VP 5",76,150,170,NA,575,"VP 5",160,"P2REEF","Victoria Plains","Victoria Plains_P2REEF-575-1"
"575-VP 6",72,0,10,1.2,575,"VP 6",5,"P2REEF","Victoria Plains","Victoria Plains_P2REEF-575-1"
"575-VP 6",72,10,30,1.25,575,"VP 6",20,"P2REEF","Victoria Plains","Victoria Plains_P2REEF-575-1"
"575-VP 6",72,30,60,1.33,575,"VP 6",45,"P2REEF","Victoria Plains","Victoria Plains_P2REEF-575-1"
"575-VP 6",72,60,90,1.32,575,"VP 6",75,"P2REEF","Victoria Plains","Victoria Plains_P2REEF-575-1"
"575-VP 6",72,90,130,NA,575,"VP 6",110,"P2REEF","Victoria Plains","Victoria Plains_P2REEF-575-1"
"575-VP 6",72,130,150,NA,575,"VP 6",140,"P2REEF","Victoria Plains","Victoria Plains_P2REEF-575-1"
"575-VP 6",72,150,170,NA,575,"VP 6",160,"P2REEF","Victoria Plains","Victoria Plains_P2REEF-575-1"
"575-VP 7",87,0,10,1.17,575,"VP 7",5,"P2REEF","Victoria Plains","Victoria Plains_P2REEF-575-1"
"575-VP 7",87,10,30,1.23,575,"VP 7",20,"P2REEF","Victoria Plains","Victoria Plains_P2REEF-575-1"
"575-VP 7",87,30,60,1.32,575,"VP 7",45,"P2REEF","Victoria Plains","Victoria Plains_P2REEF-575-1"
"575-VP 7",87,60,90,1.31,575,"VP 7",75,"P2REEF","Victoria Plains","Victoria Plains_P2REEF-575-1"
"575-VP 7",87,90,130,NA,575,"VP 7",110,"P2REEF","Victoria Plains","Victoria Plains_P2REEF-575-1"
"575-VP 7",87,130,150,NA,575,"VP 7",140,"P2REEF","Victoria Plains","Victoria Plains_P2REEF-575-1"
"575-VP 7",87,150,170,NA,575,"VP 7",160,"P2REEF","Victoria Plains","Victoria Plains_P2REEF-575-1"
"575-VP 8",92,0,10,1.24,575,"VP 8",5,"P2REEF","Victoria Plains","Victoria Plains_P2REEF-575-1"
"575-VP 8",92,10,30,1.29,575,"VP 8",20,"P2REEF","Victoria Plains","Victoria Plains_P2REEF-575-1"
"575-VP 8",92,30,60,1.34,575,"VP 8",45,"P2REEF","Victoria Plains","Victoria Plains_P2REEF-575-1"
"575-VP 8",92,60,90,1.31,575,"VP 8",75,"P2REEF","Victoria Plains","Victoria Plains_P2REEF-575-1"
"575-VP 8",92,90,130,1.32,575,"VP 8",110,"P2REEF","Victoria Plains","Victoria Plains_P2REEF-575-1"
"575-VP 8",92,130,150,NA,575,"VP 8",140,"P2REEF","Victoria Plains","Victoria Plains_P2REEF-575-1"
"575-VP 8",92,150,170,NA,575,"VP 8",160,"P2REEF","Victoria Plains","Victoria Plains_P2REEF-575-1"
"575-VP 9",92,0,10,1.26,575,"VP 9",5,"P2REEF","Victoria Plains","Victoria Plains_P2REEF-575-1"
"575-VP 9",92,10,30,1.29,575,"VP 9",20,"P2REEF","Victoria Plains","Victoria Plains_P2REEF-575-1"
"575-VP 9",92,30,60,1.33,575,"VP 9",45,"P2REEF","Victoria Plains","Victoria Plains_P2REEF-575-1"
"575-VP 9",92,60,90,1.32,575,"VP 9",75,"P2REEF","Victoria Plains","Victoria Plains_P2REEF-575-1"
"575-VP 9",92,90,130,1.32,575,"VP 9",110,"P2REEF","Victoria Plains","Victoria Plains_P2REEF-575-1"
"575-VP 9",92,130,150,NA,575,"VP 9",140,"P2REEF","Victoria Plains","Victoria Plains_P2REEF-575-1"
"575-VP 9",92,150,170,NA,575,"VP 9",160,"P2REEF","Victoria Plains","Victoria Plains_P2REEF-575-1"
"575-VP11",148,0,10,1.29,575,"VP11",5,"P2REEF","Victoria Plains","Victoria Plains_P2REEF-575-1"
"575-VP11",148,10,30,1.32,575,"VP11",20,"P2REEF","Victoria Plains","Victoria Plains_P2REEF-575-1"
"575-VP11",148,30,60,1.34,575,"VP11",45,"P2REEF","Victoria Plains","Victoria Plains_P2REEF-575-1"
"575-VP11",148,60,90,1.32,575,"VP11",75,"P2REEF","Victoria Plains","Victoria Plains_P2REEF-575-1"
"575-VP11",148,90,130,1.36,575,"VP11",110,"P2REEF","Victoria Plains","Victoria Plains_P2REEF-575-1"
"575-VP11",148,130,150,1.39,575,"VP11",140,"P2REEF","Victoria Plains","Victoria Plains_P2REEF-575-1"
"575-VP11",148,150,170,NA,575,"VP11",160,"P2REEF","Victoria Plains","Victoria Plains_P2REEF-575-1"
"575-VP12",152,0,10,1.25,575,"VP12",5,"P2REEF","Victoria Plains","Victoria Plains_P2REEF-575-1"
"575-VP12",152,10,30,1.33,575,"VP12",20,"P2REEF","Victoria Plains","Victoria Plains_P2REEF-575-1"
"575-VP12",152,30,60,1.39,575,"VP12",45,"P2REEF","Victoria Plains","Victoria Plains_P2REEF-575-1"
"575-VP12",152,60,90,1.37,575,"VP12",75,"P2REEF","Victoria Plains","Victoria Plains_P2REEF-575-1"
"575-VP12",152,90,130,1.38,575,"VP12",110,"P2REEF","Victoria Plains","Victoria Plains_P2REEF-575-1"
"575-VP12",152,130,150,1.41,575,"VP12",140,"P2REEF","Victoria Plains","Victoria Plains_P2REEF-575-1"
"575-VP12",152,150,170,1.41,575,"VP12",160,"P2REEF","Victoria Plains","Victoria Plains_P2REEF-575-1"
"575-VP13",150,0,10,1.26,575,"VP13",5,"P2REEF","Victoria Plains","Victoria Plains_P2REEF-575-1"
"575-VP13",150,10,30,1.32,575,"VP13",20,"P2REEF","Victoria Plains","Victoria Plains_P2REEF-575-1"
"575-VP13",150,30,60,1.39,575,"VP13",45,"P2REEF","Victoria Plains","Victoria Plains_P2REEF-575-1"
"575-VP13",150,60,90,1.4,575,"VP13",75,"P2REEF","Victoria Plains","Victoria Plains_P2REEF-575-1"
"575-VP13",150,90,130,1.36,575,"VP13",110,"P2REEF","Victoria Plains","Victoria Plains_P2REEF-575-1"
"575-VP13",150,130,150,1.39,575,"VP13",140,"P2REEF","Victoria Plains","Victoria Plains_P2REEF-575-1"
"575-VP13",150,150,170,NA,575,"VP13",160,"P2REEF","Victoria Plains","Victoria Plains_P2REEF-575-1"
"575-VP14 ",150,0,10,1.28,575,"VP14 ",5,"P2REEF","Victoria Plains","Victoria Plains_P2REEF-575-1"
"575-VP14 ",150,10,30,1.34,575,"VP14 ",20,"P2REEF","Victoria Plains","Victoria Plains_P2REEF-575-1"
"575-VP14 ",150,30,60,1.38,575,"VP14 ",45,"P2REEF","Victoria Plains","Victoria Plains_P2REEF-575-1"
"575-VP14 ",150,60,90,1.31,575,"VP14 ",75,"P2REEF","Victoria Plains","Victoria Plains_P2REEF-575-1"
"575-VP14 ",150,90,130,1.36,575,"VP14 ",110,"P2REEF","Victoria Plains","Victoria Plains_P2REEF-575-1"
"575-VP14 ",150,130,150,1.54,575,"VP14 ",140,"P2REEF","Victoria Plains","Victoria Plains_P2REEF-575-1"
"575-VP14 ",150,150,170,NA,575,"VP14 ",160,"P2REEF","Victoria Plains","Victoria Plains_P2REEF-575-1"
"575-VP15",150,0,10,1.23,575,"VP15",5,"P2REEF","Victoria Plains","Victoria Plains_P2REEF-575-1"
"575-VP15",150,10,30,1.35,575,"VP15",20,"P2REEF","Victoria Plains","Victoria Plains_P2REEF-575-1"
"575-VP15",150,30,60,1.38,575,"VP15",45,"P2REEF","Victoria Plains","Victoria Plains_P2REEF-575-1"
"575-VP15",150,60,90,1.33,575,"VP15",75,"P2REEF","Victoria Plains","Victoria Plains_P2REEF-575-1"
"575-VP15",150,90,130,1.33,575,"VP15",110,"P2REEF","Victoria Plains","Victoria Plains_P2REEF-575-1"
"575-VP15",150,130,150,1.43,575,"VP15",140,"P2REEF","Victoria Plains","Victoria Plains_P2REEF-575-1"
"575-VP15",150,150,170,NA,575,"VP15",160,"P2REEF","Victoria Plains","Victoria Plains_P2REEF-575-1"
"575-VP16",150,0,10,1.25,575,"VP16",5,"P2REEF","Victoria Plains","Victoria Plains_P2REEF-575-1"
"575-VP16",150,10,30,1.32,575,"VP16",20,"P2REEF","Victoria Plains","Victoria Plains_P2REEF-575-1"
"575-VP16",150,30,60,1.37,575,"VP16",45,"P2REEF","Victoria Plains","Victoria Plains_P2REEF-575-1"
"575-VP16",150,60,90,1.34,575,"VP16",75,"P2REEF","Victoria Plains","Victoria Plains_P2REEF-575-1"
"575-VP16",150,90,130,1.34,575,"VP16",110,"P2REEF","Victoria Plains","Victoria Plains_P2REEF-575-1"
"575-VP16",150,130,150,1.48,575,"VP16",140,"P2REEF","Victoria Plains","Victoria Plains_P2REEF-575-1"
"575-VP16",150,150,170,NA,575,"VP16",160,"P2REEF","Victoria Plains","Victoria Plains_P2REEF-575-1"
"575-VP17",150,0,10,1.2,575,"VP17",5,"P2REEF","Victoria Plains","Victoria Plains_P2REEF-575-1"
"575-VP17",150,10,30,1.27,575,"VP17",20,"P2REEF","Victoria Plains","Victoria Plains_P2REEF-575-1"
"575-VP17",150,30,60,1.33,575,"VP17",45,"P2REEF","Victoria Plains","Victoria Plains_P2REEF-575-1"
"575-VP17",150,60,90,1.33,575,"VP17",75,"P2REEF","Victoria Plains","Victoria Plains_P2REEF-575-1"
"575-VP17",150,90,130,1.39,575,"VP17",110,"P2REEF","Victoria Plains","Victoria Plains_P2REEF-575-1"
"575-VP17",150,130,150,1.48,575,"VP17",140,"P2REEF","Victoria Plains","Victoria Plains_P2REEF-575-1"
"575-VP17",150,150,170,NA,575,"VP17",160,"P2REEF","Victoria Plains","Victoria Plains_P2REEF-575-1"
"575-VP18",152,0,10,1.19,575,"VP18",5,"P2REEF","Victoria Plains","Victoria Plains_P2REEF-575-1"
"575-VP18",152,10,30,1.3,575,"VP18",20,"P2REEF","Victoria Plains","Victoria Plains_P2REEF-575-1"
"575-VP18",152,30,60,1.38,575,"VP18",45,"P2REEF","Victoria Plains","Victoria Plains_P2REEF-575-1"
"575-VP18",152,60,90,1.33,575,"VP18",75,"P2REEF","Victoria Plains","Victoria Plains_P2REEF-575-1"
"575-VP18",152,90,130,1.4,575,"VP18",110,"P2REEF","Victoria Plains","Victoria Plains_P2REEF-575-1"
"575-VP18",152,130,150,1.5,575,"VP18",140,"P2REEF","Victoria Plains","Victoria Plains_P2REEF-575-1"
"575-VP18",152,150,170,1.51,575,"VP18",160,"P2REEF","Victoria Plains","Victoria Plains_P2REEF-575-1"
"575-VP19",153,0,10,1.32,575,"VP19",5,"P2REEF","Victoria Plains","Victoria Plains_P2REEF-575-1"
"575-VP19",153,10,30,1.37,575,"VP19",20,"P2REEF","Victoria Plains","Victoria Plains_P2REEF-575-1"
"575-VP19",153,30,60,1.39,575,"VP19",45,"P2REEF","Victoria Plains","Victoria Plains_P2REEF-575-1"
"575-VP19",153,60,90,1.34,575,"VP19",75,"P2REEF","Victoria Plains","Victoria Plains_P2REEF-575-1"
"575-VP19",153,90,130,1.38,575,"VP19",110,"P2REEF","Victoria Plains","Victoria Plains_P2REEF-575-1"
"575-VP19",153,130,150,1.51,575,"VP19",140,"P2REEF","Victoria Plains","Victoria Plains_P2REEF-575-1"
"575-VP19",153,150,170,1.53,575,"VP19",160,"P2REEF","Victoria Plains","Victoria Plains_P2REEF-575-1"
"575-VP21",150,0,10,1.25,575,"VP21",5,"P2REEF","Victoria Plains","Victoria Plains_P2REEF-575-1"
"575-VP21",150,10,30,1.29,575,"VP21",20,"P2REEF","Victoria Plains","Victoria Plains_P2REEF-575-1"
"575-VP21",150,30,60,1.29,575,"VP21",45,"P2REEF","Victoria Plains","Victoria Plains_P2REEF-575-1"
"575-VP21",150,60,90,1.29,575,"VP21",75,"P2REEF","Victoria Plains","Victoria Plains_P2REEF-575-1"
"575-VP21",150,90,130,1.38,575,"VP21",110,"P2REEF","Victoria Plains","Victoria Plains_P2REEF-575-1"
"575-VP21",150,130,150,1.41,575,"VP21",140,"P2REEF","Victoria Plains","Victoria Plains_P2REEF-575-1"
"575-VP21",150,150,170,NA,575,"VP21",160,"P2REEF","Victoria Plains","Victoria Plains_P2REEF-575-1"
"575-VP22",150,0,10,1.19,575,"VP22",5,"P2REEF","Victoria Plains","Victoria Plains_P2REEF-575-1"
"575-VP22",150,10,30,1.23,575,"VP22",20,"P2REEF","Victoria Plains","Victoria Plains_P2REEF-575-1"
"575-VP22",150,30,60,1.29,575,"VP22",45,"P2REEF","Victoria Plains","Victoria Plains_P2REEF-575-1"
"575-VP22",150,60,90,1.28,575,"VP22",75,"P2REEF","Victoria Plains","Victoria Plains_P2REEF-575-1"
"575-VP22",150,90,130,1.36,575,"VP22",110,"P2REEF","Victoria Plains","Victoria Plains_P2REEF-575-1"
"575-VP22",150,130,150,1.44,575,"VP22",140,"P2REEF","Victoria Plains","Victoria Plains_P2REEF-575-1"
"575-VP22",150,150,170,NA,575,"VP22",160,"P2REEF","Victoria Plains","Victoria Plains_P2REEF-575-1"
"575-VP23",150,0,10,1.3,575,"VP23",5,"P2REEF","Victoria Plains","Victoria Plains_P2REEF-575-1"
"575-VP23",150,10,30,1.31,575,"VP23",20,"P2REEF","Victoria Plains","Victoria Plains_P2REEF-575-1"
"575-VP23",150,30,60,1.31,575,"VP23",45,"P2REEF","Victoria Plains","Victoria Plains_P2REEF-575-1"
"575-VP23",150,60,90,1.31,575,"VP23",75,"P2REEF","Victoria Plains","Victoria Plains_P2REEF-575-1"
"575-VP23",150,90,130,1.34,575,"VP23",110,"P2REEF","Victoria Plains","Victoria Plains_P2REEF-575-1"
"575-VP23",150,130,150,1.41,575,"VP23",140,"P2REEF","Victoria Plains","Victoria Plains_P2REEF-575-1"
"575-VP23",150,150,170,NA,575,"VP23",160,"P2REEF","Victoria Plains","Victoria Plains_P2REEF-575-1"
"575-VP24",150,0,10,1.29,575,"VP24",5,"P2REEF","Victoria Plains","Victoria Plains_P2REEF-575-1"
"575-VP24",150,10,30,1.32,575,"VP24",20,"P2REEF","Victoria Plains","Victoria Plains_P2REEF-575-1"
"575-VP24",150,30,60,1.32,575,"VP24",45,"P2REEF","Victoria Plains","Victoria Plains_P2REEF-575-1"
"575-VP24",150,60,90,1.32,575,"VP24",75,"P2REEF","Victoria Plains","Victoria Plains_P2REEF-575-1"
"575-VP24",150,90,130,1.35,575,"VP24",110,"P2REEF","Victoria Plains","Victoria Plains_P2REEF-575-1"
"575-VP24",150,130,150,1.38,575,"VP24",140,"P2REEF","Victoria Plains","Victoria Plains_P2REEF-575-1"
"575-VP24",150,150,170,NA,575,"VP24",160,"P2REEF","Victoria Plains","Victoria Plains_P2REEF-575-1"
"575-VP25",150,0,10,1.27,575,"VP25",5,"P2REEF","Victoria Plains","Victoria Plains_P2REEF-575-1"
"575-VP25",150,10,30,1.28,575,"VP25",20,"P2REEF","Victoria Plains","Victoria Plains_P2REEF-575-1"
"575-VP25",150,30,60,1.29,575,"VP25",45,"P2REEF","Victoria Plains","Victoria Plains_P2REEF-575-1"
"575-VP25",150,60,90,1.35,575,"VP25",75,"P2REEF","Victoria Plains","Victoria Plains_P2REEF-575-1"
"575-VP25",150,90,130,1.36,575,"VP25",110,"P2REEF","Victoria Plains","Victoria Plains_P2REEF-575-1"
"575-VP25",150,130,150,1.43,575,"VP25",140,"P2REEF","Victoria Plains","Victoria Plains_P2REEF-575-1"
"575-VP25",150,150,170,NA,575,"VP25",160,"P2REEF","Victoria Plains","Victoria Plains_P2REEF-575-1"
"575-VP26",150,0,10,1.27,575,"VP26",5,"P2REEF","Victoria Plains","Victoria Plains_P2REEF-575-1"
"575-VP26",150,10,30,1.29,575,"VP26",20,"P2REEF","Victoria Plains","Victoria Plains_P2REEF-575-1"
"575-VP26",150,30,60,1.29,575,"VP26",45,"P2REEF","Victoria Plains","Victoria Plains_P2REEF-575-1"
"575-VP26",150,60,90,1.32,575,"VP26",75,"P2REEF","Victoria Plains","Victoria Plains_P2REEF-575-1"
"575-VP26",150,90,130,1.35,575,"VP26",110,"P2REEF","Victoria Plains","Victoria Plains_P2REEF-575-1"
"575-VP26",150,130,150,1.42,575,"VP26",140,"P2REEF","Victoria Plains","Victoria Plains_P2REEF-575-1"
"575-VP26",150,150,170,NA,575,"VP26",160,"P2REEF","Victoria Plains","Victoria Plains_P2REEF-575-1"
"575-VP27",150,0,10,1.05,575,"VP27",5,"P2REEF","Victoria Plains","Victoria Plains_P2REEF-575-1"
"575-VP27",150,10,30,1.17,575,"VP27",20,"P2REEF","Victoria Plains","Victoria Plains_P2REEF-575-1"
"575-VP27",150,30,60,1.31,575,"VP27",45,"P2REEF","Victoria Plains","Victoria Plains_P2REEF-575-1"
"575-VP27",150,60,90,1.35,575,"VP27",75,"P2REEF","Victoria Plains","Victoria Plains_P2REEF-575-1"
"575-VP27",150,90,130,1.37,575,"VP27",110,"P2REEF","Victoria Plains","Victoria Plains_P2REEF-575-1"
"575-VP27",150,130,150,1.41,575,"VP27",140,"P2REEF","Victoria Plains","Victoria Plains_P2REEF-575-1"
"575-VP27",150,150,170,NA,575,"VP27",160,"P2REEF","Victoria Plains","Victoria Plains_P2REEF-575-1"
"575-VP28",150,0,10,1.09,575,"VP28",5,"P2REEF","Victoria Plains","Victoria Plains_P2REEF-575-1"
"575-VP28",150,10,30,1.15,575,"VP28",20,"P2REEF","Victoria Plains","Victoria Plains_P2REEF-575-1"
"575-VP28",150,30,60,1.31,575,"VP28",45,"P2REEF","Victoria Plains","Victoria Plains_P2REEF-575-1"
"575-VP28",150,60,90,1.34,575,"VP28",75,"P2REEF","Victoria Plains","Victoria Plains_P2REEF-575-1"
"575-VP28",150,90,130,1.35,575,"VP28",110,"P2REEF","Victoria Plains","Victoria Plains_P2REEF-575-1"
"575-VP28",150,130,150,1.39,575,"VP28",140,"P2REEF","Victoria Plains","Victoria Plains_P2REEF-575-1"
"575-VP28",150,150,170,NA,575,"VP28",160,"P2REEF","Victoria Plains","Victoria Plains_P2REEF-575-1"
"575-VP29",150,0,10,1.12,575,"VP29",5,"P2REEF","Victoria Plains","Victoria Plains_P2REEF-575-1"
"575-VP29",150,10,30,1.18,575,"VP29",20,"P2REEF","Victoria Plains","Victoria Plains_P2REEF-575-1"
"575-VP29",150,30,60,1.31,575,"VP29",45,"P2REEF","Victoria Plains","Victoria Plains_P2REEF-575-1"
"575-VP29",150,60,90,1.33,575,"VP29",75,"P2REEF","Victoria Plains","Victoria Plains_P2REEF-575-1"
"575-VP29",150,90,130,1.34,575,"VP29",110,"P2REEF","Victoria Plains","Victoria Plains_P2REEF-575-1"
"575-VP29",150,130,150,1.35,575,"VP29",140,"P2REEF","Victoria Plains","Victoria Plains_P2REEF-575-1"
"575-VP29",150,150,170,NA,575,"VP29",160,"P2REEF","Victoria Plains","Victoria Plains_P2REEF-575-1"
"575-VP30",150,0,10,1.01,575,"VP30",5,"P2REEF","Victoria Plains","Victoria Plains_P2REEF-575-1"
"575-VP30",150,10,30,1.22,575,"VP30",20,"P2REEF","Victoria Plains","Victoria Plains_P2REEF-575-1"
"575-VP30",150,30,60,1.3,575,"VP30",45,"P2REEF","Victoria Plains","Victoria Plains_P2REEF-575-1"
"575-VP30",150,60,90,1.32,575,"VP30",75,"P2REEF","Victoria Plains","Victoria Plains_P2REEF-575-1"
"575-VP30",150,90,130,1.33,575,"VP30",110,"P2REEF","Victoria Plains","Victoria Plains_P2REEF-575-1"
"575-VP30",150,130,150,1.41,575,"VP30",140,"P2REEF","Victoria Plains","Victoria Plains_P2REEF-575-1"
"575-VP30",150,150,170,NA,575,"VP30",160,"P2REEF","Victoria Plains","Victoria Plains_P2REEF-575-1"
"575-VP31",150,0,10,0.95,575,"VP31",5,"P2REEF","Victoria Plains","Victoria Plains_P2REEF-575-1"
"575-VP31",150,10,30,1.22,575,"VP31",20,"P2REEF","Victoria Plains","Victoria Plains_P2REEF-575-1"
"575-VP31",150,30,60,1.27,575,"VP31",45,"P2REEF","Victoria Plains","Victoria Plains_P2REEF-575-1"
"575-VP31",150,60,90,1.33,575,"VP31",75,"P2REEF","Victoria Plains","Victoria Plains_P2REEF-575-1"
"575-VP31",150,90,130,1.37,575,"VP31",110,"P2REEF","Victoria Plains","Victoria Plains_P2REEF-575-1"
"575-VP31",150,130,150,1.42,575,"VP31",140,"P2REEF","Victoria Plains","Victoria Plains_P2REEF-575-1"
"575-VP31",150,150,170,NA,575,"VP31",160,"P2REEF","Victoria Plains","Victoria Plains_P2REEF-575-1"
"575-VP32",150,0,10,1,575,"VP32",5,"P2REEF","Victoria Plains","Victoria Plains_P2REEF-575-1"
"575-VP32",150,10,30,1.2,575,"VP32",20,"P2REEF","Victoria Plains","Victoria Plains_P2REEF-575-1"
"575-VP32",150,30,60,1.28,575,"VP32",45,"P2REEF","Victoria Plains","Victoria Plains_P2REEF-575-1"
"575-VP32",150,60,90,1.33,575,"VP32",75,"P2REEF","Victoria Plains","Victoria Plains_P2REEF-575-1"
"575-VP32",150,90,130,1.36,575,"VP32",110,"P2REEF","Victoria Plains","Victoria Plains_P2REEF-575-1"
"575-VP32",150,130,150,1.47,575,"VP32",140,"P2REEF","Victoria Plains","Victoria Plains_P2REEF-575-1"
"575-VP32",150,150,170,NA,575,"VP32",160,"P2REEF","Victoria Plains","Victoria Plains_P2REEF-575-1"
