"ID","UD","LD","value","Source"
"BVM-19-1",0,10,1.5,"Mullins"
"BVM-19-1",10,30,1.74,"Mullins"
"BVM-19-1",30,60,1.57,"Mullins"
"BVM-19-1",60,90,NA,"Mullins"
"BVM-19-1",90,130,NA,"Mullins"
"BVM-19-1",130,150,NA,"Mullins"
"BVM-19-1",150,170,NA,"Mullins"
"BVM-21-1",0,10,1.53,"Mullins"
"BVM-21-1",10,30,1.53,"Mullins"
"BVM-21-1",30,60,1.46,"Mullins"
"BVM-21-1",60,90,NA,"Mullins"
"BVM-21-1",90,130,NA,"Mullins"
"BVM-21-1",130,150,NA,"Mullins"
"BVM-21-1",150,170,NA,"Mullins"
"BVM-343-1",0,10,1.53,"Mullins"
"BVM-343-1",10,30,1.54,"Mullins"
"BVM-343-1",30,60,1.69,"Mullins"
"BVM-343-1",60,90,NA,"Mullins"
"BVM-343-1",90,130,NA,"Mullins"
"BVM-343-1",130,150,NA,"Mullins"
"BVM-343-1",150,170,NA,"Mullins"
"BVM-356-1",0,10,1.3,"Mullins"
"BVM-356-1",10,30,1.33,"Mullins"
"BVM-356-1",30,60,1.39,"Mullins"
"BVM-356-1",60,90,1.56,"Mullins"
"BVM-356-1",90,130,1.56,"Mullins"
"BVM-356-1",130,150,NA,"Mullins"
"BVM-356-1",150,170,NA,"Mullins"
"BVM-5-1",0,10,1.4,"Mullins"
"BVM-5-1",10,30,1.41,"Mullins"
"BVM-5-1",30,60,1.54,"Mullins"
"BVM-5-1",60,90,1.54,"Mullins"
"BVM-5-1",90,130,1.54,"Mullins"
"BVM-5-1",130,150,NA,"Mullins"
"BVM-5-1",150,170,NA,"Mullins"
"ETD-132-1",0,10,1.25,"Mullins"
"ETD-132-1",10,30,1.35,"Mullins"
"ETD-132-1",30,60,1.4,"Mullins"
"ETD-132-1",60,90,1.46,"Mullins"
"ETD-132-1",90,130,1.6,"Mullins"
"ETD-132-1",130,150,1.6,"Mullins"
"ETD-132-1",150,170,NA,"Mullins"
"ETD-15-1",0,10,1.15,"Mullins"
"ETD-15-1",10,30,1.25,"Mullins"
"ETD-15-1",30,60,1.44,"Mullins"
"ETD-15-1",60,90,1.54,"Mullins"
"ETD-15-1",90,130,1.7,"Mullins"
"ETD-15-1",130,150,1.7,"Mullins"
"ETD-15-1",150,170,NA,"Mullins"
"ETD-307-1",0,10,1.17,"Mullins"
"ETD-307-1",10,30,1.34,"Mullins"
"ETD-307-1",30,60,1.44,"Mullins"
"ETD-307-1",60,90,1.56,"Mullins"
"ETD-307-1",90,130,1.65,"Mullins"
"ETD-307-1",130,150,1.65,"Mullins"
"ETD-307-1",150,170,NA,"Mullins"
"ETD-32-1",0,10,1.25,"Mullins"
"ETD-32-1",10,30,1.36,"Mullins"
"ETD-32-1",30,60,1.42,"Mullins"
"ETD-32-1",60,90,1.55,"Mullins"
"ETD-32-1",90,130,1.6,"Mullins"
"ETD-32-1",130,150,1.6,"Mullins"
"ETD-32-1",150,170,NA,"Mullins"
"ETD-33-1",0,10,1.17,"Mullins"
"ETD-33-1",10,30,1.34,"Mullins"
"ETD-33-1",30,60,1.44,"Mullins"
"ETD-33-1",60,90,1.56,"Mullins"
"ETD-33-1",90,130,1.65,"Mullins"
"ETD-33-1",130,150,1.65,"Mullins"
"ETD-33-1",150,170,NA,"Mullins"
"ETD-400-1",0,10,1.28,"Mullins"
"ETD-400-1",10,30,1.4,"Mullins"
"ETD-400-1",30,60,1.54,"Mullins"
"ETD-400-1",60,90,1.64,"Mullins"
"ETD-400-1",90,130,1.66,"Mullins"
"ETD-400-1",130,150,1.71,"Mullins"
"ETD-400-1",150,170,NA,"Mullins"
"ETD-403-1",0,10,1.28,"Mullins"
"ETD-403-1",10,30,1.4,"Mullins"
"ETD-403-1",30,60,1.54,"Mullins"
"ETD-403-1",60,90,1.64,"Mullins"
"ETD-403-1",90,130,1.66,"Mullins"
"ETD-403-1",130,150,1.71,"Mullins"
"ETD-403-1",150,170,NA,"Mullins"
"ETD-404-1",0,10,1.2,"Mullins"
"ETD-404-1",10,30,1.21,"Mullins"
"ETD-404-1",30,60,1.41,"Mullins"
"ETD-404-1",60,90,1.55,"Mullins"
"ETD-404-1",90,130,1.62,"Mullins"
"ETD-404-1",130,150,1.71,"Mullins"
"ETD-404-1",150,170,NA,"Mullins"
"ETD-405-1",0,10,1.3,"Mullins"
"ETD-405-1",10,30,1.34,"Mullins"
"ETD-405-1",30,60,1.49,"Mullins"
"ETD-405-1",60,90,1.6,"Mullins"
"ETD-405-1",90,130,1.6,"Mullins"
"ETD-405-1",130,150,1.6,"Mullins"
"ETD-405-1",150,170,NA,"Mullins"
"LOC-9008-1",0,10,1.44,"Gardner"
"LOC-9008-1",10,30,1.46,"Gardner"
"LOC-9008-1",30,60,1.42,"Gardner"
"LOC-9008-1",60,90,1.42,"Gardner"
"LOC-9008-1",90,130,1.45,"Gardner"
"LOC-9008-1",130,150,1.42,"Gardner"
"LOC-9008-1",150,170,1.51,"Gardner"
"SALTC-353-1",0,10,1.51,"Springvale"
"SALTC-353-1",10,30,1.56,"Springvale"
"SALTC-353-1",30,60,1.62,"Springvale"
"SALTC-353-1",60,90,NA,"Springvale"
"SALTC-353-1",90,130,NA,"Springvale"
"SALTC-353-1",130,150,NA,"Springvale"
"SALTC-353-1",150,170,NA,"Springvale"
"SALTC-354-1",0,10,1.45,"Springvale"
"SALTC-354-1",10,30,1.52,"Springvale"
"SALTC-354-1",30,60,1.51,"Springvale"
"SALTC-354-1",60,90,NA,"Springvale"
"SALTC-354-1",90,130,NA,"Springvale"
"SALTC-354-1",130,150,NA,"Springvale"
"SALTC-354-1",150,170,NA,"Springvale"
"SALTC-356-1",0,10,1.43,"Springvale"
"SALTC-356-1",10,30,1.5,"Springvale"
"SALTC-356-1",30,60,1.55,"Springvale"
"SALTC-356-1",60,90,NA,"Springvale"
"SALTC-356-1",90,130,NA,"Springvale"
"SALTC-356-1",130,150,NA,"Springvale"
"SALTC-356-1",150,170,NA,"Springvale"
"SALTC-357-1",0,10,1.39,"Springvale"
"SALTC-357-1",10,30,1.57,"Springvale"
"SALTC-357-1",30,60,1.55,"Springvale"
"SALTC-357-1",60,90,NA,"Springvale"
"SALTC-357-1",90,130,NA,"Springvale"
"SALTC-357-1",130,150,NA,"Springvale"
"SALTC-357-1",150,170,NA,"Springvale"
"SALTC-358-1",0,10,1.48,"Springvale"
"SALTC-358-1",10,30,1.54,"Springvale"
"SALTC-358-1",30,60,1.58,"Springvale"
"SALTC-358-1",60,90,NA,"Springvale"
"SALTC-358-1",90,130,NA,"Springvale"
"SALTC-358-1",130,150,NA,"Springvale"
"SALTC-358-1",150,170,NA,"Springvale"
"SALTC-359-1",0,10,1.37,"Springvale"
"SALTC-359-1",10,30,1.46,"Springvale"
"SALTC-359-1",30,60,1.62,"Springvale"
"SALTC-359-1",60,90,NA,"Springvale"
"SALTC-359-1",90,130,NA,"Springvale"
"SALTC-359-1",130,150,NA,"Springvale"
"SALTC-359-1",150,170,NA,"Springvale"
"SALTC-360-1",0,10,1.34,"Springvale"
"SALTC-360-1",10,30,1.43,"Springvale"
"SALTC-360-1",30,60,1.53,"Springvale"
"SALTC-360-1",60,90,NA,"Springvale"
"SALTC-360-1",90,130,NA,"Springvale"
"SALTC-360-1",130,150,NA,"Springvale"
"SALTC-360-1",150,170,NA,"Springvale"
"SALTC-361-1",0,10,1.48,"Springvale"
"SALTC-361-1",10,30,1.68,"Springvale"
"SALTC-361-1",30,60,1.76,"Springvale"
"SALTC-361-1",60,90,NA,"Springvale"
"SALTC-361-1",90,130,NA,"Springvale"
"SALTC-361-1",130,150,NA,"Springvale"
"SALTC-361-1",150,170,NA,"Springvale"
"SALTC-362-1",0,10,1.45,"Springvale"
"SALTC-362-1",10,30,1.47,"Springvale"
"SALTC-362-1",30,60,1.63,"Springvale"
"SALTC-362-1",60,90,NA,"Springvale"
"SALTC-362-1",90,130,NA,"Springvale"
"SALTC-362-1",130,150,NA,"Springvale"
"SALTC-362-1",150,170,NA,"Springvale"
"SALTC-363-1",0,10,1.49,"Springvale"
"SALTC-363-1",10,30,1.5,"Springvale"
"SALTC-363-1",30,60,1.54,"Springvale"
"SALTC-363-1",60,90,NA,"Springvale"
"SALTC-363-1",90,130,NA,"Springvale"
"SALTC-363-1",130,150,NA,"Springvale"
"SALTC-363-1",150,170,NA,"Springvale"
"SALTE-758-1",0,10,1.26,"MtMort"
"SALTE-758-1",10,30,1.34,"MtMort"
"SALTE-758-1",30,60,1.43,"MtMort"
"SALTE-758-1",60,90,NA,"MtMort"
"SALTE-758-1",90,130,NA,"MtMort"
"SALTE-758-1",130,150,NA,"MtMort"
"SALTE-758-1",150,170,NA,"MtMort"
"SALTE-758-3",0,10,1.32,"MtMort"
"SALTE-758-3",10,30,1.39,"MtMort"
"SALTE-758-3",30,60,1.35,"MtMort"
"SALTE-758-3",60,90,1.45,"MtMort"
"SALTE-758-3",90,130,1.58,"MtMort"
"SALTE-758-3",130,150,NA,"MtMort"
"SALTE-758-3",150,170,NA,"MtMort"
"SALTE-758-4",0,10,1.2,"MtMort"
"SALTE-758-4",10,30,1.4,"MtMort"
"SALTE-758-4",30,60,1.51,"MtMort"
"SALTE-758-4",60,90,1.59,"MtMort"
"SALTE-758-4",90,130,1.65,"MtMort"
"SALTE-758-4",130,150,NA,"MtMort"
"SALTE-758-4",150,170,NA,"MtMort"
"SALTE-758-5",0,10,1.34,"MtMort"
"SALTE-758-5",10,30,1.44,"MtMort"
"SALTE-758-5",30,60,1.34,"MtMort"
"SALTE-758-5",60,90,1.26,"MtMort"
"SALTE-758-5",90,130,1.6,"MtMort"
"SALTE-758-5",130,150,NA,"MtMort"
"SALTE-758-5",150,170,NA,"MtMort"
"SALTE-759-1",0,10,1.33,"MtMort"
"SALTE-759-1",10,30,1.45,"MtMort"
"SALTE-759-1",30,60,1.69,"MtMort"
"SALTE-759-1",60,90,1.68,"MtMort"
"SALTE-759-1",90,130,NA,"MtMort"
"SALTE-759-1",130,150,NA,"MtMort"
"SALTE-759-1",150,170,NA,"MtMort"
"SALTE-759-3",0,10,1.2,"MtMort"
"SALTE-759-3",10,30,1.46,"MtMort"
"SALTE-759-3",30,60,1.66,"MtMort"
"SALTE-759-3",60,90,1.66,"MtMort"
"SALTE-759-3",90,130,NA,"MtMort"
"SALTE-759-3",130,150,NA,"MtMort"
"SALTE-759-3",150,170,NA,"MtMort"
"SALTE-759-4",0,10,1.39,"MtMort"
"SALTE-759-4",10,30,1.64,"MtMort"
"SALTE-759-4",30,60,1.73,"MtMort"
"SALTE-759-4",60,90,1.82,"MtMort"
"SALTE-759-4",90,130,1.66,"MtMort"
"SALTE-759-4",130,150,NA,"MtMort"
"SALTE-759-4",150,170,NA,"MtMort"
"SALTE-759-5",0,10,1.35,"MtMort"
"SALTE-759-5",10,30,1.6,"MtMort"
"SALTE-759-5",30,60,1.8,"MtMort"
"SALTE-759-5",60,90,1.77,"MtMort"
"SALTE-759-5",90,130,1.63,"MtMort"
"SALTE-759-5",130,150,NA,"MtMort"
"SALTE-759-5",150,170,NA,"MtMort"
"SALTE-760-10",0,10,1.3,"MtMort"
"SALTE-760-10",10,30,1.42,"MtMort"
"SALTE-760-10",30,60,1.44,"MtMort"
"SALTE-760-10",60,90,1.27,"MtMort"
"SALTE-760-10",90,130,NA,"MtMort"
"SALTE-760-10",130,150,NA,"MtMort"
"SALTE-760-10",150,170,NA,"MtMort"
"SALTE-760-11",0,10,1.266,"MtMort"
"SALTE-760-11",10,30,1.25,"MtMort"
"SALTE-760-11",30,60,1.26,"MtMort"
"SALTE-760-11",60,90,1.48,"MtMort"
"SALTE-760-11",90,130,1.49,"MtMort"
"SALTE-760-11",130,150,NA,"MtMort"
"SALTE-760-11",150,170,NA,"MtMort"
"SALTE-760-12",0,10,1.144,"MtMort"
"SALTE-760-12",10,30,1.34,"MtMort"
"SALTE-760-12",30,60,1.38,"MtMort"
"SALTE-760-12",60,90,1.53,"MtMort"
"SALTE-760-12",90,130,1.6,"MtMort"
"SALTE-760-12",130,150,NA,"MtMort"
"SALTE-760-12",150,170,NA,"MtMort"
"SALTE-760-13",0,10,1.185,"MtMort"
"SALTE-760-13",10,30,1.33,"MtMort"
"SALTE-760-13",30,60,NA,"MtMort"
"SALTE-760-13",60,90,NA,"MtMort"
"SALTE-760-13",90,130,NA,"MtMort"
"SALTE-760-13",130,150,NA,"MtMort"
"SALTE-760-13",150,170,NA,"MtMort"
"SALTE-760-14",0,10,1.503,"MtMort"
"SALTE-760-14",10,30,1.63,"MtMort"
"SALTE-760-14",30,60,1.77,"MtMort"
"SALTE-760-14",60,90,1.76,"MtMort"
"SALTE-760-14",90,130,1.74,"MtMort"
"SALTE-760-14",130,150,NA,"MtMort"
"SALTE-760-14",150,170,NA,"MtMort"
"SALTE-760-15",0,10,1.478,"MtMort"
"SALTE-760-15",10,30,1.47,"MtMort"
"SALTE-760-15",30,60,1.48,"MtMort"
"SALTE-760-15",60,90,1.58,"MtMort"
"SALTE-760-15",90,130,1.64,"MtMort"
"SALTE-760-15",130,150,NA,"MtMort"
"SALTE-760-15",150,170,NA,"MtMort"
"SALTE-760-16",0,10,1.521,"MtMort"
"SALTE-760-16",10,30,1.5,"MtMort"
"SALTE-760-16",30,60,1.55,"MtMort"
"SALTE-760-16",60,90,1.71,"MtMort"
"SALTE-760-16",90,130,NA,"MtMort"
"SALTE-760-16",130,150,NA,"MtMort"
"SALTE-760-16",150,170,NA,"MtMort"
"SALTE-760-17",0,10,1.184,"MtMort"
"SALTE-760-17",10,30,1.31,"MtMort"
"SALTE-760-17",30,60,1.37,"MtMort"
"SALTE-760-17",60,90,1.51,"MtMort"
"SALTE-760-17",90,130,1.47,"MtMort"
"SALTE-760-17",130,150,NA,"MtMort"
"SALTE-760-17",150,170,NA,"MtMort"
"SALTE-760-18",0,10,1.229,"MtMort"
"SALTE-760-18",10,30,1.32,"MtMort"
"SALTE-760-18",30,60,1.48,"MtMort"
"SALTE-760-18",60,90,1.53,"MtMort"
"SALTE-760-18",90,130,NA,"MtMort"
"SALTE-760-18",130,150,NA,"MtMort"
"SALTE-760-18",150,170,NA,"MtMort"
"SALTE-760-19",0,10,1.041,"MtMort"
"SALTE-760-19",10,30,1.32,"MtMort"
"SALTE-760-19",30,60,1.47,"MtMort"
"SALTE-760-19",60,90,1.4,"MtMort"
"SALTE-760-19",90,130,NA,"MtMort"
"SALTE-760-19",130,150,NA,"MtMort"
"SALTE-760-19",150,170,NA,"MtMort"
"SALTE-760-20",0,10,1.122,"MtMort"
"SALTE-760-20",10,30,1.3,"MtMort"
"SALTE-760-20",30,60,1.39,"MtMort"
"SALTE-760-20",60,90,1.35,"MtMort"
"SALTE-760-20",90,130,NA,"MtMort"
"SALTE-760-20",130,150,NA,"MtMort"
"SALTE-760-20",150,170,NA,"MtMort"
"SALTE-760-21",0,10,1.028,"MtMort"
"SALTE-760-21",10,30,1.3,"MtMort"
"SALTE-760-21",30,60,1.45,"MtMort"
"SALTE-760-21",60,90,1.56,"MtMort"
"SALTE-760-21",90,130,1.52,"MtMort"
"SALTE-760-21",130,150,NA,"MtMort"
"SALTE-760-21",150,170,NA,"MtMort"
"SALTE-760-22",0,10,1.346,"MtMort"
"SALTE-760-22",10,30,1.36,"MtMort"
"SALTE-760-22",30,60,1.43,"MtMort"
"SALTE-760-22",60,90,1.51,"MtMort"
"SALTE-760-22",90,130,NA,"MtMort"
"SALTE-760-22",130,150,NA,"MtMort"
"SALTE-760-22",150,170,NA,"MtMort"
"SALTE-760-23",0,10,1.103,"MtMort"
"SALTE-760-23",10,30,1.42,"MtMort"
"SALTE-760-23",30,60,1.55,"MtMort"
"SALTE-760-23",60,90,1.6,"MtMort"
"SALTE-760-23",90,130,NA,"MtMort"
"SALTE-760-23",130,150,NA,"MtMort"
"SALTE-760-23",150,170,NA,"MtMort"
"SALTE-760-24",0,10,1.174,"MtMort"
"SALTE-760-24",10,30,1.32,"MtMort"
"SALTE-760-24",30,60,1.4,"MtMort"
"SALTE-760-24",60,90,1.55,"MtMort"
"SALTE-760-24",90,130,1.54,"MtMort"
"SALTE-760-24",130,150,NA,"MtMort"
"SALTE-760-24",150,170,NA,"MtMort"
"SALTE-760-25",0,10,1.025,"MtMort"
"SALTE-760-25",10,30,1.34,"MtMort"
"SALTE-760-25",30,60,1.6,"MtMort"
"SALTE-760-25",60,90,1.74,"MtMort"
"SALTE-760-25",90,130,1.53,"MtMort"
"SALTE-760-25",130,150,1.5,"MtMort"
"SALTE-760-25",150,170,1.52,"MtMort"
"SALTE-760-26",0,10,1.053,"MtMort"
"SALTE-760-26",10,30,1.42,"MtMort"
"SALTE-760-26",30,60,1.49,"MtMort"
"SALTE-760-26",60,90,1.62,"MtMort"
"SALTE-760-26",90,130,1.8,"MtMort"
"SALTE-760-26",130,150,NA,"MtMort"
"SALTE-760-26",150,170,NA,"MtMort"
"SALTE-760-27",0,10,1.57,"MtMort"
"SALTE-760-27",10,30,1.59,"MtMort"
"SALTE-760-27",30,60,1.53,"MtMort"
"SALTE-760-27",60,90,1.57,"MtMort"
"SALTE-760-27",90,130,1.66,"MtMort"
"SALTE-760-27",130,150,NA,"MtMort"
"SALTE-760-27",150,170,NA,"MtMort"
"SALTE-760-28",0,10,1.461,"MtMort"
"SALTE-760-28",10,30,1.46,"MtMort"
"SALTE-760-28",30,60,1.46,"MtMort"
"SALTE-760-28",60,90,1.47,"MtMort"
"SALTE-760-28",90,130,1.47,"MtMort"
"SALTE-760-28",130,150,1.48,"MtMort"
"SALTE-760-28",150,170,1.48,"MtMort"
"SALTE-760-29",0,10,1.129,"MtMort"
"SALTE-760-29",10,30,1.4,"MtMort"
"SALTE-760-29",30,60,1.51,"MtMort"
"SALTE-760-29",60,90,1.55,"MtMort"
"SALTE-760-29",90,130,1.56,"MtMort"
"SALTE-760-29",130,150,NA,"MtMort"
"SALTE-760-29",150,170,NA,"MtMort"
"SALTE-760-3",0,10,1.379,"MtMort"
"SALTE-760-3",10,30,1.43,"MtMort"
"SALTE-760-3",30,60,1.52,"MtMort"
"SALTE-760-3",60,90,1.54,"MtMort"
"SALTE-760-3",90,130,NA,"MtMort"
"SALTE-760-3",130,150,NA,"MtMort"
"SALTE-760-3",150,170,NA,"MtMort"
"SALTE-760-30",0,10,1.213,"MtMort"
"SALTE-760-30",10,30,1.44,"MtMort"
"SALTE-760-30",30,60,1.54,"MtMort"
"SALTE-760-30",60,90,1.41,"MtMort"
"SALTE-760-30",90,130,NA,"MtMort"
"SALTE-760-30",130,150,NA,"MtMort"
"SALTE-760-30",150,170,NA,"MtMort"
"SALTE-760-4",0,10,1.392,"MtMort"
"SALTE-760-4",10,30,1.41,"MtMort"
"SALTE-760-4",30,60,1.49,"MtMort"
"SALTE-760-4",60,90,1.54,"MtMort"
"SALTE-760-4",90,130,NA,"MtMort"
"SALTE-760-4",130,150,NA,"MtMort"
"SALTE-760-4",150,170,NA,"MtMort"
"SALTE-760-5",0,10,1.194,"MtMort"
"SALTE-760-5",10,30,1.38,"MtMort"
"SALTE-760-5",30,60,1.57,"MtMort"
"SALTE-760-5",60,90,NA,"MtMort"
"SALTE-760-5",90,130,NA,"MtMort"
"SALTE-760-5",130,150,NA,"MtMort"
"SALTE-760-5",150,170,NA,"MtMort"
"SALTE-760-6",0,10,1.291,"MtMort"
"SALTE-760-6",10,30,1.38,"MtMort"
"SALTE-760-6",30,60,1.51,"MtMort"
"SALTE-760-6",60,90,NA,"MtMort"
"SALTE-760-6",90,130,NA,"MtMort"
"SALTE-760-6",130,150,NA,"MtMort"
"SALTE-760-6",150,170,NA,"MtMort"
"SALTE-760-7",0,10,1.323,"MtMort"
"SALTE-760-7",10,30,1.39,"MtMort"
"SALTE-760-7",30,60,1.43,"MtMort"
"SALTE-760-7",60,90,1.44,"MtMort"
"SALTE-760-7",90,130,NA,"MtMort"
"SALTE-760-7",130,150,NA,"MtMort"
"SALTE-760-7",150,170,NA,"MtMort"
"SALTE-760-8",0,10,1.237,"MtMort"
"SALTE-760-8",10,30,1.39,"MtMort"
"SALTE-760-8",30,60,1.44,"MtMort"
"SALTE-760-8",60,90,1.36,"MtMort"
"SALTE-760-8",90,130,NA,"MtMort"
"SALTE-760-8",130,150,NA,"MtMort"
"SALTE-760-8",150,170,NA,"MtMort"
"SALTE-760-9",0,10,1.213,"MtMort"
"SALTE-760-9",10,30,1.35,"MtMort"
"SALTE-760-9",30,60,1.5,"MtMort"
"SALTE-760-9",60,90,1.44,"MtMort"
"SALTE-760-9",90,130,NA,"MtMort"
"SALTE-760-9",130,150,NA,"MtMort"
"SALTE-760-9",150,170,NA,"MtMort"
"SFS-176-1",0,10,1.31,"CQSFS"
"SFS-176-1",10,30,1.34,"CQSFS"
"SFS-176-1",30,60,1.4,"CQSFS"
"SFS-176-1",60,90,1.47,"CQSFS"
"SFS-176-1",90,130,1.51,"CQSFS"
"SFS-176-1",130,150,NA,"CQSFS"
"SFS-176-1",150,170,NA,"CQSFS"
"SFS-200-1",0,10,1.22,"CQSFS"
"SFS-200-1",10,30,1.27,"CQSFS"
"SFS-200-1",30,60,1.28,"CQSFS"
"SFS-200-1",60,90,1.29,"CQSFS"
"SFS-200-1",90,130,1.33,"CQSFS"
"SFS-200-1",130,150,NA,"CQSFS"
"SFS-200-1",150,170,NA,"CQSFS"
"SFS-253-1",0,10,1.35,"CQSFS"
"SFS-253-1",10,30,1.34,"CQSFS"
"SFS-253-1",30,60,1.34,"CQSFS"
"SFS-253-1",60,90,1.4,"CQSFS"
"SFS-253-1",90,130,1.48,"CQSFS"
"SFS-253-1",130,150,NA,"CQSFS"
"SFS-253-1",150,170,NA,"CQSFS"
"SFS-29-1",0,10,1.34,"CQSFS"
"SFS-29-1",10,30,1.37,"CQSFS"
"SFS-29-1",30,60,1.4,"CQSFS"
"SFS-29-1",60,90,1.47,"CQSFS"
"SFS-29-1",90,130,1.55,"CQSFS"
"SFS-29-1",130,150,NA,"CQSFS"
"SFS-29-1",150,170,NA,"CQSFS"
"SFS-302-1",0,10,1.26,"CQSFS"
"SFS-302-1",10,30,1.28,"CQSFS"
"SFS-302-1",30,60,1.29,"CQSFS"
"SFS-302-1",60,90,1.33,"CQSFS"
"SFS-302-1",90,130,NA,"CQSFS"
"SFS-302-1",130,150,NA,"CQSFS"
"SFS-302-1",150,170,NA,"CQSFS"
"SFS-31-1",0,10,1.34,"CQSFS"
"SFS-31-1",10,30,1.37,"CQSFS"
"SFS-31-1",30,60,1.4,"CQSFS"
"SFS-31-1",60,90,1.47,"CQSFS"
"SFS-31-1",90,130,1.55,"CQSFS"
"SFS-31-1",130,150,NA,"CQSFS"
"SFS-31-1",150,170,NA,"CQSFS"
"SFS-55-1",0,10,1.12,"CQSFS"
"SFS-55-1",10,30,1.14,"CQSFS"
"SFS-55-1",30,60,1.17,"CQSFS"
"SFS-55-1",60,90,1.22,"CQSFS"
"SFS-55-1",90,130,1.35,"CQSFS"
"SFS-55-1",130,150,NA,"CQSFS"
"SFS-55-1",150,170,NA,"CQSFS"
"SFS-600-1",0,10,1.36,"CQSFS"
"SFS-600-1",10,30,1.4,"CQSFS"
"SFS-600-1",30,60,1.37,"CQSFS"
"SFS-600-1",60,90,1.35,"CQSFS"
"SFS-600-1",90,130,NA,"CQSFS"
"SFS-600-1",130,150,NA,"CQSFS"
"SFS-600-1",150,170,NA,"CQSFS"
"SFS-8-1",0,10,1.15,"CQSFS"
"SFS-8-1",10,30,1.16,"CQSFS"
"SFS-8-1",30,60,1.16,"CQSFS"
"SFS-8-1",60,90,1.17,"CQSFS"
"SFS-8-1",90,130,NA,"CQSFS"
"SFS-8-1",130,150,NA,"CQSFS"
"SFS-8-1",150,170,NA,"CQSFS"
"SWRES-226-1",0,10,1.29,"Glenburn"
"SWRES-226-1",10,30,1.21,"Glenburn"
"SWRES-226-1",30,60,1.32,"Glenburn"
"SWRES-226-1",60,90,NA,"Glenburn"
"SWRES-226-1",90,130,NA,"Glenburn"
"SWRES-226-1",130,150,NA,"Glenburn"
"SWRES-226-1",150,170,NA,"Glenburn"
"SWRES-226-2",0,10,1.37,"Glenburn"
"SWRES-226-2",10,30,1.5,"Glenburn"
"SWRES-226-2",30,60,1.42,"Glenburn"
"SWRES-226-2",60,90,NA,"Glenburn"
"SWRES-226-2",90,130,NA,"Glenburn"
"SWRES-226-2",130,150,NA,"Glenburn"
"SWRES-226-2",150,170,NA,"Glenburn"
"SWRES-226-3",0,10,1.56,"Glenburn"
"SWRES-226-3",10,30,1.41,"Glenburn"
"SWRES-226-3",30,60,1.52,"Glenburn"
"SWRES-226-3",60,90,1.51,"Glenburn"
"SWRES-226-3",90,130,NA,"Glenburn"
"SWRES-226-3",130,150,NA,"Glenburn"
"SWRES-226-3",150,170,NA,"Glenburn"
"SWRES-226-4",0,10,1.39,"Glenburn"
"SWRES-226-4",10,30,1.35,"Glenburn"
"SWRES-226-4",30,60,1.48,"Glenburn"
"SWRES-226-4",60,90,1.5,"Glenburn"
"SWRES-226-4",90,130,NA,"Glenburn"
"SWRES-226-4",130,150,NA,"Glenburn"
"SWRES-226-4",150,170,NA,"Glenburn"
"SWRES-226-5",0,10,1.24,"Glenburn"
"SWRES-226-5",10,30,1.37,"Glenburn"
"SWRES-226-5",30,60,1.52,"Glenburn"
"SWRES-226-5",60,90,1.53,"Glenburn"
"SWRES-226-5",90,130,NA,"Glenburn"
"SWRES-226-5",130,150,NA,"Glenburn"
"SWRES-226-5",150,170,NA,"Glenburn"
"SWRES-226-6",0,10,1.22,"Glenburn"
"SWRES-226-6",10,30,1.36,"Glenburn"
"SWRES-226-6",30,60,1.42,"Glenburn"
"SWRES-226-6",60,90,1.4,"Glenburn"
"SWRES-226-6",90,130,1.43,"Glenburn"
"SWRES-226-6",130,150,NA,"Glenburn"
"SWRES-226-6",150,170,NA,"Glenburn"
"SWRES-226-7",0,10,1.38,"Glenburn"
"SWRES-226-7",10,30,1.38,"Glenburn"
"SWRES-226-7",30,60,1.34,"Glenburn"
"SWRES-226-7",60,90,NA,"Glenburn"
"SWRES-226-7",90,130,NA,"Glenburn"
"SWRES-226-7",130,150,NA,"Glenburn"
"SWRES-226-7",150,170,NA,"Glenburn"
"SWRES-226-8",0,10,1.2,"Glenburn"
"SWRES-226-8",10,30,1.33,"Glenburn"
"SWRES-226-8",30,60,1.39,"Glenburn"
"SWRES-226-8",60,90,1.54,"Glenburn"
"SWRES-226-8",90,130,1.48,"Glenburn"
"SWRES-226-8",130,150,NA,"Glenburn"
"SWRES-226-8",150,170,NA,"Glenburn"
"SWRES-226-9",0,10,1.33,"Glenburn"
"SWRES-226-9",10,30,1.37,"Glenburn"
"SWRES-226-9",30,60,1.4,"Glenburn"
"SWRES-226-9",60,90,1.44,"Glenburn"
"SWRES-226-9",90,130,1.47,"Glenburn"
"SWRES-226-9",130,150,NA,"Glenburn"
"SWRES-226-9",150,170,NA,"Glenburn"
"SWRES-25-1",0,10,1.52,"Christodoulou"
"SWRES-25-1",10,30,1.53,"Christodoulou"
"SWRES-25-1",30,60,1.66,"Christodoulou"
"SWRES-25-1",60,90,1.6,"Christodoulou"
"SWRES-25-1",90,130,1.47,"Christodoulou"
"SWRES-25-1",130,150,NA,"Christodoulou"
"SWRES-25-1",150,170,NA,"Christodoulou"
"SWRES-26-1",0,10,1.3,"Christodoulou"
"SWRES-26-1",10,30,1.67,"Christodoulou"
"SWRES-26-1",30,60,1.66,"Christodoulou"
"SWRES-26-1",60,90,1.72,"Christodoulou"
"SWRES-26-1",90,130,1.75,"Christodoulou"
"SWRES-26-1",130,150,NA,"Christodoulou"
"SWRES-26-1",150,170,NA,"Christodoulou"
"SWRES-27-1",0,10,1.43,"Christodoulou"
"SWRES-27-1",10,30,1.64,"Christodoulou"
"SWRES-27-1",30,60,1.68,"Christodoulou"
"SWRES-27-1",60,90,1.72,"Christodoulou"
"SWRES-27-1",90,130,1.76,"Christodoulou"
"SWRES-27-1",130,150,1.77,"Christodoulou"
"SWRES-27-1",150,170,NA,"Christodoulou"
"SWRES-28-1",0,10,1.6,"Christodoulou"
"SWRES-28-1",10,30,1.61,"Christodoulou"
"SWRES-28-1",30,60,1.57,"Christodoulou"
"SWRES-28-1",60,90,1.65,"Christodoulou"
"SWRES-28-1",90,130,1.61,"Christodoulou"
"SWRES-28-1",130,150,1.67,"Christodoulou"
"SWRES-28-1",150,170,NA,"Christodoulou"
"SWRES-29-1",0,10,1.62,"Christodoulou"
"SWRES-29-1",10,30,1.63,"Christodoulou"
"SWRES-29-1",30,60,1.65,"Christodoulou"
"SWRES-29-1",60,90,1.72,"Christodoulou"
"SWRES-29-1",90,130,1.78,"Christodoulou"
"SWRES-29-1",130,150,NA,"Christodoulou"
"SWRES-29-1",150,170,NA,"Christodoulou"
"SWRES-30-1",0,10,1.39,"Christodoulou"
"SWRES-30-1",10,30,1.45,"Christodoulou"
"SWRES-30-1",30,60,1.51,"Christodoulou"
"SWRES-30-1",60,90,1.71,"Christodoulou"
"SWRES-30-1",90,130,NA,"Christodoulou"
"SWRES-30-1",130,150,NA,"Christodoulou"
"SWRES-30-1",150,170,NA,"Christodoulou"
"SWRES-81-1",0,10,1.39,"Christodoulou"
"SWRES-81-1",10,30,1.32,"Christodoulou"
"SWRES-81-1",30,60,1.42,"Christodoulou"
"SWRES-81-1",60,90,1.7,"Christodoulou"
"SWRES-81-1",90,130,1.72,"Christodoulou"
"SWRES-81-1",130,150,1.74,"Christodoulou"
"SWRES-81-1",150,170,NA,"Christodoulou"
"SWRES-82-1",0,10,1.31,"Christodoulou"
"SWRES-82-1",10,30,1.41,"Christodoulou"
"SWRES-82-1",30,60,1.45,"Christodoulou"
"SWRES-82-1",60,90,1.6,"Christodoulou"
"SWRES-82-1",90,130,1.6,"Christodoulou"
"SWRES-82-1",130,150,NA,"Christodoulou"
"SWRES-82-1",150,170,NA,"Christodoulou"
"SWRES-83-1",0,10,1.49,"Christodoulou"
"SWRES-83-1",10,30,1.49,"Christodoulou"
"SWRES-83-1",30,60,1.58,"Christodoulou"
"SWRES-83-1",60,90,1.61,"Christodoulou"
"SWRES-83-1",90,130,1.6,"Christodoulou"
"SWRES-83-1",130,150,1.6,"Christodoulou"
"SWRES-83-1",150,170,NA,"Christodoulou"
"SWRES-84-1",0,10,1.21,"Christodoulou"
"SWRES-84-1",10,30,1.36,"Christodoulou"
"SWRES-84-1",30,60,1.4,"Christodoulou"
"SWRES-84-1",60,90,1.47,"Christodoulou"
"SWRES-84-1",90,130,1.55,"Christodoulou"
"SWRES-84-1",130,150,NA,"Christodoulou"
"SWRES-84-1",150,170,NA,"Christodoulou"
"SWRES-85-1",0,10,1.55,"Christodoulou"
"SWRES-85-1",10,30,1.41,"Christodoulou"
"SWRES-85-1",30,60,1.49,"Christodoulou"
"SWRES-85-1",60,90,1.48,"Christodoulou"
"SWRES-85-1",90,130,1.55,"Christodoulou"
"SWRES-85-1",130,150,1.6,"Christodoulou"
"SWRES-85-1",150,170,NA,"Christodoulou"
"SWRES-86-1",0,10,1.34,"Christodoulou"
"SWRES-86-1",10,30,1.37,"Christodoulou"
"SWRES-86-1",30,60,1.4,"Christodoulou"
"SWRES-86-1",60,90,1.49,"Christodoulou"
"SWRES-86-1",90,130,1.53,"Christodoulou"
"SWRES-86-1",130,150,1.55,"Christodoulou"
"SWRES-86-1",150,170,NA,"Christodoulou"
"SWRES-87-1",0,10,1.3,"Christodoulou"
"SWRES-87-1",10,30,1.31,"Christodoulou"
"SWRES-87-1",30,60,1.4,"Christodoulou"
"SWRES-87-1",60,90,1.45,"Christodoulou"
"SWRES-87-1",90,130,1.51,"Christodoulou"
"SWRES-87-1",130,150,1.55,"Christodoulou"
"SWRES-87-1",150,170,NA,"Christodoulou"
"SWRES-88-1",0,10,1.31,"Christodoulou"
"SWRES-88-1",10,30,1.35,"Christodoulou"
"SWRES-88-1",30,60,1.4,"Christodoulou"
"SWRES-88-1",60,90,1.49,"Christodoulou"
"SWRES-88-1",90,130,1.51,"Christodoulou"
"SWRES-88-1",130,150,1.53,"Christodoulou"
"SWRES-88-1",150,170,NA,"Christodoulou"
"SWRES-90-1",0,10,1.52,"Christodoulou"
"SWRES-90-1",10,30,1.58,"Christodoulou"
"SWRES-90-1",30,60,1.54,"Christodoulou"
"SWRES-90-1",60,90,1.56,"Christodoulou"
"SWRES-90-1",90,130,1.6,"Christodoulou"
"SWRES-90-1",130,150,NA,"Christodoulou"
"SWRES-90-1",150,170,NA,"Christodoulou"
"SWRES-91-1",0,10,1.73,"Christodoulou"
"SWRES-91-1",10,30,1.6,"Christodoulou"
"SWRES-91-1",30,60,1.52,"Christodoulou"
"SWRES-91-1",60,90,1.59,"Christodoulou"
"SWRES-91-1",90,130,1.69,"Christodoulou"
"SWRES-91-1",130,150,1.77,"Christodoulou"
"SWRES-91-1",150,170,NA,"Christodoulou"
"SWRES-92-1",0,10,1.5,"Christodoulou"
"SWRES-92-1",10,30,1.64,"Christodoulou"
"SWRES-92-1",30,60,1.65,"Christodoulou"
"SWRES-92-1",60,90,1.6,"Christodoulou"
"SWRES-92-1",90,130,1.64,"Christodoulou"
"SWRES-92-1",130,150,1.63,"Christodoulou"
"SWRES-92-1",150,170,NA,"Christodoulou"
"SWRES-93-1",0,10,1.32,"Christodoulou"
"SWRES-93-1",10,30,1.44,"Christodoulou"
"SWRES-93-1",30,60,1.5,"Christodoulou"
"SWRES-93-1",60,90,1.6,"Christodoulou"
"SWRES-93-1",90,130,1.66,"Christodoulou"
"SWRES-93-1",130,150,1.68,"Christodoulou"
"SWRES-93-1",150,170,NA,"Christodoulou"
"TAB-2475-1",0,10,1.061,"Enderlin"
"TAB-2475-1",10,30,1.11,"Enderlin"
"TAB-2475-1",30,60,1.2,"Enderlin"
"TAB-2475-1",60,90,1.28,"Enderlin"
"TAB-2475-1",90,130,NA,"Enderlin"
"TAB-2475-1",130,150,NA,"Enderlin"
"TAB-2475-1",150,170,NA,"Enderlin"
"TAB-2476-1",0,10,1.197,"Enderlin"
"TAB-2476-1",10,30,1.16,"Enderlin"
"TAB-2476-1",30,60,1.21,"Enderlin"
"TAB-2476-1",60,90,1.31,"Enderlin"
"TAB-2476-1",90,130,1.34,"Enderlin"
"TAB-2476-1",130,150,NA,"Enderlin"
"TAB-2476-1",150,170,NA,"Enderlin"
"TAB-2479-1",0,10,1.066,"Enderlin"
"TAB-2479-1",10,30,1.17,"Enderlin"
"TAB-2479-1",30,60,1.26,"Enderlin"
"TAB-2479-1",60,90,1.33,"Enderlin"
"TAB-2479-1",90,130,1.35,"Enderlin"
"TAB-2479-1",130,150,NA,"Enderlin"
"TAB-2479-1",150,170,NA,"Enderlin"
"TAB-2480-1",0,10,1.267,"Enderlin"
"TAB-2480-1",10,30,1.36,"Enderlin"
"TAB-2480-1",30,60,1.41,"Enderlin"
"TAB-2480-1",60,90,NA,"Enderlin"
"TAB-2480-1",90,130,NA,"Enderlin"
"TAB-2480-1",130,150,NA,"Enderlin"
"TAB-2480-1",150,170,NA,"Enderlin"
"TAB-2481-1",0,10,0.899,"Enderlin"
"TAB-2481-1",10,30,1,"Enderlin"
"TAB-2481-1",30,60,1.11,"Enderlin"
"TAB-2481-1",60,90,1.16,"Enderlin"
"TAB-2481-1",90,130,1.2,"Enderlin"
"TAB-2481-1",130,150,NA,"Enderlin"
"TAB-2481-1",150,170,NA,"Enderlin"
"TAB-2482-1",0,10,1.145,"Enderlin"
"TAB-2482-1",10,30,1.45,"Enderlin"
"TAB-2482-1",30,60,1.5,"Enderlin"
"TAB-2482-1",60,90,1.56,"Enderlin"
"TAB-2482-1",90,130,NA,"Enderlin"
"TAB-2482-1",130,150,NA,"Enderlin"
"TAB-2482-1",150,170,NA,"Enderlin"
"TAB-2483-1",0,10,0.896,"Enderlin"
"TAB-2483-1",10,30,1.16,"Enderlin"
"TAB-2483-1",30,60,1.24,"Enderlin"
"TAB-2483-1",60,90,NA,"Enderlin"
"TAB-2483-1",90,130,NA,"Enderlin"
"TAB-2483-1",130,150,NA,"Enderlin"
"TAB-2483-1",150,170,NA,"Enderlin"
"TAB-2486-1",0,10,1.205,"Enderlin"
"TAB-2486-1",10,30,1.24,"Enderlin"
"TAB-2486-1",30,60,1.28,"Enderlin"
"TAB-2486-1",60,90,1.3,"Enderlin"
"TAB-2486-1",90,130,1.3,"Enderlin"
"TAB-2486-1",130,150,NA,"Enderlin"
"TAB-2486-1",150,170,NA,"Enderlin"
"TAB-2487-1",0,10,0.879,"Enderlin"
"TAB-2487-1",10,30,1.08,"Enderlin"
"TAB-2487-1",30,60,1.17,"Enderlin"
"TAB-2487-1",60,90,1.27,"Enderlin"
"TAB-2487-1",90,130,1.35,"Enderlin"
"TAB-2487-1",130,150,NA,"Enderlin"
"TAB-2487-1",150,170,NA,"Enderlin"
"WHE-1-1",0,10,1.1,"Gardner"
"WHE-1-1",10,30,1.45,"Gardner"
"WHE-1-1",30,60,1.43,"Gardner"
"WHE-1-1",60,90,1.42,"Gardner"
"WHE-1-1",90,130,1.39,"Gardner"
"WHE-1-1",130,150,1.35,"Gardner"
"WHE-1-1",150,170,1.33,"Gardner"
"WHE-10-1",0,10,1.05,"Gardner"
"WHE-10-1",10,30,1.06,"Gardner"
"WHE-10-1",30,60,1.1,"Gardner"
"WHE-10-1",60,90,1.22,"Gardner"
"WHE-10-1",90,130,1.32,"Gardner"
"WHE-10-1",130,150,NA,"Gardner"
"WHE-10-1",150,170,NA,"Gardner"
"WHE-11-1",0,10,1.1,"Gardner"
"WHE-11-1",10,30,1.36,"Gardner"
"WHE-11-1",30,60,1.36,"Gardner"
"WHE-11-1",60,90,1.39,"Gardner"
"WHE-11-1",90,130,NA,"Gardner"
"WHE-11-1",130,150,NA,"Gardner"
"WHE-11-1",150,170,NA,"Gardner"
"WHE-12-1",0,10,1.21,"Gardner"
"WHE-12-1",10,30,1.31,"Gardner"
"WHE-12-1",30,60,1.38,"Gardner"
"WHE-12-1",60,90,1.43,"Gardner"
"WHE-12-1",90,130,1.47,"Gardner"
"WHE-12-1",130,150,NA,"Gardner"
"WHE-12-1",150,170,NA,"Gardner"
"WHE-14-1",0,10,1.31,"Gardner"
"WHE-14-1",10,30,1.26,"Gardner"
"WHE-14-1",30,60,1.28,"Gardner"
"WHE-14-1",60,90,1.41,"Gardner"
"WHE-14-1",90,130,1.47,"Gardner"
"WHE-14-1",130,150,NA,"Gardner"
"WHE-14-1",150,170,NA,"Gardner"
"WHE-15-1",0,10,1.43,"Gardner"
"WHE-15-1",10,30,1.51,"Gardner"
"WHE-15-1",30,60,1.65,"Gardner"
"WHE-15-1",60,90,1.68,"Gardner"
"WHE-15-1",90,130,1.72,"Gardner"
"WHE-15-1",130,150,NA,"Gardner"
"WHE-15-1",150,170,NA,"Gardner"
"WHE-17-1",0,10,1.48,"Gardner"
"WHE-17-1",10,30,1.44,"Gardner"
"WHE-17-1",30,60,1.47,"Gardner"
"WHE-17-1",60,90,1.51,"Gardner"
"WHE-17-1",90,130,NA,"Gardner"
"WHE-17-1",130,150,NA,"Gardner"
"WHE-17-1",150,170,NA,"Gardner"
"WHE-18-1",0,10,1.65,"Gardner"
"WHE-18-1",10,30,1.55,"Gardner"
"WHE-18-1",30,60,1.62,"Gardner"
"WHE-18-1",60,90,1.59,"Gardner"
"WHE-18-1",90,130,NA,"Gardner"
"WHE-18-1",130,150,NA,"Gardner"
"WHE-18-1",150,170,NA,"Gardner"
"WHE-2-1",0,10,1.59,"Gardner"
"WHE-2-1",10,30,1.77,"Gardner"
"WHE-2-1",30,60,1.56,"Gardner"
"WHE-2-1",60,90,1.32,"Gardner"
"WHE-2-1",90,130,1.52,"Gardner"
"WHE-2-1",130,150,1.57,"Gardner"
"WHE-2-1",150,170,NA,"Gardner"
"WHE-24-1",0,10,1.24,"Gardner"
"WHE-24-1",10,30,1.42,"Gardner"
"WHE-24-1",30,60,1.45,"Gardner"
"WHE-24-1",60,90,1.45,"Gardner"
"WHE-24-1",90,130,1.47,"Gardner"
"WHE-24-1",130,150,NA,"Gardner"
"WHE-24-1",150,170,NA,"Gardner"
"WHE-26-1",0,10,1.4,"Gardner"
"WHE-26-1",10,30,1.4,"Gardner"
"WHE-26-1",30,60,1.4,"Gardner"
"WHE-26-1",60,90,1.48,"Gardner"
"WHE-26-1",90,130,1.5,"Gardner"
"WHE-26-1",130,150,NA,"Gardner"
"WHE-26-1",150,170,NA,"Gardner"
"WHE-27-1",0,10,1.5,"Gardner"
"WHE-27-1",10,30,1.73,"Gardner"
"WHE-27-1",30,60,1.66,"Gardner"
"WHE-27-1",60,90,1.62,"Gardner"
"WHE-27-1",90,130,1.55,"Gardner"
"WHE-27-1",130,150,1.54,"Gardner"
"WHE-27-1",150,170,NA,"Gardner"
"WHE-3-1",0,10,1.37,"Gardner"
"WHE-3-1",10,30,1.43,"Gardner"
"WHE-3-1",30,60,1.44,"Gardner"
"WHE-3-1",60,90,1.54,"Gardner"
"WHE-3-1",90,130,NA,"Gardner"
"WHE-3-1",130,150,NA,"Gardner"
"WHE-3-1",150,170,NA,"Gardner"
"WHE-4-1",0,10,0.9,"Gardner"
"WHE-4-1",10,30,1.01,"Gardner"
"WHE-4-1",30,60,1.04,"Gardner"
"WHE-4-1",60,90,1.1,"Gardner"
"WHE-4-1",90,130,1.14,"Gardner"
"WHE-4-1",130,150,1.16,"Gardner"
"WHE-4-1",150,170,NA,"Gardner"
"WHE-5-1",0,10,1.18,"Gardner"
"WHE-5-1",10,30,1.39,"Gardner"
"WHE-5-1",30,60,1.42,"Gardner"
"WHE-5-1",60,90,1.44,"Gardner"
"WHE-5-1",90,130,NA,"Gardner"
"WHE-5-1",130,150,NA,"Gardner"
"WHE-5-1",150,170,NA,"Gardner"
"WHE-6-1",0,10,1.07,"Gardner"
"WHE-6-1",10,30,1.27,"Gardner"
"WHE-6-1",30,60,1.29,"Gardner"
"WHE-6-1",60,90,1.3,"Gardner"
"WHE-6-1",90,130,1.37,"Gardner"
"WHE-6-1",130,150,1.42,"Gardner"
"WHE-6-1",150,170,NA,"Gardner"
"WHE-7-1",0,10,1.32,"Gardner"
"WHE-7-1",10,30,1.4,"Gardner"
"WHE-7-1",30,60,1.45,"Gardner"
"WHE-7-1",60,90,1.53,"Gardner"
"WHE-7-1",90,130,NA,"Gardner"
"WHE-7-1",130,150,NA,"Gardner"
"WHE-7-1",150,170,NA,"Gardner"
"WHE-9-1",0,10,1.21,"Gardner"
"WHE-9-1",10,30,1.21,"Gardner"
"WHE-9-1",30,60,1.21,"Gardner"
"WHE-9-1",60,90,1.31,"Gardner"
"WHE-9-1",90,130,1.63,"Gardner"
"WHE-9-1",130,150,NA,"Gardner"
"WHE-9-1",150,170,NA,"Gardner"
