MISCQ,61,1,1,8,0.00 - 0.10,NAL-MISCQ61-01-08,12/05/2021,SS,BD-01-AMB-R-R1,S_BDPSR,1,BD,1.48,,1.48,12/05/2021,0.1,Y,A,24/05/2022
MISCQ,61,1,2,9,0.10 - 0.30,NAL-MISCQ61-01-09,12/05/2021,SS,BD-01-AMB-R-R1,S_BDPSR,1,BD,1.54,,1.54,12/05/2021,0.1,Y,A,24/05/2022
MISCQ,61,1,1,10,0.05 - 0.17,NAL-MISCQ61-01-10,12/05/2021,SS,BD-01-AMB-R-R2,S_BDPSR,1,BD,1.55,,1.55,12/05/2021,0.1,Y,A,24/05/2022
MISCQ,61,1,2,11,0.17 - 0.37,NAL-MISCQ61-01-11,12/05/2021,SS,BD-01-AMB-R-R2,S_BDPSR,1,BD,1.57,,1.57,12/05/2021,0.1,Y,A,24/05/2022
MISCQ,61,1,2,12,0.11 - 0.25,NAL-MISCQ61-01-12,12/05/2021,SS,BD-01-AMB-R-R3,S_BDPSR,1,BD,1.52,,1.52,12/05/2021,0.1,Y,A,24/05/2022
MISCQ,61,1,1,13,0.05 - 0.17,NAL-MISCQ61-01-13,12/05/2021,SS,BD-01-AMB-R-R4,S_BDPSR,1,BD,1.54,,1.54,12/05/2021,0.1,Y,A,24/05/2022
MISCQ,61,1,2,14,0.17 - 0.37,NAL-MISCQ61-01-14,12/05/2021,SS,BD-01-AMB-R-R4,S_BDPSR,1,BD,1.55,,1.55,12/05/2021,0.1,Y,A,24/05/2022
MISCQ,62,1,1,8,0.04 - 0.13,NAL-MISCQ62-01-08,12/05/2021,SS,BD-01-AMB-R-R1,S_BDPSR,1,BD,1.52,,1.52,12/05/2021,0.1,Y,A,24/05/2022
MISCQ,62,1,3,9,0.22 - 0.36,NAL-MISCQ62-01-09,12/05/2021,SS,BD-01-AMB-R-R1,S_BDPSR,1,BD,1.48,,1.48,12/05/2021,0.1,Y,A,24/05/2022
MISCQ,62,1,3,10,0.36 - 0.50,NAL-MISCQ62-01-10,12/05/2021,SS,BD-01-AMB-R-R1,S_BDPSR,1,BD,1.53,,1.53,12/05/2021,0.1,Y,A,24/05/2022
MISCQ,62,1,4,11,0.60 - 0.80,NAL-MISCQ62-01-11,12/05/2021,SS,BD-01-AMB-R-R1,S_BDPSR,1,BD,0.72,,0.72,12/05/2021,0.1,Y,A,24/05/2022
MISCQ,62,1,4,12,0.80 - 1.00,NAL-MISCQ62-01-12,12/05/2021,SS,BD-01-AMB-R-R1,S_BDPSR,1,BD,1.7,,1.7,12/05/2021,0.1,Y,A,24/05/2022
MISCQ,62,1,4,13,1.00 - 1.20,NAL-MISCQ62-01-13,12/05/2021,SS,BD-01-AMB-R-R1,S_BDPSR,1,BD,1.76,,1.76,12/05/2021,0.1,Y,A,24/05/2022
MISCQ,62,1,5,14,1.30 - 1.50,NAL-MISCQ62-01-14,12/05/2021,SS,BD-01-AMB-R-R1,S_BDPSR,1,BD,1.84,,1.84,12/05/2021,0.1,Y,A,24/05/2022
MISCQ,62,1,1,15,0.01 - 0.15,NAL-MISCQ62-01-15,12/05/2021,SS,BD-01-AMB-R-R2,S_BDPSR,1,BD,1.41,,1.41,12/05/2021,0.1,Y,A,24/05/2022
MISCQ,62,1,3,16,0.22 - 0.42,NAL-MISCQ62-01-16,12/05/2021,SS,BD-01-AMB-R-R2,S_BDPSR,1,BD,1.53,,1.53,12/05/2021,0.1,Y,A,24/05/2022
MISCQ,62,1,3,17,0.42 - 0.60,NAL-MISCQ62-01-17,12/05/2021,SS,BD-01-AMB-R-R2,S_BDPSR,1,BD,1.66,,1.66,12/05/2021,0.1,Y,A,24/05/2022
MISCQ,62,1,4,18,0.60 - 0.80,NAL-MISCQ62-01-18,12/05/2021,SS,BD-01-AMB-R-R2,S_BDPSR,1,BD,1.76,,1.76,12/05/2021,0.1,Y,A,24/05/2022
MISCQ,62,1,4,19,0.80 - 1.00,NAL-MISCQ62-01-19,12/05/2021,SS,BD-01-AMB-R-R2,S_BDPSR,1,BD,1.76,,1.76,12/05/2021,0.1,Y,A,24/05/2022
MISCQ,62,1,4,20,1.01 - 1.23,NAL-MISCQ62-01-20,12/05/2021,SS,BD-01-AMB-R-R2,S_BDPSR,1,BD,1.85,,1.85,12/05/2021,0.1,Y,A,24/05/2022
MISCQ,62,1,5,21,1.30 - 1.50,NAL-MISCQ62-01-21,12/05/2021,SS,BD-01-AMB-R-R2,S_BDPSR,1,BD,1.86,,1.86,12/05/2021,0.1,Y,A,24/05/2022
MISCQ,62,1,1,22,0.01 - 0.12,NAL-MISCQ62-01-22,12/05/2021,SS,BD-01-AMB-R-R3,S_BDPSR,1,BD,1.54,,1.54,12/05/2021,0.1,Y,A,24/05/2022
MISCQ,62,1,3,23,0.15 - 0.35,NAL-MISCQ62-01-23,12/05/2021,SS,BD-01-AMB-R-R3,S_BDPSR,1,BD,1.55,,1.55,12/05/2021,0.1,Y,A,24/05/2022
MISCQ,62,1,3,24,0.35 - 0.55,NAL-MISCQ62-01-24,12/05/2021,SS,BD-01-AMB-R-R3,S_BDPSR,1,BD,1.61,,1.61,12/05/2021,0.1,Y,A,24/05/2022
MISCQ,62,1,4,25,0.60 - 0.80,NAL-MISCQ62-01-25,12/05/2021,SS,BD-01-AMB-R-R3,S_BDPSR,1,BD,1.63,,1.63,12/05/2021,0.1,Y,A,24/05/2022
MISCQ,62,1,4,26,0.80 - 1.00,NAL-MISCQ62-01-26,12/05/2021,SS,BD-01-AMB-R-R3,S_BDPSR,1,BD,1.77,,1.77,12/05/2021,0.1,Y,A,24/05/2022
MISCQ,62,1,4,27,1.00 - 1.20,NAL-MISCQ62-01-27,12/05/2021,SS,BD-01-AMB-R-R3,S_BDPSR,1,BD,1.74,,1.74,12/05/2021,0.1,Y,A,24/05/2022
MISCQ,62,1,5,28,1.30 - 1.50,NAL-MISCQ62-01-28,12/05/2021,SS,BD-01-AMB-R-R3,S_BDPSR,1,BD,1.85,,1.85,12/05/2021,0.1,Y,A,24/05/2022
MISCQ,63,1,2,8,0.20 - 0.30,NAL-MISCQ63-01-08,12/05/2021,SS,BD-01-AMB-R-R1,S_BDPSR,1,BD,1.53,,1.53,12/05/2021,0.1,Y,A,24/05/2022
MISCQ,63,1,3,9,0.30 - 0.50,NAL-MISCQ63-01-09,12/05/2021,SS,BD-01-AMB-R-R1,S_BDPSR,1,BD,1.61,,1.61,12/05/2021,0.1,Y,A,24/05/2022
MISCQ,63,1,3,10,0.50 - 0.70,NAL-MISCQ63-01-10,12/05/2021,SS,BD-01-AMB-R-R1,S_BDPSR,1,BD,1.63,,1.63,12/05/2021,0.1,Y,A,24/05/2022
MISCQ,63,1,4,11,0.70 - 0.90,NAL-MISCQ63-01-11,12/05/2021,SS,BD-01-AMB-R-R1,S_BDPSR,1,BD,1.74,,1.74,12/05/2021,0.1,Y,A,24/05/2022
MISCQ,63,1,4,12,0.90 - 1.10,NAL-MISCQ63-01-12,12/05/2021,SS,BD-01-AMB-R-R1,S_BDPSR,1,BD,1.78,,1.78,12/05/2021,0.1,Y,A,24/05/2022
MISCQ,63,1,5,13,1.10 - 1.30,NAL-MISCQ63-01-13,12/05/2021,SS,BD-01-AMB-R-R1,S_BDPSR,1,BD,1.75,,1.75,12/05/2021,0.1,Y,A,24/05/2022
MISCQ,63,1,5,14,1.30 - 1.50,NAL-MISCQ63-01-14,12/05/2021,SS,BD-01-AMB-R-R1,S_BDPSR,1,BD,1.76,,1.76,12/05/2021,0.1,Y,A,24/05/2022
MISCQ,63,1,2,15,0.20 - 0.30,NAL-MISCQ63-01-15,12/05/2021,SS,BD-01-AMB-R-R2,S_BDPSR,1,BD,1.44,,1.44,12/05/2021,0.1,Y,A,24/05/2022
MISCQ,63,1,3,16,0.30 - 0.50,NAL-MISCQ63-01-16,12/05/2021,SS,BD-01-AMB-R-R2,S_BDPSR,1,BD,1.62,,1.62,12/05/2021,0.1,Y,A,24/05/2022
MISCQ,63,1,3,17,0.50 - 0.70,NAL-MISCQ63-01-17,12/05/2021,SS,BD-01-AMB-R-R2,S_BDPSR,1,BD,1.55,,1.55,12/05/2021,0.1,Y,A,24/05/2022
MISCQ,63,1,4,18,0.70 - 0.90,NAL-MISCQ63-01-18,12/05/2021,SS,BD-01-AMB-R-R2,S_BDPSR,1,BD,1.63,,1.63,12/05/2021,0.1,Y,A,24/05/2022
MISCQ,63,1,4,19,0.90 - 1.10,NAL-MISCQ63-01-19,12/05/2021,SS,BD-01-AMB-R-R2,S_BDPSR,1,BD,1.71,,1.71,12/05/2021,0.1,Y,A,24/05/2022
MISCQ,63,1,5,20,1.10 - 1.30,NAL-MISCQ63-01-20,12/05/2021,SS,BD-01-AMB-R-R2,S_BDPSR,1,BD,1.67,,1.67,12/05/2021,0.1,Y,A,24/05/2022
MISCQ,63,1,5,21,1.30 - 1.50,NAL-MISCQ63-01-21,12/05/2021,SS,BD-01-AMB-R-R2,S_BDPSR,1,BD,1.72,,1.72,12/05/2021,0.1,Y,A,24/05/2022
MISCQ,64,1,1,6,0.05 - 0.15,NAL-MISCQ64-01-06,12/05/2021,SS,BD-01-AMB-R-R1,S_BDPSR,1,BD,1.44,,1.44,12/05/2021,0.1,Y,A,24/05/2022
MISCQ,64,1,2,7,0.15 - 0.32,NAL-MISCQ64-01-07,12/05/2021,SS,BD-01-AMB-R-R1,S_BDPSR,1,BD,1.46,,1.46,12/05/2021,0.1,Y,A,24/05/2022
MISCQ,64,1,1,8,0.05 - 0.15,NAL-MISCQ64-01-08,12/05/2021,SS,BD-01-AMB-R-R2,S_BDPSR,1,BD,1.42,,1.42,12/05/2021,0.1,Y,A,24/05/2022
MISCQ,64,1,2,9,0.15 - 0.32,NAL-MISCQ64-01-09,12/05/2021,SS,BD-01-AMB-R-R2,S_BDPSR,1,BD,1.56,,1.56,12/05/2021,0.1,Y,A,24/05/2022
MISCQ,64,1,1,10,0.05 - 0.15,NAL-MISCQ64-01-10,12/05/2021,SS,BD-01-AMB-R-R3,S_BDPSR,1,BD,1.48,,1.48,12/05/2021,0.1,Y,A,24/05/2022
MISCQ,64,1,2,11,0.15 - 0.32,NAL-MISCQ64-01-11,12/05/2021,SS,BD-01-AMB-R-R3,S_BDPSR,1,BD,1.41,,1.41,12/05/2021,0.1,Y,A,24/05/2022
MISCQ,61,1,1,8,0.00 - 0.10,NAL-MISCQ61-01-08,12/05/2021,SS,TP-01-AMB-R-R1,S_BDPSR,1,PS,0.44,,0.44,12/05/2021,0.01,Y,A,30/05/2022
MISCQ,61,1,2,9,0.10 - 0.30,NAL-MISCQ61-01-09,12/05/2021,SS,TP-01-AMB-R-R1,S_BDPSR,1,PS,0.42,,0.42,12/05/2021,0.01,Y,A,30/05/2022
MISCQ,61,1,1,10,0.05 - 0.17,NAL-MISCQ61-01-10,12/05/2021,SS,TP-01-AMB-R-R2,S_BDPSR,1,PS,0.41,,0.41,12/05/2021,0.01,Y,A,30/05/2022
MISCQ,61,1,2,11,0.17 - 0.37,NAL-MISCQ61-01-11,12/05/2021,SS,TP-01-AMB-R-R2,S_BDPSR,1,PS,0.41,,0.41,12/05/2021,0.01,Y,A,30/05/2022
MISCQ,61,1,2,12,0.11 - 0.25,NAL-MISCQ61-01-12,12/05/2021,SS,TP-01-AMB-R-R3,S_BDPSR,1,PS,0.43,,0.43,12/05/2021,0.01,Y,A,30/05/2022
MISCQ,61,1,1,13,0.05 - 0.17,NAL-MISCQ61-01-13,12/05/2021,SS,TP-01-AMB-R-R4,S_BDPSR,1,PS,0.42,,0.42,12/05/2021,0.01,Y,A,30/05/2022
MISCQ,61,1,2,14,0.17 - 0.37,NAL-MISCQ61-01-14,12/05/2021,SS,TP-01-AMB-R-R4,S_BDPSR,1,PS,0.41,,0.41,12/05/2021,0.01,Y,A,30/05/2022
MISCQ,62,1,1,8,0.04 - 0.13,NAL-MISCQ62-01-08,12/05/2021,SS,TP-01-AMB-R-R1,S_BDPSR,1,PS,0.43,,0.43,12/05/2021,0.01,Y,A,30/05/2022
MISCQ,62,1,3,8,0.22 - 0.36,NAL-MISCQ62-01-08,12/05/2021,SS,TP-01-AMB-R-R1,S_BDPSR,1,PS,0.44,,0.44,12/05/2021,0.01,Y,A,30/05/2022
MISCQ,62,1,3,10,0.36 - 0.50,NAL-MISCQ62-01-10,12/05/2021,SS,TP-01-AMB-R-R1,S_BDPSR,1,PS,0.42,,0.42,12/05/2021,0.01,Y,A,30/05/2022
MISCQ,62,1,4,11,0.60 - 0.80,NAL-MISCQ62-01-11,12/05/2021,SS,TP-01-AMB-R-R1,S_BDPSR,1,PS,0.35,,0.35,12/05/2021,0.01,Y,A,30/05/2022
MISCQ,62,1,4,12,0.80 - 1.00,NAL-MISCQ62-01-12,12/05/2021,SS,TP-01-AMB-R-R1,S_BDPSR,1,PS,0.36,,0.36,12/05/2021,0.01,Y,A,30/05/2022
MISCQ,62,1,4,13,1.00 - 1.20,NAL-MISCQ62-01-13,12/05/2021,SS,TP-01-AMB-R-R1,S_BDPSR,1,PS,0.33,,0.33,12/05/2021,0.01,Y,A,30/05/2022
MISCQ,62,1,5,14,1.30 - 1.50,NAL-MISCQ62-01-14,12/05/2021,SS,TP-01-AMB-R-R1,S_BDPSR,1,PS,0.31,,0.31,12/05/2021,0.01,Y,A,30/05/2022
MISCQ,62,1,1,15,0.01 - 0.15,NAL-MISCQ62-01-15,12/05/2021,SS,TP-01-AMB-R-R2,S_BDPSR,1,PS,0.47,,0.47,12/05/2021,0.01,Y,A,30/05/2022
MISCQ,62,1,3,16,0.22 - 0.42,NAL-MISCQ62-01-16,12/05/2021,SS,TP-01-AMB-R-R2,S_BDPSR,1,PS,0.42,,0.42,12/05/2021,0.01,Y,A,30/05/2022
MISCQ,62,1,3,17,0.42 - 0.80,NAL-MISCQ62-01-17,12/05/2021,SS,TP-01-AMB-R-R2,S_BDPSR,1,PS,0.37,,0.37,12/05/2021,0.01,Y,A,30/05/2022
MISCQ,62,1,4,18,0.60 - 0.80,NAL-MISCQ62-01-18,12/05/2021,SS,TP-01-AMB-R-R2,S_BDPSR,1,PS,0.34,,0.34,12/05/2021,0.01,Y,A,30/05/2022
MISCQ,62,1,4,19,0.80 - 1.00,NAL-MISCQ62-01-19,12/05/2021,SS,TP-01-AMB-R-R2,S_BDPSR,1,PS,0.34,,0.34,12/05/2021,0.01,Y,A,30/05/2022
MISCQ,62,1,4,20,1.01 - 1.23,NAL-MISCQ62-01-20,12/05/2021,SS,TP-01-AMB-R-R2,S_BDPSR,1,PS,0.3,,0.3,12/05/2021,0.01,Y,A,30/05/2022
MISCQ,62,1,5,21,1.30 - 1.50,NAL-MISCQ62-01-21,12/05/2021,SS,TP-01-AMB-R-R2,S_BDPSR,1,PS,0.3,,0.3,12/05/2021,0.01,Y,A,30/05/2022
MISCQ,62,1,1,22,0.01 - 0.12,NAL-MISCQ62-01-22,12/05/2021,SS,TP-01-AMB-R-R3,S_BDPSR,1,PS,0.42,,0.42,12/05/2021,0.01,Y,A,30/05/2022
MISCQ,62,1,3,23,0.15 - 0.35,NAL-MISCQ62-01-23,12/05/2021,SS,TP-01-AMB-R-R3,S_BDPSR,1,PS,0.41,,0.41,12/05/2021,0.01,Y,A,30/05/2022
MISCQ,62,1,3,24,0.35 - 0.55,NAL-MISCQ62-01-24,12/05/2021,SS,TP-01-AMB-R-R3,S_BDPSR,1,PS,0.39,,0.39,12/05/2021,0.01,Y,A,30/05/2022
MISCQ,62,1,4,25,0.60 - 0.80,NAL-MISCQ62-01-25,12/05/2021,SS,TP-01-AMB-R-R3,S_BDPSR,1,PS,0.38,,0.38,12/05/2021,0.01,Y,A,30/05/2022
MISCQ,62,1,4,26,0.80 - 1.00,NAL-MISCQ62-01-26,12/05/2021,SS,TP-01-AMB-R-R3,S_BDPSR,1,PS,0.33,,0.33,12/05/2021,0.01,Y,A,30/05/2022
MISCQ,62,1,4,27,1.00 - 1.20,NAL-MISCQ62-01-27,12/05/2021,SS,TP-01-AMB-R-R3,S_BDPSR,1,PS,0.34,,0.34,12/05/2021,0.01,Y,A,30/05/2022
MISCQ,62,1,5,28,1.30 - 1.50,NAL-MISCQ62-01-28,12/05/2021,SS,TP-01-AMB-R-R3,S_BDPSR,1,PS,0.3,,0.3,12/05/2021,0.01,Y,A,30/05/2022
MISCQ,63,1,2,8,0.20 - 0.30,NAL-MISCQ63-01-08,12/05/2021,SS,TP-01-AMB-R-R1,S_BDPSR,1,PS,0.42,,0.42,12/05/2021,0.01,Y,A,30/05/2022
MISCQ,63,1,3,9,0.30 - 0.50,NAL-MISCQ63-01-09,12/05/2021,SS,TP-01-AMB-R-R1,S_BDPSR,1,PS,0.39,,0.39,12/05/2021,0.01,Y,A,30/05/2022
MISCQ,63,1,3,10,0.50 - 0.70,NAL-MISCQ63-01-10,12/05/2021,SS,TP-01-AMB-R-R1,S_BDPSR,1,PS,0.39,,0.39,12/05/2021,0.01,Y,A,30/05/2022
MISCQ,63,1,4,11,0.70 - 0.90,NAL-MISCQ63-01-11,12/05/2021,SS,TP-01-AMB-R-R1,S_BDPSR,1,PS,0.34,,0.34,12/05/2021,0.01,Y,A,30/05/2022
MISCQ,63,1,4,12,0.90 - 1.00,NAL-MISCQ63-01-12,12/05/2021,SS,TP-01-AMB-R-R1,S_BDPSR,1,PS,0.33,,0.33,12/05/2021,0.01,Y,A,30/05/2022
MISCQ,63,1,5,13,1.10 - 1.30,NAL-MISCQ63-01-13,12/05/2021,SS,TP-01-AMB-R-R1,S_BDPSR,1,PS,0.34,,0.34,12/05/2021,0.01,Y,A,30/05/2022
MISCQ,63,1,5,14,1.30 - 1.50,NAL-MISCQ63-01-14,12/05/2021,SS,TP-01-AMB-R-R1,S_BDPSR,1,PS,0.34,,0.34,12/05/2021,0.01,Y,A,30/05/2022
MISCQ,63,1,2,15,0.20 - 0.30,NAL-MISCQ63-01-15,12/05/2021,SS,TP-01-AMB-R-R2,S_BDPSR,1,PS,0.46,,0.46,12/05/2021,0.01,Y,A,30/05/2022
MISCQ,63,1,3,16,0.30 - 0.50,NAL-MISCQ63-01-16,12/05/2021,SS,TP-01-AMB-R-R2,S_BDPSR,1,PS,0.39,,0.39,12/05/2021,0.01,Y,A,30/05/2022
MISCQ,63,1,3,17,0.50 - 0.70,NAL-MISCQ63-01-17,12/05/2021,SS,TP-01-AMB-R-R2,S_BDPSR,1,PS,0.41,,0.41,12/05/2021,0.01,Y,A,30/05/2022
MISCQ,63,1,4,18,0.70 - 0.80,NAL-MISCQ63-01-18,12/05/2021,SS,TP-01-AMB-R-R2,S_BDPSR,1,PS,0.38,,0.38,12/05/2021,0.01,Y,A,30/05/2022
MISCQ,63,1,0,19,0.90 - 1.00,NAL-MISCQ63-01-19,12/05/2021,SS,TP-01-AMB-R-R2,S_BDPSR,1,PS,0.35,,0.35,12/05/2021,0.01,Y,A,30/05/2022
MISCQ,63,1,5,20,1.10 - 1.30,NAL-MISCQ63-01-20,12/05/2021,SS,TP-01-AMB-R-R2,S_BDPSR,1,PS,0.37,,0.37,12/05/2021,0.01,Y,A,30/05/2022
MISCQ,63,1,5,21,1.30 - 1.50,NAL-MISCQ63-01-21,12/05/2021,SS,TP-01-AMB-R-R2,S_BDPSR,1,PS,0.35,,0.35,12/05/2021,0.01,Y,A,30/05/2022
MISCQ,64,1,1,6,0.05 - 0.15,NAL-MISCQ64-01-06,12/05/2021,SS,TP-01-AMB-R-R1,S_BDPSR,1,PS,0.46,,0.46,12/05/2021,0.01,Y,A,30/05/2022
MISCQ,64,1,2,7,0.15 - 0.32,NAL-MISCQ64-01-07,12/05/2021,SS,TP-01-AMB-R-R1,S_BDPSR,1,PS,0.45,,0.45,12/05/2021,0.01,Y,A,30/05/2022
MISCQ,64,1,1,8,0.05 - 0.15,NAL-MISCQ64-01-08,12/05/2021,SS,TP-01-AMB-R-R2,S_BDPSR,1,PS,0.46,,0.46,12/05/2021,0.01,Y,A,30/05/2022
MISCQ,64,1,2,9,0.15 - 0.32,NAL-MISCQ64-01-09,12/05/2021,SS,TP-01-AMB-R-R2,S_BDPSR,1,PS,0.41,,0.41,12/05/2021,0.01,Y,A,30/05/2022
MISCQ,64,1,1,10,0.05 - 0.15,NAL-MISCQ64-01-10,12/05/2021,SS,TP-01-AMB-R-R3,S_BDPSR,1,PS,0.44,,0.44,12/05/2021,0.01,Y,A,30/05/2022
MISCQ,64,1,2,11,0.15 - 0.32,NAL-MISCQ64-01-11,12/05/2021,SS,TP-01-AMB-R-R3,S_BDPSR,1,PS,0.47,,0.47,12/05/2021,0.01,Y,A,30/05/2022
MISCQ,61,1,1,8,0.00 - 0.10,NAL-MISCQ61-01-08,12/05/2021,SS,AP-01-AMB-R-R1,S_BDPSR,1,PS,0.34,,0.34,12/05/2021,0.01,Y,A,30/05/2022
MISCQ,61,1,2,9,0.10 - 0.30,NAL-MISCQ61-01-09,12/05/2021,SS,AP-01-AMB-R-R1,S_BDPSR,1,PS,0.32,,0.32,12/05/2021,0.01,Y,A,30/05/2022
MISCQ,61,1,1,10,0.05 - 0.17,NAL-MISCQ61-01-10,12/05/2021,SS,AP-01-AMB-R-R2,S_BDPSR,1,PS,0.33,,0.33,12/05/2021,0.01,Y,A,30/05/2022
MISCQ,61,1,2,11,0.17 - 0.37,NAL-MISCQ61-01-11,12/05/2021,SS,AP-01-AMB-R-R2,S_BDPSR,1,PS,0.32,,0.32,12/05/2021,0.01,Y,A,30/05/2022
MISCQ,61,1,2,12,0.11 - 0.25,NAL-MISCQ61-01-12,12/05/2021,SS,AP-01-AMB-R-R3,S_BDPSR,1,PS,0.34,,0.34,12/05/2021,0.01,Y,A,30/05/2022
MISCQ,61,1,1,13,0.05 - 0.17,NAL-MISCQ61-01-13,12/05/2021,SS,AP-01-AMB-R-R4,S_BDPSR,1,PS,0.34,,0.34,12/05/2021,0.01,Y,A,30/05/2022
MISCQ,61,1,2,14,0.17 - 0.37,NAL-MISCQ61-01-14,12/05/2021,SS,AP-01-AMB-R-R4,S_BDPSR,1,PS,0.32,,0.32,12/05/2021,0.01,Y,A,30/05/2022
MISCQ,62,1,1,8,0.04 - 0.13,NAL-MISCQ62-01-08,12/05/2021,SS,AP-01-AMB-R-R1,S_BDPSR,1,PS,0.31,,0.31,12/05/2021,0.01,Y,A,30/05/2022
MISCQ,62,1,3,9,0.22 - 0.36,NAL-MISCQ62-01-09,12/05/2021,SS,AP-01-AMB-R-R1,S_BDPSR,1,PS,0.2,,0.2,12/05/2021,0.01,Y,A,30/05/2022
MISCQ,62,1,3,10,0.36 - 0.50,NAL-MISCQ62-01-10,12/05/2021,SS,AP-01-AMB-R-R1,S_BDPSR,1,PS,0.17,,0.17,12/05/2021,0.01,Y,A,30/05/2022
MISCQ,62,1,4,11,0.60 - 0.80,NAL-MISCQ62-01-11,12/05/2021,SS,AP-01-AMB-R-R1,S_BDPSR,1,PS,0.14,,0.14,12/05/2021,0.01,Y,A,30/05/2022
MISCQ,62,1,4,12,0.80 - 1.00,NAL-MISCQ62-01-12,12/05/2021,SS,AP-01-AMB-R-R1,S_BDPSR,1,PS,0.15,,0.15,12/05/2021,0.01,Y,A,30/05/2022
MISCQ,62,1,0,13,1.00 - 1.20,NAL-MISCQ62-01-13,12/05/2021,SS,AP-01-AMB-R-R1,S_BDPSR,1,PS,0.12,,0.12,12/05/2021,0.01,Y,A,30/05/2022
MISCQ,62,1,5,14,1.30 - 1.50,NAL-MISCQ62-01-14,12/05/2021,SS,AP-01-AMB-R-R1,S_BDPSR,1,PS,0.1,,0.1,12/05/2021,0.01,Y,A,30/05/2022
MISCQ,62,1,1,15,0.01 - 0.15,NAL-MISCQ62-01-15,12/05/2021,SS,AP-01-AMB-R-R2,S_BDPSR,1,PS,0.35,,0.35,12/05/2021,0.01,Y,A,30/05/2022
MISCQ,62,1,3,16,0.22 - 0.42,NAL-MISCQ62-01-16,12/05/2021,SS,AP-01-AMB-R-R2,S_BDPSR,1,PS,0.16,,0.16,12/05/2021,0.01,Y,A,30/05/2022
MISCQ,62,1,3,17,0.42 - 0.60,NAL-MISCQ62-01-17,12/05/2021,SS,AP-01-AMB-R-R2,S_BDPSR,1,PS,0.13,,0.13,12/05/2021,0.01,Y,A,30/05/2022
MISCQ,62,1,4,18,0.60 - 1.00,NAL-MISCQ62-01-18,12/05/2021,SS,AP-01-AMB-R-R2,S_BDPSR,1,PS,0.14,,0.14,12/05/2021,0.01,Y,A,30/05/2022
MISCQ,62,1,4,19,0.80 - 1.00,NAL-MISCQ62-01-19,12/05/2021,SS,AP-01-AMB-R-R2,S_BDPSR,1,PS,0.13,,0.13,12/05/2021,0.01,Y,A,30/05/2022
MISCQ,62,1,4,20,1.01 - 1.23,NAL-MISCQ62-01-20,12/05/2021,SS,AP-01-AMB-R-R2,S_BDPSR,1,PS,0.09,,0.09,12/05/2021,0.01,Y,A,30/05/2022
MISCQ,62,1,5,21,1.30 - 1.50,NAL-MISCQ62-01-21,12/05/2021,SS,AP-01-AMB-R-R2,S_BDPSR,1,PS,0.1,,0.1,12/05/2021,0.01,Y,A,30/05/2022
MISCQ,62,1,1,22,0.01 - 0.12,NAL-MISCQ62-01-22,12/05/2021,SS,AP-01-AMB-R-R3,S_BDPSR,1,PS,0.3,,0.3,12/05/2021,0.01,Y,A,30/05/2022
MISCQ,62,1,3,23,0.15 - 0.35,NAL-MISCQ62-01-23,12/05/2021,SS,AP-01-AMB-R-R3,S_BDPSR,1,PS,0.15,,0.15,12/05/2021,0.01,Y,A,30/05/2022
MISCQ,62,1,0,24,0.35 - 0.55,NAL-MISCQ62-01-24,12/05/2021,SS,AP-01-AMB-R-R3,S_BDPSR,1,PS,0.15,,0.15,12/05/2021,0.01,Y,A,30/05/2022
MISCQ,62,1,4,25,0.60 - 0.80,NAL-MISCQ62-01-25,12/05/2021,SS,AP-01-AMB-R-R3,S_BDPSR,1,PS,0.19,,0.19,12/05/2021,0.01,Y,A,30/05/2022
MISCQ,62,1,4,23,0.80 - 1.00,NAL-MISCQ62-01-23,12/05/2021,SS,AP-01-AMB-R-R3,S_BDPSR,1,PS,0.12,,0.12,12/05/2021,0.01,Y,A,30/05/2022
MISCQ,62,1,4,27,1.00 - 1.20,NAL-MISCQ62-01-27,12/05/2021,SS,AP-01-AMB-R-R3,S_BDPSR,1,PS,0.13,,0.13,12/05/2021,0.01,Y,A,30/05/2022
MISCQ,62,1,5,28,1.30 - 1.50,NAL-MISCQ62-01-28,12/05/2021,SS,AP-01-AMB-R-R3,S_BDPSR,1,PS,0.1,,0.1,12/05/2021,0.01,Y,A,30/05/2022
MISCQ,63,1,2,8,0.20 - 0.30,NAL-MISCQ63-01-08,12/05/2021,SS,AP-01-AMB-R-R1,S_BDPSR,1,PS,0.23,,0.23,12/05/2021,0.01,Y,A,30/05/2022
MISCQ,63,1,3,9,0.30 - 0.50,NAL-MISCQ63-01-09,12/05/2021,SS,AP-01-AMB-R-R1,S_BDPSR,1,PS,0.17,,0.17,12/05/2021,0.01,Y,A,30/05/2022
MISCQ,63,1,3,10,0.50 - 0.70,NAL-MISCQ63-01-10,12/05/2021,SS,AP-01-AMB-R-R1,S_BDPSR,1,PS,0.14,,0.14,12/05/2021,0.01,Y,A,30/05/2022
MISCQ,63,1,4,11,0.70 - 0.90,NAL-MISCQ63-01-11,12/05/2021,SS,AP-01-AMB-R-R1,S_BDPSR,1,PS,0.1,,0.1,12/05/2021,0.01,Y,A,30/05/2022
MISCQ,63,1,4,12,0.90 - 1.00,NAL-MISCQ63-01-12,12/05/2021,SS,AP-01-AMB-R-R1,S_BDPSR,1,PS,0.05,,0.05,12/05/2021,0.01,Y,A,30/05/2022
MISCQ,63,1,5,13,1.10 - 1.30,NAL-MISCQ63-01-13,12/05/2021,SS,AP-01-AMB-R-R1,S_BDPSR,1,PS,0.05,,0.05,12/05/2021,0.01,Y,A,30/05/2022
MISCQ,63,1,5,14,1.30 - 1.50,NAL-MISCQ63-01-14,12/05/2021,SS,AP-01-AMB-R-R1,S_BDPSR,1,PS,0.04,,0.04,12/05/2021,0.01,Y,A,30/05/2022
MISCQ,63,1,2,15,0.20 - 0.30,NAL-MISCQ63-01-15,12/05/2021,SS,AP-01-AMB-R-R2,S_BDPSR,1,PS,0.27,,0.27,12/05/2021,0.01,Y,A,30/05/2022
MISCQ,63,1,3,16,0.30 - 0.50,NAL-MISCQ63-01-16,12/05/2021,SS,AP-01-AMB-R-R2,S_BDPSR,1,PS,0.16,,0.16,12/05/2021,0.01,Y,A,30/05/2022
MISCQ,63,1,3,17,0.50 - 0.70,NAL-MISCQ63-01-17,12/05/2021,SS,AP-01-AMB-R-R2,S_BDPSR,1,PS,0.16,,0.16,12/05/2021,0.01,Y,A,30/05/2022
MISCQ,63,1,4,18,0.70 - 0.90,NAL-MISCQ63-01-18,12/05/2021,SS,AP-01-AMB-R-R2,S_BDPSR,1,PS,0.13,,0.13,12/05/2021,0.01,Y,A,30/05/2022
MISCQ,63,1,4,19,0.90 - 1.00,NAL-MISCQ63-01-19,12/05/2021,SS,AP-01-AMB-R-R2,S_BDPSR,1,PS,0.08,,0.08,12/05/2021,0.01,Y,A,30/05/2022
MISCQ,63,1,5,20,1.10 - 1.30,NAL-MISCQ63-01-20,12/05/2021,SS,AP-01-AMB-R-R2,S_BDPSR,1,PS,0.1,,0.1,12/05/2021,0.01,Y,A,30/05/2022
MISCQ,63,1,5,21,1.30 - 1.50,NAL-MISCQ63-01-21,12/05/2021,SS,AP-01-AMB-R-R2,S_BDPSR,1,PS,0.06,,0.06,12/05/2021,0.01,Y,A,30/05/2022
MISCQ,64,1,1,6,0.05 - 0.15,NAL-MISCQ64-01-06,12/05/2021,SS,AP-01-AMB-R-R1,S_BDPSR,1,PS,0.42,,0.42,12/05/2021,0.01,Y,A,30/05/2022
MISCQ,64,1,2,7,0.15 - 0.32,NAL-MISCQ64-01-07,12/05/2021,SS,AP-01-AMB-R-R1,S_BDPSR,1,PS,0.41,,0.41,12/05/2021,0.01,Y,A,30/05/2022
MISCQ,64,1,1,8,0.05 - 0.15,NAL-MISCQ64-01-08,12/05/2021,SS,AP-01-AMB-R-R2,S_BDPSR,1,PS,0.43,,0.43,12/05/2021,0.01,Y,A,30/05/2022
MISCQ,64,1,2,9,0.15 - 0.32,NAL-MISCQ64-01-09,12/05/2021,SS,AP-01-AMB-R-R2,S_BDPSR,1,PS,0.37,,0.37,12/05/2021,0.01,Y,A,30/05/2022
MISCQ,64,1,1,10,0.05 - 0.15,NAL-MISCQ64-01-10,12/05/2021,SS,AP-01-AMB-R-R3,S_BDPSR,1,PS,0.41,,0.41,12/05/2021,0.01,Y,A,30/05/2022
MISCQ,64,1,2,11,0.15 - 0.32,NAL-MISCQ64-01-11,12/05/2021,SS,AP-01-AMB-R-R3,S_BDPSR,1,PS,0.43,,0.43,12/05/2021,0.01,Y,A,30/05/2022
