soil_gp,UD,LD,BD,Comment
Oakwood,0,20,1.59,Site FRA. Cored field average.
Oakwood,20,40,1.7,Site FRA. Cored field average.
Oakwood,40,60,1.74,Site FRA. Cored field average.
Oakwood,60,100,1.71,Site FRA. Cored field average.
Oakwood,100,150,1.68,Site FRA. Cored field average.
Oakwood,150,200,1.67,Site FRA. Cored field average.
Oakwood,200,250,1.68,Site FRA. Cored field average.
Oakwood,250,300,1.74,Site FRA. Cored field average.
Otoo Sandy Variant,0,10,1.54,Site SCH. Cored field average.
Otoo Sandy Variant,10,20,1.59,Site SCH. Cored field average.
Otoo Sandy Variant,20,30,1.63,Site SCH. Cored field average.
Otoo Sandy Variant,30,40,1.68,Site SCH. Cored field average.
Otoo Sandy Variant,40,50,1.75,Site SCH. Cored field average.
Otoo Sandy Variant,50,60,1.77,Site SCH. Cored field average.
Otoo Sandy Variant,60,70,1.73,Site SCH. Cored field average.
Otoo Sandy Variant,70,80,1.7,Site SCH. Cored field average.
Otoo Sandy Variant,80,90,1.66,Site SCH. Cored field average.
Otoo Sandy Variant,90,100,1.62,Site SCH. Cored field average.
Otoo Sandy Variant,100,120,1.57,Site SCH. Cored field average.
Otoo Sandy Variant,120,150,1.6,Site SCH. Cored first season.
Otoo,0,5,1.35,Site PAO. Cored field average.
Otoo,5,10,1.5,Site PAO. Cored field average.
Otoo,10,20,1.62,Site PAO. Cored field average.
Otoo,20,30,1.76,Site PAO. Cored field average.
Otoo,30,40,1.8,Site PAO. Cored field average.
Otoo,40,50,1.7,Site PAO. Cored field average.
Otoo,50,60,1.59,Site PAO. Cored field average.
Otoo,60,70,1.48,Site PAO. Cored field average.
Otoo,70,80,1.4,Site PAO. Cored field average.
Otoo,80,100,1.53,Site PAO. Cored field average.
Otoo,100,120,1.58,Site PAO. Cored field average.
Otoo,120,140,1.62,Site PAO. Cored field average.
Otoo,140,160,1.65,Site PAO. Cored field average.
Otoo,160,180,1.68,Site PAO. Cored field average.
Gooburrum,0,5,1.47,Site SFF. Cored field average.
Gooburrum,5,10,1.54,Site SFF. Cored field average.
Gooburrum,10,20,1.7,Site SFF. Cored field average.
Gooburrum,20,30,1.77,Site SFF. Cored field average.
Gooburrum,30,40,1.79,Site SFF. Cored field average.
Gooburrum,40,50,1.78,Site SFF. Cored field average.
Gooburrum,50,60,1.73,Site SFF. Cored field average.
Gooburrum,60,70,1.72,Site SFF. Cored field average.
Gooburrum,70,80,1.7,Site SFF. Cored field average.
Gooburrum,80,100,1.56,Site SFF. Cored field average.
Gooburrum,100,120,1.54,Site SFF. Cored field average.
Gooburrum,120,140,1.62,Site SFF. Cored field average.
Gooburrum,140,160,1.62,Site SFF. Cored field average.
Alloway,0,5,1.23,Site TOW. Cored field average.
Alloway,5,10,1.3,Site TOW. Cored field average.
Alloway,10,20,1.43,Site TOW. Cored field average.
Alloway,20,30,1.63,Site TOW. Cored field average.
Alloway,30,40,1.76,Site TOW. Cored field average.
Alloway,40,50,1.68,Site TOW. Cored field average.
Alloway,50,60,1.62,Site TOW. Cored field average.
Alloway,60,70,1.61,Site TOW. Cored field average.
Alloway,70,80,1.8,Site TOW. Cored field average.
Alloway,80,100,2.14,Site TOW. Cored field average.
Alloway,100,120,2.18,Site TOW. Cored field average.
Alloway,120,140,2.19,Site TOW. Cored field average.
Alloway,140,160,2.23,Site TOW. Cored field average.
Moore Park,0,5,1.25,Site FA1. Cored field average.
Moore Park,5,10,1.5,Site FA1. Cored field average.
Moore Park,10,20,1.58,Site FA1. Cored field average.
Moore Park,20,30,1.65,Site FA1. Cored field average.
Moore Park,30,40,1.74,Site FA1. Cored field average.
Moore Park,40,50,1.78,Site FA1. Cored field average.
Moore Park,50,60,1.7,Site FA1. Cored field average.
Moore Park,60,70,1.66,Site FA1. Cored field average.
Moore Park,70,80,1.7,Site FA1. Cored field average.
Moore Park,80,100,1.8,Site FA1. Cored field average.
Moore Park,100,120,1.8,Site FA1. Cored field average.
Moore Park,120,140,1.8,Site FA1. Cored field average.
Moore Park,140,160,1.8,Site FA1. Cored field average.
Fairymead,0,5,1.12,Site FA2. Cored field average.
Fairymead,5,10,1.17,Site FA2. Cored field average.
Fairymead,10,20,1.22,Site FA2. Cored field average.
Fairymead,20,30,1.26,Site FA2. Cored field average.
Fairymead,30,40,1.35,Site FA2. Cored field average.
Fairymead,40,50,1.31,Site FA2. Cored field average.
Fairymead,50,60,1.3,Site FA2. Cored field average.
Fairymead,60,70,1.27,Site FA2. Cored field average.
Fairymead,70,80,1.32,Site FA2. Cored field average.
Fairymead,80,100,1.31,Site FA2. Cored field average.
Fairymead,100,120,1.27,Site FA2. Cored field average.
Fairymead,120,140,1.26,Site FA2. Cored field average.
Flagstone,0,5,1.22,Site EWA. Cored field average.
Flagstone,5,10,1.4,Site EWA. Cored field average.
Flagstone,10,20,1.5,Site EWA. Cored field average.
Flagstone,20,30,1.51,Site EWA. Cored field average.
Flagstone,30,40,1.52,Site EWA. Cored field average.
Flagstone,40,50,1.53,Site EWA. Cored field average.
Flagstone,50,60,1.54,Site EWA. Cored field average.
Flagstone,60,70,1.55,Site EWA. Cored field average.
Flagstone,70,80,1.55,Site EWA. Cored field average.
Flagstone,80,100,1.6,Site EWA. Cored field average.
Flagstone,100,120,1.61,Site EWA. Cored field average.
Flagstone,120,140,1.61,Site EWA. Cored field average.
Flagstone,140,160,1.61,Site EWA. Cored field average.
Flagstone,160,180,1.61,Site EWA. Cored field average.
