"Tessa copied data from Jenny's spreadsheet ""VictoriaPlains-APSIM parameters.xlsx"", sheet ""MC-Bulk Density-2019""",,,,,,,,,,,,,,,,,,,,,
PROJECT_CODE,SITE_ID,NAME,Treatment,Rep,Depth,Av Depth (cm),Bag wt (g),Wet wt (g),OD wt (g) ,qg (g/g),Length (mm),Diameter (cm),VT (cm3),Density,qv (v/v),Total Soil Porosity f (cm3/cm3),Air filled void space e (cm3/cm3) ,Cumulative total mm to 1.5 m SAT/DUL est,cum mm,cum mm to 0.75/1.5,Comments
P2REEF,575,Victoria Plains,row,VP 2,0-10,5,9.69,270.2,204.2,0.34,100.5,4.5,159.8,1.22,0.413,0.56,0.14,50.7,41,,
P2REEF,575,Victoria Plains,row,VP 2,25-45,35,9.69,502.3,367.6,0.38,179,4.5,284.7,1.26,0.473,0.54,0.07,230.2,207,,roots
P2REEF,575,Victoria Plains,row,VP 2,60-80,90,9.69,556.3,412,0.36,191.5,4.5,304.6,1.32,0.474,0.52,0.05,401.6,373,,
P2REEF,575,Victoria Plains,row,VP 2,95-115,105,9.69,594.5,446,0.34,200.5,4.5,318.9,1.37,0.466,0.5,0.04,567,536,,
P2REEF,575,Victoria Plains,row,VP 2,130-155,143,9.69,680.5,538.6,0.27,235,4.5,373.8,1.42,0.38,0.49,0.11,726.4,669,,lots CaCO3
P2REEF,575,Victoria Plains,row,VP 3,0-10,5,9.69,279.5,214.8,0.32,100,4.5,159,1.29,0.407,0.53,0.12,48.1,41,,
P2REEF,575,Victoria Plains,row,VP 3,25-43,34,9.69,473.5,347.5,0.37,167.5,4.5,266.4,1.27,0.473,0.54,0.07,226.2,206,,roots
P2REEF,575,Victoria Plains,row,VP 3,60-80,70,9.69,584.1,433.9,0.35,199.5,4.5,317.3,1.34,0.473,0.51,0.04,395.6,372,,
P2REEF,575,Victoria Plains,row,VP 3,95-115,105,9.69,472.4,357.6,0.33,160,4.5,254.5,1.37,0.451,0.5,0.05,561,530,,3cm caco3 rock
P2REEF,575,Victoria Plains,row,VP 3,130-150,140,9.69,683.2,524.9,0.31,225.5,4.5,358.6,1.44,0.441,0.48,0.04,717.7,684,,caco3
P2REEF,575,Victoria Plains,row,VP 4,0-10,5,9.69,244.5,180.1,0.38,100,4.5,159,1.07,0.405,0.61,0.21,56,40,,
P2REEF,575,Victoria Plains,row,VP 4,25-45,35,9.69,545.9,397.7,0.38,192,4.5,305.4,1.27,0.485,0.54,0.05,233.8,210,,roots
P2REEF,575,Victoria Plains,row,VP 4,60-80,90,9.69,569.5,414.3,0.38,202.5,4.5,322.1,1.26,0.482,0.54,0.06,413.4,379,,
P2REEF,575,Victoria Plains,row,VP 4,95-115,105,9.69,584.9,430.3,0.37,199,4.5,316.5,1.33,0.488,0.52,0.03,583.8,550,,
P2REEF,575,Victoria Plains,row,VP 4,130-150,140,9.69,590.9,467,0.27,204,4.5,324.4,1.41,0.382,0.49,0.11,743.9,684,,so many rocks
P2REEF,575,Victoria Plains,row,VP 5,0-20,10,9.69,524,384.5,0.37,205.5,4.5,326.8,1.15,0.427,0.58,0.16,,,,
P2REEF,575,Victoria Plains,row,VP 5,26-49,37.5,9.69,650,478.6,0.37,234,4.5,372.2,1.26,0.461,0.54,0.08,,,,
P2REEF,575,Victoria Plains,row,VP 5,56-76,66,9.69,572.4,419.4,0.37,201,4.5,319.7,1.28,0.479,0.53,0.06,,,,
P2REEF,575,Victoria Plains,row,VP 6,0-20,10,9.69,527.7,387.3,0.37,198.5,4.5,315.7,1.2,0.445,0.57,0.12,,,,
P2REEF,575,Victoria Plains,row,VP 6,26-46,36,9.69,580.7,431.3,0.35,200,4.5,318.1,1.33,0.47,0.52,0.05,,,,
P2REEF,575,Victoria Plains,row,VP 6,52-72,62,9.69,582.3,429.9,0.36,200.5,4.5,318.9,1.32,0.478,0.52,0.04,,,,
P2REEF,575,Victoria Plains,row,VP 7,0-20,10,9.69,521.2,382.7,0.37,200,4.5,318.1,1.17,0.435,0.57,0.14,,,,
P2REEF,575,Victoria Plains,row,VP 7,26-46,36,9.69,580.9,427.1,0.37,201,4.5,319.7,1.31,0.481,0.53,0.04,,,,
P2REEF,575,Victoria Plains,row,VP 7,53-73,63,9.69,580.8,430.1,0.36,200,4.5,318.1,1.32,0.474,0.52,0.05,,,,
P2REEF,575,Victoria Plains,row,VP 7,79-87,83,9.69,247.3,183.8,0.36,85,4.5,135.2,1.29,0.47,0.53,0.06,,,,
P2REEF,575,Victoria Plains,interrow,VP 8,0-20,10,9.69,547.8,403.4,0.37,199.5,4.5,317.3,1.24,0.455,0.55,0.09,101.8,46,,20 cm 1.27 to 1.33 (compaction) decreases porosity by 2.3%
P2REEF,575,Victoria Plains,interrow,VP 8,26-46,36,9.69,585.9,435.7,0.35,198,4.5,314.9,1.35,0.477,0.51,0.03,245.2,165,,40 cm 1.31 to 1.33 (compaction) decreases porosity by 0.83%
P2REEF,575,Victoria Plains,interrow,VP 8,52-72,62,9.69,578.1,424.2,0.37,199,4.5,316.5,1.31,0.486,0.52,0.04,368.6,311,,APPROX 12 mm porostiy equivalent lost
P2REEF,575,Victoria Plains,interrow,VP 8,78-92,85,9.69,334.5,247.6,0.37,113.5,4.5,180.5,1.32,0.481,0.52,0.04,466.8,407,,
P2REEF,575,Victoria Plains,interrow,VP 9,0-20,10,9.69,549.8,405.4,0.36,198,4.5,314.9,1.26,0.459,0.54,0.08,100.6,46,,
P2REEF,575,Victoria Plains,interrow,VP 9,26-45,37,9.69,556.1,412.7,0.36,190,4.5,302.2,1.33,0.475,0.52,0.04,246.1,164,,
P2REEF,575,Victoria Plains,interrow,VP 9,52-72,62,9.69,587.1,428.7,0.38,200,4.5,318.1,1.32,0.498,0.52,0.02,368.9,314,,
P2REEF,575,Victoria Plains,interrow,VP 9,78-92,85,9.69,364.2,266,0.38,130.5,4.5,207.6,1.32,0.505,0.52,0.02,467.1,415,,
P2REEF,575,Victoria Plains,interrow,VP 10,0-20,10,9.69,540.1,396.7,0.37,199,4.5,316.5,1.22,0.453,0.56,0.1,103.1,45,,
P2REEF,575,Victoria Plains,interrow,VP 10,26-46,36,9.69,579.4,428.9,0.36,200,4.5,318.1,1.32,0.473,0.52,0.05,250.3,164,,
P2REEF,575,Victoria Plains,interrow,VP 10,53-73,63,9.69,565.6,413.5,0.38,198.5,4.5,315.7,1.28,0.482,0.53,0.05,376.5,308,,
P2REEF,575,Victoria Plains,interrow,VP 10,79-97,88,9.69,541.4,398.8,0.37,182.5,4.5,290.3,1.34,0.491,0.51,0.02,473,406,,
P2REEF,575,Victoria Plains,interrow,VP11,0-10,5,9.69,285.5,219.2,0.32,102,4.5,162.2,1.29,0.409,0.53,0.12,48,41,,
P2REEF,575,Victoria Plains,interrow,VP11,25-45,35,9.69,526.6,394.2,0.34,180,4.5,286.3,1.34,0.462,0.51,0.05,216.6,203,,
P2REEF,575,Victoria Plains,interrow,VP11,60-80,70,9.69,564.4,419.5,0.35,195,4.5,310.1,1.32,0.467,0.52,0.05,387.9,366,,
P2REEF,575,Victoria Plains,interrow,VP11,95-115,105,9.69,585.3,433.4,0.36,197,4.5,313.3,1.35,0.485,0.51,0.02,555.3,536,,CaCO3 at 120cm
P2REEF,575,Victoria Plains,interrow,VP11,130-148,139,9.69,521.5,394.2,0.33,174.5,4.5,277.5,1.39,0.459,0.5,0.04,718.5,696,,
P2REEF,575,Victoria Plains,interrow,VP12,0-10,5,9.69,269.2,207.2,0.31,99,4.5,157.5,1.25,0.394,0.54,0.15,49.4,39,,
P2REEF,575,Victoria Plains,interrow,VP12,25-45,35,9.69,484.3,365.6,0.33,161,4.5,256.1,1.39,0.464,0.49,0.03,212,202,,drier than surface
P2REEF,575,Victoria Plains,interrow,VP12,60-80,70,9.69,604,451.3,0.35,203,4.5,322.9,1.37,0.473,0.5,0.03,377.4,367,,
P2REEF,575,Victoria Plains,interrow,VP12,95-115,105,9.69,596.8,446.2,0.35,201,4.5,319.7,1.37,0.471,0.5,0.03,543.1,532,,wetter again; fine roots
P2REEF,575,Victoria Plains,interrow,VP12,130-152,141,9.69,768.5,596.9,0.29,261,4.5,415.1,1.41,0.413,0.49,0.07,702.6,677,,CaCO3 from 120cm down
P2REEF,575,Victoria Plains,interrow,VP13,0-10,5,9.69,273.6,209.2,0.32,99.5,4.5,158.2,1.26,0.407,0.54,0.13,49.2,41,,
P2REEF,575,Victoria Plains,interrow,VP13,25-45,35,9.69,354.9,270.8,0.32,120,4.5,190.9,1.37,0.441,0.5,0.06,214.5,195,,
P2REEF,575,Victoria Plains,interrow,VP13,60-80,70,9.69,712,539.8,0.32,237,4.5,376.9,1.41,0.457,0.49,0.03,375,355,,no roots past 60cm
P2REEF,575,Victoria Plains,interrow,VP13,95-115,105,9.69,594.7,444.7,0.34,203,4.5,322.9,1.35,0.465,0.51,0.05,543.1,517,,
P2REEF,575,Victoria Plains,interrow,VP13,130-150,140,9.69,410,308.4,0.34,135.5,4.5,215.5,1.39,0.471,0.5,0.02,706.1,682,,CaCO3 130-150
P2REEF,575,Victoria Plains,row,VP14 ,0-10,5,9.69,263.9,212.7,0.25,100,4.5,159,1.28,0.322,0.54,0.21,48.6,32,,
P2REEF,575,Victoria Plains,row,VP14 ,25-45,35,9.69,314.8,242.5,0.31,105,4.5,167,1.39,0.433,0.49,0.06,210.7,184,,
P2REEF,575,Victoria Plains,row,VP14 ,60-80,70,9.69,578.4,423.6,0.37,196.5,4.5,312.5,1.32,0.495,0.52,0.02,381.6,357,,not many roots past 80cm
P2REEF,575,Victoria Plains,row,VP14 ,95-115,105,9.69,584.9,428,0.38,200.5,4.5,318.9,1.31,0.492,0.52,0.03,554.1,529,,
P2REEF,575,Victoria Plains,row,VP14 ,130-150,140,9.69,795.5,640.8,0.25,257,4.5,408.7,1.54,0.378,0.44,0.06,697.1,662,,"lot CaCO3, rocks"
P2REEF,575,Victoria Plains,row,VP15,0-10,5,9.69,253.8,201.5,0.27,98,4.5,155.9,1.23,0.336,0.55,0.22,50.2,34,,
P2REEF,575,Victoria Plains,row,VP15,19-34,27,9.69,439.2,337.2,0.31,148.5,4.5,236.2,1.39,0.432,0.5,0.06,213.3,185,,
P2REEF,575,Victoria Plains,row,VP15,60-80,70,9.69,583.8,430.6,0.36,197.5,4.5,314.1,1.34,0.488,0.51,0.02,382.2,355,,
P2REEF,575,Victoria Plains,row,VP15,95-115,105,9.69,574.9,426.7,0.36,200,4.5,318.1,1.31,0.466,0.52,0.06,554.9,518,,
P2REEF,575,Victoria Plains,row,VP15,130-150,140,9.69,608.2,486.4,0.26,210,4.5,334,1.43,0.365,0.48,0.12,712.7,646,,"very rocky, grey, a couple of roots"
P2REEF,575,Victoria Plains,row,VP16,0-10,5,9.69,260.5,205,0.28,98,4.5,155.9,1.25,0.356,0.54,0.19,49.4,36,,
P2REEF,575,Victoria Plains,row,VP16,25-45,35,9.69,587.7,447,0.32,200,4.5,318.1,1.37,0.442,0.5,0.06,214,190,,
P2REEF,575,Victoria Plains,row,VP16,60-80,70,9.69,473.9,352.9,0.35,161,4.5,256.1,1.34,0.473,0.51,0.04,382.9,356,,
P2REEF,575,Victoria Plains,row,VP16,95-115,105,9.69,582.1,429.5,0.36,200,4.5,318.1,1.32,0.48,0.52,0.04,554.4,524,,very mottley
P2REEF,575,Victoria Plains,row,VP16,115-120,118,9.69,455.9,351.9,0.3,160,4.5,254.5,1.34,0.409,0.51,0.1,578.4,544,,
P2REEF,575,Victoria Plains,row,VP16,130-150,140,9.69,729.9,576.8,0.27,240.5,4.5,382.5,1.48,0.4,0.46,0.06,707.7,664,,wet at bottom. Rocky. Ground water?
P2REEF,575,Victoria Plains,interrow,VP17,0-10,5,9.69,260.6,199.6,0.32,99.5,4.5,158.2,1.2,0.385,0.56,0.18,51.4,39,,
P2REEF,575,Victoria Plains,interrow,VP17,25-45,35,9.69,389.3,296.2,0.32,136,4.5,216.3,1.32,0.43,0.52,0.09,222.3,189,,dryish to 45cm
P2REEF,575,Victoria Plains,interrow,VP17,60-80,70,9.69,588.5,431.5,0.37,199.5,4.5,317.3,1.33,0.495,0.52,0.02,392.6,362,,
P2REEF,575,Victoria Plains,interrow,VP17,95-115,105,9.69,579.5,444.5,0.31,199.5,4.5,317.3,1.37,0.425,0.5,0.08,557.7,511,,wetter again going down
P2REEF,575,Victoria Plains,interrow,VP17,130-150,140,9.69,535.5,421.6,0.28,175.5,4.5,279.1,1.48,0.408,0.46,0.06,709.3,654,,"mottling CO3 rocks, Mn"
P2REEF,575,Victoria Plains,interrow,VP18,0-10,5,9.69,250.4,197.3,0.28,99.5,4.5,158.2,1.19,0.336,0.57,0.23,51.9,34,,
P2REEF,575,Victoria Plains,interrow,VP18,25-45,35,9.69,583.6,446.4,0.31,197,4.5,313.3,1.39,0.438,0.49,0.06,214,187,,dryish to 45cm
P2REEF,575,Victoria Plains,interrow,VP18,60-80,70,9.69,604.5,445.4,0.37,207.5,4.5,330,1.32,0.482,0.52,0.04,385.5,356,,
P2REEF,575,Victoria Plains,interrow,VP18,95-115,105,9.69,596.1,449.1,0.33,200,4.5,318.1,1.38,0.462,0.5,0.04,549.1,517,,wetter again going down
P2REEF,575,Victoria Plains,interrow,VP18,130-152,141,9.69,700.6,553.2,0.27,227.5,4.5,361.8,1.5,0.407,0.45,0.05,697.5,660,,"mottling CO3 rock, Mn"
P2REEF,575,Victoria Plains,interrow,VP19,0-10,5,9.69,276.1,216.3,0.29,98.5,4.5,156.7,1.32,0.382,0.52,0.14,47,38,,
P2REEF,575,Victoria Plains,interrow,VP19,25-45,35,9.69,597.2,455.7,0.32,200.5,4.5,318.9,1.4,0.444,0.49,0.05,208.5,193,,dryish to 45cm
P2REEF,575,Victoria Plains,interrow,VP19,60-80,70,9.69,574.5,423.4,0.37,194.5,4.5,309.3,1.34,0.488,0.51,0.03,377.8,364,,
P2REEF,575,Victoria Plains,interrow,VP19,95-115,105,9.69,592.6,442.5,0.35,202,4.5,321.3,1.35,0.467,0.51,0.04,545.9,528,,
P2REEF,575,Victoria Plains,interrow,VP19,130-153,142,9.69,724.3,577.7,0.26,237,4.5,376.9,1.51,0.389,0.45,0.06,693.6,664,,"wet and sticky & mottling CO3, Mn"
P2REEF,575,Victoria Plains,interrow,VP21,0-10,5,9.69,281.1,210.1,0.35,101,4.5,160.6,1.25,0.442,0.55,0.1,49.6,44,,
P2REEF,575,Victoria Plains,interrow,VP21,15-25,20,9.69,319,235.4,0.37,109,4.5,173.4,1.3,0.482,0.53,0.04,124.1,117,,
P2REEF,575,Victoria Plains,interrow,VP21,30-50,40,9.69,482.3,354.4,0.37,168,4.5,267.2,1.29,0.479,0.53,0.05,249.3,236,,
P2REEF,575,Victoria Plains,interrow,VP21,55-75,65,9.69,603.5,438.3,0.39,210.5,4.5,334.8,1.28,0.493,0.53,0.04,375.4,360,,
P2REEF,575,Victoria Plains,interrow,VP21,80-100,90,9.69,588.7,434.7,0.36,202,4.5,321.3,1.32,0.479,0.52,0.04,497.7,479,,
P2REEF,575,Victoria Plains,interrow,VP21,105-125,115,9.69,604,456.2,0.33,201,4.5,319.7,1.4,0.462,0.49,0.03,613.2,595,,
P2REEF,575,Victoria Plains,interrow,VP21,130-150,140,9.69,528.5,400.8,0.33,174,4.5,276.7,1.41,0.461,0.49,0.02,727.2,710,,
P2REEF,575,Victoria Plains,interrow,VP22,0-10,5,9.69,278.3,200.6,0.41,101,4.5,160.6,1.19,0.484,0.57,0.08,51.8,48,,
P2REEF,575,Victoria Plains,interrow,VP22,15-25,20,9.69,277.5,204.1,0.38,100.5,4.5,159.8,1.22,0.459,0.56,0.1,130.9,117,,
P2REEF,575,Victoria Plains,interrow,VP22,30-50,40,9.69,501.8,372.4,0.36,175,4.5,278.3,1.3,0.465,0.53,0.06,255,233,,
P2REEF,575,Victoria Plains,interrow,VP22,55-75,65,9.69,568.6,420.3,0.36,203.5,4.5,323.7,1.27,0.458,0.54,0.08,382.1,348,,
P2REEF,575,Victoria Plains,interrow,VP22,80-100,90,9.69,565.5,424.4,0.34,200.5,4.5,318.9,1.3,0.442,0.53,0.08,506.4,459,,
P2REEF,575,Victoria Plains,interrow,VP22,105-125,115,9.69,605.2,450.7,0.35,202.5,4.5,322.1,1.37,0.48,0.5,0.02,624.4,579,,
P2REEF,575,Victoria Plains,interrow,VP22,130-150,140,9.69,569.4,433.6,0.32,185,4.5,294.2,1.44,0.462,0.48,0.01,735.9,694,,
P2REEF,575,Victoria Plains,interrow,VP23,0-10,5,9.69,288,216.7,0.34,100,4.5,159,1.3,0.448,0.53,0.08,47.7,45,,
P2REEF,575,Victoria Plains,interrow,VP23,15-25,20,9.69,293.2,218.7,0.36,100,4.5,159,1.31,0.468,0.52,0.05,121.5,115,,
P2REEF,575,Victoria Plains,interrow,VP23,30-50,40,9.69,573.8,423.6,0.36,198.2,4.5,315.2,1.31,0.476,0.52,0.05,244.6,234,,
P2REEF,575,Victoria Plains,interrow,VP23,55-75,65,9.69,573.8,419.2,0.38,195.5,4.5,310.9,1.32,0.497,0.52,0.02,367.4,359,,
P2REEF,575,Victoria Plains,interrow,VP23,80-100,90,9.69,582.9,428.3,0.37,202,4.5,321.3,1.3,0.481,0.53,0.04,491.4,479,,
P2REEF,575,Victoria Plains,interrow,VP23,105-125,115,9.69,583.4,438.6,0.34,200.5,4.5,318.9,1.35,0.454,0.51,0.06,611.7,592,,
P2REEF,575,Victoria Plains,interrow,VP23,130-150,140,9.69,563.1,433.4,0.31,189,4.5,300.6,1.41,0.431,0.49,0.06,726,700,,
P2REEF,575,Victoria Plains,interrow,VP24,0-10,5,9.69,291.8,216.3,0.37,100.5,4.5,159.8,1.29,0.472,0.53,0.06,48,47,,
P2REEF,575,Victoria Plains,interrow,VP24,15-25,20,9.69,298,220.2,0.37,100,4.5,159,1.32,0.489,0.52,0.03,121.3,121,,
P2REEF,575,Victoria Plains,interrow,VP24,30-50,40,9.69,461,338.6,0.37,153.5,4.5,244.1,1.32,0.492,0.52,0.03,243.5,244,,
P2REEF,575,Victoria Plains,interrow,VP24,55-75,65,9.69,579.7,430.2,0.36,200,4.5,318.1,1.32,0.47,0.52,0.05,365.9,361,,
P2REEF,575,Victoria Plains,interrow,VP24,80-100,90,9.69,574.8,429.1,0.35,199,4.5,316.5,1.33,0.46,0.52,0.06,487.9,476,,
P2REEF,575,Victoria Plains,interrow,VP24,105-125,115,9.69,553.3,415.3,0.34,199,4.5,316.5,1.35,0.461,0.51,0.05,607.2,591,,this section of core had a full length gouge out 10mm wide x 10mm deep caused by a rock being dragged thru by the tube see photo
P2REEF,575,Victoria Plains,interrow,VP24,130-150,140,9.69,716.1,547.9,0.31,244.5,4.5,388.9,1.38,0.433,0.5,0.06,723.9,700,,
P2REEF,575,Victoria Plains,interrow,VP25,0-10,5,9.69,287.3,212.4,0.37,100,4.5,159,1.27,0.471,0.54,0.07,48.7,47,,
P2REEF,575,Victoria Plains,interrow,VP25,15-25,20,9.69,298.6,218.6,0.38,101.5,4.5,161.4,1.29,0.496,0.53,0.03,123.6,121,,
P2REEF,575,Victoria Plains,interrow,VP25,30-50,40,9.69,588.1,427.7,0.38,207,4.5,329.2,1.27,0.487,0.54,0.05,250.6,243,,
P2REEF,575,Victoria Plains,interrow,VP25,55-75,65,9.69,541.8,404.3,0.35,183.5,4.5,291.8,1.35,0.471,0.51,0.04,370.2,361,,
P2REEF,575,Victoria Plains,interrow,VP25,80-100,90,9.69,590.9,436.8,0.36,198.5,4.5,315.7,1.35,0.488,0.51,0.02,489.7,483,,
P2REEF,575,Victoria Plains,interrow,VP25,105-125,115,9.69,567.7,431.9,0.32,197,4.5,313.3,1.35,0.433,0.51,0.08,609.7,591,,
P2REEF,575,Victoria Plains,interrow,VP25,130-150,140,9.69,528.4,412.3,0.29,177,4.5,281.5,1.43,0.412,0.48,0.07,722.2,695,,another gouge but not as big
P2REEF,575,Victoria Plains,interrow,VP26,0-10,5,9.69,287.8,210.8,0.38,99.5,4.5,158.2,1.27,0.487,0.54,0.05,48.8,49,,
P2REEF,575,Victoria Plains,interrow,VP26,15-25,20,9.69,301.5,223,0.37,103,4.5,163.8,1.3,0.479,0.53,0.05,123.3,121,,
P2REEF,575,Victoria Plains,interrow,VP26,30-50,40,9.69,573.9,422.5,0.37,202,4.5,321.3,1.28,0.471,0.53,0.06,248.9,238,,
P2REEF,575,Victoria Plains,interrow,VP26,55-75,65,9.69,473.1,350.6,0.36,162.5,4.5,258.4,1.32,0.474,0.52,0.05,371.5,357,,a small amount of compression may have occurred here 
P2REEF,575,Victoria Plains,interrow,VP26,80-100,90,9.69,571.4,426.4,0.35,200.5,4.5,318.9,1.31,0.455,0.52,0.07,495.2,471,,
P2REEF,575,Victoria Plains,interrow,VP26,105-125,115,9.69,575.3,439.1,0.32,199,4.5,316.5,1.36,0.43,0.51,0.08,614.4,578,,
P2REEF,575,Victoria Plains,interrow,VP26,130-150,140,9.69,498.5,389.3,0.29,168,4.5,267.2,1.42,0.409,0.48,0.07,727.7,680,,
P2REEF,575,Victoria Plains,row,VP27,0-10,5,9.69,242.9,176.8,0.4,100,4.5,159,1.05,0.416,0.62,0.2,56.8,42,,
P2REEF,575,Victoria Plains,row,VP27,15-25,20,9.69,276.9,198.8,0.41,102,4.5,162.2,1.17,0.481,0.58,0.09,138.7,114,,
P2REEF,575,Victoria Plains,row,VP27,30-50,40,9.69,491.7,364.6,0.36,170,4.5,270.4,1.31,0.47,0.52,0.05,261.9,231,,
P2REEF,575,Victoria Plains,row,VP27,55-75,65,9.69,543.9,400,0.37,185,4.5,294.2,1.33,0.489,0.52,0.03,383.8,354,,
P2REEF,575,Victoria Plains,row,VP27,80-100,90,9.69,593.3,439,0.36,197.5,4.5,314.1,1.37,0.491,0.5,0.01,502,476,,
P2REEF,575,Victoria Plains,row,VP27,105-125,115,9.69,595.6,441.9,0.36,200.5,4.5,318.9,1.36,0.482,0.51,0.03,621.3,597,,
P2REEF,575,Victoria Plains,row,VP27,130-150,140,9.69,616.7,472.1,0.31,206,4.5,327.6,1.41,0.441,0.49,0.05,735.5,707,,
P2REEF,575,Victoria Plains,row,VP28,0-10,5,9.69,252.5,184.6,0.39,100.5,4.5,159.8,1.09,0.425,0.6,0.18,55.2,42,,
P2REEF,575,Victoria Plains,row,VP28,15-25,20,9.69,237,170.8,0.41,90,4.5,143.1,1.13,0.462,0.59,0.13,139.3,112,,
P2REEF,575,Victoria Plains,row,VP28,30-50,40,9.69,588.9,436.6,0.36,205,4.5,326,1.31,0.467,0.52,0.06,262.8,229,,
P2REEF,575,Victoria Plains,row,VP28,55-75,65,9.69,587.1,432.3,0.37,200,4.5,318.1,1.33,0.487,0.52,0.03,384.5,350,,
P2REEF,575,Victoria Plains,row,VP28,80-100,90,9.69,593.4,437.1,0.37,199,4.5,316.5,1.35,0.494,0.51,0.02,504.2,474,,
P2REEF,575,Victoria Plains,row,VP28,105-125,115,9.69,588.7,433.4,0.37,197.5,4.5,314.1,1.35,0.494,0.51,0.02,624.1,597,,
P2REEF,575,Victoria Plains,row,VP28,130-150,140,9.69,612.8,462.2,0.33,205,4.5,326,1.39,0.462,0.5,0.03,740.4,713,,
P2REEF,575,Victoria Plains,row,VP29,0-10,5,9.69,257.5,188.5,0.39,100.5,4.5,159.8,1.12,0.432,0.59,0.16,54.3,43,,
P2REEF,575,Victoria Plains,row,VP29,15-25,20,9.69,281.9,202.1,0.41,103,4.5,163.8,1.17,0.487,0.57,0.09,135.8,116,,
P2REEF,575,Victoria Plains,row,VP29,30-50,40,9.69,630.3,462.5,0.37,219,4.5,348.3,1.3,0.482,0.53,0.05,260.1,237,,
P2REEF,575,Victoria Plains,row,VP29,55-75,65,9.69,479.1,352.6,0.37,162,4.5,257.7,1.33,0.491,0.52,0.03,381.6,359,,
P2REEF,575,Victoria Plains,row,VP29,80-100,90,9.69,582.1,428.9,0.37,197,4.5,313.3,1.34,0.489,0.51,0.02,502.4,482,,
P2REEF,575,Victoria Plains,row,VP29,105-125,115,9.69,587.2,431.8,0.368,198,4.5,314.9,1.34,0.493,0.51,0.02,623.1,605,,
P2REEF,575,Victoria Plains,row,VP29,130-150,140,9.69,621.6,460.3,0.36,210,4.5,334,1.35,0.483,0.51,0.03,742.9,726,,
P2REEF,575,Victoria Plains,row,VP30,0-10,5,9.69,243.1,173.3,0.43,102,4.5,162.2,1.01,0.43,0.63,0.2,58.3,43,,some om in top
P2REEF,575,Victoria Plains,row,VP30,15-25,20,9.69,282.3,206.7,0.38,100,4.5,159,1.24,0.475,0.55,0.07,136.3,114,,
P2REEF,575,Victoria Plains,row,VP30,30-50,40,9.69,467.6,345.7,0.36,163.5,4.5,260,1.29,0.469,0.53,0.06,261.3,232,,
P2REEF,575,Victoria Plains,row,VP30,55-75,65,9.69,595.6,439.3,0.36,204,4.5,324.4,1.32,0.482,0.52,0.04,383.4,352,,
P2REEF,575,Victoria Plains,row,VP30,80-100,90,9.69,581.2,428.7,0.36,200.5,4.5,318.9,1.31,0.478,0.52,0.04,506.5,472,,
P2REEF,575,Victoria Plains,row,VP30,105-125,115,9.69,571.7,429.8,0.34,198.5,4.5,315.7,1.33,0.449,0.52,0.07,628,584,,
P2REEF,575,Victoria Plains,row,VP30,130-150,140,9.69,696.8,538.3,0.3,235,4.5,373.8,1.41,0.424,0.49,0.06,741.9,690,,
P2REEF,575,Victoria Plains,row,VP31,0-10,5,9.69,233.8,161.1,0.48,100,4.5,159,0.95,0.457,0.65,0.2,60.4,46,,lots of OM in top10cm
P2REEF,575,Victoria Plains,row,VP31,15-25,20,9.69,295.6,215.8,0.39,102.5,4.5,163,1.26,0.49,0.54,0.05,136.9,119,,
P2REEF,575,Victoria Plains,row,VP31,30-50,40,9.69,531.5,391.7,0.37,190.5,4.5,303,1.26,0.461,0.54,0.08,264.8,234,,
P2REEF,575,Victoria Plains,row,VP31,55-75,65,9.69,494.2,362.6,0.37,169.5,4.5,269.6,1.31,0.488,0.52,0.04,388.3,357,,
P2REEF,575,Victoria Plains,row,VP31,80-100,90,9.69,594.6,438.6,0.36,200,4.5,318.1,1.35,0.49,0.51,0.02,508.2,479,,
P2REEF,575,Victoria Plains,row,VP31,105-125,115,9.69,605.7,453.6,0.34,203,4.5,322.9,1.37,0.471,0.5,0.03,625.7,597,,
P2REEF,575,Victoria Plains,row,VP31,130-150,140,9.69,527.6,401.9,0.32,173.5,4.5,275.9,1.42,0.456,0.48,0.03,739,711,,
P2REEF,575,Victoria Plains,row,VP32,0-10,5,9.69,243.5,171.1,0.45,101.5,4.5,161.4,1,0.448,0.64,0.19,58.6,45,,some OM 
P2REEF,575,Victoria Plains,row,VP32,15-25,20,9.69,284.2,205.4,0.4,100.5,4.5,159.8,1.22,0.493,0.55,0.06,137.4,119,,
P2REEF,575,Victoria Plains,row,VP32,30-50,40,9.69,498.2,361.3,0.39,200.5,4.5,318.9,1.27,0.495,0.54,0.04,264.4,242,,approx length
P2REEF,575,Victoria Plains,row,VP32,55-75,65,9.69,586.2,428.2,0.38,200,4.5,318.1,1.32,0.497,0.52,0.02,387.3,367,,approx length
P2REEF,575,Victoria Plains,row,VP32,80-100,90,9.69,589.6,436.5,0.36,200,4.5,318.1,1.34,0.481,0.51,0.03,507.8,487,,
P2REEF,575,Victoria Plains,row,VP32,105-125,115,9.69,606.1,447.3,0.36,203,4.5,322.9,1.36,0.492,0.51,0.02,627.1,610,,
P2REEF,575,Victoria Plains,row,VP32,130-150,140,9.69,693.5,547.3,0.27,230,4.5,365.8,1.47,0.4,0.47,0.07,736,710,,
