"ID","UD","LD","value"
"Hamleigh",0,10,1.325
"Hamleigh",10,30,1.44
"Hamleigh",30,50,1.49
"Hamleigh",50,70,1.44
"Hamleigh",70,90,1.39
"Hamleigh",90,120,1.37
"Hamleigh",120,150,NA
"Toobanna",0,10,1.325
"Toobanna",10,30,1.45
"Toobanna",30,50,1.55
"Toobanna",50,70,1.6
"Toobanna",70,90,1.62
"Toobanna",90,120,1.62
"Toobanna",120,150,NA
