"soil_gp","TEXTURE","sc_final","ASC_ORD_1","SUBORD_1","CN","CNred"
"Alloway","LS","hard","HY","ED",94,35
"Auburn","CL","hard","SO","AB",94,35
"Burnett","SCL","hard","SO","AA",94,35
"Childers","LC","hard","FE","AA",73,35
"Fairymead","CL","hard","HY","ED",94,35
"Farnsfield","SL","hard","KA","AA",94,35
"Kepnock","LFSY","hard","DE","AC",94,35
"Kinkuna","S","loose","PO","AM",70,20
"Maroondan","LMC","mulch","VE","AE",74,25
"Robur","LS","hard","HY","ED",94,35
