soil_gp,TEXTURE,surf cond,ASC_ORD_1,SUBORD_1,CN,CNred,RO%
Ashton,SL,hard,KA,AC,94,35,33%
Brosnan,LS,loose,KA,AA,70,20,19%
Bulgun,L,firm,DE,AD,74,25,43%
Hamleigh,ZC,hard,VE,AD,84,30,37%
Hewitt,CL,loose,HY,DT,70,20,28%
Innisfail,ZCL,hard,DE,AB,94,35,33%
Lugger,SCL,loose,HY,DT,70,20,19%
Thorpe,SCL,firm,KA,AB,74,25,20%
Tolga,LC,firm,FE,AA,73,35,16%
Toobanna,LFSY,hard,SO,AB,94,35,55%
Tully,ZLC,soft,DE,AB,74,25,20%
