soil_gp,TEXTURE,sc_final,ASC_ORD_1,SUBORD_1,CN,CNred
Dunwold,KSL,loose,CH,AC,70,20
Proserpine,KS,loose,RU,ER,70,20
Victoria Plains,LMC,mulch,VE,AD,74,25
Calen,FSCL,hard,SO,AB,94,35
Cameron,FSCL,hard,RU,ER,94,35
Ilbilbie,FSCL,hard,HY,ED,94,35
Marian,SCL,hard,CH,AB,94,35
Pindi,SCL,hard,SO,AC,94,35
Sandiford,SCL,hard,CH,AB,94,35
Wagoora,CL,hard,DE,AA,94,35
