soil_gp,diffus_const_L2,diffus_slope_L2,diffus_const_mean,diffus_slope_mean,Use
Ashton,88,35,88,35,L2
Brosnan,88,35,88,35,L2
Bulgun,88,35,40,16,L2
Hamleigh,88,35,40,16,L2
Hewitt,88,35,40,16,L2
Innisfail,40,16,88,35,L2
Lugger,88,35,88,35,L2
Thorpe,88,35,88,35,L2
Tolga,40,16,40,16,L2
Toobanna,88,35,88,35,mean
Tully,40,16,88,35,L2
