"soil_gp","site_count_uncult","OC_min_uncult","OC_mean_uncult","OC_max_uncult","site_count_cult","OC_min_cult","OC_mean_cult","OC_max_cult"
"Calen",3,1.2,1.3,1.5,5,0.82,1.19,1.655
"Cameron",1,1.93,1.93,1.93,2,0.33,0.57,0.8
"Dunwold",2,1.2,1.25,1.3,1,0.67,0.67,0.67
"Pindi",1,1.2,1.2,1.2,1,0.98,0.98,0.98
"Proserpine",1,0.4,0.4,0.4,2,0.56,0.7,0.83
"St Helens",1,1.5,1.5,1.5,4,1.22,1.6,2.4
"Tedlands",1,1.6,1.6,1.6,1,1.7,1.7,1.7
"Victoria Plains",3,2.1,3.2,4.4,4,1.9,2.33,3.1
"Mirani",NA,NA,NA,NA,2,0.9,0.96,1.015
"Sandiford",NA,NA,NA,NA,3,0.8,1.05,1.37
