Rosetta 3,,,,,,,,,,,
Sand_%,Silt_%,Clay_%,bulk_density_(g/cm3),th33,th1500,Code,theta_r,theta_s,alpha_(1/cm),n,Ksat_(cm/d)
71,14,14,1.65,0.19,0.04,5,0.03546656656873258,0.3354010103362573,0.00957975541594165,1.4102932894634799,22.729988490100823
68,14,18,1.7,0.19,0.08,5,0.04465841617910363,0.3345337924295171,0.015053707148090859,1.3425945476570473,20.961833105644693
62,15,23,1.7,0.21,0.1,5,0.052058939217287596,0.3396045827960028,0.013991925285720783,1.3245984610977413,15.95987173709737
60,15,25,1.7,0.26,0.1,5,0.0558238596993605,0.3425411130309056,0.0058801757943659685,1.3718360956530766,7.02180632299611
58,15,27,1.7,0.27,0.11,5,0.05957397376111525,0.3456206573044786,0.005635704237971816,1.361001703149143,6.183582311207092
59,15,26,1.7,0.29,0.11,5,0.06227460034460203,0.3473337890029021,0.003943594573761114,1.4090455019566237,4.733332224220535
65,9,26,1.7,0.29,0.11,5,0.06099040797372466,0.3506116838664911,0.0041382825793004376,1.4008405780924524,5.45611481097395
14,16,71,1,0.57,0.35,5,0.16536290534169293,0.6079100273307563,0.004692560413025081,1.247228157918852,37.166180856018734
13,14,73,1.02,0.61,0.37,5,0.1752800181633102,0.6129152412169584,0.003174593334306713,1.2683565503008927,23.691827827929565
14,16,70,1.06,0.64,0.38,5,0.18547917206650702,0.6092040812602191,0.0019312472616283718,1.3133782494243402,12.704682741147815
16,16,67,1.14,0.62,0.38,5,0.17611249765798107,0.5899608594961768,0.0021012267616238216,1.2632977440470126,7.8346100063446595
72,17,11,1.57,0.2,0.08,5,0.044125963076490256,0.36001079061539604,0.014533578617718137,1.3509466584574543,31.03664442080388
69,20,11,1.62,0.25,0.12,5,0.057527997138178445,0.3610938094482728,0.010382455194904624,1.3206321359700475,12.783670622346092
57,21,22,1.6,0.34,0.19,5,0.0892558690687755,0.39099278856198233,0.005840095106671351,1.272728031107488,4.401844317963884
51,19,30,1.63,0.36,0.21,5,0.09798127189385417,0.38980218416384627,0.005007937531462821,1.241576328972881,2.557585664174834
48,20,32,1.66,0.37,0.21,5,0.09905338041271664,0.38265845048630065,0.0037339522421303644,1.2517008110775913,1.7010376223226447
49,20,31,1.64,0.37,0.22,5,0.10183178535151985,0.38980163542579305,0.004623003766699103,1.2288614176935344,1.9684110126090302
49,21,30,1.7,0.36,0.2,5,0.09422136480313839,0.3687279226768146,0.0035020770285129235,1.258890947077031,1.4105114500801363
20,27,53,1.05,0.52,0.33,5,0.15219841480676596,0.5892119303823039,0.00681965300648012,1.2182544664570034,42.89546835766124
20,23,58,1.09,0.55,0.35,5,0.1610384620654403,0.587777991248285,0.0052998958696892865,1.2153325366402639,25.348959411815194
20,20,60,1.17,0.59,0.35,5,0.17151591193635618,0.5735069310788529,0.002066331932600321,1.296164699126956,8.683202289161414
36,27,36,1.19,0.48,0.27,5,0.13669320267099466,0.5325637085389829,0.003766262933862519,1.3316334745340759,21.375116780046138
32,27,41,1.25,0.54,0.29,5,0.15882681028713874,0.5321392035463149,0.0015811275058281228,1.4319970870118386,7.931694597043258
30,27,44,1.3,0.57,0.31,5,0.1696433180654766,0.5294406981439288,0.0010506172991116786,1.437886120192576,3.6582149876921575
29,27,45,1.32,0.58,0.32,5,0.1723535087693978,0.5284526288266669,0.0009315168776628327,1.422953036849702,2.711320020052734
29,27,45,1.32,0.58,0.32,5,0.1723535087693978,0.5284526288266669,0.0009315168776628327,1.422953036849702,2.711320020052734
29,27,45,1.32,0.58,0.32,5,0.1723535087693978,0.5284526288266669,0.0009315168776628327,1.422953036849702,2.711320020052734
20,46,34,1.33,-9.9,0.21,3,0.1100537261854863,0.45169649140617985,0.005598068297520762,1.380840686108416,13.860294915071956
16,46,38,1.39,-9.9,0.23,3,0.11542619170296983,0.44502931637301946,0.00581918697614275,1.3553039188326366,9.472808075081046
15,44,41,1.46,-9.9,0.25,3,0.11896665414896491,0.43188279982946215,0.006282282080907573,1.3264018361645242,6.382941622166149
23,39,37,1.48,-9.9,0.26,3,0.11262944102505949,0.4186273254887086,0.006941346259832246,1.3257015399665333,6.666128140936123
28,37,35,1.53,-9.9,0.26,3,0.10933378614531256,0.3996803806521192,0.007390496440604623,1.3161616674800056,5.41383630018247
30,35,35,1.66,-9.9,0.23,3,0.10867354968992031,0.3655576602482638,0.007974144363107847,1.274431148671558,2.862604239394218
35,32,34,1.7,-9.9,0.17,3,0.10701741023076562,0.35325785370228224,0.008735348758367999,1.2604032089807387,2.544712283929359
30,22,48,1.3,0.46,0.22,5,0.12900776326502322,0.48738651037329744,0.002010617361670258,1.4836528075872646,9.76448271005245
28,24,48,1.36,0.52,0.24,5,0.150881526119576,0.4883181372494595,0.0008884626283161964,1.6410114254898138,3.8956572011441977
27,24,49,1.45,0.55,0.25,5,0.1596659971662012,0.4747602554729702,0.00047937784042778126,1.7284591122720463,1.4706200108522833
28,22,50,1.5,0.56,0.26,5,0.16274322006537834,0.46589721584260635,0.0003886143191036381,1.704945660487816,0.9262694590095619
28,22,50,1.51,0.58,0.27,5,0.17053239073930243,0.46856620754268297,0.0003154651995356888,1.7435794131885372,0.7707659209966492
25,23,52,1.51,0.6,0.28,5,0.17908966349323027,0.4740229856190313,0.00026904337522808895,1.7796357030022651,0.6982391570861322
25,23,52,1.51,0.61,0.28,5,0.1826279260779472,0.47577629761991874,0.00024238136443025944,1.8357330602103645,0.6890783246929311
24,24,52,1.33,0.42,0.21,5,0.11758282211455334,0.47326880006297806,0.0030859677384818137,1.3911775509806057,10.80548462932028
22,22,56,1.38,0.47,0.24,5,0.13531000788232572,0.47773638806828633,0.0018718198062334054,1.410516784517122,5.106128802863386
20,16,64,1.41,0.51,0.27,5,0.14706279106505316,0.484177224581663,0.0013428638537233684,1.3858875836901223,2.7261522504251983
19,13,68,1.41,0.53,0.29,5,0.15223897084545931,0.49101154966253097,0.001245711371987929,1.3533650260574195,2.162261714589812
20,15,65,1.44,0.5,0.29,5,0.1425470996881009,0.47904411715519624,0.0019508639751200652,1.2686143106203074,2.255521365101439
22,18,60,1.49,0.49,0.29,5,0.13960185353197352,0.4630735630260299,0.0019441438780645028,1.2455541505518115,1.5198005489270816
16,24,60,1.08,0.47,0.32,5,0.14671214392105336,0.5727687876876069,0.012407794081950056,1.1819811245886451,48.846810973252325
17,21,61,1.08,0.51,0.35,5,0.1532469125524991,0.5863023595771538,0.010982119497255282,1.1676842915878323,40.36917466939279
16,22,62,1.11,0.55,0.36,5,0.1596059268315798,0.5865458620777105,0.006051923989277116,1.1866392879473269,22.056450890771995
13,23,63,1.14,0.58,0.37,5,0.1660886893184281,0.5861839154893944,0.0037623667578078053,1.2117695999588671,12.81273236246318
14,24,62,1.16,0.61,0.38,5,0.17494588227184987,0.5863281322447932,0.002306975650303544,1.2421956017995892,7.382164984992422
15,24,61,1.09,0.62,0.4,5,0.17459580809071193,0.6089878226605577,0.00336028993656879,1.205612575831561,12.908569155953547
13,23,65,1.1,0.65,0.4,5,0.18745323237842823,0.607315760902265,0.0018378310932869448,1.2736177627378498,8.100813952121749
15,22,63,1.13,-9.9,0.29,3,0.1433035233090984,0.56092192038453,0.009966021221947634,1.2725558245951967,37.384023435031786
14,23,63,1.19,-9.9,0.31,3,0.14230919250728302,0.5446279410433673,0.009854032207619884,1.269756445329471,28.28669823997722
12,23,65,1.23,-9.9,0.33,3,0.14372325652288082,0.5369375288381808,0.009955765774085901,1.2627258550916094,22.98492765190773
13,21,66,1.25,-9.9,0.34,3,0.14413526281934277,0.5324733143710152,0.01029406314845493,1.2569185652562875,21.406354637515484
14,21,65,1.26,-9.9,0.35,3,0.1429923648534037,0.5280663008929719,0.010267397358800189,1.257859333279594,20.727976534762497
12,23,65,1.28,-9.9,0.35,3,0.1430609057293222,0.5230116376798087,0.009983486940776047,1.2582896145046838,18.262798175815252
10,26,64,1.28,-9.9,0.35,3,0.14259392004103544,0.5222227676862596,0.009522123195519447,1.2637039870813955,17.51650764382899
45,30,26,1.47,0.3,0.14,5,0.0750974000360828,0.39910816823486905,0.006410448734682248,1.3644191452215944,12.180927153403683
37,28,36,1.45,0.41,0.2,5,0.1124887280025286,0.43695328369405373,0.0024270877238550003,1.42466436594708,5.1960232310452
33,26,42,1.49,0.39,0.24,5,0.11841771271889207,0.43541458775955766,0.005982309456198291,1.2306320367882269,4.663155784372498
33,26,41,1.54,0.36,0.24,5,0.11596672385730607,0.4178636463463388,0.009424319849186893,1.2009003264155753,4.695810411957217
33,30,38,1.56,0.5,0.25,5,0.1424929001123427,0.43810208391510114,0.0006861762864671309,1.5004148653906264,0.886822228873305
34,30,35,1.58,0.59,0.25,5,0.1699601350668883,0.45211848145202593,0.00020791633474771617,2.022202753292681,0.6468567857305647
22,31,46,1.25,0.41,0.25,5,0.1240229785912996,0.5039634108086749,0.007681507261425518,1.2521487484303475,21.519213636214626
21,28,51,1.3,0.46,0.27,5,0.1363819355375122,0.504263005379819,0.004109546470747091,1.2720621217060373,9.991552055330022
22,25,53,1.36,0.5,0.29,5,0.146615360119138,0.5000270049777158,0.0023458305625812916,1.2872616509620611,4.173416919434191
20,25,56,1.38,0.52,0.3,5,0.15383385068171798,0.4991242469832777,0.0017570339218898065,1.299322827741696,2.7323918497329966
21,26,53,1.42,0.52,0.3,5,0.1518381828162417,0.48913098276392253,0.0015035389041192857,1.2994661119498958,1.8821756642367855
23,26,51,1.51,0.53,0.28,5,0.15456242596744696,0.4621135410131141,0.0006967777848836704,1.4354360682041798,0.8861836631804665
9,14,77,0.98,-9.9,0.36,3,0.16228376538357261,0.6215146920431379,0.01210494763533393,1.2478016046126605,59.51259844869995
11,13,76,0.99,-9.9,0.38,3,0.16057818880900487,0.6169935895809285,0.012153554557002837,1.2478838459866675,58.333670681315326
11,10,79,1.06,-9.9,0.38,3,0.1610281723070505,0.6013264043853744,0.012684257074527399,1.2383772864353386,44.29211490481574
15,13,72,1.11,-9.9,0.38,3,0.15216846474502763,0.5784948963356588,0.011765408304579913,1.2480608458205693,39.452624892530906
46,29,25,1.38,-9.9,0.31,3,0.09481962214796928,0.42206812891324047,0.009186485054537683,1.3738608705022521,18.392534292998164
18,38,44,1.18,0.5,0.27,5,0.1482564433566118,0.5374626091205257,0.0026168779742326734,1.4001802116655968,17.744868703503496
17,28,56,1.25,0.53,0.28,5,0.15993396183905417,0.527630566511717,0.0016316224948676136,1.4362479811442819,7.801679492851716
13,32,55,1.36,0.55,0.28,5,0.1660524927200714,0.5059274739017774,0.0008363124048517899,1.5264262139329667,2.641532189604407
14,33,53,1.39,0.56,0.29,5,0.1688310558190001,0.5026621501058615,0.0007106340132891282,1.514416755240056,1.8363774006291558
19,29,52,1.38,0.59,0.31,5,0.17751201690270052,0.5132057437637891,0.000570698177173547,1.5252878761613486,1.5213028728700675
24,31,46,1.36,0.63,0.33,5,0.19270394974517419,0.5280543503236415,0.00041368998878157806,1.603436522928757,1.4154095327416398
38,23,40,1.51,0.58,0.28,5,0.17058180577137494,0.4698631140952351,0.00033503254908211373,1.692569010313222,0.7697458116904341
17,24,59,1.28,-9.9,0.24,3,0.13714950480003352,0.5131227143931977,0.009661854920407652,1.271178626624971,19.279405444808695
15,24,61,1.33,-9.9,0.26,3,0.1386524944072945,0.5026427160296092,0.009751958979879882,1.26178507801579,14.892199660555091
17,22,61,1.4,-9.9,0.27,3,0.1377986918552604,0.48292361472230133,0.010103010457442137,1.250994103156864,11.143809340191925
17,21,62,1.45,-9.9,0.28,3,0.13840395370886072,0.4704410972134179,0.010286207080524369,1.2413476635059317,8.88554911888098
16,20,64,1.47,-9.9,0.28,3,0.1401870546104219,0.4677816857063211,0.010458716469185024,1.23428814311211,8.093251089895547
16,20,64,1.47,-9.9,0.28,3,0.1401870546104219,0.4677816857063211,0.010458716469185024,1.23428814311211,8.093251089895547
16,20,64,1.47,-9.9,0.28,3,0.1401870546104219,0.4677816857063211,0.010458716469185024,1.23428814311211,8.093251089895547
47,33,20,1.5,0.3,0.12,5,0.06710335855244014,0.3860862592715238,0.004698624699258155,1.4327037058236927,10.69217795871648
38,36,26,1.57,0.35,0.15,5,0.08563711482367072,0.38654787975548865,0.0026419020314473666,1.4689958431849828,4.290460767713463
32,33,35,1.59,0.41,0.2,5,0.11088367604673215,0.4038095189024966,0.0016783137965987952,1.4191496630548732,1.784628823172843
37,26,37,1.63,0.43,0.21,5,0.11508692095564628,0.39952599069183675,0.0012007824904552863,1.4232822829617735,1.0587354447933444
52,24,24,1.7,0.32,0.15,5,0.0762725135246009,0.3545645114676605,0.003714272368133542,1.346658877459653,2.669075536078695
52,24,24,1.7,0.32,0.15,5,0.0762725135246009,0.3545645114676605,0.003714272368133542,1.346658877459653,2.669075536078695
52,24,24,1.7,0.32,0.15,5,0.0762725135246009,0.3545645114676605,0.003714272368133542,1.346658877459653,2.669075536078695
