Rosetta 3,,,,,,,,,,,
Sand_%,Silt_%,Clay_%,bulk_density_(g/cm3),th33,th1500,Code,theta_r,theta_s,alpha_(1/cm),n,Ksat_(cm/d)
64,28,8,1.63,0.2,0.05,5,0.0379865479636333,0.333940076924725,0.008764073865437306,1.4085459087951282,17.227262837164442
65,21,14,1.7,0.22,0.07,5,0.04401107077307182,0.3292377053573964,0.007697826662871149,1.386332013176508,10.424026228882445
59,19,22,1.7,0.27,0.12,5,0.061431673698071,0.34493876605412616,0.0063573831007727715,1.3361572401039712,5.653669240878085
55,25,20,1.7,0.29,0.13,5,0.06650139182331766,0.3469869232773203,0.004940043377027775,1.349759023990951,4.031885920493038
55,25,20,1.7,0.29,0.13,5,0.06650139182331766,0.3469869232773203,0.004940043377027775,1.349759023990951,4.031885920493038
55,25,20,1.7,0.29,0.13,5,0.06650139182331766,0.3469869232773203,0.004940043377027775,1.349759023990951,4.031885920493038
78,9,13,1.47,0.38,0.13,5,0.07810535144295308,0.41184961907734513,0.0019208771464509227,1.6500183718913863,9.315940258279367
72,12,16,1.61,0.42,0.12,5,0.08712662667388515,0.3887080861737668,0.0007581275898285769,1.9633829666020883,2.8907915310383125
66,13,20,1.69,0.44,0.12,5,0.09243464118689795,0.37798828411930985,0.0004771236879528716,2.087498134634796,1.4526032230057393
66,12,22,1.7,0.34,0.12,5,0.07143346416103033,0.35643882121779946,0.0019323303361266063,1.5317048899199155,2.8547371236313537
66,13,20,1.7,0.33,0.12,5,0.06886736557590224,0.3550817620234263,0.0022913414196128914,1.5001402423505512,3.2245357160249823
72,9,19,1.7,0.36,0.12,5,0.07398813813577651,0.3605828000384222,0.0014318597342379974,1.6150203357912984,2.5129738022618873
19,43,38,1.35,0.4,0.19,5,0.11088061659597352,0.4546994323244335,0.002820494432830064,1.4597859880869477,9.809493176814017
18,44,38,1.47,0.43,0.19,5,0.11932079524431484,0.4344161750906026,0.0013911450528715425,1.5937846075542863,3.7908554043299723
19,43,38,1.57,0.43,0.2,5,0.11940372695517466,0.41395657342715303,0.0012103874939214138,1.5163039362414217,1.7217683269092336
19,36,45,1.49,0.49,0.27,5,0.14410431402803084,0.4600891273946818,0.001304645419716287,1.3523360065461751,1.4642778651035864
21,37,42,1.54,0.52,0.27,5,0.15250241718545976,0.4530655998421522,0.0006379766224566674,1.4783509084842388,0.8216347696637115
32,33,35,1.62,0.5,0.25,5,0.1410175961476343,0.42395036463757757,0.0005567403877124577,1.5114335280894184,0.5983618805339128
10,47,44,1.325,0.46,0.23,5,0.13783887056613645,0.4848956046119525,0.001961268708497919,1.4829927254249848,7.74384977998873
16,46,38,1.44,0.42,0.22,5,0.12219436399206858,0.44842769498262347,0.002587814575212549,1.3862154646905323,4.7980641957855985
16,39,44,1.48,0.44,0.25,5,0.1301628777635528,0.4499034233261949,0.002599336515713979,1.3012661973056738,2.7353106020742377
14,32,54,1.4,0.48,0.29,5,0.14358596339671323,0.48662259049665707,0.0029667357394985838,1.2430412381876468,3.3933051713906197
14,32,54,1.37,0.48,0.29,5,0.14395922982964074,0.4947649835287151,0.0032443263988912994,1.2458008004268453,4.461361313720002
14,32,54,1.37,0.48,0.29,5,0.14395922982964074,0.4947649835287151,0.0032443263988912994,1.2458008004268453,4.461361313720002
7,51,42,1.12,0.51,0.32,5,0.1544082051708433,0.5744315845858844,0.005604419341714258,1.2472468820869125,31.639098302695064
8,54,39,1.14,0.52,0.33,5,0.15883776322042384,0.5741824692743152,0.005326785013008294,1.2432557107033524,26.15804034840946
4,53,43,1.26,0.5,0.32,5,0.1540492728981656,0.5400271733023072,0.004765468143964509,1.2227629144862309,10.531397607510632
2,49,49,1.33,0.48,0.32,5,0.15186675244238265,0.5159202378800671,0.005779417296602486,1.1831024963766021,6.003135718689592
14,41,45,1.39,0.48,0.32,5,0.14778047781206746,0.4975826309299669,0.0049466589381556006,1.1738341253856235,3.503634962855091
17,39,44,1.42,0.48,0.3,5,0.14421583666078602,0.4848719017643362,0.0031945142928025473,1.2196681397214206,2.797096629729849
17,43,40,1.26,0.49,0.24,5,0.14454609988864367,0.5075572323949145,0.0016650052857407254,1.5466873753610368,10.772732911874103
18,41,41,1.32,0.45,0.26,5,0.13490969539312933,0.4948851961053023,0.0037939579505533345,1.3013731522137832,9.271495163156478
18,43,40,1.42,0.43,0.27,5,0.13495576206456725,0.46794724008385363,0.005089782734141143,1.2290354172686877,4.792372256932101
26,41,33,1.45,-9.9,0.29,3,0.10731318544052275,0.4168604368074767,0.0065928533837294285,1.3503672934638085,7.964164846799422
29,41,31,1.5,-9.9,0.28,3,0.10423960129595188,0.39915821107838856,0.006790680729338271,1.3481830838952753,6.411134802983097
29,41,31,1.5,-9.9,0.28,3,0.10423960129595188,0.39915821107838856,0.006790680729338271,1.3481830838952753,6.411134802983097
59,25,16,1.49,0.24,0.12,5,0.06019829939095087,0.38679272028537376,0.01334119009455077,1.3295373793280953,25.321337397228557
59,27,14,1.65,0.22,0.11,5,0.05558785377724653,0.34632458521256676,0.01350595743590134,1.3236138745113997,13.537640605068711
63,27,10,1.7,0.2,0.08,5,0.04464593260077613,0.3278265526677722,0.01212172044017239,1.3451395652203029,13.265472056249756
69,23,8,1.7,0.14,0.05,5,0.03626407846180301,0.3200754835615825,0.021045242175687748,1.3869284904854273,33.644304224931716
66,22,12,1.7,0.16,0.08,5,0.04622061912503175,0.3275002598961697,0.022032783144943356,1.383901771998604,28.30619125733646
60,25,15,1.7,0.19,0.1,5,0.0528936376130289,0.33165669391110697,0.017935282156463204,1.3422433402486194,16.688085286790237
59,26,15,1.49,0.28,0.12,5,0.061743740665332024,0.38887572938953374,0.007062849043447766,1.3733639547658032,15.932350311247447
57,25,18,1.59,0.3,0.14,5,0.07020463223259588,0.3751931659979119,0.005761296928902041,1.350244936281118,7.355422134044616
56,24,20,1.68,0.31,0.14,5,0.0715023495552998,0.35631607188042375,0.004111082621795918,1.3626245159203265,3.6630923105858395
61,23,16,1.7,0.26,0.14,5,0.06585282959626632,0.3467156267619358,0.01009723922874439,1.2865949534911945,6.419855421516654
64,23,13,1.7,0.17,0.09,5,0.049878398017350126,0.3293765763543094,0.0213139878590295,1.3737634186963223,24.078568323603296
63,24,13,1.7,0.13,0.06,5,0.04169547564441707,0.32111666931885047,0.02570714746016576,1.4391310169971023,42.51751852394608
12,28,60,1.18,-9.9,0.28,3,0.1400738343390148,0.5438008841232475,0.008976800204267754,1.2837011525088815,28.91908927962429
10,23,67,1.23,-9.9,0.29,3,0.14578715491205332,0.5403142594032394,0.010038932616456562,1.2590250368080245,22.35780413771688
11,15,74,1.31,-9.9,0.3,3,0.15045984126750692,0.5267543033910284,0.011399012785168458,1.233348771423716,16.53222582507908
14,10,76,1.34,-9.9,0.32,3,0.15140816572095148,0.520416638866641,0.012123317779788477,1.2242070715013742,15.71530923492153
14,10,76,1.34,-9.9,0.32,3,0.15140816572095148,0.520416638866641,0.012123317779788477,1.2242070715013742,15.71530923492153
14,10,76,1.3,-9.9,0.32,3,0.1519211994686162,0.531549968490247,0.012169402281791324,1.2275425721029116,18.511358249675258
24,57,19,1.325,0.37,0.16,5,0.0899032831692865,0.44678180188858907,0.0032655573699367094,1.5242483638942463,19.468830625768707
25,52,24,1.45,0.36,0.18,5,0.09663462835201883,0.4246835341566181,0.004084014124385162,1.3945769106414683,8.860514884385799
22,46,32,1.56,0.37,0.22,5,0.10983782600269412,0.4098934603044209,0.005059231163652515,1.2568732010414811,3.14628235239773
25,42,33,1.61,0.36,0.25,5,0.12124286055953992,0.3983745790599726,0.008878541203535938,1.184501428428916,2.1583614316922777
35,35,29,1.62,-9.9,0.23,3,0.09935216434559832,0.36834433036911823,0.008252143103915132,1.3076904103105238,4.338137403181123
41,32,27,1.69,-9.9,0.21,3,0.09484259504047723,0.3477027744703287,0.009523284091387552,1.2845000869660848,3.614238570288943
10,47,43,1.23,0.42,0.25,5,0.1289675500625707,0.508512236419956,0.006269279550766164,1.2781910301261992,20.104642480899244
12,45,43,1.3,0.43,0.27,5,0.13524494997115125,0.5000238702602684,0.006578885999921814,1.2368698758772838,12.271351234499972
19,45,36,1.49,0.46,0.24,5,0.13339133143197518,0.44985940643423394,0.0014919285623318187,1.4195546388153026,2.3155719940395345
37,39,24,1.68,0.48,0.2,5,0.12423879246295717,0.400560279917068,0.0004181459137968039,1.7805411096817902,0.6938463369362353
49,35,16,1.7,0.35,0.14,5,0.07792816060434188,0.35919125129983115,0.001878780792076851,1.5079808588848371,2.2534573103803868
64,24,12,1.7,0.17,0.06,5,0.039192367940920875,0.32280418153243357,0.015119688302621809,1.3606216981997161,20.191867213794634
