P50_2000r,P2_50r,P2r,BDbest,m3rdbar_vv,m15bar_vv
64,28,8,1.63,0.2,0.05
65,21,14,1.7,0.22,0.07
60,20,20,1.7,0.26,0.11
54,22,24,1.7,0.29,0.14
54,26,20,1.7,0.28,0.12
54,29,17,1.7,0.28,0.12
54,29,17,1.7,0.28,0.12
78,9,13,1.47,0.38,0.13
72,12,16,1.61,0.42,0.12
67,13,19,1.68,0.44,0.12
67,13,21,1.7,0.41,0.12
66,12,22,1.7,0.32,0.12
65,13,21,1.7,0.33,0.12
70,11,19,1.7,0.36,0.12
19,43,38,1.35,0.4,0.19
18,44,38,1.47,0.43,0.19
18,43,38,1.56,0.43,0.19
21,41,38,1.55,0.46,0.24
20,36,45,1.49,0.5,0.27
22,36,42,1.53,0.52,0.27
32,32,36,1.61,0.51,0.25
10,47,44,1.29,0.46,0.23
16,46,38,1.41,0.42,0.22
17,40,42,1.46,0.43,0.25
15,35,50,1.45,0.47,0.28
14,31,55,1.45,0.49,0.29
16,32,52,1.45,0.49,0.29
16,32,52,1.45,0.49,0.29
7,51,42,1.12,0.51,0.32
8,54,39,1.14,0.52,0.33
4,54,42,1.24,0.51,0.33
2,52,46,1.32,0.48,0.32
2,49,49,1.33,0.48,0.33
15,41,44,1.38,0.48,0.32
16,39,44,1.43,0.48,0.31
17,43,40,1.26,0.49,0.24
18,41,41,1.32,0.45,0.26
18,40,41,1.41,0.43,0.27
22,42,35,1.47,0.44,0.27
28,40,32,1.46,0.46,0.29
29,41,31,1.49,0.46,0.28
31,43,26,1.49,0.45,0.28
59,25,16,1.49,0.24,0.12
59,27,14,1.65,0.22,0.11
61,27,12,1.7,0.21,0.1
67,24,8,1.7,0.16,0.05
68,23,8,1.7,0.13,0.04
67,22,11,1.7,0.16,0.08
63,24,13,1.7,0.17,0.09
59,26,15,1.49,0.28,0.12
57,25,18,1.59,0.3,0.14
56,24,20,1.68,0.32,0.14
58,23,19,1.7,0.29,0.14
63,23,14,1.7,0.24,0.15
64,22,14,1.7,0.18,0.1
62,24,14,1.7,0.13,0.06
12,28,60,1.13,,0.25
10,23,67,1.14,,0.28
11,16,74,1.19,,0.29
14,9,77,1.27,,0.29
14,10,76,1.29,,0.32
12,12,76,1.34,,0.32
12,12,76,1.3,,0.32
24,57,19,1.43,0.37,0.16
25,52,24,1.51,0.36,0.18
22,47,31,1.55,0.37,0.21
22,43,35,1.56,0.39,0.24
25,42,33,1.57,0.35,0.25
34,36,29,1.63,0.39,0.24
38,34,28,1.69,0.37,0.22
10,47,43,1.23,0.42,0.25
12,45,43,1.3,0.43,0.27
17,45,38,1.45,0.46,0.25
27,44,28,1.61,0.49,0.21
39,38,22,1.7,0.48,0.19
47,36,16,1.7,0.38,0.15
61,27,12,1.7,0.2,0.07
