Rosetta 3,,,,,,,,,,,
Sand_%,Silt_%,Clay_%,bulk_density_(g/cm3),th33,th1500,Code,theta_r,theta_s,alpha_(1/cm),n,Ksat_(cm/d)
65,27,8,1.23,-9.9,0.05,3,0.06613432380423614,0.42953480242745495,0.012521365431904777,1.5189625029191027,102.9571194542779
64,27,9,1.54,-9.9,0.05,3,0.061867834612179685,0.36243416769728054,0.015653713376591237,1.474781619543735,34.43160623422254
59,26,15,1.71,-9.9,0.11,3,0.0705020174013614,0.33147830175020376,0.014932613326339763,1.3416694557731759,9.54136679583338
51,26,23,1.63,-9.9,0.17,3,0.08747755822076524,0.36033795552683767,0.011711248289651869,1.3186913398944529,7.519884535337462
42,28,31,1.94,-9.9,0.1,3,0.10181702402051986,0.291612705203653,0.010543004632448621,1.1895433129912465,0.9464569009691605
41,20,39,2.18,-9.9,0.03,2,0.11866988347794179,0.41606111172228905,0.011597897670371886,1.2830245970158034,7.878589296028096
41,20,39,2.2,-9.9,0.03,2,0.11866988347794179,0.41606111172228905,0.011597897670371886,1.2830245970158034,7.878589296028096
46,44,11,1.53,0.31,0.11,5,0.06442928519593555,0.3792503311799739,0.00341765321592563,1.5308311741090428,10.23088530264468
36,37,27,1.5,0.42,0.19,5,0.11064930732523849,0.425350253078619,0.0015896844910975791,1.5409122122681453,3.7543632092288477
33,33,34,1.52,0.46,0.23,5,0.1285209623964254,0.43756212701768515,0.0012347044014572076,1.456949085129,1.8637177834254657
32,35,33,1.55,0.49,0.24,5,0.13754967462069417,0.43876308697816974,0.0007445139962385391,1.533820286703967,1.131795537384869
29,35,36,1.58,0.49,0.25,5,0.13893290149050824,0.4326920237729862,0.0007461146536912249,1.4664515786683392,0.8252889888268886
29,35,36,1.58,0.49,0.25,5,0.13893290149050824,0.4326920237729862,0.0007461146536912249,1.4664515786683392,0.8252889888268886
29,35,36,1.58,0.49,0.25,5,0.13893290149050824,0.4326920237729862,0.0007461146536912249,1.4664515786683392,0.8252889888268886
73,18,9,1.57,0.26,0.08,5,0.04820255032073977,0.3617788719949018,0.0055428293137250745,1.4454131536140458,14.433275099729693
70,21,9,1.7,0.24,0.08,5,0.046507378960885554,0.3334171112599343,0.006406591969886766,1.3968597700725478,8.778309685746242
70,21,9,1.7,0.25,0.08,5,0.047642578713018975,0.3344422203893881,0.0053994128876539696,1.4215637724469061,7.852611801533565
75,17,8,1.7,0.26,0.07,5,0.0467623403056319,0.33495325831542216,0.004124810536209572,1.4861835894850388,7.552582411523192
79,14,7,1.7,0.25,0.07,5,0.0448301000675562,0.33503089485032794,0.004978548578952019,1.449684819422594,8.852384194302067
66,18,16,1.7,0.27,0.17,5,0.0780854039745972,0.3548769197719057,0.013174829157158799,1.2568634864843897,6.224434078720637
66,18,16,1.7,0.27,0.17,5,0.0780854039745972,0.3548769197719057,0.013174829157158799,1.2568634864843897,6.224434078720637
25,27,48,1.27,0.32,0.24,5,0.13818213522579093,0.48120395238438574,0.022671113086210778,1.2927461725046165,48.537408551095105
23,26,51,1.34,0.33,0.25,5,0.14085339733129043,0.4682971682674145,0.021869734444456213,1.2654019277436246,32.25429529632032
19,22,59,1.42,0.34,0.26,5,0.1405879427527943,0.4542570147940187,0.021320505759619638,1.235557396281244,22.773193653807272
18,16,65,1.41,0.37,0.29,5,0.14988470198010548,0.46920032109491727,0.02251608347892237,1.2126755686513733,23.04443117555622
19,14,67,1.4,0.39,0.3,5,0.14715742312983326,0.47662978809577367,0.02011880902068688,1.180563354604648,18.862355733920598
18,14,68,1.39,0.4,0.31,5,0.150994950292928,0.4815919110851767,0.020275608971151646,1.1728945641372182,17.784513401449264
19,11,70,1.41,0.4,0.31,5,0.14855907919645867,0.4775065354023415,0.020114982557443505,1.1707329991853221,17.41273840946617
14,40,46,1.12,-9.9,0.24,3,0.12699660709198846,0.536551573709884,0.006491788664790183,1.3475078838877508,40.34025045753832
12,41,46,1.24,-9.9,0.26,3,0.12575903839655736,0.5049314331709605,0.006564388369394446,1.3394118172028264,21.57632749320107
11,38,51,1.32,-9.9,0.29,3,0.13060842280029789,0.4905046255756215,0.00733818297437079,1.3072908559108851,13.63704927811652
15,35,50,1.29,-9.9,0.3,3,0.1291283618782695,0.49586406782491166,0.0076763068760903885,1.3087171853925073,16.87080599450947
26,34,40,1.31,-9.9,0.3,3,0.11707419790656523,0.4689246839307403,0.007556106665966627,1.3339273978641852,16.57835791926679
26,34,40,1.28,-9.9,0.3,3,0.11735750638027312,0.47707105876661543,0.007498672057647507,1.3377474550029735,19.328839288671038
26,34,40,1.26,-9.9,0.3,3,0.11756083830873021,0.48250456133213443,0.007458552620310837,1.3401093847525887,21.404319518837976
64,25,12,1.57,-9.9,0.08,3,0.0667041193512414,0.3599500861328878,0.015518673325861947,1.4406568478882489,25.231466812957063
62,26,12,1.7,-9.9,0.08,3,0.06495730562396579,0.33035065327553315,0.016237012708384728,1.3762390743711186,13.351487294710273
55,23,22,1.7,-9.9,0.12,3,0.08458131134709093,0.3430981943802878,0.013192566604651791,1.296995777945467,6.26771794778038
48,20,32,1.7,-9.9,0.16,3,0.10242429657827107,0.3567456152911072,0.011819035560569903,1.2502149219188055,4.047878998319058
42,17,42,1.67,-9.9,0.22,3,0.11685537061036216,0.379526193289783,0.011602030290961454,1.2301829761374854,4.038501308908387
42,17,42,1.67,-9.9,0.22,3,0.11685537061036216,0.379526193289783,0.011602030290961454,1.2301829761374854,4.038501308908387
42,17,42,1.67,-9.9,0.22,3,0.11685537061036216,0.379526193289783,0.011602030290961454,1.2301829761374854,4.038501308908387
46,38,16,1.51,0.29,0.12,5,0.06463114382483053,0.3826145005817857,0.0054695471152785904,1.4109349727372487,11.657449768713974
45,34,21,1.62,0.23,0.12,5,0.06243709343948755,0.35286124687303383,0.012748560002386796,1.321213473980205,11.772949567676335
40,26,34,1.64,0.31,0.18,5,0.08808332169036695,0.37296906707888156,0.007674062729982749,1.2569221731386166,4.257308528368502
33,22,45,1.6,0.37,0.22,5,0.10600860316327643,0.40116373820198287,0.005087104078833371,1.2315484134374421,2.7953680940018044
25,23,52,1.56,0.38,0.25,5,0.11780437830567758,0.4193806829294136,0.007554417753931587,1.187067052610339,3.4872694358811858
26,18,56,1.6,0.39,0.25,5,0.11475773483834856,0.4115837281014504,0.005818740451945003,1.1857092717175266,2.45818699348457
26,18,56,1.6,0.39,0.25,5,0.11475773483834856,0.4115837281014504,0.005818740451945003,1.1857092717175266,2.45818699348457
87,11,2,1.67,-9.9,0.02,3,0.04806352713509221,0.33083769746356523,0.030414366997269363,2.115751320322738,181.97618143851946
84,14,2,1.7,-9.9,0.03,3,0.0478769520727102,0.32271876323819043,0.02906801029309991,1.9003376865593204,113.39996402488748
82,15,3,1.7,-9.9,0.03,3,0.049433984318334685,0.3236198934101996,0.027468606241362534,1.781954521957492,85.02123509846268
82,15,3,1.7,-9.9,0.03,3,0.049433984318334685,0.3236198934101996,0.027468606241362534,1.781954521957492,85.02123509846268
86,13,1,1.7,-9.9,0.03,3,0.04635888175312976,0.3217648036502463,0.03077896899468663,2.0534699449439735,154.6745278499258
86,13,1,1.7,-9.9,0.03,3,0.04635888175312976,0.3217648036502463,0.03077896899468663,2.0534699449439735,154.6745278499258
86,13,1,1.7,-9.9,0.03,3,0.04635888175312976,0.3217648036502463,0.03077896899468663,2.0534699449439735,154.6745278499258
17,30,53,1,0.61,0.35,5,0.18019211068261282,0.6151509632375287,0.002357849398810285,1.3694381056398048,32.62078102804909
14,29,57,0.97,0.61,0.49,5,0.19489734667022918,0.6377045320896554,0.023614557390275064,1.09572455531102,28.68662522971999
16,31,53,0.97,0.56,0.42,5,0.17379588827606302,0.6303080657574436,0.01844524693710171,1.1268551960989803,62.41843368459222
19,33,48,1.2,0.62,0.36,5,0.18340964631730627,0.5761112629493774,0.001188065065603915,1.369734578302391,5.28934336113288
19,33,48,1.2,0.62,0.36,5,0.18340964631730627,0.5761112629493774,0.001188065065603915,1.369734578302391,5.28934336113288
19,33,48,1.2,0.62,0.36,5,0.18340964631730627,0.5761112629493774,0.001188065065603915,1.369734578302391,5.28934336113288
19,33,48,1.2,0.62,0.36,5,0.18340964631730627,0.5761112629493774,0.001188065065603915,1.369734578302391,5.28934336113288
68,27,5,1.63,0.26,0.04,5,0.04272874766363803,0.33883061376639334,0.003112148916192339,1.6464626225394519,10.506733733184658
66,26,9,1.7,0.24,0.05,5,0.04305491581993163,0.3254691097825391,0.004221976742468189,1.5193850387665693,8.074575401671702
62,26,12,1.7,0.25,0.1,5,0.05285342284162991,0.33689361388185735,0.006826539876017573,1.3623434123098659,7.139140242623693
56,25,19,1.7,0.29,0.12,5,0.06399895936797423,0.3451559569454963,0.0043092511098537095,1.3849177011269531,4.1279369623973885
55,20,25,1.7,0.37,0.15,5,0.08523440915274476,0.3635235523759826,0.0015151493491261812,1.5043957976884084,1.6460185259757298
53,20,27,1.7,0.42,0.17,5,0.10059798769198297,0.3758373161337659,0.0007896885953466137,1.6114055563049638,0.948879736621363
53,20,27,1.7,0.42,0.17,5,0.10059798769198297,0.3758373161337659,0.0007896885953466137,1.6114055563049638,0.948879736621363
