"soil_gp","ID","final_SPC","DISTURB_TYPE"
"Ashton","WTC-112-1",2860,3
"Ashton","WTC-163-1",2860,0
"Ashton","WTC-186-1",2860,1
"Ashton","WTC-216-1",2860,1
"Ashton","WTC-221-1",2860,1
"Ashton","WTC-242-1",2860,1
"Ashton","WTC-28-1",2860,1
"Ashton","WTC-34-1",2860,1
"Ashton","WTC-37-1",2860,1
"Ashton","WTC-38-1",2860,1
"Ashton","WTC-57-1",2860,0
"Ashton","WTC-9040-1",2860,1
"Ashton","WTC-9049-1",2860,1
"Ashton","WTC-9052-1",2860,1
"Brosnan","BBC-6026-1",3064,NA
"Brosnan","CTI-12-1",3050,NA
"Brosnan","CTI-374-1",3050,1
"Brosnan","CTI-6019-1",3050,0
"Brosnan","CTI-87-1",3050,NA
"Brosnan","CTI-9003-1",3050,NA
"Brosnan","ICL-102-1",3050,NA
"Brosnan","ICL-103-1",3050,NA
"Brosnan","ICL-114-1",3050,NA
"Brosnan","ICL-121-1",3050,NA
"Brosnan","ICL-123-1",3050,NA
"Brosnan","ICL-124-1",3050,NA
"Brosnan","ICL-126-1",3050,NA
"Brosnan","ICL-127-1",3050,NA
"Brosnan","ICL-128-1",3050,NA
"Brosnan","ICL-129-1",3050,NA
"Brosnan","ICL-131-1",3050,NA
"Brosnan","ICL-132-1",3050,NA
"Brosnan","ICL-133-1",3050,NA
"Brosnan","ICL-134-1",3050,NA
"Brosnan","ICL-135-1",3050,NA
"Brosnan","ICL-136-1",3050,NA
"Brosnan","ICL-137-1",3050,NA
"Brosnan","ICL-138-1",3050,NA
"Brosnan","ICL-139-1",3050,NA
"Brosnan","ICL-141-1",3050,NA
"Brosnan","ICL-143-1",3050,NA
"Brosnan","ICL-148-1",3050,NA
"Brosnan","ICL-213-1",3050,NA
"Brosnan","ICL-217-1",3050,NA
"Brosnan","ICL-218-1",3050,NA
"Brosnan","ICL-230-1",3050,NA
"Brosnan","ICL-261-1",3050,NA
"Brosnan","ICL-91-1",3050,NA
"Brosnan","ICL-92-1",3050,NA
"Brosnan","MIPS-53-1",3050,NA
"Brosnan","MIPS-54-1",3050,6
"Brosnan","MIPS-55-1",3050,6
"Brosnan","MISNQ-179-1",3050,6
"Brosnan","MISNQ-180-1",3050,6
"Brosnan","MJA-6001-1",3052,NA
"Bulgun","BBC-6027-1",2956,NA
"Bulgun","CTI-172-1",2950,0
"Bulgun","CTI-302-1",2950,5
"Bulgun","CTI-6010-1",2950,0
"Bulgun","ICL-194-1",2950,NA
"Bulgun","ICL-256-1",2950,NA
"Bulgun","ICL-343-1",2950,NA
"Bulgun","ICL-352-1",2950,NA
"Bulgun","ICL-412-1",2950,NA
"Bulgun","ICL-415-1",2950,NA
"Bulgun","ICL-427-1",2950,NA
"Bulgun","ICL-547-1",2950,NA
"Bulgun","ICL-579-1",2950,NA
"Bulgun","ICL-591-1",2950,NA
"Bulgun","ICL-592-1",2950,NA
"Bulgun","ICL-594-1",2950,NA
"Bulgun","ICL-596-1",2950,NA
"Bulgun","ICL-600-1",2950,NA
"Bulgun","ICL-606-1",2950,NA
"Bulgun","ICL-610-1",2950,NA
"Bulgun","ICL-611-1",2950,NA
"Bulgun","ICL-618-1",2950,NA
"Bulgun","ICL-660-1",2950,NA
"Bulgun","ICL-667-1",2950,NA
"Bulgun","ICL-67-1",2950,NA
"Bulgun","ICL-672-1",2950,NA
"Bulgun","ICL-714-1",2950,NA
"Bulgun","ICL-774-1",2950,NA
"Bulgun","ICL-778-1",2950,NA
"Bulgun","ICL-869-1",2950,NA
"Bulgun","ICL-870-1",2950,NA
"Bulgun","ICL-915-1",2950,NA
"Bulgun","ICL-917-1",2950,NA
"Bulgun","ICL-918-1",2950,NA
"Bulgun","ICL-921-1",2950,NA
"Bulgun","MIPS-47-1",2950,7
"Bulgun","MISNQ-126-1",2950,6
"Bulgun","MISNQ-165-1",2950,6
"Bulgun","MISNQ-197-1",2950,6
"Bulgun","P2REEF-112-1",2950,6
"Bulgun","P2REEF-112-2",2950,6
"Bulgun","P2REEF-71-1",2950,7
"Bulgun","P2REEF-72-1",2950,7
"Bulgun","P2REEF-74-1",2950,6
"Bulgun","P2REEF-75-1",2950,6
"Bulgun","P2REEF-76-1",2950,6
"Bulgun","P2REEF-77-1",2950,6
"Bulgun","P2REEF-78-1",2950,6
"Bulgun","P2REEF-79-1",2950,6
"Bulgun","P2REEF-80-1",2950,6
"Bulgun","P2REEF-81-1",2950,6
"Bulgun","P2REEF-82-1",2950,6
"Bulgun","P2REEF-83-1",2950,6
"Bulgun","P2REEF-84-1",2950,6
"Bulgun","RUSS-1-1",2950,6
"Bulgun","RUSS-117-1",2950,6
"Bulgun","RUSS-124-1",2950,NA
"Bulgun","RUSS-25-1",2950,6
"Bulgun","RUSS-255-1",2950,NA
"Bulgun","RUSS-256-1",2950,NA
"Bulgun","RUSS-258-1",2950,6
"Bulgun","RUSS-259-1",2950,6
"Bulgun","RUSS-260-1",2950,NA
"Bulgun","RUSS-264-1",2950,NA
"Bulgun","RUSS-265-1",2950,NA
"Bulgun","RUSS-267-1",2950,NA
"Bulgun","RUSS-27-1",2950,6
"Bulgun","RUSS-270-1",2950,NA
"Bulgun","RUSS-271-1",2950,NA
"Bulgun","RUSS-3-1",2950,6
"Bulgun","RUSS-30-1",2950,6
"Bulgun","RUSS-381-1",2950,NA
"Bulgun","RUSS-382-1",2950,NA
"Bulgun","RUSS-54-1",2950,NA
"Bulgun","RUSS-541-1",2950,5
"Bulgun","RUSS-542-1",2950,5
"Bulgun","RUSS-543-1",2950,6
"Bulgun","RUSS-585-1",2950,6
"Bulgun","RUSS-785-1",2950,6
"Bulgun","RUSS-935-1",2950,NA
"Hamleigh","WTC-110-1",3857,1
"Hamleigh","WTC-111-1",3857,1
"Hamleigh","WTC-144-1",3857,1
"Hamleigh","WTC-149-1",3857,6
"Hamleigh","WTC-172-1",3857,1
"Hamleigh","WTC-185-1",3857,5
"Hamleigh","WTC-187-1",3857,1
"Hamleigh","WTC-190-1",3857,1
"Hamleigh","WTC-194-1",3857,6
"Hamleigh","WTC-209-1",3857,1
"Hamleigh","WTC-226-1",3857,1
"Hamleigh","WTC-240-1",3857,1
"Hamleigh","WTC-26-1",3857,1
"Hamleigh","WTC-262-1",3857,1
"Hamleigh","WTC-30-1",3857,1
"Hamleigh","WTC-321-1",3857,1
"Hamleigh","WTC-58-1",3857,1
"Hamleigh","WTC-6018-1",3857,NA
"Hamleigh","WTC-6019-1",3857,6
"Hamleigh","WTC-6028-1",3857,NA
"Hamleigh","WTC-6029-1",3857,6
"Hamleigh","WTC-6038-1",3857,1
"Hamleigh","WTC-6039-1",3857,6
"Hamleigh","WTC-63-1",3857,1
"Hamleigh","WTC-64-1",3857,1
"Hamleigh","WTC-78-1",3857,6
"Hamleigh","WTC-84-1",3857,0
"Hamleigh","WTC-9021-1",3857,1
"Hamleigh","WTC-9042-1",3857,1
"Hamleigh","WTC-9078-1",3857,1
"Hewitt","BBC-6007-1",3845,NA
"Hewitt","CTI-27-1",3840,4
"Hewitt","CTI-6002-1",3840,0
"Hewitt","CTI-7-1",3840,NA
"Hewitt","CTI-73-1",3840,5
"Hewitt","CTI-76-1",3840,NA
"Hewitt","CTI-77-1",3840,NA
"Hewitt","CTI-79-1",3840,NA
"Hewitt","CTI-86-1",3840,NA
"Hewitt","CTI-9-1",3840,NA
"Hewitt","CTI-9013-1",3840,NA
"Hewitt","ICL-144-1",3840,NA
"Hewitt","ICL-210-1",3840,NA
"Hewitt","ICL-211-1",3840,NA
"Hewitt","ICL-271-1",3840,NA
"Hewitt","ICL-301-1",3840,NA
"Hewitt","ICL-315-1",3840,NA
"Hewitt","ICL-398-1",3840,NA
"Hewitt","ICL-627-1",3840,NA
"Hewitt","ICL-629-1",3840,NA
"Hewitt","ICL-675-1",3840,NA
"Hewitt","ICL-684-1",3840,NA
"Hewitt","ICL-74-1",3840,NA
"Hewitt","ICL-84-1",3840,NA
"Hewitt","ICL-86-1",3840,NA
"Hewitt","ICL-880-1",3840,NA
"Hewitt","ICL-881-1",3840,NA
"Hewitt","ICL-89-1",3840,NA
"Hewitt","ICL-90-1",3840,NA
"Hewitt","ICL-902-1",3840,NA
"Hewitt","ICL-922-1",3840,NA
"Hewitt","ICL-924-1",3840,NA
"Hewitt","ICL-928-1",3840,NA
"Hewitt","ICL-933-1",3840,NA
"Hewitt","ICL-95-1",3840,NA
"Hewitt","ICL-950-1",3840,NA
"Hewitt","MIPS-34-1",3840,6
"Hewitt","MIPS-41-1",3840,6
"Hewitt","MISNQ-102-1",3840,6
"Hewitt","MISNQ-170-1",3840,6
"Hewitt","RUSS-100-1",3840,6
"Hewitt","RUSS-103-1",3840,6
"Hewitt","RUSS-111-1",3840,6
"Hewitt","RUSS-112-1",3840,6
"Hewitt","RUSS-115-1",3840,6
"Hewitt","RUSS-116-1",3840,6
"Hewitt","RUSS-14-1",3840,6
"Hewitt","RUSS-141-1",3840,6
"Hewitt","RUSS-152-1",3840,NA
"Hewitt","RUSS-154-1",3840,NA
"Hewitt","RUSS-160-1",3840,6
"Hewitt","RUSS-162-1",3840,6
"Hewitt","RUSS-165-1",3840,NA
"Hewitt","RUSS-166-1",3840,NA
"Hewitt","RUSS-168-1",3840,6
"Hewitt","RUSS-170-1",3840,NA
"Hewitt","RUSS-171-1",3840,NA
"Hewitt","RUSS-173-1",3840,NA
"Hewitt","RUSS-176-1",3840,NA
"Hewitt","RUSS-177-1",3840,NA
"Hewitt","RUSS-18-1",3840,6
"Hewitt","RUSS-183-1",3840,NA
"Hewitt","RUSS-184-1",3840,NA
"Hewitt","RUSS-185-1",3840,NA
"Hewitt","RUSS-188-1",3840,6
"Hewitt","RUSS-223-1",3840,NA
"Hewitt","RUSS-224-1",3840,NA
"Hewitt","RUSS-23-1",3840,6
"Hewitt","RUSS-247-1",3840,NA
"Hewitt","RUSS-248-1",3840,NA
"Hewitt","RUSS-249-1",3840,NA
"Hewitt","RUSS-335-1",3840,6
"Hewitt","RUSS-42-1",3840,6
"Hewitt","RUSS-47-1",3840,6
"Hewitt","RUSS-49-1",3840,6
"Hewitt","RUSS-506-1",3840,6
"Hewitt","RUSS-53-1",3840,NA
"Hewitt","RUSS-545-1",3840,6
"Hewitt","RUSS-553-1",3840,6
"Hewitt","RUSS-574-1",3840,6
"Hewitt","RUSS-58-1",3840,NA
"Hewitt","RUSS-583-1",3840,6
"Hewitt","RUSS-586-1",3840,6
"Hewitt","RUSS-60-1",3840,NA
"Hewitt","RUSS-635-1",3840,6
"Hewitt","RUSS-67-1",3840,NA
"Hewitt","RUSS-7-1",3840,6
"Hewitt","RUSS-736-1",3840,6
"Hewitt","RUSS-77-1",3840,NA
"Hewitt","RUSS-78-1",3840,NA
"Hewitt","RUSS-784-1",3840,6
"Hewitt","RUSS-786-1",3840,NA
"Hewitt","RUSS-787-1",3840,6
"Hewitt","RUSS-788-1",3840,6
"Hewitt","RUSS-797-1",3840,NA
"Hewitt","RUSS-880-1",3840,6
"Hewitt","RUSS-93-1",3840,6
"Hewitt","RUSS-99-1",3840,6
"Innisfail","BBC-6030-1",3940,NA
"Innisfail","CTI-113-1",3934,6
"Innisfail","CTI-114-1",3934,6
"Innisfail","CTI-146-1",3934,7
"Innisfail","CTI-167-1",3934,7
"Innisfail","CTI-171-1",3934,2
"Innisfail","CTI-277-1",3934,5
"Innisfail","CTI-284-1",3934,5
"Innisfail","CTI-289-1",3934,5
"Innisfail","CTI-293-1",3934,5
"Innisfail","CTI-294-1",3934,5
"Innisfail","CTI-318-1",3934,5
"Innisfail","CTI-325-1",3934,5
"Innisfail","CTI-413-1",3934,5
"Innisfail","CTI-6017-1",3934,6
"Innisfail","CTI-9016-1",3934,4
"Innisfail","ICL-10-1",3934,NA
"Innisfail","ICL-12-1",3934,NA
"Innisfail","ICL-160-1",3934,NA
"Innisfail","ICL-161-1",3934,NA
"Innisfail","ICL-163-1",3934,NA
"Innisfail","ICL-173-1",3934,NA
"Innisfail","ICL-21-1",3934,NA
"Innisfail","ICL-22-1",3934,NA
"Innisfail","ICL-23-1",3934,NA
"Innisfail","ICL-25-1",3934,NA
"Innisfail","ICL-28-1",3934,NA
"Innisfail","ICL-30-1",3934,NA
"Innisfail","ICL-393-1",3934,NA
"Innisfail","ICL-395-1",3934,NA
"Innisfail","ICL-441-1",3934,NA
"Innisfail","ICL-49-1",3934,NA
"Innisfail","ICL-50-1",3934,NA
"Innisfail","ICL-51-1",3934,NA
"Innisfail","ICL-59-1",3934,NA
"Innisfail","ICL-64-1",3934,NA
"Innisfail","ICL-65-1",3934,NA
"Innisfail","ICL-66-1",3934,NA
"Innisfail","ICL-75-1",3934,NA
"Innisfail","ICL-79-1",3934,NA
"Innisfail","ICL-81-1",3934,NA
"Innisfail","ICL-93-1",3934,NA
"Innisfail","SJS-12-1",3934,5
"Innisfail","SJS-14-1",3934,7
"Innisfail","SJS-15-1",3934,7
"Innisfail","SJS-16-1",3934,7
"Innisfail","SJS-17-1",3934,7
"Innisfail","SJS-18-1",3934,7
"Innisfail","SJS-19-1",3934,7
"Innisfail","SJS-20-1",3934,7
"Innisfail","SJS-21-1",3934,7
"Innisfail","SJS-22-1",3934,7
"Innisfail","SJS-23-1",3934,NA
"Innisfail","SJS-24-1",3934,NA
"Innisfail","SJS-25-1",3934,NA
"Innisfail","SJS-26-1",3934,NA
"Innisfail","SJS-27-1",3934,NA
"Innisfail","SJS-29-1",3934,NA
"Innisfail","SJS-9002-1",3934,NA
"Lugger","BBC-6034-1",4198,NA
"Lugger","CTI-238-1",4196,5
"Lugger","CTI-314-1",4196,1
"Lugger","CTI-407-1",4196,5
"Lugger","CTI-60-1",4196,NA
"Lugger","CTI-6027-1",4196,0
"Lugger","CTI-9021-1",4196,NA
"Lugger","P2REEF-24-1",4196,7
"Lugger","P2REEF-25-1",4196,7
"Lugger","WTC-14-1",4199,1
"Lugger","WTC-17-1",4199,0
"Lugger","WTC-217-1",4199,1
"Lugger","WTC-24-1",4199,1
"Lugger","WTC-25-1",4199,1
"Lugger","WTC-27-1",4199,1
"Lugger","WTC-39-1",4199,1
"Lugger","WTC-398-1",4199,0
"Lugger","WTC-41-1",4199,1
"Lugger","WTC-68-1",4199,0
"Lugger","WTC-69-1",4199,4
"Lugger","WTC-7-1",4199,1
"Lugger","WTC-71-1",4199,0
"Lugger","WTC-9004-1",4199,4
"Lugger","WTC-9011-1",4199,0
"Lugger","WTC-9033-1",4199,1
"Lugger","WTC-9050-1",4199,1
"Thorpe","BBC-6019-1",4979,5
"Thorpe","CTI-100-1",4967,NA
"Thorpe","CTI-115-1",4967,4
"Thorpe","CTI-148-1",4967,5
"Thorpe","CTI-184-1",4967,5
"Thorpe","CTI-188-1",4967,3
"Thorpe","CTI-192-1",4967,6
"Thorpe","CTI-206-1",4967,5
"Thorpe","CTI-21-1",4967,0
"Thorpe","CTI-213-1",4967,7
"Thorpe","CTI-228-1",4967,4
"Thorpe","CTI-233-1",4967,5
"Thorpe","CTI-235-1",4967,5
"Thorpe","CTI-236-1",4967,5
"Thorpe","CTI-24-1",4967,0
"Thorpe","CTI-247-1",4967,5
"Thorpe","CTI-248-1",4967,5
"Thorpe","CTI-25-1",4967,1
"Thorpe","CTI-271-1",4967,5
"Thorpe","CTI-272-1",4967,5
"Thorpe","CTI-288-1",4967,5
"Thorpe","CTI-291-1",4967,5
"Thorpe","CTI-296-1",4967,5
"Thorpe","CTI-306-1",4967,5
"Thorpe","CTI-317-1",4967,5
"Thorpe","CTI-327-1",4967,2
"Thorpe","CTI-364-1",4967,1
"Thorpe","CTI-412-1",4967,0
"Thorpe","CTI-6020-1",4967,0
"Thorpe","CTI-64-1",4967,0
"Thorpe","CTI-71-1",4967,NA
"Thorpe","CTI-75-1",4967,0
"Thorpe","CTI-9032-1",4967,0
"Thorpe","CTI-96-1",4967,6
"Thorpe","ICL-497-1",4967,NA
"Thorpe","ICL-503-1",4967,NA
"Thorpe","ICL-505-1",4967,NA
"Thorpe","ICL-507-1",4967,NA
"Thorpe","ICL-508-1",4967,NA
"Thorpe","ICL-509-1",4967,NA
"Thorpe","ICL-510-1",4967,NA
"Thorpe","ICL-511-1",4967,NA
"Thorpe","ICL-512-1",4967,NA
"Thorpe","ICL-514-1",4967,NA
"Thorpe","ICL-517-1",4967,NA
"Thorpe","ICL-538-1",4967,NA
"Thorpe","ICL-576-1",4967,NA
"Thorpe","ICL-577-1",4967,NA
"Thorpe","ICL-677-1",4967,NA
"Thorpe","ICL-679-1",4967,NA
"Thorpe","ICL-683-1",4967,NA
"Thorpe","ICL-686-1",4967,NA
"Thorpe","ICL-688-1",4967,NA
"Thorpe","ICL-692-1",4967,NA
"Thorpe","ICL-698-1",4967,NA
"Thorpe","ICL-704-1",4967,NA
"Thorpe","ICL-727-1",4967,NA
"Thorpe","ICL-728-1",4967,NA
"Thorpe","ICL-764-1",4967,NA
"Thorpe","ICL-765-1",4967,NA
"Thorpe","ICL-767-1",4967,NA
"Thorpe","ICL-768-1",4967,NA
"Thorpe","ICL-771-1",4967,NA
"Thorpe","ICL-772-1",4967,NA
"Thorpe","ICL-773-1",4967,NA
"Thorpe","ICL-782-1",4967,NA
"Thorpe","ICL-793-1",4967,NA
"Thorpe","ICL-814-1",4967,NA
"Thorpe","ICL-815-1",4967,NA
"Thorpe","ICL-818-1",4967,NA
"Thorpe","ICL-821-1",4967,NA
"Thorpe","ICL-850-1",4967,NA
"Thorpe","ICL-882-1",4967,NA
"Thorpe","ICL-888-1",4967,NA
"Thorpe","ICL-894-1",4967,NA
"Thorpe","ICL-895-1",4967,NA
"Thorpe","ICL-897-1",4967,NA
"Thorpe","ICL-903-1",4967,NA
"Thorpe","ICL-904-1",4967,NA
"Thorpe","MISNQ-167-1",4979,6
"Thorpe","MISNQ-43-1",4979,2
"Thorpe","MISNQ-44-1",4979,4
"Thorpe","RUSS-196-1",4979,NA
"Thorpe","RUSS-199-1",4979,NA
"Thorpe","RUSS-201-1",4979,NA
"Thorpe","RUSS-203-1",4979,NA
"Thorpe","RUSS-214-1",4979,NA
"Thorpe","RUSS-217-1",4979,NA
"Thorpe","RUSS-218-1",4979,NA
"Thorpe","RUSS-219-1",4979,NA
"Thorpe","RUSS-220-1",4979,NA
"Thorpe","RUSS-221-1",4979,NA
"Thorpe","RUSS-222-1",4979,NA
"Thorpe","RUSS-35-1",4979,6
"Thorpe","RUSS-36-1",4979,6
"Thorpe","RUSS-474-1",4979,6
"Thorpe","RUSS-477-1",4979,6
"Thorpe","RUSS-647-1",4979,6
"Thorpe","RUSS-722-1",4979,6
"Thorpe","RUSS-733-1",4979,NA
"Thorpe","RUSS-734-1",4979,6
"Thorpe","RUSS-739-1",4979,NA
"Thorpe","RUSS-740-1",4979,6
"Thorpe","RUSS-744-1",4979,NA
"Thorpe","RUSS-776-1",4979,6
"Thorpe","RUSS-83-1",4979,NA
"Thorpe","WTC-329-1",4980,1
"Thorpe","WTC-330-1",4980,1
"Thorpe","WTC-385-1",4980,1
"Thorpe","WTC-388-1",4980,1
"Thorpe","WTC-389-1",4980,1
"Thorpe","WTC-9086-1",4980,1
"Tolga","MDIA-1223-1",5032,7
"Tolga","MDIA-425-1",5032,7
"Tolga","MDIA-426-1",5032,7
"Tolga","MDIA-584-1",5032,4
"Tolga","MDIA-593-1",5032,5
"Tolga","MDIA-597-1",5032,7
"Tolga","MDIA-891-1",5032,1
"Tolga","MDIA-893-1",5032,7
"Tolga","MDIA-894-1",5032,3
"Tolga","MDIAX-106-1",5032,7
"Tolga","MDIAX-107-1",5032,7
"Tolga","MDIAX-108-1",5032,7
"Tolga","MDIAX-109-1",5032,7
"Tolga","MDIAX-110-1",5032,7
"Tolga","MDIAX-111-1",5032,7
"Tolga","MDIAX-112-1",5032,7
"Tolga","TAB-1046-1",5031,5
"Tolga","TAB-1047-1",5031,5
"Tolga","TAB-1048-1",5031,5
"Tolga","TAB-1049-1",5031,5
"Tolga","TAB-1054-1",5031,5
"Tolga","TAB-1066-1",5031,5
"Tolga","TAB-1067-1",5031,5
"Tolga","TAB-1070-1",5031,NA
"Tolga","TAB-1086-1",5031,5
"Tolga","TAB-1115-1",5031,5
"Tolga","TAB-1130-1",5031,5
"Tolga","TAB-1431-1",5031,4
"Tolga","TAB-1432-1",5031,NA
"Tolga","TAB-1737-1",5031,NA
"Tolga","TAB-1738-1",5031,5
"Tolga","TAB-1739-1",5031,2
"Tolga","TAB-1887-1",5031,NA
"Tolga","TAB-1888-1",5031,NA
"Tolga","TAB-1889-1",5031,NA
"Tolga","TAB-1892-1",5031,NA
"Tolga","TAB-1893-1",5031,NA
"Tolga","TAB-1894-1",5031,NA
"Tolga","TAB-1895-1",5031,NA
"Tolga","TAB-1896-1",5031,NA
"Tolga","TAB-1897-1",5031,NA
"Tolga","TAB-1898-1",5031,NA
"Tolga","TAB-1899-1",5031,NA
"Tolga","TAB-1900-1",5031,NA
"Tolga","TAB-1901-1",5031,NA
"Tolga","TAB-1902-1",5031,NA
"Tolga","TAB-1903-1",5031,NA
"Tolga","TAB-1904-1",5031,NA
"Tolga","TAB-1905-1",5031,NA
"Tolga","TAB-1906-1",5031,NA
"Tolga","TAB-1907-1",5031,NA
"Tolga","TAB-1908-1",5031,NA
"Tolga","TAB-1909-1",5031,NA
"Tolga","TAB-1910-1",5031,NA
"Tolga","TAB-1911-1",5031,NA
"Tolga","TAB-1912-1",5031,NA
"Tolga","TAB-1913-1",5031,NA
"Tolga","TAB-1914-1",5031,NA
"Tolga","TAB-1915-1",5031,NA
"Tolga","TAB-1916-1",5031,NA
"Tolga","TAB-1917-1",5031,NA
"Tolga","TAB-1918-1",5031,NA
"Tolga","TAB-1919-1",5031,NA
"Tolga","TAB-1920-1",5031,NA
"Tolga","TAB-1921-1",5031,NA
"Tolga","TAB-1922-1",5031,NA
"Tolga","TAB-1923-1",5031,NA
"Tolga","TAB-1924-1",5031,NA
"Tolga","TAB-1925-1",5031,NA
"Tolga","TAB-1926-1",5031,NA
"Tolga","TAB-1927-1",5031,NA
"Tolga","TAB-1928-1",5031,NA
"Tolga","TAB-1929-1",5031,NA
"Tolga","TAB-1930-1",5031,NA
"Tolga","TAB-1931-1",5031,NA
"Tolga","TAB-1932-1",5031,NA
"Tolga","TAB-1933-1",5031,NA
"Tolga","TAB-1934-1",5031,NA
"Tolga","TAB-1935-1",5031,NA
"Tolga","TAB-1936-1",5031,NA
"Tolga","TAB-1937-1",5031,NA
"Tolga","TAB-1938-1",5031,NA
"Tolga","TAB-1939-1",5031,NA
"Tolga","TAB-1940-1",5031,NA
"Tolga","TAB-1941-1",5031,NA
"Tolga","TAB-1942-1",5031,NA
"Tolga","TAB-1943-1",5031,NA
"Tolga","TAB-1944-1",5031,NA
"Tolga","TAB-1945-1",5031,NA
"Tolga","TAB-1946-1",5031,NA
"Tolga","TAB-1947-1",5031,NA
"Tolga","TAB-1948-1",5031,NA
"Tolga","TAB-1949-1",5031,NA
"Tolga","TAB-1950-1",5031,NA
"Tolga","TAB-1951-1",5031,NA
"Tolga","TAB-1952-1",5031,NA
"Tolga","TAB-1953-1",5031,NA
"Tolga","TAB-1954-1",5031,NA
"Tolga","TAB-1955-1",5031,NA
"Tolga","TAB-1956-1",5031,NA
"Tolga","TAB-1957-1",5031,NA
"Tolga","TAB-1958-1",5031,NA
"Tolga","TAB-1959-1",5031,NA
"Tolga","TAB-1960-1",5031,NA
"Tolga","TAB-1961-1",5031,NA
"Tolga","TAB-1962-1",5031,NA
"Tolga","TAB-1963-1",5031,NA
"Tolga","TAB-1964-1",5031,NA
"Tolga","TAB-1965-1",5031,NA
"Tolga","TAB-1967-1",5031,NA
"Tolga","TAB-1968-1",5031,NA
"Tolga","TAB-1969-1",5031,NA
"Tolga","TAB-1970-1",5031,NA
"Tolga","TAB-1971-1",5031,NA
"Tolga","TAB-1972-1",5031,NA
"Tolga","TAB-1973-1",5031,NA
"Tolga","TAB-1974-1",5031,NA
"Tolga","TAB-1975-1",5031,NA
"Tolga","TAB-1976-1",5031,NA
"Tolga","TAB-1977-1",5031,NA
"Tolga","TAB-1978-1",5031,NA
"Tolga","TAB-1979-1",5031,NA
"Tolga","TAB-1980-1",5031,NA
"Tolga","TAB-1981-1",5031,NA
"Tolga","TAB-1982-1",5031,NA
"Tolga","TAB-1983-1",5031,NA
"Tolga","TAB-1984-1",5031,NA
"Tolga","TAB-1985-1",5031,NA
"Tolga","TAB-1986-1",5031,NA
"Tolga","TAB-2464-1",5031,2
"Tolga","TAB-2466-1",5031,6
"Tolga","TAB-2475-1",5031,2
"Tolga","TAB-2476-1",5031,4
"Tolga","TAB-2486-1",5031,5
"Tolga","TAB-2487-1",5031,2
"Tolga","TAB-2488-1",5031,5
"Tolga","TAB-401-1",5031,3
"Tolga","TAB-403-1",5031,7
"Tolga","TAB-404-1",5031,7
"Tolga","TAB-405-1",5031,7
"Tolga","TAB-406-1",5031,7
"Tolga","TAB-407-1",5031,7
"Tolga","TAB-408-1",5031,7
"Tolga","TAB-409-1",5031,7
"Tolga","TAB-410-1",5031,7
"Tolga","TAB-411-1",5031,7
"Tolga","TAB-412-1",5031,7
"Tolga","TAB-413-1",5031,7
"Tolga","TAB-414-1",5031,7
"Tolga","TAB-415-1",5031,7
"Tolga","TAB-416-1",5031,7
"Tolga","TAB-418-1",5031,4
"Tolga","TAB-419-1",5031,4
"Tolga","TAB-420-1",5031,4
"Tolga","TAB-421-1",5031,4
"Tolga","TAB-422-1",5031,7
"Tolga","TAB-423-1",5031,4
"Tolga","TAB-443-1",5031,7
"Tolga","TAB-585-1",5031,7
"Tolga","TAB-587-1",5031,7
"Tolga","TAB-588-1",5031,7
"Tolga","TAB-589-1",5031,7
"Tolga","TAB-590-1",5031,7
"Tolga","TAB-592-1",5031,2
"Tolga","TAB-593-1",5031,7
"Tolga","TAB-594-1",5031,7
"Tolga","TAB-595-1",5031,7
"Tolga","TAB-599-1",5031,NA
"Tolga","TAB-600-1",5031,7
"Tolga","TAB-602-1",5031,4
"Tolga","TAB-603-1",5031,4
"Tolga","TAB-605-1",5031,4
"Tolga","TAB-606-1",5031,7
"Tolga","TAB-607-1",5031,7
"Tolga","TAB-608-1",5031,7
"Tolga","TAB-609-1",5031,7
"Tolga","TAB-610-1",5031,7
"Tolga","TAB-611-1",5031,NA
"Tolga","TAB-612-1",5031,7
"Tolga","TAB-613-1",5031,7
"Tolga","TAB-614-1",5031,7
"Tolga","TAB-616-1",5031,7
"Tolga","TAB-618-1",5031,7
"Tolga","TAB-619-1",5031,7
"Tolga","TAB-620-1",5031,7
"Tolga","TAB-621-1",5031,7
"Tolga","TAB-622-1",5031,7
"Tolga","TAB-623-1",5031,7
"Tolga","TAB-624-1",5031,7
"Tolga","TAB-625-1",5031,7
"Tolga","TAB-626-1",5031,7
"Tolga","TAB-627-1",5031,7
"Tolga","TAB-628-1",5031,7
"Tolga","TAB-629-1",5031,7
"Tolga","TAB-630-1",5031,7
"Tolga","TAB-631-1",5031,NA
"Tolga","TAB-632-1",5031,2
"Tolga","TAB-633-1",5031,7
"Tolga","TAB-634-1",5031,7
"Tolga","TAB-635-1",5031,NA
"Tolga","TAB-636-1",5031,7
"Tolga","TAB-637-1",5031,NA
"Tolga","TAB-638-1",5031,7
"Tolga","TAB-639-1",5031,7
"Tolga","TAB-640-1",5031,7
"Tolga","TAB-641-1",5031,7
"Tolga","TAB-642-1",5031,7
"Tolga","TAB-643-1",5031,7
"Tolga","TAB-644-1",5031,NA
"Tolga","TAB-645-1",5031,7
"Tolga","TAB-646-1",5031,7
"Tolga","TAB-647-1",5031,4
"Tolga","TAB-648-1",5031,7
"Tolga","TAB-649-1",5031,7
"Tolga","TAB-650-1",5031,7
"Tolga","TAB-651-1",5031,5
"Tolga","TAB-652-1",5031,5
"Tolga","TAB-653-1",5031,7
"Tolga","TAB-654-1",5031,5
"Tolga","TAB-656-1",5031,7
"Tolga","TAB-657-1",5031,5
"Tolga","TAB-658-1",5031,7
"Tolga","TAB-659-1",5031,5
"Tolga","TAB-661-1",5031,5
"Tolga","TAB-662-1",5031,5
"Tolga","TAB-663-1",5031,7
"Tolga","TAB-664-1",5031,5
"Tolga","TAB-665-1",5031,5
"Tolga","TAB-667-1",5031,NA
"Tolga","TAB-668-1",5031,7
"Tolga","TAB-669-1",5031,5
"Tolga","TAB-670-1",5031,7
"Tolga","TAB-671-1",5031,5
"Tolga","TAB-673-1",5031,7
"Tolga","TAB-678-1",5031,7
"Tolga","TAB-679-1",5031,7
"Tolga","TAB-680-1",5031,5
"Tolga","TAB-681-1",5031,7
"Tolga","TAB-682-1",5031,7
"Tolga","TAB-683-1",5031,7
"Tolga","TAB-684-1",5031,7
"Tolga","TAB-685-1",5031,5
"Tolga","TAB-686-1",5031,7
"Tolga","TAB-687-1",5031,5
"Tolga","TAB-688-1",5031,5
"Tolga","TAB-689-1",5031,5
"Tolga","TAB-690-1",5031,7
"Tolga","TAB-691-1",5031,7
"Tolga","TAB-692-1",5031,7
"Tolga","TAB-693-1",5031,5
"Tolga","TAB-694-1",5031,NA
"Tolga","TAB-695-1",5031,NA
"Tolga","TAB-698-1",5031,5
"Tolga","TAB-700-1",5031,5
"Tolga","TAB-701-1",5031,5
"Tolga","TAB-702-1",5031,5
"Tolga","TAB-703-1",5031,5
"Tolga","TAB-704-1",5031,5
"Tolga","TAB-705-1",5031,5
"Tolga","TAB-706-1",5031,5
"Tolga","TAB-707-1",5031,5
"Tolga","TAB-708-1",5031,NA
"Tolga","TAB-709-1",5031,5
"Tolga","TAB-710-1",5031,5
"Tolga","TAB-712-1",5031,5
"Tolga","TAB-713-1",5031,5
"Tolga","TAB-714-1",5031,5
"Tolga","TAB-715-1",5031,5
"Tolga","TAB-717-1",5031,5
"Tolga","TAB-720-1",5031,5
"Tolga","TAB-721-1",5031,5
"Tolga","TAB-722-1",5031,5
"Tolga","TAB-723-1",5031,5
"Tolga","TAB-724-1",5031,5
"Tolga","TAB-725-1",5031,NA
"Tolga","TAB-726-1",5031,5
"Tolga","TAB-728-1",5031,7
"Tolga","TAB-729-1",5031,7
"Tolga","TAB-730-1",5031,2
"Tolga","TAB-742-1",5031,7
"Tolga","TAB-743-1",5031,7
"Tolga","TAB-746-1",5031,5
"Tolga","TAB-747-1",5031,7
"Tolga","TAB-748-1",5031,5
"Tolga","TAB-749-1",5031,7
"Tolga","TAB-750-1",5031,7
"Tolga","TAB-751-1",5031,5
"Tolga","TAB-752-1",5031,7
"Tolga","TAB-753-1",5031,5
"Tolga","TAB-754-1",5031,7
"Tolga","TAB-755-1",5031,7
"Tolga","TAB-756-1",5031,7
"Tolga","TAB-757-1",5031,5
"Tolga","TAB-758-1",5031,5
"Tolga","TAB-759-1",5031,7
"Tolga","TAB-760-1",5031,7
"Tolga","TAB-762-1",5031,5
"Tolga","TAB-766-1",5031,5
"Tolga","TAB-770-1",5031,7
"Tolga","TAB-771-1",5031,NA
"Tolga","TAB-773-1",5031,5
"Tolga","TAB-774-1",5031,NA
"Tolga","TAB-775-1",5031,5
"Tolga","TAB-776-1",5031,5
"Tolga","TAB-778-1",5031,5
"Tolga","TAB-779-1",5031,5
"Tolga","TAB-780-1",5031,5
"Tolga","TAB-781-1",5031,5
"Tolga","TAB-782-1",5031,5
"Tolga","TAB-783-1",5031,5
"Tolga","TAB-785-1",5031,5
"Tolga","TAB-786-1",5031,NA
"Tolga","TAB-787-1",5031,5
"Tolga","TAB-788-1",5031,7
"Tolga","TAB-789-1",5031,7
"Tolga","TAB-791-1",5031,2
"Tolga","TAB-792-1",5031,5
"Tolga","TAB-793-1",5031,5
"Tolga","TAB-794-1",5031,5
"Tolga","TAB-795-1",5031,NA
"Tolga","TAB-797-1",5031,5
"Tolga","TAB-798-1",5031,7
"Tolga","TAB-799-1",5031,5
"Tolga","TAB-800-1",5031,7
"Tolga","TAB-801-1",5031,7
"Tolga","TAB-802-1",5031,7
"Tolga","TAB-803-1",5031,7
"Tolga","TAB-804-1",5031,5
"Tolga","TAB-805-1",5031,7
"Tolga","TAB-806-1",5031,7
"Tolga","TAB-807-1",5031,5
"Tolga","TAB-857-1",5031,4
"Tolga","TAB-864-1",5031,2
"Tolga","TAB-865-1",5031,NA
"Tolga","TAB-866-1",5031,5
"Tolga","TAB-868-1",5031,5
"Tolga","TAB-889-1",5031,5
"Tolga","TAB-937-1",5031,NA
"Tolga","TAB-999-1",5031,5
"Toobanna","P2REEF-42-1",4934,6
"Toobanna","P2REEF-43-1",4934,6
"Toobanna","P2REEF-47-1",4934,6
"Toobanna","WTC-136-1",4934,4
"Toobanna","WTC-146-1",4934,6
"Toobanna","WTC-148-1",4934,6
"Toobanna","WTC-153-1",4934,0
"Toobanna","WTC-173-1",4934,1
"Toobanna","WTC-175-1",4934,6
"Toobanna","WTC-202-1",4934,0
"Toobanna","WTC-210-1",4934,0
"Toobanna","WTC-220-1",4934,0
"Toobanna","WTC-253-1",4934,0
"Toobanna","WTC-254-1",4934,5
"Toobanna","WTC-267-1",4934,6
"Toobanna","WTC-268-1",4934,1
"Toobanna","WTC-343-1",4934,0
"Toobanna","WTC-49-1",4934,0
"Toobanna","WTC-6026-1",4934,NA
"Toobanna","WTC-6027-1",4934,6
"Toobanna","WTC-6032-1",4934,NA
"Toobanna","WTC-6033-1",4934,6
"Toobanna","WTC-6040-1",4934,NA
"Toobanna","WTC-6041-1",4934,6
"Toobanna","WTC-65-1",4934,0
"Toobanna","WTC-73-1",4934,6
"Toobanna","WTC-74-1",4934,0
"Toobanna","WTC-76-1",4934,0
"Toobanna","WTC-9006-1",4934,0
"Toobanna","WTC-9064-1",4934,0
"Toobanna","WTC-9065-1",4934,5
"Tully","BBC-6040-1",5132,NA
"Tully","CTI-10-1",5128,NA
"Tully","CTI-147-1",5128,5
"Tully","CTI-149-1",5128,7
"Tully","CTI-151-1",5128,0
"Tully","CTI-164-1",5128,7
"Tully","CTI-166-1",5128,2
"Tully","CTI-168-1",5128,7
"Tully","CTI-17-1",5128,7
"Tully","CTI-18-1",5128,7
"Tully","CTI-189-1",5128,7
"Tully","CTI-190-1",5128,2
"Tully","CTI-201-1",5128,7
"Tully","CTI-223-1",5128,4
"Tully","CTI-226-1",5128,4
"Tully","CTI-227-1",5128,4
"Tully","CTI-237-1",5128,5
"Tully","CTI-268-1",5128,5
"Tully","CTI-279-1",5128,5
"Tully","CTI-298-1",5128,7
"Tully","CTI-376-1",5128,NA
"Tully","CTI-6006-1",5128,0
"Tully","CTI-9034-1",5128,0
"Tully","ICL-150-1",5128,NA
"Tully","ICL-179-1",5128,NA
"Tully","ICL-224-1",5128,NA
"Tully","ICL-225-1",5128,NA
"Tully","ICL-235-1",5128,NA
"Tully","ICL-236-1",5128,NA
"Tully","ICL-238-1",5128,NA
"Tully","ICL-242-1",5128,NA
"Tully","ICL-251-1",5128,NA
"Tully","ICL-252-1",5128,NA
"Tully","ICL-253-1",5128,NA
"Tully","ICL-255-1",5128,NA
"Tully","ICL-257-1",5128,NA
"Tully","ICL-266-1",5128,NA
"Tully","ICL-277-1",5128,NA
"Tully","ICL-278-1",5128,NA
"Tully","ICL-280-1",5128,NA
"Tully","ICL-281-1",5128,NA
"Tully","ICL-282-1",5128,NA
"Tully","ICL-284-1",5128,NA
"Tully","ICL-285-1",5128,NA
"Tully","ICL-286-1",5128,NA
"Tully","ICL-287-1",5128,NA
"Tully","ICL-288-1",5128,NA
"Tully","ICL-290-1",5128,NA
"Tully","ICL-291-1",5128,NA
"Tully","ICL-292-1",5128,NA
"Tully","ICL-293-1",5128,NA
"Tully","ICL-299-1",5128,NA
"Tully","ICL-300-1",5128,NA
"Tully","ICL-303-1",5128,NA
"Tully","ICL-305-1",5128,NA
"Tully","ICL-311-1",5128,NA
"Tully","ICL-316-1",5128,NA
"Tully","ICL-321-1",5128,NA
"Tully","ICL-330-1",5128,NA
"Tully","ICL-334-1",5128,NA
"Tully","ICL-337-1",5128,NA
"Tully","ICL-338-1",5128,NA
"Tully","ICL-339-1",5128,NA
"Tully","ICL-340-1",5128,NA
"Tully","ICL-341-1",5128,NA
"Tully","ICL-349-1",5128,NA
"Tully","ICL-350-1",5128,NA
"Tully","ICL-351-1",5128,NA
"Tully","ICL-354-1",5128,NA
"Tully","ICL-355-1",5128,NA
"Tully","ICL-358-1",5128,NA
"Tully","ICL-359-1",5128,NA
"Tully","ICL-362-1",5128,NA
"Tully","ICL-368-1",5128,NA
"Tully","ICL-372-1",5128,NA
"Tully","ICL-376-1",5128,NA
"Tully","ICL-377-1",5128,NA
"Tully","ICL-379-1",5128,NA
"Tully","ICL-384-1",5128,NA
"Tully","ICL-385-1",5128,NA
"Tully","ICL-386-1",5128,NA
"Tully","ICL-389-1",5128,NA
"Tully","ICL-396-1",5128,NA
"Tully","ICL-397-1",5128,NA
"Tully","ICL-40-1",5128,NA
"Tully","ICL-404-1",5128,NA
"Tully","ICL-406-1",5128,NA
"Tully","ICL-411-1",5128,NA
"Tully","ICL-426-1",5128,NA
"Tully","ICL-433-1",5128,NA
"Tully","ICL-434-1",5128,NA
"Tully","ICL-437-1",5128,NA
"Tully","ICL-438-1",5128,NA
"Tully","ICL-439-1",5128,NA
"Tully","ICL-448-1",5128,NA
"Tully","ICL-449-1",5128,NA
"Tully","ICL-461-1",5128,NA
"Tully","ICL-464-1",5128,NA
"Tully","ICL-468-1",5128,NA
"Tully","ICL-469-1",5128,NA
"Tully","ICL-472-1",5128,NA
"Tully","ICL-499-1",5128,NA
"Tully","ICL-513-1",5128,NA
"Tully","ICL-516-1",5128,NA
"Tully","ICL-518-1",5128,NA
"Tully","ICL-519-1",5128,NA
"Tully","ICL-520-1",5128,NA
"Tully","ICL-521-1",5128,NA
"Tully","ICL-523-1",5128,NA
"Tully","ICL-524-1",5128,NA
"Tully","ICL-525-1",5128,NA
"Tully","ICL-534-1",5128,NA
"Tully","ICL-535-1",5128,NA
"Tully","ICL-536-1",5128,NA
"Tully","ICL-54-1",5128,NA
"Tully","ICL-544-1",5128,NA
"Tully","ICL-545-1",5128,NA
"Tully","ICL-549-1",5128,NA
"Tully","ICL-554-1",5128,NA
"Tully","ICL-567-1",5128,NA
"Tully","ICL-580-1",5128,NA
"Tully","ICL-584-1",5128,NA
"Tully","ICL-585-1",5128,NA
"Tully","ICL-586-1",5128,NA
"Tully","ICL-587-1",5128,NA
"Tully","ICL-589-1",5128,NA
"Tully","ICL-603-1",5128,NA
"Tully","ICL-613-1",5128,NA
"Tully","ICL-614-1",5128,NA
"Tully","ICL-616-1",5128,NA
"Tully","ICL-631-1",5128,NA
"Tully","ICL-633-1",5128,NA
"Tully","ICL-635-1",5128,NA
"Tully","ICL-643-1",5128,NA
"Tully","ICL-644-1",5128,NA
"Tully","ICL-653-1",5128,NA
"Tully","ICL-657-1",5128,NA
"Tully","ICL-664-1",5128,NA
"Tully","ICL-678-1",5128,NA
"Tully","ICL-69-1",5128,NA
"Tully","ICL-694-1",5128,NA
"Tully","ICL-70-1",5128,NA
"Tully","ICL-705-1",5128,NA
"Tully","ICL-706-1",5128,NA
"Tully","ICL-708-1",5128,NA
"Tully","ICL-709-1",5128,NA
"Tully","ICL-71-1",5128,NA
"Tully","ICL-712-1",5128,NA
"Tully","ICL-716-1",5128,NA
"Tully","ICL-721-1",5128,NA
"Tully","ICL-722-1",5128,NA
"Tully","ICL-725-1",5128,NA
"Tully","ICL-735-1",5128,NA
"Tully","ICL-738-1",5128,NA
"Tully","ICL-739-1",5128,NA
"Tully","ICL-740-1",5128,NA
"Tully","ICL-742-1",5128,NA
"Tully","ICL-744-1",5128,NA
"Tully","ICL-76-1",5128,NA
"Tully","ICL-763-1",5128,NA
"Tully","ICL-775-1",5128,NA
"Tully","ICL-776-1",5128,NA
"Tully","ICL-779-1",5128,NA
"Tully","ICL-788-1",5128,NA
"Tully","ICL-796-1",5128,NA
"Tully","ICL-800-1",5128,NA
"Tully","ICL-801-1",5128,NA
"Tully","ICL-813-1",5128,NA
"Tully","ICL-822-1",5128,NA
"Tully","ICL-823-1",5128,NA
"Tully","ICL-835-1",5128,NA
"Tully","ICL-857-1",5128,NA
"Tully","ICL-861-1",5128,NA
"Tully","ICL-862-1",5128,NA
"Tully","ICL-867-1",5128,NA
"Tully","ICL-868-1",5128,NA
"Tully","ICL-874-1",5128,NA
"Tully","ICL-886-1",5128,NA
"Tully","ICL-891-1",5128,NA
"Tully","ICL-896-1",5128,NA
"Tully","ICL-908-1",5128,NA
"Tully","ICL-911-1",5128,NA
"Tully","ICL-912-1",5128,NA
"Tully","ICL-913-1",5128,NA
"Tully","ICL-916-1",5128,NA
"Tully","ICL-923-1",5128,NA
"Tully","ICL-930-1",5128,NA
"Tully","ICL-931-1",5128,NA
"Tully","ICL-932-1",5128,NA
"Tully","ICL-937-1",5128,NA
"Tully","ICL-939-1",5128,NA
"Tully","ICL-942-1",5128,NA
"Tully","ICL-943-1",5128,NA
"Tully","ICL-948-1",5128,NA
"Tully","MIPS-24-1",5128,6
"Tully","MIPS-25-1",5128,6
"Tully","MISNQ-117-1",5132,6
"Tully","MISNQ-162-1",5132,6
"Tully","MISNQ-221-1",5132,6
"Tully","MISNQ-42-1",5132,4
"Tully","MJA-134-1",5130,NA
"Tully","MJA-135-1",5130,NA
"Tully","MJA-143-1",5130,NA
"Tully","MJA-146-1",5130,NA
"Tully","MJA-149-1",5130,NA
"Tully","MJA-161-1",5130,NA
"Tully","MJA-165-1",5130,NA
"Tully","MJA-167-1",5130,NA
"Tully","MJA-170-1",5130,NA
"Tully","MJA-176-1",5130,NA
"Tully","MJA-180-1",5130,NA
"Tully","MJA-183-1",5130,NA
"Tully","MJA-187-1",5130,NA
"Tully","MJA-45-1",5130,NA
"Tully","MJA-6022-1",5130,NA
"Tully","MJA-67-1",5130,NA
"Tully","P2REEF-111-1",5128,6
"Tully","P2REEF-111-2",5128,6
"Tully","SJS-11-1",5128,5
"Tully","SJS-13-1",5128,5
"Tully","SJS-6-1",5128,5
