soil_gp,UD,LD,midPnt_cm,Total_prof,PAWCER_BD,BDfield,ADMC_vv,m15bar_vv,m3rdbar_vv,PAWCER_DLL,PAWCER_DUL,SAT,TP,EP,TOC,pHw,Sand_perc,Csand_perc,Fsand_perc,Silt_perc,Clay_perc,Total,Csandr,Fsandr,Sandr,Siltr,Clayr,P50_2000,P2_50,P2,Ptotal,P50_2000r,P2_50r,P2r,EC,Chloride,PAWCER_PAWC_mm,BDbest,textureClass_AUST,textureClassFull_AUST,NorthcoteID,Ks_rule_mmday,Ks_Shaw_mmday,Ks_PCRbest_mmday,Ks_MinG_mmday,Ks_MinT_mmday,PCR_code,MinG_code,MinT_code,macro_ab,macro_dia,SWCON,ESP,ESPlower,perm_final,Ks_final,Ks_source
2Dya,0,10,5,9,1.44,NA,0.04,0.16,0.37,0.17,0.36,0.42,0.46,0.1,1.02,6.4,49,14,32,22,33,104,13,31,47,21,32,29,42,33,104,28,40,32,0.09,164,19,1.44,ClLo,Clay loam,4,100,NA,365,122,173,mod low,mod low,mod low,NA,NA,0.4,10,8,1,365,PCR best
2Dya,10,30,20,9,1.4,NA,0.05,0.23,0.44,0.22,0.39,0.45,0.47,0.08,0.84,7.1,30,8,24,20,50,100,8,24,30,20,50,20,34,50,104,19,33,48,0.24,303,34,1.4,Cl,Clay,6,100,NA,53,54,22,low,low,low,NA,NA,0.3,16,13,1,53,PCR best
2Dya,30,50,40,9,1.42,NA,0.06,0.26,0.5,0.26,0.39,0.45,0.46,0.08,0.56,7.9,31,6,23,22,52,105,6,22,30,21,50,20,36,52,108,19,33,48,0.56,669,26,1.42,Cl,Clay,6,100,NA,26,54,22,low,low,low,NA,NA,0.3,21,17,1,26,PCR best
2Dya,50,70,60,9,1.5,NA,0.06,0.26,0.52,0.26,0.35,0.41,0.44,0.08,0.36,8.4,34,6,20,23,48,105,6,19,32,22,46,16,37,48,101,16,37,48,0.77,886,18,1.5,Cl,Clay,6,100,2,11,54,22,low,low,low,NA,NA,0.3,28,22,1,2,Shaw
2Dya,70,90,80,9,1.49,NA,0.06,0.28,0.54,0.28,0.36,0.42,0.44,0.08,0.22,8.6,30,8,21,24,50,104,8,20,29,23,48,13,35,50,98,13,36,51,0.79,985,16,1.49,Cl,Clay,6,1,1,10,54,22,low,low,low,NA,NA,0.3,30,24,1,1,Shaw
2Dya,90,120,105,9,1.5,NA,0.09,0.28,0.54,0.29,0.35,0.42,0.43,0.08,0.15,8.5,29,6,23,23,49,101,6,23,29,23,49,11,35,49,95,12,37,52,0.87,1000,18,1.5,Cl,Clay,6,1,2,9,54,22,low,low,low,NA,NA,0.3,28,22,1,2,Shaw
2Dya,120,150,135,9,1.5,NA,0.09,0.28,0.54,0.29,0.35,0.42,0.43,0.08,0.15,8.5,29,6,23,23,49,101,6,23,29,23,49,11,35,49,95,12,37,52,0.87,1000,18,1.5,Cl,Clay,6,1,2,9,54,22,low,low,low,NA,NA,0.3,28,22,1,2,Shaw
2Dyb,0,10,5,21,1.47,NA,0.03,0.14,0.33,0.16,0.33,0.39,0.44,0.11,1.18,6.2,52,5,45,25,23,100,5,45,52,25,23,30,47,23,100,30,47,23,0.06,45,17,1.47,Lo,Loam,3,100,NA,459,173,237,mod low,mod low,mod low,3,2,0.5,6,5,1,459,PCR best
2Dyb,10,30,20,21,1.42,NA,0.05,0.22,0.43,0.23,0.37,0.43,0.47,0.1,0.98,7.4,37,3,32,23,39,99,3,32,37,23,39,20,38,39,97,21,39,40,0.17,231,28,1.42,Cl,Clay,6,100,NA,51,122,47,low,mod low,low,3,2,0.3,14,11,1,51,PCR best
2Dyb,30,50,40,21,1.43,NA,0.06,0.26,0.48,0.26,0.37,0.43,0.46,0.09,0.65,8.5,30,4,25,21,47,98,4,26,31,21,48,15,34,47,96,16,35,49,0.61,626,22,1.43,Cl,Clay,6,100,NA,28,83,33,low,low,low,3,2,0.3,28,22,1,28,PCR best
2Dyb,50,70,60,21,1.47,NA,0.07,0.27,0.53,0.27,0.36,0.42,0.44,0.09,0.41,8.9,29,5,24,22,47,98,5,24,30,22,48,14,35,47,96,15,36,49,0.96,893,18,1.47,Cl,Clay,6,100,1,13,83,33,low,low,low,3,2,0.3,35,28,1,1,Shaw
2Dyb,70,90,80,21,1.53,NA,0.07,0.26,0.56,0.27,0.34,0.41,0.42,0.09,0.26,8.9,32,3,27,23,47,102,3,26,31,23,46,17,38,47,102,17,37,46,0.81,939,14,1.53,Cl,Clay,6,1,1,8,83,33,low,low,low,3,2,0.3,36,29,1,1,Shaw
2Dyb,90,120,105,21,1.57,NA,0.07,0.26,0.58,0.26,0.32,0.38,0.41,0.09,0.18,9.1,30,4,28,23,48,101,4,28,30,23,48,15,40,48,103,15,39,47,0.87,858,18,1.57,Cl,Clay,6,1,1,6,83,33,low,low,low,3,2,0.3,37,30,1,1,Shaw
2Dyb,120,150,135,21,1.57,NA,0.08,0.26,0.6,0.26,0.31,0.37,0.41,0.1,0.12,9,30,3,29,26,40,96,3,30,31,27,42,13,42,40,95,14,44,42,0.86,778,15,1.57,SiCl,Silty clay,5,1,1,6,122,47,low,mod low,low,3,2,0.3,37,30,1,1,Shaw
2Uge,0,10,5,28,1.35,NA,0.05,0.2,0.38,0.2,0.41,0.46,0.49,0.09,1.28,6.3,36,7,28,22,40,98,7,29,37,22,41,20,38,40,98,20,39,41,0.05,29,21,1.35,Cl,Clay,6,100,NA,114,83,33,mod low,low,low,3,2,0.3,5,4,1,114,PCR best
2Uge,10,30,20,28,1.37,NA,0.06,0.24,0.43,0.23,0.4,0.46,0.48,0.08,1.07,6.9,30,4,22,20,52,102,4,22,29,20,51,16,33,52,101,16,33,51,0.07,47,34,1.37,Cl,Clay,6,100,NA,72,54,22,low,low,low,3,2,0.3,8,6,1,72,PCR best
2Uge,30,50,40,28,1.41,NA,0.07,0.27,0.47,0.26,0.39,0.45,0.47,0.08,0.71,8,29,4,20,19,53,101,4,20,29,19,52,16,32,53,101,16,32,52,0.23,253,26,1.41,Cl,Clay,6,100,NA,36,54,22,low,low,low,3,2,0.3,12,10,1,36,PCR best
2Uge,50,70,60,28,1.43,NA,0.07,0.28,0.49,0.28,0.37,0.44,0.46,0.08,0.45,8.5,30,4,20,21,54,105,4,19,29,20,51,15,32,54,101,15,32,53,0.42,447,18,1.43,Cl,Clay,6,100,4,24,54,22,low,low,low,3,2,0.3,15,12,1,4,Shaw
2Uge,70,90,80,28,1.47,NA,0.07,0.28,0.5,0.28,0.37,0.43,0.45,0.08,0.28,8.8,26,4,20,20,52,98,4,20,27,20,53,14,33,52,99,14,33,53,0.65,681,18,1.47,Cl,Clay,6,5,3,15,54,22,low,low,low,3,2,0.3,18,14,1,3,Shaw
2Uge,90,120,105,28,1.48,NA,0.07,0.29,0.52,0.29,0.36,0.42,0.44,0.08,0.19,8.8,28,5,21,22,51,101,5,21,28,22,50,14,34,51,99,14,34,52,0.73,756,21,1.48,Cl,Clay,6,5,3,11,54,22,low,low,low,3,2,0.3,19,15,1,3,Shaw
2Uge,120,150,135,28,1.49,NA,0.07,0.29,0.51,0.3,0.36,0.42,0.44,0.09,0.13,8.8,29,4,22,20,48,97,4,23,30,21,49,17,35,48,100,17,35,48,0.72,787,18,1.49,Cl,Clay,6,5,3,11,83,33,low,low,low,3,2,0.3,19,15,1,3,Shaw
2Ugg,0,10,5,7,1.25,NA,0.08,0.25,0.49,0.23,0.47,0.53,0.53,0.06,1.5,6,16,3,14,23,66,105,3,13,15,22,63,10,27,66,103,10,26,64,0.04,30,24,1.25,Cl,Clay,6,100,NA,104,19,9,mod low,low,low,NA,NA,0.3,2,2,1,104,PCR best
2Ugg,10,30,20,7,1.28,NA,0.08,0.28,0.5,0.26,0.46,0.52,0.52,0.06,1.24,6.6,15,3,13,18,70,103,3,13,15,17,68,12,26,70,108,11,24,65,0.04,22,40,1.28,Cl,Clay,6,100,NA,81,19,9,low,low,low,NA,NA,0.3,4,3,1,81,PCR best
2Ugg,30,50,40,7,1.32,NA,0.08,0.3,0.52,0.28,0.44,0.51,0.5,0.06,0.82,6.9,16,3,13,17,67,100,3,13,16,17,67,13,25,67,105,12,24,64,0.07,69,32,1.32,Cl,Clay,6,100,NA,48,19,9,low,low,low,NA,NA,0.3,6,5,1,48,PCR best
2Ugg,50,70,60,7,1.35,NA,0.08,0.31,0.55,0.3,0.43,0.49,0.49,0.06,0.52,7.3,16,3,13,18,65,99,3,13,16,18,66,12,28,65,105,11,27,62,0.17,197,26,1.35,Cl,Clay,6,100,7,26,19,9,low,low,low,NA,NA,0.3,7,6,1,7,Shaw
2Ugg,70,90,80,7,1.37,NA,0.08,0.31,0.58,0.32,0.42,0.48,0.48,0.06,0.33,7.8,14,2,12,18,66,98,2,12,14,18,67,12,27,66,105,11,26,63,0.3,354,20,1.37,Cl,Clay,6,5,5,17,19,9,low,low,low,NA,NA,0.3,10,8,1,5,Shaw
2Ugg,90,120,105,7,1.43,NA,0.08,0.3,0.58,0.31,0.39,0.46,0.46,0.07,0.22,8.5,15,2,13,19,65,99,2,13,15,19,66,10,30,65,105,10,29,62,0.38,389,24,1.43,Cl,Clay,6,5,5,11,33,14,low,low,low,NA,NA,0.3,12,10,1,5,Shaw
2Ugg,120,150,135,7,1.47,NA,0.08,0.3,0.58,0.31,0.37,0.44,0.45,0.07,0.15,8.4,17,2,14,26,57,100,2,14,17,26,57,7,36,57,100,7,36,57,0.4,469,18,1.47,Cl,Clay,6,5,5,8,33,14,low,low,low,NA,NA,0.3,11,9,1,5,Shaw
5Dra,0,10,5,2,1.43,NA,0.03,0.15,0.34,0.18,0.35,0.4,0.46,0.11,1.23,6.5,63,36,28,12,24,99,36,28,64,12,24,47,29,24,100,47,29,24,0.03,22,17,1.43,ClLo,Clay loam,4,100,NA,613,173,237,mod,mod low,mod low,NA,NA,0.5,0,0,3,613,PCR best
5Dra,10,30,20,2,1.43,NA,0.04,0.21,0.36,0.22,0.37,0.43,0.46,0.09,1.02,6.4,49,26,23,9,42,100,26,23,49,9,42,38,20,42,100,38,20,42,0.02,20,30,1.43,Cl,Clay,6,100,NA,115,83,33,mod low,low,low,NA,NA,0.3,0,0,3,115,PCR best
5Dra,30,50,40,2,1.49,NA,0.05,0.24,0.39,0.23,0.35,0.41,0.44,0.09,0.68,7.1,45,22,23,11,46,102,22,23,44,11,45,31,23,46,100,31,23,46,0.03,20,24,1.49,Cl,Clay,6,100,NA,51,83,33,low,low,low,NA,NA,0.3,1,1,3,51,PCR best
5Dra,50,70,60,2,1.44,NA,0.05,0.28,0.44,0.28,0.37,0.44,0.45,0.08,0.43,7,36,16,20,13,50,99,16,20,36,13,51,25,24,50,99,25,24,51,0.03,20,18,1.44,Cl,Clay,6,100,18,41,54,22,low,low,low,NA,NA,0.3,1,1,3,41,PCR best
5Dra,70,90,80,2,1.54,NA,0.06,0.24,0.44,0.24,0.31,0.38,0.42,0.11,0.27,7.3,50,24,27,14,36,100,24,27,50,14,36,36,28,36,100,36,28,36,0.02,20,14,1.54,Cl,Clay,6,50,14,18,173,65,low,mod low,low,NA,NA,0.3,2,2,3,18,PCR best
5Dra,90,120,105,2,1.54,NA,0.06,0.24,0.44,0.24,0.31,0.38,0.42,0.11,0.27,7.3,50,24,27,14,36,100,24,27,50,14,36,36,28,36,100,36,28,36,0.02,20,14,1.54,Cl,Clay,6,50,14,18,173,65,low,mod low,low,NA,NA,0.3,2,2,3,18,PCR best
5Dra,120,150,135,2,1.54,NA,0.06,0.24,0.44,0.24,0.31,0.38,0.42,0.11,0.27,7.3,50,24,27,14,36,100,24,27,50,14,36,36,28,36,100,36,28,36,0.02,20,14,1.54,Cl,Clay,6,50,14,18,173,65,low,mod low,low,NA,NA,0.3,2,2,3,18,PCR best
6Dbb,0,10,5,2,1.39,NA,0.06,0.18,0.43,0.2,0.37,0.42,0.48,0.11,1.87,6.3,38,4,34,38,26,102,4,33,37,37,25,16,58,26,100,16,58,26,0.04,27,17,1.39,SiLo,Silty loam,3,100,NA,298,173,237,mod low,mod low,mod low,NA,NA,0.4,2,2,1,298,PCR best
6Dbb,10,30,20,2,1.48,NA,0.06,0.19,0.43,0.21,0.33,0.39,0.44,0.11,1.55,6.4,38,4,35,36,26,100,4,35,38,36,26,17,57,26,100,17,57,26,0.03,25,24,1.48,SiClLo,Silty clay loam,4,100,NA,298,173,237,mod low,mod low,mod low,NA,NA,0.4,5,4,1,298,PCR best
6Dbb,30,50,40,2,1.47,NA,0.07,0.24,0.45,0.25,0.35,0.41,0.45,0.1,1.03,7.4,34,2,32,28,38,100,2,32,34,28,38,15,47,38,100,15,47,38,0.09,88,20,1.47,SiClLo,Silty clay loam,4,100,NA,224,122,173,mod low,mod low,mod low,NA,NA,0.3,13,10,1,224,PCR best
6Dbb,50,70,60,2,1.49,NA,0.07,0.26,0.46,0.26,0.34,0.41,0.44,0.09,0.66,8,32,2,30,27,40,99,2,30,32,27,40,15,44,40,99,15,44,40,0.22,248,16,1.49,SiClLo,Silty clay loam,4,100,3,206,83,121,mod low,low,mod low,NA,NA,0.3,16,13,1,3,Shaw
6Dbb,70,90,80,2,1.53,NA,0.08,0.26,0.47,0.26,0.33,0.39,0.42,0.09,0.41,8.4,34,2,31,26,40,100,2,31,34,26,40,16,44,40,100,16,44,40,0.39,473,14,1.53,SiCl,Silty clay,5,5,3,13,83,33,low,low,low,NA,NA,0.3,20,16,1,3,Shaw
6Dbb,90,120,105,2,1.58,NA,0.04,0.25,0.46,0.25,0.3,0.37,0.4,0.1,0.28,8.5,36,3,34,26,36,98,3,35,37,27,37,18,45,36,99,18,45,36,0.44,501,15,1.58,SiClLo,Silty clay loam,4,1,2,244,122,173,mod low,mod low,mod low,NA,NA,0.3,22,18,1,2,Shaw
6Dbb,120,150,135,2,1.59,NA,0.04,0.26,0.44,0.26,0.31,0.37,0.4,0.1,0.19,8.5,36,3,33,26,38,100,3,33,36,26,38,18,44,38,100,18,44,38,0.38,470,15,1.59,ClLo,Clay loam,4,1,2,237,122,173,mod low,mod low,mod low,NA,NA,0.3,22,18,1,2,Shaw
6Dyb,0,10,5,4,1.63,NA,0.01,0.05,NA,0.1,0.25,0.32,0.38,0.13,0.7,6.5,82,43,42,12,8,102,42,41,80,12,8,66,27,8,101,65,27,8,0.01,20,15,1.63,LoSa,Loamy sand,3,100,NA,2304,318,556,high,mod low,mod,NA,NA,0.7,0,0,2,2304,PCR best
6Dyb,10,30,20,4,1.7,NA,0.01,0.05,NA,0.09,0.2,0.3,0.36,0.16,0.58,6.5,78,45,40,12,10,100,45,40,78,12,10,63,27,10,100,63,27,10,0.01,20,22,1.7,LoSa,Loamy sand,3,100,NA,1728,680,1112,mod high,mod,mod high,NA,NA,0.5,0,0,2,1728,PCR best
6Dyb,30,50,40,4,1.7,NA,0.03,0.07,NA,0.1,0.16,0.31,0.36,0.2,0.38,6.7,76,44,31,6,13,95,46,33,80,6,14,60,16,13,89,67,18,15,0.01,20,12,1.7,SaLo,Sandy loam,2,100,NA,1032,1539,1749,mod high,mod high,mod high,NA,NA,0.5,5,4,2,1032,PCR best
6Dyb,50,70,60,4,1.7,NA,0.04,0.17,NA,0.18,0.24,0.32,0.36,0.12,0.24,6.5,66,37,27,7,31,104,36,26,63,7,30,56,17,31,104,54,16,30,0.02,28,12,1.7,SaCl,Sandy clay,5,100,5,52,237,87,low,mod low,low,NA,NA,0.4,11,9,2,5,Shaw
6Dyb,70,90,80,4,1.7,NA,0.04,0.18,NA,0.18,0.23,0.33,0.36,0.12,0.15,6.3,60,32,28,8,33,101,32,28,59,8,33,49,20,33,102,48,20,32,0.03,35,10,1.7,Cl,Clay,6,5,5,40,237,87,low,mod low,low,NA,NA,0.4,12,10,2,5,Shaw
6Dyb,90,120,105,4,1.7,NA,0.04,0.18,NA,0.18,0.23,0.33,0.36,0.12,0.15,6.3,60,32,28,8,33,101,32,28,59,8,33,49,20,33,102,48,20,32,0.03,35,10,1.7,Cl,Clay,6,5,5,40,237,87,low,mod low,low,NA,NA,0.4,12,10,2,5,Shaw
6Dyb,120,150,135,4,1.7,NA,0.04,0.18,NA,0.18,0.23,0.33,0.36,0.12,0.15,6.3,60,32,28,8,33,101,32,28,59,8,33,49,20,33,102,48,20,32,0.03,35,10,1.7,Cl,Clay,6,5,5,40,237,87,low,mod low,low,NA,NA,0.4,12,10,2,5,Shaw
6Dyf,0,10,5,7,1.56,NA,0.02,0.09,0.31,0.13,0.29,0.35,0.41,0.13,1.15,5.9,60,9,50,24,14,98,9,51,61,24,14,37,46,14,97,38,47,14,0.02,20,16,1.56,Lo,Loam,3,100,NA,654,318,415,mod,mod low,mod low,3,3,0.5,0,0,2,654,PCR best
6Dyf,10,30,20,7,1.64,NA,0.03,0.12,0.33,0.14,0.26,0.33,0.38,0.12,0.95,6.2,50,11,42,22,22,94,12,45,53,23,23,28,43,22,93,30,46,24,0.02,20,24,1.64,Lo,Loam,3,100,NA,441,237,318,mod low,mod low,mod low,3,3,0.5,0,0,2,441,PCR best
6Dyf,30,50,40,7,1.49,NA,0.06,0.24,0.41,0.23,0.35,0.41,0.44,0.09,0.63,6.6,35,9,28,16,46,97,9,29,36,16,47,22,30,46,98,22,31,47,0.03,27,24,1.49,Cl,Clay,6,100,NA,35,83,33,low,low,low,3,3,0.3,4,3,2,35,PCR best
6Dyf,50,70,60,7,1.47,NA,0.06,0.27,0.45,0.27,0.37,0.43,0.44,0.07,0.4,7.1,29,6,24,14,56,99,6,24,29,14,57,20,26,56,102,20,25,55,0.07,58,20,1.47,Cl,Clay,6,100,8,28,33,14,low,low,low,3,3,0.3,6,5,2,28,PCR best
6Dyf,70,90,80,7,1.53,NA,0.07,0.26,0.45,0.26,0.34,0.41,0.42,0.08,0.25,7.8,34,6,28,14,52,100,6,28,34,14,52,23,25,52,100,23,25,52,0.1,85,16,1.53,Cl,Clay,6,5,6,17,54,22,low,low,low,3,3,0.3,8,6,2,17,PCR best
6Dyf,90,120,105,7,1.61,NA,0.06,0.25,0.44,0.25,0.3,0.37,0.39,0.09,0.17,8,40,7,36,16,44,100,7,36,40,16,44,24,31,44,99,24,31,44,0.17,115,15,1.61,Cl,Clay,6,5,6,9,83,33,low,low,low,3,3,0.3,8,6,2,9,PCR best
6Dyf,120,150,135,7,1.7,NA,0.06,0.21,0.44,0.2,0.24,0.32,0.36,0.12,0.12,8.4,51,4,49,17,29,97,4,51,53,18,30,35,35,29,99,35,35,29,0.16,179,12,1.7,ClLo,Clay loam,4,5,8,409,237,318,mod low,mod low,mod low,3,3,0.4,6,5,2,409,PCR best
6Umb,0,10,5,1,1.37,NA,0.04,0.18,0.49,0.22,0.36,0.41,0.48,0.13,2.57,6.3,63,11,52,24,14,101,11,51,62,24,14,39,47,14,100,39,47,14,0.03,24,14,1.37,Lo,Loam,3,100,NA,710,318,415,mod,mod low,mod low,2.8,1.8,0.5,0,0,3,710,PCR best
6Umb,10,30,20,1,1.49,NA,0.05,0.18,0.54,0.21,0.32,0.38,0.44,0.12,2.13,6.4,56,3,53,26,19,101,3,52,55,26,19,32,49,19,100,32,49,19,0.03,20,22,1.49,SiLo,Silty loam,3,100,NA,544,237,318,mod,mod low,mod low,2.8,1.8,0.5,0,0,3,544,PCR best
6Umb,30,50,40,1,1.6,NA,0.06,0.19,0.55,0.21,0.28,0.35,0.4,0.11,1.41,6.6,52,1,51,26,23,101,1,50,51,26,23,29,48,23,100,29,48,23,0.02,20,14,1.6,SiLo,Silty loam,3,100,NA,459,173,237,mod low,mod low,mod low,2.8,1.8,0.5,0,0,3,459,PCR best
6Umb,50,70,60,1,1.66,NA,0.06,0.2,0.54,0.21,0.26,0.33,0.37,0.11,0.9,6.9,50,1,49,24,26,100,1,49,50,24,26,29,45,26,100,29,45,26,0.02,20,10,1.66,ClLo,Clay loam,4,100,31,416,173,237,mod low,mod low,mod low,2.8,1.8,0.4,0,0,3,416,PCR best
6Umb,70,90,80,1,1.69,NA,0.06,0.2,0.54,0.2,0.25,0.32,0.36,0.11,0.56,7,51,1,50,23,26,100,1,50,51,23,26,30,44,26,100,30,44,26,0.02,20,10,1.69,ClLo,Clay loam,4,50,31,427,173,237,mod low,mod low,mod low,2.8,1.8,0.4,0,0,3,427,PCR best
6Umb,90,120,105,1,1.7,NA,0.06,0.21,0.54,0.2,0.25,0.32,0.36,0.11,0.39,7.1,48,1,47,24,27,99,1,47,48,24,27,28,45,27,100,28,45,27,0.01,20,15,1.7,ClLo,Clay loam,4,50,31,387,173,237,mod low,mod low,mod low,2.8,1.8,0.4,0,0,3,387,PCR best
6Umb,120,150,135,1,1.7,NA,0.06,0.22,0.53,0.2,0.25,0.32,0.36,0.11,0.26,7.3,48,1,47,23,28,99,1,47,48,23,28,28,44,28,100,28,44,28,0.02,20,15,1.7,ClLo,Clay loam,4,50,31,382,173,237,mod low,mod low,mod low,2.8,1.8,0.4,0,0,3,382,PCR best
BUfc,0,10,5,3,1.37,NA,0.03,0.19,0.38,0.2,0.37,0.43,0.48,0.11,1.82,7.5,49,9,34,24,27,100,9,34,49,24,27,28,45,27,100,28,45,27,0.08,26,17,1.37,ClLo,Clay loam,4,100,NA,398,173,237,mod low,mod low,mod low,2,1.5,0.4,7,6,3,398,PCR best
BUfc,10,30,20,3,1.47,NA,0.03,0.19,0.39,0.21,0.34,0.4,0.45,0.11,1.51,7.5,55,6,36,19,27,101,6,36,54,19,27,35,38,27,100,35,38,27,0.06,21,26,1.47,ClLo,Clay loam,4,100,NA,470,173,237,mod low,mod low,mod low,2,1.5,0.4,6,5,3,470,PCR best
BUfc,30,50,40,3,1.57,NA,0.03,0.2,0.42,0.22,0.3,0.36,0.41,0.11,1,7.6,57,4,41,17,28,102,4,40,56,17,27,38,36,28,102,37,35,27,0.06,20,16,1.57,ClLo,Clay loam,4,100,NA,490,173,237,mod low,mod low,mod low,2,1.5,0.4,6,5,3,490,PCR best
BUfc,50,70,60,3,1.63,NA,0.03,0.21,0.56,0.22,0.28,0.35,0.39,0.11,0.64,7.6,56,4,46,16,28,100,4,46,56,16,28,38,35,28,101,38,35,28,0.06,20,12,1.63,ClLo,Clay loam,4,100,8,476,173,237,mod low,mod low,mod low,2,1.5,0.4,6,5,3,476,PCR best
BUfc,70,90,80,3,1.65,NA,0.03,0.22,0.55,0.22,0.27,0.34,0.38,0.11,0.4,7.6,55,2,51,19,26,100,2,51,55,19,26,36,38,26,100,36,38,26,0.05,20,10,1.65,ClLo,Clay loam,4,5,8,477,173,237,mod low,mod low,mod low,2,1.5,0.4,6,5,3,477,PCR best
BUfc,90,120,105,3,1.65,NA,0.03,0.22,0.55,0.22,0.27,0.34,0.38,0.11,0.4,7.6,55,2,51,19,26,100,2,51,55,19,26,36,38,26,100,36,38,26,0.05,20,10,1.65,ClLo,Clay loam,4,5,8,477,173,237,mod low,mod low,mod low,2,1.5,0.4,6,5,3,477,PCR best
BUfc,120,150,135,3,1.65,NA,0.03,0.22,0.55,0.22,0.27,0.34,0.38,0.11,0.4,7.6,55,2,51,19,26,100,2,51,55,19,26,36,38,26,100,36,38,26,0.05,20,10,1.65,ClLo,Clay loam,4,5,8,477,173,237,mod low,mod low,mod low,2,1.5,0.4,6,5,3,477,PCR best
BUma,0,10,5,1,1.43,NA,0.03,0.15,0.48,0.19,0.33,0.39,0.46,0.13,1.82,6.8,66,4,62,22,12,100,4,62,66,22,12,44,44,12,100,44,44,12,0.03,20,14,1.43,Lo,Loam,3,100,NA,795,318,415,mod,mod low,mod low,1.6,2,0.5,0,0,4,795,PCR best
BUma,10,30,20,1,1.61,NA,0.03,0.12,0.42,0.16,0.26,0.33,0.39,0.13,1.51,6.9,75,9,66,16,10,101,9,65,74,16,10,56,34,10,100,56,34,10,0.02,20,20,1.61,LoSa,Loamy sand,3,100,NA,1728,318,556,mod high,mod low,mod,1.6,2,0.5,0,0,4,1728,PCR best
BUma,30,50,40,1,1.7,NA,0.02,0.1,0.41,0.13,0.18,0.3,0.36,0.18,1,6.8,83,7,76,11,6,100,7,76,83,11,6,69,25,6,100,69,25,6,0.01,20,10,1.7,LoSa,Loamy sand,3,100,NA,3073,1047,1648,high,mod high,mod high,1.6,2,0.7,0,0,4,3073,PCR best
BUma,50,70,60,1,1.7,NA,0.02,0.08,0.39,0.1,0.12,0.3,0.36,0.23,0.64,6.9,89,14,75,8,3,100,14,75,89,8,3,78,19,3,100,78,19,3,0.01,20,4,1.7,LoSa,Loamy sand,3,100,31,4734,2567,3736,high,high,high,1.6,2,0.7,0,0,4,4734,PCR best
BUma,70,90,80,1,1.7,NA,0.01,0.05,0.24,0.05,0.08,0.29,0.36,0.28,0.4,6.8,96,45,51,3,1,100,45,51,96,3,1,92,7,1,100,92,7,1,0.01,20,6,1.7,Sa,Sand,1,50,31,6314,5274,7207,high,high,high,1.6,2,0.7,0,0,4,6314,PCR best
BUma,90,120,105,1,1.7,NA,0.01,0.05,0.24,0.05,0.08,0.29,0.36,0.28,0.4,6.8,96,45,51,3,1,100,45,51,96,3,1,92,7,1,100,92,7,1,0.01,20,6,1.7,Sa,Sand,1,50,31,6314,5274,7207,high,high,high,1.6,2,0.7,0,0,4,6314,PCR best
BUma,120,150,135,1,1.7,NA,0.01,0.05,0.24,0.05,0.08,0.29,0.36,0.28,0.4,6.8,96,45,51,3,1,100,45,51,96,3,1,92,7,1,100,92,7,1,0.01,20,6,1.7,Sa,Sand,1,50,31,6314,5274,7207,high,high,high,1.6,2,0.7,0,0,4,6314,PCR best
