soil_gp,UD,LD,midPnt_cm,Total_prof,PAWCER_BD,BDfield,ADMC_vv,m15bar_vv,m3rdbar_vv,PAWCER_DLL,PAWCER_DUL,SAT,TP,EP,TOC,pHw,Sand_perc,Csand_perc,Fsand_perc,Silt_perc,Clay_perc,Total,Csandr,Fsandr,Sandr,Siltr,Clayr,P50_2000,P2_50,P2,Ptotal,P50_2000r,P2_50r,P2r,ESP,EC,Chloride,PAWCER_PAWC_mm,BDbest,textureClass_AUST,textureClassFull_AUST,NorthcoteID,WW_BD,Ks_rule_mmday,Ks_Shaw_mmday,Ks_PCRbest_mmday,Ks_MinG_mmday,Ks_MinT_mmday,perm_final,macro_ab,macro_dia,Ks_final,SWCON,ADMC_count,m15bar_count,PSA_count,PAWCER_count,OC_count,ESP_count
Ashton,0,10,5,2,1.63,NA,0.01,0.05,0.2,0.1,0.26,0.32,0.39,0.13,1.07,5.5,79,48,30,12,8,99,48,30,80,12,8,63,28,8,99,64,28,8,0,0.03,24,16,1.63,LoSa,Loamy sand,3,NA,100,NA,2304,318,556,3,NA,NA,2304,0.7,2,2,2,2,2,2
Ashton,10,30,20,2,1.7,NA,0.01,0.07,0.22,0.11,0.22,0.31,0.36,0.14,0.89,5.5,77,50,27,8,14,99,51,27,78,8,14,65,21,14,100,65,21,14,0,0.01,20,22,1.7,SaLo,Sandy loam,2,NA,100,NA,1046,417,531,3,NA,NA,1046,0.5,2,2,2,2,2,2
Ashton,30,50,40,2,1.7,NA,0.02,0.11,0.26,0.13,0.2,0.31,0.36,0.16,0.59,5.5,72,47,26,8,20,100,47,26,72,8,20,59,20,20,99,60,20,20,0,0.01,20,14,1.7,SaClLo,Sandy clay loam,3,NA,100,NA,834,680,830,3,NA,NA,834,0.5,2,2,2,2,2,2
Ashton,50,70,60,2,1.7,NA,0.02,0.14,0.29,0.15,0.2,0.32,0.36,0.16,0.37,5.5,68,41,26,9,24,101,41,26,67,9,24,54,22,24,100,54,22,24,0,0.01,20,10,1.7,ClLo,Clay loam,4,NA,100,31,704,680,830,3,NA,NA,704,0.5,2,2,2,2,2,2
Ashton,70,90,80,2,1.7,NA,0.02,0.12,0.28,0.13,0.16,0.31,0.36,0.2,0.24,5.7,69,38,32,11,20,100,38,32,69,11,20,54,26,20,100,54,26,20,0,0.01,20,6,1.7,Lo,Loam,3,NA,50,31,767,1539,1749,3,NA,NA,767,0.5,2,2,2,2,2,2
Ashton,90,120,105,2,1.7,NA,0.02,0.12,0.28,0.13,0.16,0.31,0.36,0.2,0.24,5.7,69,38,32,11,20,100,38,32,69,11,20,54,26,20,100,54,26,20,0,0.01,20,6,1.7,Lo,Loam,3,NA,50,31,767,1539,1749,3,NA,NA,767,0.5,2,0,2,0,2,2
Ashton,120,150,135,2,1.7,NA,0.02,0.12,0.28,0.13,0.16,0.31,0.36,0.2,0.24,5.7,69,38,32,11,20,100,38,32,69,11,20,54,26,20,100,54,26,20,0,0.01,20,6,1.7,Lo,Loam,3,NA,50,31,767,1539,1749,3,NA,NA,767,0.5,0,0,0,0,2,0
Brosnan,0,10,5,5,1.47,NA,0.03,0.13,0.38,0.17,0.32,0.38,0.45,0.12,1.18,5.6,84,66,18,3,13,100,66,18,84,3,13,79,9,13,101,78,9,13,0,0.03,20,15,1.47,SaLo,Sandy loam,2,NA,100,NA,1288,237,318,4,0,NA,1288,0.5,2,2,3,2,1,2
Brosnan,10,30,20,5,1.61,NA,0.03,0.12,0.42,0.16,0.27,0.34,0.39,0.12,0.98,5.6,80,63,19,4,16,100,63,19,80,4,16,72,12,16,100,72,12,16,0,0.04,20,22,1.61,SaLo,Sandy loam,2,NA,100,NA,1103,237,318,4,0,NA,1103,0.5,2,2,3,2,1,2
Brosnan,30,50,40,5,1.68,NA,0.02,0.12,0.44,0.15,0.21,0.31,0.37,0.16,0.65,5.6,75,59,19,4,19,98,60,19,77,4,19,66,13,19,98,67,13,19,0,0.02,20,12,1.68,SaClLo,Sandy clay loam,3,NA,100,NA,919,680,830,4,0,NA,919,0.5,2,2,3,2,1,2
Brosnan,50,70,60,5,1.7,NA,0.03,0.12,0.41,0.13,0.18,0.31,0.36,0.18,0.41,5.3,76,56,17,4,21,101,55,17,75,4,21,68,13,21,102,67,13,21,0,0.02,20,10,1.7,SaClLo,Sandy clay loam,3,NA,100,31,918,1047,1230,4,0,NA,918,0.5,2,2,3,2,1,2
Brosnan,70,90,80,5,1.7,NA,0.03,0.12,0.32,0.12,0.16,0.31,0.36,0.2,0.26,5.1,76,56,15,4,22,102,55,15,75,4,22,67,12,22,101,66,12,22,0,0.02,20,8,1.7,SaClLo,Sandy clay loam,3,NA,50,31,904,1539,1749,4,0,NA,904,0.5,2,2,3,2,1,2
Brosnan,90,120,105,5,1.7,NA,0.03,0.12,0.33,0.11,0.14,0.31,0.36,0.21,0.18,5,74,61,16,4,21,99,62,16,75,4,21,64,13,21,98,65,13,21,0,0.02,20,9,1.7,SaClLo,Sandy clay loam,3,NA,50,31,868,1840,2058,4,0,NA,868,0.5,2,2,3,2,1,1
Brosnan,120,150,135,5,1.7,NA,0.03,0.12,0.36,0.1,0.14,0.31,0.36,0.22,0.12,5.3,77,66,14,3,18,98,67,14,79,3,18,68,11,18,97,70,11,19,NA,0.02,20,12,1.7,SaLo,Sandy loam,2,NA,NA,NA,986,2182,2405,4,0,NA,986,0.5,2,2,3,2,1,0
Bulgun,0,10,5,5,1.35,NA,0.06,0.19,0.4,0.21,0.38,0.44,0.49,0.11,4.6,5.1,36,13,28,22,33,91,14,31,40,24,36,16,37,33,86,19,43,38,0,0.06,20,17,1.35,ClLo,Clay loam,4,NA,100,NA,255,173,237,2,0,NA,255,0.4,2,4,3,2,1,3
Bulgun,10,30,20,5,1.47,NA,0.04,0.19,0.43,0.21,0.33,0.4,0.44,0.11,3.82,4.8,36,11,30,23,34,93,12,32,39,25,37,16,39,34,89,18,44,38,0,0.04,20,24,1.47,ClLo,Clay loam,4,NA,100,NA,251,173,237,2,0,NA,251,0.4,2,4,3,2,1,3
Bulgun,30,50,40,5,1.56,NA,0.03,0.19,0.43,0.21,0.29,0.37,0.41,0.12,2.53,4.7,36,11,31,23,35,94,12,33,38,24,37,17,40,35,92,18,43,38,0,0.03,20,16,1.56,ClLo,Clay loam,4,NA,100,NA,247,237,318,2,0,NA,247,0.3,2,4,3,2,1,3
Bulgun,50,70,60,5,1.55,NA,0.02,0.24,0.46,0.24,0.32,0.38,0.42,0.1,1.61,5,39,9,30,25,37,101,9,30,39,25,37,20,40,37,97,21,41,38,0,0.02,20,16,1.55,ClLo,Clay loam,4,NA,100,31,261,122,173,2,0,NA,261,0.3,2,4,3,2,1,3
Bulgun,70,90,80,5,1.49,NA,0.02,0.27,0.5,0.28,0.35,0.41,0.44,0.09,1.01,5.2,38,9,21,24,50,112,8,19,34,21,45,22,40,50,112,20,36,45,0,0.02,20,14,1.49,Cl,Clay,6,NA,50,31,14,83,33,2,0,NA,14,0.3,2,4,3,2,1,3
Bulgun,90,120,105,5,1.53,NA,0.04,0.27,0.52,0.27,0.33,0.4,0.42,0.09,0.69,5.4,39,13,19,22,47,108,12,18,36,20,44,24,40,47,111,22,36,42,0,0.02,20,18,1.53,Cl,Clay,6,NA,50,31,9,83,33,2,0,NA,9,0.3,2,4,3,2,1,2
Bulgun,120,150,135,5,1.61,NA,0.03,0.25,0.51,0.25,0.3,0.36,0.39,0.1,0.46,5.5,47,22,25,16,36,99,22,25,47,16,36,32,32,36,100,32,32,36,0,0.02,20,15,1.61,Cl,Clay,6,NA,50,31,6,122,47,2,0,NA,6,0.3,2,4,2,2,1,1
Hamleigh,0,10,5,8,1.29,NA,0.04,0.23,0.46,0.23,0.42,0.48,0.51,0.09,3.53,4.9,24,12,12,32,44,100,12,12,24,32,44,10,47,44,101,10,47,44,0,0.1,52,19,1.325,SiCl,Silty clay,5,1.325,100,NA,98,83,33,2,NA,NA,98,0.3,8,2,2,2,3,2
Hamleigh,10,30,20,8,1.41,NA,0.04,0.22,0.42,0.23,0.37,0.43,0.47,0.1,2.93,5.2,33,14,19,29,38,100,14,19,33,29,38,16,46,38,100,16,46,38,0,0.05,22,28,1.44,SiClLo,Silty clay loam,4,1.44,100,NA,218,122,173,2,NA,NA,218,0.3,8,2,2,2,3,2
Hamleigh,30,50,40,8,1.46,NA,0.04,0.25,0.43,0.25,0.36,0.42,0.45,0.09,1.94,6,32,12,20,25,42,99,12,20,32,25,42,17,40,42,99,17,40,42,1,0.04,21,22,1.49,Cl,Clay,6,1.49,100,NA,36,83,33,2,NA,NA,36,0.3,8,2,2,2,3,2
Hamleigh,50,70,60,8,1.45,NA,0.04,0.28,0.47,0.28,0.37,0.43,0.45,0.08,1.24,6.3,27,10,17,22,50,99,10,17,27,22,51,15,35,50,100,15,35,50,2,0.04,29,18,1.44,Cl,Clay,6,1.44,100,14,24,54,22,2,NA,NA,24,0.3,2,2,2,2,3,2
Hamleigh,70,90,80,8,1.45,NA,0.04,0.29,0.49,0.29,0.38,0.44,0.45,0.08,0.78,6.5,24,10,15,20,55,99,10,15,24,20,56,14,31,55,100,14,31,55,4,0.05,46,18,1.39,Cl,Clay,6,1.39,50,10,19,54,22,2,NA,NA,19,0.3,2,2,2,2,3,2
Hamleigh,90,120,105,8,1.45,NA,0.04,0.29,0.49,0.29,0.38,0.44,0.45,0.08,0.78,6.5,24,10,15,20,55,99,10,15,24,20,56,14,31,55,100,14,31,55,4,0.05,46,18,1.37,Cl,Clay,6,1.37,50,10,19,54,22,2,NA,NA,19,0.3,2,0,2,0,3,2
Hamleigh,120,150,135,8,1.45,NA,0.04,0.29,0.49,0.29,0.38,0.44,0.45,0.08,0.78,6.5,24,10,15,20,55,99,10,15,24,20,56,14,31,55,100,14,31,55,4,0.05,46,18,1.37,Cl,Clay,6,NA,50,10,19,54,22,2,NA,NA,19,0.3,0,0,0,0,3,0
Hewitt,0,10,5,4,1.12,NA,0.03,0.32,0.51,0.33,0.5,0.52,0.58,0.08,3.42,4.8,19,6,15,31,36,86,7,17,22,36,42,6,43,36,85,7,51,42,0,0.09,31,17,1.12,SiCl,Silty clay,5,NA,100,NA,316,54,22,3,0.3,1,316,0.3,3,2,3,2,1,3
Hewitt,10,30,20,4,1.14,NA,0.03,0.33,0.52,0.34,0.47,0.52,0.57,0.1,2.84,4.9,20,7,14,37,36,93,8,15,22,40,39,7,50,36,93,8,54,39,0,0.06,23,26,1.14,SiClLo,Silty clay loam,4,NA,100,NA,157,122,173,3,0.3,1,157,0.3,3,2,3,2,1,3
Hewitt,30,50,40,4,1.24,NA,0.03,0.33,0.51,0.33,0.44,0.49,0.53,0.1,1.88,5,17,6,13,40,41,98,6,13,17,41,42,4,52,41,97,4,54,42,0,0.03,20,22,1.24,SiCl,Silty clay,5,NA,100,NA,117,122,47,3,0.3,1,117,0.3,3,2,3,2,1,3
Hewitt,50,70,60,4,1.32,NA,0.02,0.32,0.48,0.32,0.41,0.47,0.5,0.09,1.2,5.1,13,4,10,41,46,100,4,10,13,41,46,2,51,46,99,2,52,46,0,0.02,20,18,1.32,SiCl,Silty clay,5,NA,100,31,68,83,33,3,0.3,1,68,0.3,3,2,3,2,1,3
Hewitt,70,90,80,4,1.33,NA,0.02,0.33,0.48,0.33,0.41,0.47,0.5,0.09,0.75,5.2,12,3,9,40,47,99,3,9,12,40,47,2,47,47,96,2,49,49,0,0.02,20,16,1.33,SiCl,Silty clay,5,NA,50,31,59,83,33,3,0.3,1,59,0.3,3,2,3,2,1,3
Hewitt,90,120,105,4,1.38,NA,0.02,0.32,0.48,0.32,0.39,0.45,0.48,0.09,0.51,5.1,28,11,16,28,44,100,11,16,28,28,44,15,41,44,100,15,41,44,0,0.02,20,21,1.38,SiCl,Silty clay,5,NA,50,31,39,83,33,3,0.3,1,39,0.3,3,2,2,2,1,2
Hewitt,120,150,135,4,1.43,NA,0.02,0.31,0.48,0.31,0.37,0.44,0.46,0.09,0.34,5.1,29,12,16,27,44,100,12,16,29,27,44,16,39,44,99,16,39,44,0,0.02,20,18,1.43,SiCl,Silty clay,5,NA,50,31,25,83,33,3,0.3,1,25,0.3,3,2,2,2,1,2
Innisfail,0,10,5,3,1.26,NA,0.04,0.24,0.49,0.24,0.43,0.49,0.52,0.09,3.42,5.3,36,4,32,25,40,101,4,32,36,25,40,17,43,40,100,17,43,40,0,0.07,25,19,1.26,Cl,Clay,6,NA,100,NA,108,83,33,4,1.3,2,108,0.3,2,2,3,2,1,3
Innisfail,10,30,20,3,1.32,NA,0.04,0.26,0.45,0.26,0.41,0.47,0.5,0.09,2.84,5.1,36,2,32,25,42,103,2,31,35,24,41,18,42,42,102,18,41,41,0,0.05,23,30,1.32,Cl,Clay,6,NA,100,NA,93,83,33,4,1.3,2,93,0.3,2,2,3,2,1,3
Innisfail,30,50,40,3,1.41,NA,0.04,0.27,0.43,0.27,0.38,0.44,0.47,0.09,1.88,5.3,34,1,33,24,43,101,1,33,34,24,43,19,42,43,104,18,40,41,0,0.03,20,22,1.41,Cl,Clay,6,NA,100,NA,55,83,33,4,1.3,2,55,0.3,2,2,3,2,1,3
Innisfail,50,70,60,3,1.47,NA,0.03,0.27,0.44,0.27,0.35,0.41,0.44,0.09,1.2,5.5,43,1,37,23,35,101,1,37,43,23,35,22,42,35,99,22,42,35,0,0.02,20,16,1.47,ClLo,Clay loam,4,NA,100,31,300,83,121,4,1.3,2,300,0.3,2,2,3,2,1,3
Innisfail,70,90,80,3,1.46,NA,0.03,0.29,NA,0.29,0.35,0.42,0.45,0.09,0.75,5.3,47,1,40,22,32,101,1,40,47,22,32,28,40,32,100,28,40,32,0,0.02,20,12,1.46,ClLo,Clay loam,4,NA,50,31,350,83,121,4,1.3,2,350,0.4,2,1,3,1,1,3
Innisfail,90,120,105,3,1.49,NA,0.03,0.28,NA,0.28,0.34,0.4,0.44,0.09,0.51,5.1,48,2,41,23,31,102,2,40,47,23,30,29,41,31,101,29,41,31,0,0.03,20,18,1.49,ClLo,Clay loam,4,NA,50,31,365,83,121,4,1.3,2,365,0.4,2,1,3,1,1,2
Innisfail,120,150,135,3,1.49,NA,0.03,0.28,NA,0.28,0.34,0.4,0.44,0.09,0.51,5.1,48,2,41,23,31,102,2,40,47,23,30,29,41,31,101,29,41,31,0,0.03,20,18,1.49,ClLo,Clay loam,4,NA,50,31,365,83,121,4,1.3,2,365,0.4,0,0,1,0,1,0
Lugger,0,10,5,6,1.49,NA,0.04,0.12,0.24,0.16,0.32,0.38,0.44,0.12,1.23,5.4,74,51,22,10,16,100,51,22,74,10,16,60,25,16,101,59,25,16,0,0.04,20,16,1.49,SaLo,Sandy loam,2,NA,100,NA,935,237,318,3,1.1,1.6,935,0.5,5,5,6,5,4,6
Lugger,10,30,20,6,1.65,NA,0.03,0.11,0.22,0.14,0.25,0.32,0.38,0.13,1.02,5.4,73,50,24,12,14,99,51,24,74,12,14,59,27,14,100,59,27,14,0,0.03,20,22,1.65,SaLo,Sandy loam,2,NA,100,NA,936,318,415,3,1.1,1.6,936,0.5,5,5,6,5,4,6
Lugger,30,50,40,6,1.7,NA,0.02,0.1,0.21,0.13,0.18,0.3,0.36,0.17,0.68,5.5,76,46,29,12,12,100,46,29,76,12,12,60,27,12,99,61,27,12,0,0.01,20,10,1.7,SaLo,Sandy loam,2,NA,100,NA,1048,849,1016,3,1.1,1.6,1048,0.5,5,5,6,5,4,6
Lugger,50,70,60,6,1.7,NA,0.01,0.05,0.16,0.07,0.1,0.3,0.36,0.26,0.43,5.5,81,52,30,10,8,99,53,30,82,10,8,66,24,8,98,67,24,8,0,0.01,20,6,1.7,LoSa,Loamy sand,3,NA,100,31,2304,4021,5627,3,1.1,1.6,2304,0.7,5,5,6,5,4,6
Lugger,70,90,80,6,1.7,NA,0.01,0.04,0.13,0.04,0.07,0.3,0.36,0.29,0.27,5.5,82,52,28,10,8,100,52,28,82,10,8,67,23,8,98,68,23,8,0,0.01,20,6,1.7,LoSa,Loamy sand,3,NA,50,31,2304,5997,8104,3,1.1,1.6,2304,0.7,5,5,6,5,4,5
Lugger,90,120,105,6,1.7,NA,0.01,0.08,0.16,0.06,0.09,0.3,0.36,0.26,0.18,5.5,80,52,27,9,11,100,52,27,80,9,11,66,22,11,99,67,22,11,0,0.01,20,9,1.7,SaLo,Sandy loam,2,NA,50,31,1188,4021,4201,3,1.1,1.6,1188,0.5,5,3,6,3,4,5
Lugger,120,150,135,6,1.7,NA,0.01,0.09,0.17,0.05,0.09,0.3,0.36,0.26,0.12,5.4,76,51,24,10,12,98,52,24,78,10,12,60,23,12,95,63,24,13,0,0.01,20,12,1.7,SaLo,Sandy loam,2,NA,50,31,1048,4021,4201,3,1.1,1.6,1048,0.5,2,2,3,2,4,2
Thorpe,0,10,5,11,1.49,NA,0.02,0.12,0.28,0.16,0.31,0.38,0.44,0.12,2.15,5.5,74,58,17,11,15,100,58,17,74,11,15,60,26,15,101,59,26,15,0,0.03,24,15,1.49,SaLo,Sandy loam,2,NA,100,NA,949,237,318,3,0.6,1,949,0.5,5,4,8,4,7,5
Thorpe,10,30,20,11,1.59,NA,0.02,0.14,0.3,0.17,0.28,0.35,0.4,0.12,1.78,5.4,71,52,18,10,18,99,53,18,72,10,18,57,25,18,100,57,25,18,0,0.02,20,22,1.59,SaLo,Sandy loam,2,NA,100,NA,835,237,318,3,0.6,1,835,0.5,5,4,8,4,7,5
Thorpe,30,50,40,11,1.68,NA,0.02,0.14,0.32,0.16,0.23,0.32,0.37,0.13,1.18,5.3,70,48,20,10,20,100,48,20,70,10,20,55,24,20,99,56,24,20,0,0.02,20,14,1.68,SaLo,Sandy loam,2,NA,100,NA,789,318,415,3,0.6,1,789,0.5,5,4,8,4,7,5
Thorpe,50,70,60,11,1.7,NA,0.02,0.14,0.29,0.15,0.2,0.31,0.36,0.16,0.75,5.5,72,50,20,10,19,101,50,20,71,10,19,58,23,19,100,58,23,19,0,0.01,20,10,1.7,SaLo,Sandy loam,2,NA,100,31,846,680,830,3,0.6,1,846,0.5,5,4,8,4,7,4
Thorpe,70,90,80,11,1.7,NA,0.02,0.15,0.24,0.15,0.18,0.31,0.36,0.17,0.47,5.5,76,56,18,10,14,100,56,18,76,10,14,64,23,14,101,63,23,14,0,0.01,20,6,1.7,SaLo,Sandy loam,2,NA,50,31,1017,849,1016,3,0.6,1,1017,0.5,5,3,8,3,7,4
Thorpe,90,120,105,11,1.7,NA,0.03,0.1,0.18,0.09,0.12,0.31,0.36,0.24,0.32,5.6,78,60,16,9,14,101,59,16,77,9,14,64,22,14,100,64,22,14,0,0.01,20,9,1.7,SaLo,Sandy loam,2,NA,50,31,1075,3000,3215,3,0.6,1,1075,0.5,3,1,6,1,7,2
Thorpe,120,150,135,11,1.7,NA,0.03,0.06,0.13,0.02,0.07,0.3,0.36,0.29,0.22,5.8,74,57,18,10,14,98,58,18,76,10,14,61,24,14,99,62,24,14,0,0.01,20,15,1.7,SaLo,Sandy loam,2,NA,50,31,963,5997,6050,3,0.6,1,963,0.5,2,1,3,1,7,1
Tolga,0,10,5,6,1.18,1.13,0.05,0.25,NA,0.26,0.49,0.55,0.55,0.07,4.44,6.4,22,11,10,17,58,97,11,10,23,18,60,12,27,58,97,12,28,60,0,0.09,22,23,1.13,Cl,Clay,6,NA,100,NA,367,33,14,4,NA,NA,5000,0.3,4,6,6,6,4,6
Tolga,10,30,20,6,1.23,1.14,0.05,0.28,NA,0.27,0.48,0.54,0.55,0.07,3.69,6.2,16,8,10,17,64,97,8,10,16,18,66,10,22,64,96,10,23,67,0,0.05,26,42,1.14,Cl,Clay,6,NA,100,NA,336,33,14,4,NA,NA,5000,0.3,4,6,6,6,4,6
Tolga,30,50,40,6,1.3,1.19,0.05,0.29,NA,0.29,0.45,0.52,0.53,0.07,2.44,6.4,16,6,9,14,70,100,6,9,16,14,70,10,15,70,95,11,16,74,0,0.03,24,32,1.19,Cl,Clay,6,NA,100,NA,264,33,14,4,NA,NA,5000,0.3,4,6,6,6,4,6
Tolga,50,70,60,6,1.34,1.27,0.05,0.29,NA,0.3,0.44,0.5,0.52,0.06,1.55,6.7,16,6,8,11,74,101,6,8,16,11,73,13,9,74,96,14,9,77,0,0.02,23,28,1.27,Cl,Clay,6,NA,100,31,210,19,9,4,NA,NA,5000,0.3,4,6,6,6,4,6
Tolga,70,90,80,6,1.35,1.29,0.04,0.32,NA,0.32,0.44,0.51,0.51,0.05,0.98,6.8,13,5,8,10,77,100,5,8,13,10,77,14,10,77,101,14,10,76,0,0.02,21,24,1.29,Cl,Clay,6,NA,50,31,193,10,5,4,NA,NA,5000,0.3,4,6,6,6,4,6
Tolga,90,120,105,6,1.35,1.29,0.04,0.32,NA,0.32,0.44,0.51,0.51,0.05,0.98,6.8,13,5,8,10,77,100,5,8,13,10,77,14,10,77,101,14,10,76,0,0.02,21,24,1.34,Cl,Clay,6,NA,50,31,151,10,5,4,NA,NA,5000,0.3,4,0,5,0,4,5
Tolga,120,150,135,6,1.35,1.29,0.04,0.32,NA,0.32,0.44,0.51,0.51,0.05,0.98,6.8,13,5,8,10,77,100,5,8,13,10,77,14,10,77,101,14,10,76,0,0.02,21,24,1.3,Cl,Clay,6,NA,50,31,178,10,5,4,NA,NA,5000,0.3,0,0,0,0,4,0
Toobanna,0,10,5,11,1.43,NA,0.02,0.16,0.37,0.19,0.35,0.41,0.46,0.12,1.98,5.6,48,5,43,34,19,101,5,43,48,34,19,24,56,19,99,24,57,19,0,0.05,34,16,1.325,SiLo,Silty loam,3,1.325,100,NA,436,237,318,2,NA,NA,436,0.5,11,5,5,5,4,5
Toobanna,10,30,20,11,1.51,NA,0.02,0.18,0.36,0.2,0.32,0.38,0.43,0.11,1.64,5.6,48,6,41,32,25,105,6,39,46,30,24,26,55,25,106,25,52,24,0,0.02,21,24,1.45,SiLo,Silty loam,3,1.45,100,NA,399,173,237,2,NA,NA,399,0.4,11,5,5,5,4,5
Toobanna,30,50,40,11,1.55,NA,0.02,0.21,0.37,0.22,0.31,0.37,0.41,0.1,1.09,6.1,42,4,38,27,31,100,4,38,42,27,31,22,47,31,100,22,47,31,9,0.04,31,18,1.55,SiClLo,Silty clay loam,4,1.55,100,NA,309,122,173,2,NA,NA,309,0.4,11,5,5,5,4,5
Toobanna,50,70,60,11,1.56,NA,0.03,0.24,0.39,0.24,0.31,0.38,0.41,0.1,0.69,6.7,40,2,38,24,35,99,2,38,40,24,35,22,43,35,100,22,43,35,15,0.06,48,14,1.6,ClLo,Clay loam,4,1.6,100,4,276,122,173,2,NA,NA,4,0.3,5,5,5,5,4,5
Toobanna,70,90,80,11,1.57,NA,0.03,0.25,0.35,0.25,0.31,0.37,0.41,0.1,0.44,7,45,3,41,23,33,101,3,41,45,23,33,25,42,33,100,25,42,33,22,0.08,64,12,1.62,ClLo,Clay loam,4,1.62,1,2,326,122,173,2,NA,NA,2,0.4,5,5,5,5,4,5
Toobanna,90,120,105,11,1.63,NA,0.03,0.24,NA,0.23,0.28,0.35,0.39,0.1,0.3,7.1,52,10,42,18,29,99,10,42,53,18,29,34,36,29,99,34,36,29,29,0.1,143,15,1.62,ClLo,Clay loam,4,1.62,1,2,420,122,173,2,NA,NA,2,0.4,5,2,5,2,4,5
Toobanna,120,150,135,11,1.69,NA,0.04,0.22,NA,0.2,0.25,0.32,0.36,0.12,0.2,7.2,56,12,44,16,28,100,12,44,56,16,28,38,34,28,100,38,34,28,31,0.13,127,15,1.69,ClLo,Clay loam,4,NA,1,1,476,237,318,2,NA,NA,1,0.4,2,2,2,2,4,2
Tully,0,10,5,6,1.23,NA,0.02,0.25,0.42,0.25,0.44,0.5,0.53,0.09,3.5,5.3,26,2,24,30,43,99,2,24,26,30,43,10,47,43,100,10,47,43,0,0.09,25,19,1.23,SiCl,Silty clay,5,NA,100,NA,201,83,33,3,0,NA,201,0.3,2,3,2,1,2,2
Tully,10,30,20,6,1.3,NA,0.02,0.27,0.43,0.27,0.42,0.48,0.51,0.09,2.9,4.9,28,3,25,29,43,100,3,25,28,29,43,12,45,43,100,12,45,43,0,0.04,21,30,1.3,SiCl,Silty clay,5,NA,100,NA,123,83,33,3,0,NA,123,0.3,2,3,2,1,2,2
Tully,30,50,40,6,1.45,NA,0.02,0.25,0.46,0.26,0.35,0.41,0.45,0.1,1.92,5,36,2,34,27,38,101,2,34,36,27,38,17,45,38,100,17,45,38,0,0.02,20,18,1.45,SiClLo,Silty clay loam,4,NA,100,NA,237,122,173,3,0,NA,237,0.3,2,3,2,1,2,2
Tully,50,70,60,6,1.61,NA,0.03,0.21,0.49,0.22,0.28,0.34,0.39,0.12,1.22,5.1,48,2,46,24,28,100,2,46,48,24,28,27,44,28,99,27,44,28,0,0.02,20,12,1.61,ClLo,Clay loam,4,NA,100,31,382,237,318,3,0,NA,382,0.4,2,3,2,1,2,2
Tully,70,90,80,6,1.7,NA,0.03,0.19,0.48,0.19,0.23,0.31,0.36,0.12,0.77,5.3,60,3,56,18,22,100,3,56,60,18,22,39,38,22,99,39,38,22,0,0.02,20,8,1.7,Lo,Loam,3,NA,50,31,581,237,318,3,0,NA,581,0.5,2,3,2,1,2,2
Tully,90,120,105,6,1.7,NA,0.03,0.15,0.38,0.13,0.17,0.31,0.36,0.19,0.52,5.3,66,9,58,17,16,99,9,59,67,17,16,47,36,16,99,47,36,16,0,0.02,20,12,1.7,Lo,Loam,3,NA,50,31,749,1276,1474,3,0,NA,749,0.5,2,3,2,1,2,2
Tully,120,150,135,6,1.7,NA,0.03,0.07,0.2,0.04,0.08,0.3,0.36,0.28,0.35,5.3,76,35,40,12,12,100,35,40,76,12,12,61,27,12,100,61,27,12,0,0.02,20,12,1.7,SaLo,Sandy loam,2,NA,50,31,1048,5274,5381,3,0,NA,1048,0.5,2,3,2,1,2,1
