soil_gp,UD,LD,midPnt_cm,Total_prof,PAWCER_BD,BDfield,ADMC_vv,m15bar_vv,m3rdbar_vv,PAWCER_DLL,PAWCER_DUL,SAT,TP,EP,TOC,pHw,Sand_perc,Csand_perc,Fsand_perc,Silt_perc,Clay_perc,Total,Csandr,Fsandr,Sandr,Siltr,Clayr,P50_2000,P2_50,P2,Ptotal,P50_2000r,P2_50r,P2r,ESP,EC,Chloride,PAWCER_PAWC_mm,BDbest,textureClass_AUST,textureClassFull_AUST,NorthcoteID,Ks_rule_mmday,Ks_Shaw_mmday,Ks_PCRbest_mmday,Ks_MinG_mmday,Ks_MinT_mmday,PCR_code,MinG_code,MinT_code,perm_final,Ks_to_use,Ks_final,macro_ab,macro_dia,SWCON
Calen,0,10,5,21,1.52,1.51,0.02,0.11,0.32,0.15,0.31,0.37,0.43,0.12,1.28,5.8,63,14,42,21,18,102,14,41,62,21,18,44,42,18,104,42,40,17,0,0.05,21,16,1.51,Lo,Loam,3,100,NA,670,237,318,mod,mod low,mod low,2,PCR_best,670,NA,NA,0.5
Calen,10,30,20,21,1.61,1.56,0.02,0.13,0.39,0.16,0.27,0.34,0.39,0.12,1.07,6.4,59,13,40,20,22,101,13,40,58,20,22,41,40,22,103,40,39,21,3,0.05,26,22,1.56,Lo,Loam,3,100,NA,565,237,318,mod,mod low,mod low,2,PCR_best,565,NA,NA,0.5
Calen,30,50,40,21,1.53,1.56,0.04,0.22,0.52,0.23,0.32,0.38,0.42,0.1,0.71,6.6,45,11,31,18,41,104,11,30,43,17,39,27,33,41,101,27,33,41,8,0.07,33,18,1.56,Cl,Clay,6,100,NA,9,122,47,low,mod low,low,2,PCR_best,9,NA,NA,0.3
Calen,50,70,60,21,1.53,1.54,0.04,0.25,0.54,0.25,0.33,0.4,0.4,0.09,0.45,7.1,40,8,30,17,46,103,8,29,39,17,45,26,29,46,101,26,29,46,10,0.09,45,16,1.54,Cl,Clay,6,100,5,8,83,33,low,low,low,2,Shaw,5,NA,NA,0.3
Calen,70,90,80,21,1.56,1.6,0.04,0.25,0.53,0.25,0.32,0.38,0.38,0.09,0.28,7.6,40,11,31,16,44,100,11,31,40,16,44,26,30,44,100,26,30,44,11,0.13,97,14,1.6,Cl,Clay,6,5,5,6,83,33,low,low,low,2,Shaw,5,NA,NA,0.3
Calen,90,120,105,21,1.57,1.73,0.04,0.26,0.51,0.26,0.31,0.38,0.36,0.05,0.19,8.2,43,14,31,15,41,99,14,31,43,15,41,29,30,41,100,29,30,41,12,0.16,179,15,1.73,Cl,Clay,6,5,5,3,10,5,low,low,low,2,Shaw,5,NA,NA,0.3
Calen,120,150,135,21,1.53,1.74,0.03,0.3,0.53,0.24,0.29,0.39,0.34,0.05,0.13,8.4,54,30,25,13,32,99,30,25,55,13,32,39,28,32,99,39,28,32,16,0.33,254,15,1.74,ClLo,Clay loam,4,5,3,425,10,17,mod low,low,low,2,Shaw,3,NA,NA,0.4
Cameron,0,10,5,3,1.39,NA,0.03,0.17,0.36,0.2,0.36,0.41,0.47,0.12,1.99,5.7,59,14,45,22,19,100,14,45,59,22,19,38,43,19,100,38,43,19,0,0.07,37,16,1.39,Lo,Loam,3,100,NA,591,237,318,mod,mod low,mod low,4,PCR_best,591,NA,NA,0.5
Cameron,10,30,20,3,1.5,NA,0.03,0.18,0.37,0.2,0.32,0.38,0.43,0.12,1.65,5.4,60,13,47,20,19,99,13,47,61,20,19,38,40,19,97,39,41,20,0,0.04,40,24,1.5,Lo,Loam,3,100,NA,607,237,318,mod,mod low,mod low,4,PCR_best,607,NA,NA,0.5
Cameron,30,50,40,3,1.66,NA,0.03,0.16,0.35,0.18,0.26,0.33,0.38,0.12,1.1,5.6,68,23,53,14,18,100,23,53,68,14,18,51,31,18,100,51,31,18,0,0.03,37,16,1.66,Lo,Loam,3,100,NA,769,237,318,mod,mod low,mod low,4,PCR_best,769,NA,NA,0.5
Cameron,50,70,60,3,1.7,NA,0.02,0.13,0.29,0.14,0.18,0.31,0.36,0.18,0.7,5.9,74,15,59,8,16,98,15,60,76,8,16,62,20,16,98,63,20,16,0,0.03,27,8,1.7,SaLo,Sandy loam,2,100,31,935,1047,1230,mod,mod high,mod high,4,PCR_best,935,NA,NA,0.5
Cameron,70,90,80,3,1.7,NA,0.02,0.1,0.23,0.11,0.14,0.3,0.36,0.22,0.44,6.4,79,16,60,6,15,100,16,60,79,6,15,69,16,15,100,69,16,15,0,0.02,20,6,1.7,SaLo,Sandy loam,2,50,31,1089,2182,2405,mod high,high,high,4,PCR_best,1089,NA,NA,0.5
Cameron,90,120,105,3,1.7,NA,0.03,0.16,0.41,0.15,0.19,0.31,0.36,0.17,0.3,6.6,83,12,61,5,12,100,12,61,83,5,12,74,14,12,100,74,14,12,0,0.01,20,12,1.7,SaLo,Sandy loam,2,50,31,1271,849,1016,mod high,mod,mod high,4,PCR_best,1271,NA,NA,0.5
Cameron,120,150,135,3,1.7,NA,0.03,0.17,0.42,0.14,0.19,0.31,0.36,0.17,0.2,6.7,78,10,68,8,14,100,10,68,78,8,14,66,20,14,100,66,20,14,18,0.02,29,15,1.7,SaLo,Sandy loam,2,5,3,1075,849,1016,mod high,mod,mod high,4,PCR_best,1075,NA,NA,0.5
Dunwold,0,10,5,8,1.6,NA,0.02,0.06,0.17,0.11,0.27,0.33,0.4,0.13,1.34,5.8,83,51,32,8,10,101,50,32,82,8,10,72,18,10,100,72,18,10,0,0.03,20,16,1.6,SaLo,Sandy loam,2,100,NA,1309,318,415,mod high,mod low,mod low,2,PCR_best,1309,NA,NA,0.5
Dunwold,10,30,20,8,1.7,NA,0.02,0.06,0.16,0.11,0.21,0.3,0.36,0.15,1.11,5.9,82,50,32,8,10,100,50,32,82,8,10,71,19,10,100,71,19,10,0,0.03,20,20,1.7,SaLo,Sandy loam,2,100,NA,1274,537,669,mod high,mod,mod,2,PCR_best,1274,NA,NA,0.5
Dunwold,30,50,40,8,1.7,NA,0.02,0.08,0.17,0.11,0.17,0.3,0.36,0.19,0.74,6.1,80,51,28,8,12,100,51,28,80,8,12,69,19,12,100,69,19,12,0,0.03,20,12,1.7,SaLo,Sandy loam,2,100,NA,1170,1276,1474,mod high,mod high,mod high,2,PCR_best,1170,NA,NA,0.5
Dunwold,50,70,60,8,1.7,NA,0.03,0.16,0.29,0.17,0.22,0.31,0.36,0.14,0.47,6.1,72,56,15,5,22,99,57,15,73,5,22,63,14,22,99,64,14,22,0,0.03,20,10,1.7,SaClLo,Sandy clay loam,3,100,31,810,417,531,mod,mod low,mod,2,PCR_best,810,NA,NA,0.5
Dunwold,70,90,80,8,1.66,NA,0.03,0.17,0.3,0.18,0.22,0.33,0.37,0.15,0.29,6.4,68,54,14,4,27,99,55,14,69,4,27,59,14,27,100,59,14,27,2,0.03,20,8,1.66,SaClLo,Sandy clay loam,3,50,14,673,537,669,mod,mod,mod,2,PCR_best,673,NA,NA,0.4
Dunwold,90,120,105,8,1.56,NA,0.03,0.26,0.39,0.26,0.32,0.38,0.41,0.09,0.2,7.1,62,43,19,10,28,100,43,19,62,10,28,47,24,28,99,47,24,28,7,0.02,20,18,1.56,ClLo,Clay loam,4,5,7,562,83,121,mod,low,mod low,2,PCR_best,562,NA,NA,0.4
Dunwold,120,150,135,8,1.56,NA,0.03,0.26,0.39,0.26,0.32,0.38,0.41,0.09,0.2,7.1,62,43,19,10,28,100,43,19,62,10,28,47,24,28,99,47,24,28,7,0.02,20,18,1.56,ClLo,Clay loam,4,5,7,562,83,121,mod,low,mod low,2,PCR_best,562,NA,NA,0.4
Ilbilbie,0,10,5,1,1.64,NA,0.01,0.03,NA,0.1,0.24,0.31,0.38,0.14,0.96,5.6,93,56,37,5,1,99,57,37,94,5,1,87,12,1,100,87,12,1,0,0.01,NA,14,1.64,Sa,Sand,1,100,NA,6314,417,712,high,mod low,mod,NA,PCR_best,6314,NA,NA,0.7
Ilbilbie,10,30,20,1,1.7,NA,0.01,0.03,NA,0.09,0.18,0.3,0.36,0.18,0.8,5.6,88,49,39,8,3,99,49,39,89,8,3,78,19,3,100,78,19,3,0,0.01,NA,18,1.7,LoSa,Loamy sand,3,100,NA,4734,1047,1648,high,mod high,mod high,NA,PCR_best,4734,NA,NA,0.7
Ilbilbie,30,50,40,1,1.7,NA,0.01,0.05,NA,0.08,0.13,0.3,0.36,0.22,0.53,5.6,86,46,40,7,7,100,46,40,86,7,7,76,17,7,100,76,17,7,0,0.01,NA,10,1.7,LoSa,Loamy sand,3,100,NA,2661,2182,3221,high,high,high,NA,PCR_best,2661,NA,NA,0.7
Ilbilbie,50,70,60,1,1.7,NA,0.02,0.07,NA,0.09,0.12,0.3,0.36,0.23,0.34,5.8,82,45,37,6,11,99,45,37,83,6,11,73,16,11,100,73,16,11,0,0.01,NA,6,1.7,SaLo,Sandy loam,2,100,31,1255,2567,2789,mod high,high,high,NA,PCR_best,1255,NA,NA,0.5
Ilbilbie,70,90,80,1,1.7,NA,0.02,0.1,NA,0.1,0.13,0.31,0.36,0.23,0.21,6,78,47,31,8,13,99,47,31,79,8,13,67,20,13,100,67,20,13,1,0.01,NA,6,1.7,SaLo,Sandy loam,2,50,18,1091,2567,2789,mod high,high,high,NA,PCR_best,1091,NA,NA,0.5
Ilbilbie,90,120,105,1,1.7,NA,0.02,0.1,NA,0.1,0.13,0.31,0.36,0.23,0.21,6,78,47,31,8,13,99,47,31,79,8,13,67,20,13,100,67,20,13,1,0.01,NA,6,1.7,SaLo,Sandy loam,2,50,18,1091,2567,2789,mod high,high,high,NA,PCR_best,1091,NA,NA,0.5
Ilbilbie,120,150,135,1,1.7,NA,0.02,0.1,NA,0.1,0.13,0.31,0.36,0.23,0.21,6,78,47,31,8,13,99,47,31,79,8,13,67,20,13,100,67,20,13,1,0.01,NA,6,1.7,SaLo,Sandy loam,2,50,18,1091,2567,2789,mod high,high,high,NA,PCR_best,1091,NA,NA,0.5
Marian,0,10,5,8,1.41,1.58,0.02,0.17,0.37,0.19,0.35,0.4,0.41,0.09,2.03,5.8,66,20,44,18,17,101,20,44,65,18,17,48,38,17,103,47,37,17,0,0.06,41,16,1.58,Lo,Loam,3,100,NA,738,83,121,mod,low,mod low,2,PCR_best,738,NA,NA,0.5
Marian,10,30,20,8,1.47,1.59,0.03,0.21,0.43,0.22,0.33,0.39,0.4,0.06,1.69,6,62,16,38,16,22,100,16,38,62,16,22,43,33,22,98,44,34,22,0,0.04,31,22,1.59,Lo,Loam,3,100,NA,614,19,31,mod,low,low,2,PCR_best,614,NA,NA,0.5
Marian,30,50,40,8,1.38,1.56,0.04,0.32,0.52,0.28,0.39,0.44,0.43,0.04,1.12,6.4,46,12,30,13,44,103,12,29,45,13,43,32,27,44,103,31,26,43,2,0.03,22,22,1.56,Cl,Clay,6,100,NA,6,4,2,low,low,low,2,PCR_best,6,NA,NA,0.3
Marian,50,70,60,8,1.41,1.66,0.04,0.32,0.53,0.29,0.37,0.43,0.4,0.04,0.71,6.8,46,11,34,14,40,100,11,34,46,14,40,31,29,40,100,31,29,40,3,0.04,20,16,1.66,Cl,Clay,6,100,12,3,4,2,low,low,low,2,PCR_best,3,NA,NA,0.3
Marian,70,90,80,8,1.55,1.77,0.04,0.26,0.55,0.25,0.3,0.37,0.36,0.06,0.45,7,53,10,42,14,34,101,10,42,52,14,34,36,30,34,100,36,30,34,3,0.04,20,10,1.77,Cl,Clay,6,50,12,3,19,9,low,low,low,2,PCR_best,3,NA,NA,0.4
Marian,90,120,105,8,1.6,1.81,0.04,0.28,0.54,0.24,0.29,0.36,0.32,0.02,0.3,7.6,54,6,44,15,31,100,6,44,54,15,31,37,31,31,99,37,31,31,4,0.04,20,15,1.81,ClLo,Clay loam,4,50,10,431,0,1,mod low,low,low,2,PCR_best,431,NA,NA,0.4
Marian,120,150,135,8,1.6,1.83,0.04,0.28,0.52,0.24,0.29,0.36,0.33,0.04,0.2,8.4,53,14,39,16,31,100,14,39,53,16,31,34,33,31,98,35,34,32,0,0.13,20,15,1.83,ClLo,Clay loam,4,50,31,419,4,8,mod low,low,low,2,PCR_best,419,NA,NA,0.4
Pindi,0,10,5,4,1.52,NA,0.02,0.11,0.22,0.15,0.3,0.36,0.43,0.13,1.28,6.4,78,40,38,8,13,99,40,38,79,8,13,67,20,13,100,67,20,13,0,0.04,20,15,1.52,SaLo,Sandy loam,2,100,NA,1091,318,415,mod high,mod low,mod low,1,PCR_best,1091,NA,NA,0.5
Pindi,10,30,20,4,1.61,NA,0.03,0.13,0.23,0.16,0.27,0.34,0.39,0.12,1.07,6.3,70,32,38,10,19,99,32,38,71,10,19,57,24,19,100,57,24,19,1,0.03,20,22,1.61,SaLo,Sandy loam,2,100,NA,801,237,318,mod,mod low,mod low,1,PCR_best,801,NA,NA,0.5
Pindi,30,50,40,4,1.38,NA,0.05,0.28,0.41,0.27,0.4,0.46,0.48,0.08,0.71,6.3,40,19,20,8,54,102,19,20,39,8,53,30,17,54,101,30,17,53,15,0.05,41,26,1.38,Cl,Clay,6,100,NA,116,54,22,mod low,low,low,1,PCR_best,116,NA,NA,0.3
Pindi,50,70,60,4,1.4,NA,0.05,0.29,0.43,0.29,0.4,0.46,0.47,0.07,0.45,6.8,34,16,18,10,56,100,16,18,34,10,56,26,18,56,100,26,18,56,22,0.07,64,22,1.4,Cl,Clay,6,100,2,75,33,14,low,low,low,1,Shaw,2,NA,NA,0.3
Pindi,70,90,80,4,1.42,NA,0.05,0.3,0.46,0.3,0.39,0.45,0.46,0.08,0.28,7.3,30,12,18,15,56,101,12,18,30,15,55,20,25,56,101,20,25,55,29,0.06,73,18,1.42,Cl,Clay,6,1,2,37,54,22,low,low,low,1,Shaw,2,NA,NA,0.3
Pindi,90,120,105,4,1.51,NA,0.07,0.28,0.49,0.28,0.34,0.41,0.43,0.09,0.19,5.5,41,25,16,12,47,100,25,16,41,12,47,29,24,47,100,29,24,47,37,0.09,140,18,1.51,Cl,Clay,6,1,1,12,83,33,low,low,low,1,Shaw,1,NA,NA,0.3
Pindi,120,150,135,4,1.51,NA,0.07,0.28,0.49,0.28,0.34,0.41,0.43,0.09,0.19,5.5,41,25,16,12,47,100,25,16,41,12,47,29,24,47,100,29,24,47,37,0.09,140,18,1.51,Cl,Clay,6,1,1,12,83,33,low,low,low,1,Shaw,1,NA,NA,0.3
Proserpine,0,10,5,3,1.64,NA,0.01,0.04,0.14,0.1,0.24,0.31,0.38,0.14,0.43,6.5,87,51,31,3,5,95,54,33,92,3,5,81,9,5,95,85,9,5,0,0.11,96,14,1.64,Sa,Sand,1,100,NA,3549,417,712,high,mod low,mod,3,PCR_best,3549,NA,NA,0.7
Proserpine,10,30,20,3,1.69,NA,0.03,0.08,0.24,0.13,0.23,0.3,0.36,0.13,0.36,6.8,88,33,39,3,6,97,34,40,91,3,6,82,9,6,97,85,9,6,0,0.05,23,20,1.69,Sa,Sand,1,100,NA,3073,318,556,high,mod low,mod,3,PCR_best,3073,NA,NA,0.7
Proserpine,30,50,40,3,1.7,NA,0.03,0.11,0.34,0.13,0.19,0.3,0.36,0.17,0.24,6.4,83,30,39,6,11,100,30,39,83,6,11,73,16,11,100,73,16,11,0,0.05,28,12,1.7,SaLo,Sandy loam,2,100,NA,1290,849,1016,mod high,mod,mod high,3,PCR_best,1290,NA,NA,0.5
Proserpine,50,70,60,3,1.7,NA,0.03,0.12,0.38,0.13,0.17,0.3,0.36,0.19,0.15,6.3,81,17,64,7,12,100,17,64,81,7,12,70,18,12,100,70,18,12,0,0.02,20,8,1.7,SaLo,Sandy loam,2,100,31,1203,1276,1474,mod high,mod high,mod high,3,PCR_best,1203,NA,NA,0.5
Proserpine,70,90,80,3,1.7,NA,0.03,0.09,0.35,0.09,0.12,0.3,0.36,0.24,0.09,6.3,83,20,66,6,11,100,20,66,83,6,11,73,16,11,100,73,16,11,0,0.02,68,6,1.7,SaLo,Sandy loam,2,50,31,1290,3000,3215,mod high,high,high,3,PCR_best,1290,NA,NA,0.5
Proserpine,90,120,105,3,1.7,NA,0.03,0.1,0.36,0.09,0.12,0.31,0.36,0.24,0.06,6.7,77,22,64,7,15,99,22,65,78,7,15,67,18,15,100,67,18,15,0,0.02,20,9,1.7,SaLo,Sandy loam,2,50,31,1030,3000,3215,mod high,high,high,3,PCR_best,1030,NA,NA,0.5
Proserpine,120,150,135,3,1.7,NA,0.04,0.17,0.44,0.15,0.19,0.31,0.36,0.17,0.04,6.9,68,19,48,14,18,100,19,48,68,14,18,52,30,18,100,52,30,18,3,0.02,23,12,1.7,Lo,Loam,3,50,12,769,849,1016,mod,mod,mod high,3,PCR_best,769,NA,NA,0.5
Sandiford,0,10,5,4,1.52,1.38,0.02,0.11,0.31,0.15,0.31,0.37,0.43,0.13,1.71,5.7,65,26,41,16,18,99,26,41,66,16,18,47,34,18,99,47,34,18,1,0.07,37,16,1.38,Lo,Loam,3,100,NA,708,318,415,mod,mod low,mod low,2,PCR_best,708,NA,NA,0.5
Sandiford,10,30,20,4,1.63,1.49,0.02,0.12,0.34,0.15,0.26,0.33,0.38,0.12,1.42,5.4,62,23,37,16,22,100,23,37,62,16,22,43,34,22,99,43,34,22,4,0.08,40,22,1.49,Lo,Loam,3,100,NA,614,237,318,mod,mod low,mod low,2,PCR_best,614,NA,NA,0.5
Sandiford,30,50,40,4,1.45,1.58,0.04,0.26,0.46,0.25,0.37,0.43,0.44,0.08,0.94,5.6,42,20,27,11,46,99,20,27,42,11,46,30,23,46,99,30,23,46,7,0.11,117,24,1.58,Cl,Clay,6,100,NA,10,54,22,low,low,low,2,PCR_best,10,NA,NA,0.3
Sandiford,50,70,60,4,1.45,1.61,0.04,0.28,0.51,0.27,0.37,0.44,0.45,0.08,0.6,6.1,41,16,24,12,47,100,16,24,41,12,47,29,25,47,101,29,25,47,10,0.15,162,20,1.61,Cl,Clay,6,100,5,5,54,22,low,low,low,2,Shaw,5,NA,NA,0.3
Sandiford,70,90,80,4,1.55,1.58,0.04,0.26,0.47,0.26,0.32,0.39,0.4,0.09,0.38,6.8,48,16,31,13,40,101,16,31,48,13,40,34,27,40,101,34,27,40,11,0.14,143,12,1.58,Cl,Clay,6,5,5,9,83,33,low,low,low,2,Shaw,5,NA,NA,0.3
Sandiford,90,120,105,4,1.55,1.58,0.04,0.27,0.48,0.26,0.32,0.38,0.4,0.09,0.26,7.4,40,11,28,17,41,98,11,29,41,17,42,26,33,41,100,26,33,41,12,0.12,127,18,1.58,Cl,Clay,6,5,5,8,83,33,low,low,low,2,Shaw,5,NA,NA,0.3
Sandiford,120,150,135,4,1.59,1.6,0.04,0.26,0.46,0.25,0.3,0.37,0.4,0.1,0.17,8.1,46,20,25,19,37,102,20,25,45,19,36,27,36,37,100,27,36,37,9,0.09,85,15,1.6,ClLo,Clay loam,4,5,6,316,122,173,mod low,mod low,mod low,2,Shaw,6,NA,NA,0.3
Victoria Plains,0,10,5,16,1.23,1.27,0.05,0.27,0.53,0.25,0.46,0.52,0.54,0.08,3.48,6.4,24,6,18,26,54,104,6,17,23,25,52,10,39,54,103,10,38,52,3,0.16,94,21,1.27,Cl,Clay,6,100,NA,69,54,22,low,low,low,2,PCR_best,69,NA,NA,0.3
Victoria Plains,10,30,20,16,1.28,1.31,0.05,0.28,0.56,0.27,0.44,0.5,0.51,0.08,2.89,6.5,22,6,17,24,54,100,6,17,22,24,54,9,34,54,97,9,35,56,4,0.17,88,34,1.31,Cl,Clay,6,100,NA,38,54,22,low,low,low,2,PCR_best,38,NA,NA,0.3
Victoria Plains,30,50,40,16,1.33,1.27,0.05,0.3,0.57,0.29,0.42,0.48,0.5,0.08,1.91,7.1,21,6,16,21,54,96,6,17,22,22,56,13,34,54,101,13,34,53,6,0.22,125,26,1.27,Cl,Clay,6,100,NA,48,54,22,low,low,low,2,PCR_best,48,NA,NA,0.3
Victoria Plains,50,70,60,16,1.33,1.29,0.03,0.32,0.58,0.32,0.42,0.48,0.5,0.08,1.22,7.4,23,7,19,18,53,94,7,20,24,19,56,17,31,53,101,17,31,52,6,0.19,120,20,1.29,Cl,Clay,6,100,8,35,54,22,low,low,low,2,Shaw,8,NA,NA,0.3
Victoria Plains,70,90,80,16,1.28,1.36,0.04,0.36,0.64,0.34,0.45,0.52,0.49,0.07,0.77,7.5,25,7,15,18,61,104,7,14,24,17,59,17,29,61,107,16,27,57,7,0.23,220,22,1.36,Cl,Clay,6,5,7,11,33,14,low,low,low,2,Shaw,7,NA,NA,0.3
Victoria Plains,90,120,105,16,1.24,1.39,0.04,0.41,0.63,0.37,0.47,0.53,0.48,-0.01,0.52,7.8,28,7,16,18,57,103,7,16,27,17,55,19,25,57,101,19,25,56,8,0.29,337,30,1.39,Cl,Clay,6,5,6,8,NA,NA,low,low,low,2,Shaw,6,NA,NA,0.3
Victoria Plains,120,150,135,16,1.34,1.52,0.04,0.39,0.55,0.35,0.41,0.47,0.42,-0.03,0.35,6.8,37,9,28,12,51,100,9,28,37,12,51,26,23,51,100,26,23,51,NA,0.55,667,18,1.52,Cl,Clay,6,NA,NA,5,NA,NA,low,low,low,2,Shaw,6,NA,NA,0.3
Wagoora,0,10,5,10,1.25,1.32,0.03,0.25,0.45,0.24,0.43,0.49,0.51,0.08,2.89,6,38,12,23,26,38,102,12,23,37,25,37,19,44,38,101,19,44,38,0,0.05,20,19,1.32,ClLo,Clay loam,4,100,NA,250,54,82,mod low,low,low,2,PCR_best,250,1,NA,0.3
Wagoora,10,30,20,10,1.29,1.39,0.05,0.28,0.45,0.27,0.42,0.48,0.51,0.08,2.4,6.2,27,10,17,21,48,96,10,18,28,22,50,18,33,48,99,18,33,48,3,0.03,20,30,1.39,Cl,Clay,6,100,NA,53,54,22,low,low,low,2,PCR_best,53,1,NA,0.3
Wagoora,30,50,40,10,1.31,1.4,0.04,0.3,0.5,0.3,0.42,0.48,0.49,0.07,1.59,6.3,24,8,14,19,54,97,8,14,25,20,56,15,29,54,98,15,30,55,5,0.04,24,24,1.4,Cl,Clay,6,100,NA,27,33,14,low,low,low,2,PCR_best,27,1,NA,0.3
Wagoora,50,70,60,10,1.35,1.36,0.05,0.31,0.55,0.31,0.41,0.47,0.49,0.08,1.01,6.5,24,6,16,22,52,98,6,16,24,22,53,11,32,52,95,12,34,55,5,0.06,26,20,1.36,Cl,Clay,6,100,9,24,54,22,low,low,low,2,Shaw,9,1,NA,0.3
Wagoora,70,90,80,10,1.39,1.4,0.05,0.31,0.6,0.31,0.39,0.45,0.47,0.08,0.64,7.1,26,4,21,24,50,100,4,21,26,24,50,12,37,50,99,12,37,51,6,0.05,30,16,1.4,Cl,Clay,6,5,8,13,54,22,low,low,low,2,Shaw,8,1,NA,0.3
Wagoora,90,120,105,10,1.29,1.48,0.07,0.39,0.67,0.35,0.42,0.47,0.47,0.06,0.43,7.4,34,4,27,26,42,102,4,26,33,25,41,16,41,42,99,16,41,42,9,0.08,101,21,1.48,Cl,Clay,6,5,6,6,19,9,low,low,low,2,Shaw,6,1,NA,0.3
Wagoora,120,150,135,10,1.31,1.5,0.06,0.4,0.68,0.34,0.4,0.46,0.43,0.03,0.29,7.5,38,8,30,22,38,98,8,31,39,22,39,22,39,38,99,22,39,38,15,0.18,173,18,1.5,Cl,Clay,6,5,4,5,1,1,low,low,low,2,Shaw,4,1,NA,0.3
