"soil_gp","UD","LD","midPnt_cm","Total_prof","PAWCER_BD","ADMC_vv","m15bar_vv","m3rdbar_vv","PAWCER_DLL","PAWCER_DUL","SAT","TP","EP","TOC","pHw","Sand_perc","Csand_perc","Fsand_perc","Silt_perc","Clay_perc","Total","Csandr","Fsandr","Sandr","Siltr","Clayr","P50_2000","P2_50","P2","Ptotal","P50_2000r","P2_50r","P2r","ESP","EC","Chloride","PAWCER_PAWC_mm","BDbest","textureClass_AUST","textureClassFull_AUST","NorthcoteID"
"Alloway",0,10,5,6,1.63,0.01,0.05,NA,0.1,0.25,0.32,0.38,0.13,1.07,5.2,81,24,54,12,8,101,24,53,80,12,8,66,27,8,101,65,27,8,0,0.04,20,15,1.63,"LoSa","Loamy sand",3
"Alloway",10,30,20,6,1.7,0.01,0.05,NA,0.1,0.2,0.3,0.36,0.16,0.89,5.2,80,25,52,12,9,101,25,51,79,12,9,65,27,9,101,64,27,9,0,0.02,20,20,1.7,"LoSa","Loamy sand",3
"Alloway",30,50,40,6,1.7,0.01,0.11,NA,0.13,0.19,0.31,0.36,0.16,0.59,5.4,74,25,47,11,15,100,25,47,74,11,15,59,26,15,100,59,26,15,0,0.02,20,12,1.7,"SaLo","Sandy loam",2
"Alloway",50,70,60,6,1.68,0.02,0.17,NA,0.18,0.24,0.33,0.37,0.13,0.37,5.5,66,25,41,11,23,100,25,41,66,11,23,51,26,23,100,51,26,23,0,0.02,22,12,1.68,"ClLo","Clay loam",4
"Alloway",70,90,80,6,1.7,0.02,0.1,NA,0.11,0.14,0.31,0.36,0.22,0.24,5.7,58,20,39,12,30,100,20,39,58,12,30,41,27,30,98,42,28,31,0,0.03,38,6,1.7,"ClLo","Clay loam",4
"Alloway",90,120,105,6,1.7,0.03,0.03,NA,0.03,0.05,0.33,0.36,0.31,0.16,5.7,51,17,34,8,38,97,18,35,53,8,39,40,20,38,98,41,20,39,0,0.03,57,6,1.7,"Cl","Clay",6
"Alloway",120,150,135,6,NA,NA,NA,NA,NA,NA,NA,NA,NA,0.11,5.8,NA,NA,NA,NA,NA,NA,NA,NA,NA,NA,NA,NA,NA,NA,NA,NA,NA,NA,NA,0.04,131,NA,NA,NA,NA,NA
"Auburn",0,10,5,8,1.53,0.03,0.11,0.31,0.14,0.31,0.37,0.42,0.12,1.82,5.6,67,12,52,23,11,101,12,51,66,23,11,47,45,11,103,46,44,11,0,0.06,39,17,1.53,"LoSa","Loamy sand",3
"Auburn",10,30,20,8,1.5,0.04,0.19,0.42,0.19,0.34,0.4,0.44,0.1,1.51,6.1,54,9,43,18,27,99,9,43,55,18,27,36,37,27,100,36,37,27,12,0.09,84,30,1.5,"ClLo","Clay loam",4
"Auburn",30,50,40,8,1.52,0.04,0.23,0.46,0.23,0.34,0.4,0.43,0.09,1,8,50,8,34,18,34,102,8,33,49,18,33,33,33,34,100,33,33,34,12,0.37,216,22,1.52,"ClLo","Clay loam",4
"Auburn",50,70,60,8,1.55,0.04,0.24,0.49,0.24,0.33,0.39,0.41,0.09,0.64,8.5,50,7,36,18,32,100,7,36,50,18,32,31,34,32,97,32,35,33,17,0.65,751,18,1.55,"ClLo","Clay loam",4
"Auburn",70,90,80,8,1.58,0.03,0.25,NA,0.25,0.33,0.4,0.41,0.07,0.4,8.6,46,14,37,18,33,97,14,38,47,19,34,27,32,33,92,29,35,36,28,0.81,1029,16,1.58,"ClLo","Clay loam",4
"Auburn",90,120,105,8,NA,NA,NA,NA,NA,NA,NA,NA,NA,0.27,8.6,46,10,39,16,36,98,10,40,47,16,37,30,28,36,94,32,30,38,23,0.83,959,NA,NA,"Cl","Clay",6
"Auburn",120,150,135,8,NA,NA,NA,NA,NA,NA,NA,NA,NA,0.18,8.7,NA,NA,NA,NA,NA,NA,NA,NA,NA,NA,NA,NA,NA,NA,NA,NA,NA,NA,NA,0.88,20,NA,NA,NA,NA,NA
"Auburn",150,170,160,3,NA,NA,NA,NA,NA,NA,NA,NA,NA,0.18,NA,NA,NA,NA,NA,NA,NA,NA,NA,NA,NA,NA,NA,NA,NA,NA,NA,NA,NA,NA,NA,NA,NA,NA,NA,NA,NA
"Burnett",0,10,5,2,1.57,0.02,0.08,0.26,0.13,0.28,0.34,0.41,0.13,0.92,6.7,84,28,56,7,9,100,28,56,84,7,9,73,18,9,100,73,18,9,0,0.1,77,15,1.57,"LoSa","Loamy sand",3
"Burnett",10,30,20,2,1.7,0.02,0.08,0.24,0.12,0.22,0.3,0.36,0.14,0.76,7.4,83,26,57,8,9,100,26,57,83,8,9,70,21,9,100,70,21,9,0,0.08,35,20,1.7,"LoSa","Loamy sand",3
"Burnett",30,50,40,2,1.7,0.02,0.08,0.25,0.11,0.16,0.3,0.36,0.2,0.5,7.7,82,22,60,8,9,99,22,61,83,8,9,70,21,9,100,70,21,9,0,0.04,18,10,1.7,"LoSa","Loamy sand",3
"Burnett",50,70,60,2,1.7,0.02,0.07,0.26,0.09,0.12,0.3,0.36,0.24,0.32,7.7,84,21,63,7,8,99,21,64,85,7,8,74,17,8,99,75,17,8,1,0.02,20,6,1.7,"LoSa","Loamy sand",3
"Burnett",70,90,80,2,1.7,0.02,0.07,0.25,0.07,0.1,0.3,0.36,0.26,0.2,7.7,87,24,62,6,7,100,24,62,87,6,7,79,14,7,100,79,14,7,1,0.02,20,6,1.7,"LoSa","Loamy sand",3
"Burnett",90,120,105,2,1.7,0.03,0.17,0.27,0.16,0.2,0.31,0.36,0.16,0.14,7.8,77,18,58,7,16,100,18,58,77,7,16,66,18,16,100,66,18,16,7,0.04,20,12,1.7,"SaLo","Sandy loam",2
"Burnett",120,150,135,2,NA,NA,NA,NA,NA,NA,NA,NA,NA,0.09,7.4,NA,NA,NA,NA,NA,NA,NA,NA,NA,NA,NA,NA,NA,NA,NA,NA,NA,NA,NA,0.01,20,NA,NA,NA,NA,NA
"Burnett",150,170,160,2,NA,NA,NA,NA,NA,NA,NA,NA,NA,0.09,NA,NA,NA,NA,NA,NA,NA,NA,NA,NA,NA,NA,NA,NA,NA,NA,NA,NA,NA,NA,NA,NA,NA,NA,NA,NA,NA
"Childers",0,10,5,24,1.27,0.03,0.24,0.32,0.22,0.44,0.5,0.52,0.09,3.85,6.4,38,9,30,14,48,100,9,30,38,14,48,25,27,48,100,25,27,48,0,0.14,20,22,1.27,"Cl","Clay",6
"Childers",10,30,20,24,1.34,0.03,0.25,0.33,0.23,0.41,0.47,0.49,0.08,3.2,5.9,34,7,27,16,52,102,7,26,33,16,51,23,26,52,101,23,26,51,0,0.11,20,36,1.34,"Cl","Clay",6
"Childers",30,50,40,24,1.42,0.03,0.26,0.34,0.26,0.39,0.46,0.47,0.07,2.12,5.7,28,5,23,14,58,100,5,23,28,14,58,19,22,58,99,19,22,59,0,0.09,20,26,1.42,"Cl","Clay",6
"Childers",50,70,60,24,1.41,0.03,0.29,0.37,0.29,0.4,0.47,0.47,0.07,1.35,5.8,24,4,18,11,64,99,4,18,24,11,65,18,16,64,98,18,16,65,0,0.07,20,22,1.41,"Cl","Clay",6
"Childers",70,90,80,24,1.4,0.03,0.3,0.39,0.31,0.41,0.47,0.47,0.06,0.85,6,22,4,18,10,67,99,4,18,22,10,68,19,14,67,100,19,14,67,0,0.07,20,20,1.4,"Cl","Clay",6
"Childers",90,120,105,24,1.39,0.03,0.31,0.4,0.33,0.42,0.48,0.47,0.06,0.58,6.1,20,4,17,10,68,98,4,17,20,10,69,18,14,68,100,18,14,68,0,0.07,21,27,1.39,"Cl","Clay",6
"Childers",120,150,135,24,1.41,0.03,0.31,0.4,0.34,0.41,0.47,0.47,0.06,0.39,6.3,22,3,18,8,70,100,3,18,22,8,70,19,11,70,100,19,11,70,NA,0.07,24,21,1.41,"Cl","Clay",6
"Childers",150,170,160,3,NA,NA,NA,NA,NA,NA,NA,NA,NA,0.39,NA,NA,NA,NA,NA,NA,NA,NA,NA,NA,NA,NA,NA,NA,NA,NA,NA,NA,NA,NA,NA,NA,NA,NA,NA,NA,NA
"Fairymead",0,10,5,2,1.27,0.04,0.24,NA,0.23,0.44,0.5,0.52,0.08,6.63,4.8,30,5,25,24,46,100,5,25,30,24,46,14,40,46,100,14,40,46,13,0.16,103,21,1.27,"Cl","Clay",6
"Fairymead",10,30,20,2,1.32,0.05,0.26,NA,0.26,0.42,0.48,0.5,0.09,5.51,4.8,27,4,23,26,46,99,4,23,27,26,46,12,41,46,99,12,41,46,12,0.11,55,32,1.32,"Cl","Clay",6
"Fairymead",30,50,40,2,1.35,0.07,0.29,NA,0.28,0.41,0.47,0.49,0.08,3.65,4.6,26,4,22,24,50,100,4,22,26,24,50,11,38,50,99,11,38,51,16,0.2,112,26,1.35,"Cl","Clay",6
"Fairymead",50,70,60,2,1.37,0.09,0.3,NA,0.3,0.4,0.46,0.48,0.08,2.32,4.3,28,6,22,22,50,100,6,22,28,22,50,15,35,50,100,15,35,50,22,0.29,172,20,1.37,"Cl","Clay",6
"Fairymead",70,90,80,2,1.4,0.08,0.3,NA,0.31,0.39,0.45,0.47,0.08,1.46,4.3,42,17,26,18,40,100,17,26,42,18,40,26,34,40,100,26,34,40,27,0.32,213,16,1.4,"Cl","Clay",6
"Fairymead",90,120,105,2,NA,NA,NA,NA,NA,NA,NA,NA,NA,1,4.2,35,2,33,19,46,100,2,33,35,19,46,20,34,46,100,20,34,46,32,0.47,281,NA,NA,"Cl","Clay",6
"Fairymead",120,150,135,2,NA,NA,NA,NA,NA,NA,NA,NA,NA,0.66,NA,NA,NA,NA,NA,NA,NA,NA,NA,NA,NA,NA,NA,NA,NA,NA,NA,NA,NA,NA,NA,NA,NA,NA,NA,NA,NA
"Farnsfield",0,10,5,7,1.57,0.01,0.08,NA,0.12,0.28,0.34,0.41,0.13,1.39,5.9,79,38,40,10,12,101,38,40,78,10,12,65,25,12,102,64,25,12,0,0.03,20,16,1.57,"SaLo","Sandy loam",2
"Farnsfield",10,30,20,7,1.7,0.01,0.08,NA,0.12,0.23,0.3,0.36,0.13,1.15,5.7,77,36,40,11,12,100,36,40,77,11,12,61,26,12,99,62,26,12,0,0.02,21,22,1.7,"SaLo","Sandy loam",2
"Farnsfield",30,50,40,7,1.7,0.01,0.12,NA,0.14,0.21,0.31,0.36,0.15,0.77,5.5,68,30,37,10,22,100,30,37,68,10,22,54,23,22,99,55,23,22,0,0.02,20,14,1.7,"ClLo","Clay loam",4
"Farnsfield",50,70,60,7,1.7,0.02,0.16,NA,0.17,0.23,0.32,0.36,0.13,0.49,5.5,62,25,30,8,32,102,25,29,61,8,31,48,20,32,100,48,20,32,0,0.03,23,12,1.7,"Cl","Clay",6
"Farnsfield",70,90,80,7,1.67,0.02,0.22,NA,0.22,0.28,0.34,0.37,0.09,0.31,5.7,54,21,26,7,42,103,20,25,52,7,41,42,17,42,101,42,17,42,0,0.02,27,12,1.67,"Cl","Clay",6
"Farnsfield",90,120,105,7,NA,NA,NA,NA,NA,NA,NA,NA,NA,0.21,5.8,50,20,26,8,44,102,20,25,49,8,43,40,17,44,101,40,17,44,0,0.03,31,NA,NA,"Cl","Clay",6
"Farnsfield",120,150,135,7,NA,NA,NA,NA,NA,NA,NA,NA,NA,0.14,5.6,NA,NA,NA,NA,NA,NA,NA,NA,NA,NA,NA,NA,NA,NA,NA,NA,NA,NA,NA,0.05,39,NA,NA,NA,NA,NA
"Farnsfield",150,170,160,1,NA,NA,NA,NA,NA,NA,NA,NA,NA,0.14,NA,NA,NA,NA,NA,NA,NA,NA,NA,NA,NA,NA,NA,NA,NA,NA,NA,NA,NA,NA,NA,NA,NA,NA,NA,NA,NA
"Kepnock",0,10,5,14,1.51,0.02,0.12,0.29,0.15,0.31,0.38,0.43,0.12,2.03,5.6,65,15,51,18,16,99,15,52,66,18,16,46,38,16,100,46,38,16,0,0.03,20,16,1.51,"Lo","Loam",3
"Kepnock",10,30,20,14,1.62,0.02,0.12,0.23,0.15,0.27,0.34,0.39,0.12,1.69,5.5,64,18,49,15,20,99,18,49,65,15,20,44,33,20,97,45,34,21,0,0.03,22,24,1.62,"Lo","Loam",3
"Kepnock",30,50,40,14,1.64,0.03,0.18,0.31,0.19,0.28,0.35,0.38,0.1,1.12,5.6,53,15,38,12,32,97,15,39,55,12,33,38,24,32,94,40,26,34,0,0.02,25,18,1.64,"Cl","Clay",6
"Kepnock",50,70,60,14,1.6,0.03,0.22,0.37,0.23,0.31,0.37,0.4,0.09,0.71,5.5,45,13,32,10,42,97,13,33,46,10,43,31,21,42,94,33,22,45,2,0.03,34,16,1.6,"Cl","Clay",6
"Kepnock",70,90,80,14,1.56,0.03,0.25,0.38,0.26,0.33,0.39,0.41,0.09,0.45,5.7,34,12,23,12,50,96,12,24,35,12,52,24,22,50,96,25,23,52,8,0.05,48,14,1.56,"Cl","Clay",6
"Kepnock",90,120,105,14,1.6,0.03,0.25,0.39,0.25,0.3,0.37,0.4,0.09,0.3,5.6,34,14,20,8,57,99,14,20,34,8,58,26,18,57,101,26,18,56,11,0.05,58,15,1.6,"Cl","Clay",6
"Kepnock",120,150,135,14,NA,NA,NA,NA,NA,NA,NA,NA,NA,0.2,4.8,NA,NA,NA,NA,NA,NA,NA,NA,NA,NA,NA,NA,NA,NA,NA,NA,NA,NA,NA,0.06,75,NA,NA,NA,NA,NA
"Kepnock",150,170,160,5,NA,NA,NA,NA,NA,NA,NA,NA,NA,0.2,NA,NA,NA,NA,NA,NA,NA,NA,NA,NA,NA,NA,NA,NA,NA,NA,NA,NA,NA,NA,NA,NA,NA,NA,NA,NA,NA
"Kinkuna",0,10,5,3,1.67,0.01,0.02,NA,0.08,0.23,0.3,0.37,0.14,2.14,5.4,94,64,30,4,2,100,64,30,94,4,2,87,11,2,100,87,11,2,0,0.03,7,15,1.67,"Sa","Sand",1
"Kinkuna",10,30,20,3,1.7,0.01,0.03,NA,0.08,0.18,0.29,0.36,0.18,1.78,5.2,92,59,32,6,2,100,59,32,92,6,2,84,14,2,100,84,14,2,0,0.01,6,20,1.7,"Sa","Sand",1
"Kinkuna",30,50,40,3,1.7,0.01,0.03,NA,0.07,0.12,0.3,0.36,0.24,1.18,5.5,90,54,36,6,3,99,55,36,91,6,3,82,15,3,100,82,15,3,0,0.01,5,10,1.7,"Sa","Sand",1
"Kinkuna",50,70,60,3,1.7,0.01,0.03,NA,0.05,0.08,0.3,0.36,0.28,0.75,5.9,90,54,36,6,3,99,55,36,91,6,3,82,15,3,100,82,15,3,0,0.01,5,6,1.7,"Sa","Sand",1
"Kinkuna",70,90,80,3,1.7,0.01,0.03,NA,0.04,0.06,0.29,0.36,0.3,0.47,6,92,59,33,6,1,99,60,33,93,6,1,86,13,1,100,86,13,1,0,0.01,5,4,1.7,"Sa","Sand",1
"Kinkuna",90,120,105,3,NA,NA,NA,NA,NA,NA,NA,NA,NA,0.32,6.3,89,61,28,8,3,100,61,28,89,8,3,78,19,3,100,78,19,3,0,0.01,0,NA,NA,"LoSa","Loamy sand",3
"Kinkuna",120,150,135,3,NA,NA,NA,NA,NA,NA,NA,NA,NA,0.21,NA,NA,NA,NA,NA,NA,NA,NA,NA,NA,NA,NA,NA,NA,NA,NA,NA,NA,NA,NA,NA,NA,NA,NA,NA,NA,NA
"Kinkuna",150,170,160,1,NA,NA,NA,NA,NA,NA,NA,NA,NA,0.21,NA,NA,NA,NA,NA,NA,NA,NA,NA,NA,NA,NA,NA,NA,NA,NA,NA,NA,NA,NA,NA,NA,NA,NA,NA,NA,NA
"Maroondan",0,10,5,3,1,0.1,0.35,0.61,0.33,0.56,0.62,0.62,0.06,3.53,6.4,28,6,22,18,53,99,6,22,28,18,54,17,30,53,100,17,30,53,1,0.05,29,23,1,"Cl","Clay",6
"Maroondan",10,30,20,3,0.97,0.1,0.49,0.61,0.47,0.69,0.63,0.63,-0.06,2.93,6.6,25,6,19,19,57,101,6,19,25,19,56,14,29,57,100,14,29,57,2,0.05,22,44,0.97,"Cl","Clay",6
"Maroondan",30,50,40,3,0.97,0.1,0.42,0.56,0.41,0.56,0.61,0.63,0.08,1.94,7,28,6,22,18,53,99,6,22,28,18,54,16,31,53,100,16,31,53,11,0.08,70,30,0.97,"Cl","Clay",6
"Maroondan",50,70,60,3,1.2,0.11,0.36,0.62,0.36,0.46,0.52,0.55,0.09,1.24,7.4,33,6,28,19,48,100,6,28,33,19,48,19,33,48,100,19,33,48,20,0.12,135,20,1.2,"Cl","Clay",6
"Maroondan",70,90,80,3,NA,NA,NA,NA,NA,NA,NA,NA,NA,0.78,7.9,NA,NA,NA,NA,NA,NA,NA,NA,NA,NA,NA,NA,NA,NA,NA,NA,NA,NA,NA,0.16,185,NA,NA,NA,NA,NA
"Maroondan",90,120,105,3,NA,NA,NA,NA,NA,NA,NA,NA,NA,0.53,NA,NA,NA,NA,NA,NA,NA,NA,NA,NA,NA,NA,NA,NA,NA,NA,NA,NA,NA,NA,NA,NA,NA,NA,NA,NA,NA
"Maroondan",120,150,135,3,NA,NA,NA,NA,NA,NA,NA,NA,NA,0.35,NA,NA,NA,NA,NA,NA,NA,NA,NA,NA,NA,NA,NA,NA,NA,NA,NA,NA,NA,NA,NA,NA,NA,NA,NA,NA,NA
"Robur",0,10,5,8,1.63,0.01,0.04,0.26,0.1,0.25,0.32,0.38,0.14,0.8,5.4,84,25,59,12,5,101,25,58,83,12,5,69,27,5,101,68,27,5,0,0.02,20,15,1.63,"LoSa","Loamy sand",3
"Robur",10,30,20,8,1.7,0.01,0.05,0.24,0.09,0.2,0.3,0.36,0.16,0.67,5.4,84,25,59,12,9,105,24,56,80,11,9,69,27,9,105,66,26,9,0,0.01,20,22,1.7,"LoSa","Loamy sand",3
"Robur",30,50,40,8,1.7,0.01,0.1,0.25,0.12,0.18,0.31,0.36,0.18,0.44,6,75,25,49,12,12,99,25,49,76,12,12,61,26,12,99,62,26,12,0,0.02,20,12,1.7,"SaLo","Sandy loam",2
"Robur",50,70,60,8,1.7,0.02,0.12,0.29,0.13,0.17,0.31,0.36,0.18,0.28,6,72,27,41,12,19,103,26,40,70,12,18,57,26,19,102,56,25,19,5,0.03,26,8,1.7,"Lo","Loam",3
"Robur",70,90,80,8,1.7,0.02,0.15,0.37,0.15,0.19,0.31,0.36,0.17,0.18,6,68,21,37,9,25,102,21,36,67,9,25,55,20,25,100,55,20,25,27,0.06,76,8,1.7,"ClLo","Clay loam",4
"Robur",90,120,105,8,1.7,0.03,0.17,0.42,0.16,0.2,0.32,0.36,0.16,0.12,7,66,23,38,8,27,101,23,38,65,8,27,53,20,27,100,53,20,27,35,0.12,136,12,1.7,"ClLo","Clay loam",4
"Robur",120,150,135,8,NA,NA,NA,NA,NA,NA,NA,NA,NA,0.08,6.9,NA,NA,NA,NA,NA,NA,NA,NA,NA,NA,NA,NA,NA,NA,NA,NA,NA,NA,NA,0.32,389,NA,NA,NA,NA,NA
"Robur",150,170,160,6,NA,NA,NA,NA,NA,NA,NA,NA,NA,0.08,NA,NA,NA,NA,NA,NA,NA,NA,NA,NA,NA,NA,NA,NA,NA,NA,NA,NA,NA,NA,NA,NA,NA,NA,NA,NA,NA
