"soil_gp","Clay","TOC","pH","text","TN","TP","Col_P","PBI","n_TNKjA","n_TNDum","n_TPXRF","n_TPKj","n_ColP","n_PBICol"
"Ashton",8,1.07,5.5,"Loamy sand",0.095,0.012,4.5,37,NA,NA,2,NA,3,NA
"Brosnan",13,1.18,5.6,"Sandy loam",0.11,0.0345,50,102.5,1,1,4,2,2,2
"Bulgun",36,4.6,5.1,"Clay loam",0.143,0.047,50,187,NA,2,2,2,3,3
"Hamleigh",44,3.53,4.9,"Silty clay",0.15,0.0515,20,300.5,NA,NA,2,NA,9,NA
"Hewitt",42,3.42,4.8,"Silty clay",0.41,0.11,73,1000,1,1,3,1,6,6
"Innisfail",40,3.42,5.3,"Clay",0.07,0.15,39,117.5,NA,NA,3,NA,2,NA
"Lugger",16,1.23,5.4,"Sandy loam",0.05,0.023,5,94.5,NA,NA,4,NA,7,2
"Thorpe",15,2.15,5.5,"Sandy loam",0.09,0.0205,41,101,3,4,8,4,11,8
"Tolga",60,4.44,6.4,"Clay",0.31,0.1945,82,535,NA,NA,6,NA,6,NA
"Toobanna",19,1.98,5.6,"Silty loam",0.345,0.026,12.5,91.5,NA,NA,3,NA,11,2
"Tully",43,3.5,5.3,"Silty clay",0.25,0.0565,57,188,2,1,4,1,1,1
