"soil_gp","SiteCount_uncult","TOCmin_uncult","TOCmed_uncult","TOCmax_uncult","SiteCount_cult","TOCmin_cult","TOCmed_cult","TOCmax_cult"
"Calen",3,1.284,1.28,1.605,5,0.848,1.07,1.711
"Cameron",1,1.993,1.99,1.993,2,0.3531,0.6,0.856
"Dunwold",2,1.284,1.34,1.391,1,0.6945,0.69,0.6945
"Ilbilbie",1,0.963,0.96,0.963,NA,NA,NA,NA
"Kinchant, Coarse Sandy Variant",1,0.9095,0.91,0.9095,NA,NA,NA,NA
"Marian",2,1.926,2.03,2.14,4,1.065,1.2,1.322
"Pindi",1,1.284,1.28,1.284,1,1.008,1.01,1.008
"Proserpine",1,0.428,0.43,0.428,2,0.5992,0.73,0.858
"St Helens",1,1.605,1.6,1.605,4,1.262,1.5,2.568
"Sunnyside",5,1.391,1.71,2.247,1,1.2485,1.25,1.2485
"Victoria Plains",3,2.247,3.32,4.708,5,1.7795,2.25,3.317
"Wagoora",3,2.889,2.89,2.996,3,1.669,1.8,3.959
"Sandiford",NA,NA,NA,NA,3,0.856,1.01,1.412
