"ID","LAB_METH_CODE","NUMERIC_VALUE","RESULT_STATUS","soil_gp","final_SPC","DISTURB_TYPE"
"SLK-1050-1","6A1",1.284,"A","2Uge",2221,4
"SLK-9006-1","6A1",2.278,"A","2Uge",2221,NA
"JFD-9007-1","6A1",2.033,"A","2Uge",2221,4
"HTS-9005-1","6A1",1.284,"A","2Uge",2221,1
"HTS-9004-1","6A1",0.963,"A","2Uge",2221,1
"JFD-9008-1","6A1",1.712,"A","2Uge",2221,4
"JFD-9001-1","6A1",1.605,"A","2Uge",2221,4
"HTC-9001-1","6A1",5.35,"A","2Uge",2221,1
"HTC-9000-1","6A1",2.247,"A","2Uge",2221,1
"MAL-6016-1","6A1",1.07,"A","2Uge",2220,NA
"MAL-6017-1","6A1",1.177,"A","2Uge",2220,NA
"MAL-6018-1","6A1",1.177,"A","2Uge",2220,NA
"MAL-6020-1","6A1",0.642,"A","2Uge",2220,NA
"MLG-9003-1","6A1",0.963,"A","2Uge",2221,1
"MLO-6011-1","6A1",1.284,"A","2Uge",2220,NA
"BRL-9001-1","6A1",1.177,"A","2Uge",2220,1
"BRL-9001-1","6A1",1.07,"A","2Uge",2220,1
"BRL-9067-1","6A1",1.284,"A","2Uge",2220,1
"BRL-9067-1","6A1",1.284,"A","2Uge",2220,1
"MLG-9003-1","6A1",0.642,"A","2Uge",2221,1
"MLG-9004-1","6A1",1.07,"A","2Uge",2221,1
"BRL-9041-1","6A1",1.391,"A","2Uge",2220,1
"BRL-9041-1","6A1",0.963,"A","2Uge",2220,1
"MAL-6012-1","6A1",1.07,"A","2Uge",2220,NA
"MLO-6013-1","6A1",1.284,"A","2Uge",2220,NA
"BRL-9044-1","6A1",1.391,"A","2Uge",2220,1
"BRL-9044-1","6A1",1.712,"A","2Uge",2220,1
"MAL-6011-1","6A1",0.856,"A","2Uge",2220,NA
"MAL-6014-1","6A1",1.177,"A","2Uge",2220,NA
"MAL-6015-1","6A1",1.07,"A","2Uge",2220,NA
"MAL-6013-1","6A1",0.963,"A","2Uge",2220,NA
"HRT-1-1","6A1",1.605,"A","2Uge",2221,1
"HRT-1-1","6A1",1.07,"A","2Uge",2221,1
"BDS-1313-2","6A1",1.712,"A","BUfc",8473,7
"BDS-209-2","6A1",1.498,"A","BUfc",8473,7
"BDS-1142-2","6A1",2.033,"A","BUfc",8473,7
"HRT-8-1","6A1",1.284,"A","2Uge",2221,1
"MAL-6019-1","6A1",1.07,"A","2Uge",2220,NA
"HTR-9008-1","6A1",1.2305,"A","2Uge",2221,4
"HTR-9009-1","6A1",0.642,"A","2Uge",2221,4
"GULLY-66-1","6A1",1.712,"A","2Uge",2221,1
"GULLY-73-1","6A1",2.889,"A","2Uge",2221,1
"GULLY-66-1","6B2a",1.55,"A","2Uge",2221,1
"GULLY-73-1","6B2a",2.03,"A","2Uge",2221,1
