"soil_gp","SiteCount_uncult","TOCmin_uncult","TOCmed_uncult","TOCmax_uncult","SiteCount_cult","TOCmin_cult","TOCmed_cult","TOCmax_cult"
"Auburn",3,1.2305,1.82,2.3,4,1.1,1.64,2
"Burnett",2,0.856,0.92,0.9765,NA,NA,NA,NA
"Childers",3,2.34,3.85,4.922,20,1.177,2.79,7.729
"Farnsfield",1,1.391,1.39,1.391,NA,NA,NA,NA
"Kepnock",5,0.535,2.03,2.568,8,0.963,2.38,5.75
"Kinkuna",1,2.14,2.14,2.14,NA,NA,NA,NA
"Mahogany",3,0.856,1.07,2.247,7,0.642,1.07,1.926
"Mary",1,3.531,3.53,3.531,3,1.284,2.03,2.461
"Robur",6,0.214,0.8,1.605,1,1.284,1.28,1.284
"Tandora",1,6.634,6.63,6.634,NA,NA,NA,NA
"Alloway",NA,NA,NA,NA,5,0.642,0.75,1.926
"Fairymead",NA,NA,NA,NA,2,1.605,1.98,2.354
"Maroondan",NA,NA,NA,NA,3,2.1,2.41,3.21
