"ID","LAB_METH_CODE","NUMERIC_VALUE","RESULT_STATUS","soil_gp","DISTURB_TYPE"
"WCS-952-1","6A1",1.605,"A","St Helens",3
"MCL-9058-1","6A1",0.963,"A","Mirani",6
"MCL-9058-1","6A1",0.963,"A","Mirani",6
"MCL-9060-1","6A1",0.856,"A","Sandiford",6
"MCL-9060-1","6A1",0.856,"A","Sandiford",6
"MCL-9001-1","6A1",1.605,"A","Calen",4
"MCL-9029-1","6A1",1.498,"A","Dunwold",5
"MCL-9029-1","6A1",1.07,"A","Dunwold",5
"MCL-9049-1","6A1",1.07,"A","Nabilla",5
"MCL-9026-1","6A1",1.07,"A","Marian",6
"MCL-9049-1","6A1",0.963,"A","Nabilla",5
"MCL-9026-1","6A1",1.391,"A","Marian",6
"MCL-9008-1","6A1",2.247,"A","Victoria Plains",4
"MCL-9010-1","6A1",1.498,"A","St Helens",6
"MCL-9010-1","6A1",1.498,"A","St Helens",6
"MCL-9011-1","6A1",1.284,"A","Pindi",2
"MCL-9012-1","6A1",0.963,"A","Cameron",6
"MCL-9012-1","6A1",0.749,"A","Cameron",6
"MCL-9007-1","6A1",1.284,"A","Calen",2
"WCS-6023-1","6A1",1.498,"A","St Helens",6
"WCS-1507-1","6A1",0.428,"A","Proserpine",4
"WCS-6007-1","6A1",1.284,"A","Calen",1
"WCS-1407-1","6A1",1.07,"A","Calen",6
"WCS-6031-1","6A1",4.708,"A","Victoria Plains",0
"WCS-6032-1","6A1",2.247,"A","Victoria Plains",7
"WCS-1003-1","6A1",2.568,"A","St Helens",6
"WCS-2507-1","6A1",2.14,"A","Marian",4
"WCS-1114-1","6A1",2.033,"A","Victoria Plains",6
"WCS-1116-1","6A1",3.317,"A","Victoria Plains",6
"WCS-2538-1","6A1",1.926,"A","Marian",4
"WCS-2579-1","6A1",1.391,"A","Dunwold",3
"WCS-2837-1","6A1",3.317,"A","Victoria Plains",4
"WCS-1002-1","6A1",2.354,"A","Victoria Plains",6
"PCS-6022-1","6A1",1.712,"A","Tedlands",4
"PCS-6009-1","6A1",1.819,"A","Tedlands",6
"PLS-26-1","6A1",0.7276,"A","Proserpine",6
"PLS-26-1","6A1",0.4708,"A","Proserpine",6
"MISCQ-66-1","6A1",1.177,"A","Uruba Alluvial-Colluvial Variant",NA
"MISCQ-67-1","6A1",1.391,"A","Uruba Alluvial-Colluvial Variant",NA
"MISCQ-68-1","6A1",1.07,"A","Pioneer Red Variant",NA
"MISCQ-69-1","6A1",1.605,"A","Calen",7
"BPA-6-1","6A1",0.3531,"A","Cameron",7
"MISCQ-300-1","6A1",0.856,"A","Calen",7
"MISCQ-70-1","6A1",1.605,"A","Nabilla",7
"MISCQ-58-1","6A1",1.498,"A","",NA
"MISCQ-54-1","6A1",1.284,"A","",NA
"MISCQ-56-1","6A1",1.284,"A","St Helens",7
"MISCQ-50-1","6A1",0.749,"A","Dunwold",7
"MISCQ-45-1","6A1",1.07,"A","Sandiford",7
"MISCQ-42-1","6A1",1.07,"A","Marian",7
"MISCQ-44-1","6A1",0.642,"A","Pioneer",NA
"MISCQ-53-1","6A1",0.856,"A","Proserpine",7
"MISCQ-49-1","6A1",1.926,"A","Cameron",5
"MISCQ-74-1","6A1",1.07,"A","Marian",6
"MISCQ-73-1","6A1",2.354,"A","Brightley",NA
"MISCQ-71-1","6A1",1.391,"A","Eton",NA
"MISCQ-309-1","6A1",0.963,"A","Mirani",7
"MISCQ-82-1","6A1",0.963,"A","Calen",7
"MISCQ-86-1","6A1",1.284,"A","Balberra",NA
"MISCQ-83-1","6A1",1.712,"A","Calen",7
"MISCQ-304-1","6A1",1.284,"A","Sandiford",7
"MISCQ-87-1","6A1",1.07,"A","Munbura",NA
"MISCQ-88-1","6A1",1.177,"A","Sunnyside",NA
"MISCQ-79-1","6A1",1.819,"A","Victoria Plains",7
"MISCQ-80-1","6A1",1.605,"A","Silent Grove",NA
"MISCQ-77-1","6A1",1.284,"A","Marian",6
"MISCQ-81-1","6A1",1.712,"A","Wagoora",NA
"MISCQ-78-1","6A1",0.963,"A","Kinchant",NA
"MISCQ-311-1","6A1",0.856,"A","Gargett",NA
"MISCQ-306-1","6A1",0.856,"A","Pindi",7
"MISCQ-307-1","6A1",2.033,"A","Nabilla",7
"MISCQ-308-1","6A1",0.749,"A","Eton",NA
"MISCQ-301-1","6A1",1.284,"A","Brightley",NA
"MISCQ-305-1","6A1",1.07,"A","Pioneer",NA
"MISCQ-45-1","6B2b",0.95,"A","Sandiford",7
"MISCQ-304-1","6B2b",1.54,"A","Sandiford",7
"MISCQ-305-1","6B2b",0.96,"A","Pioneer",NA
"MISCQ-306-1","6B2b",1.16,"A","Pindi",7
"MISCQ-307-1","6B2b",2.81,"A","Nabilla",7
"MISCQ-309-1","6B2b",1.13,"A","Mirani",7
"MISCQ-311-1","6B2b",0.75,"A","Gargett",NA
"MISCQ-53-1","6B2b",0.86,"A","Proserpine",7
"MISCQ-54-1","6B2b",1.32,"A","",NA
"MISCQ-56-1","6B2b",1.24,"A","St Helens",7
"MISCQ-58-1","6B2b",1.84,"A","",NA
"MISCQ-308-1","6B2b",0.67,"A","Eton",NA
"MISCQ-301-1","6B2b",1.28,"A","Brightley",NA
"MISCQ-300-1","6B2b",0.84,"A","Calen",7
"MISCQ-82-1","6B2b",0.94,"A","Calen",7
"MISCQ-83-1","6B2b",1.71,"A","Calen",7
"MISCQ-86-1","6B2b",1.23,"A","Balberra",NA
"MISCQ-87-1","6B2b",0.89,"A","Munbura",NA
"MISCQ-88-1","6B2b",1.32,"A","Sunnyside",NA
"MISCQ-66-1","6B2b",1.25,"A","Uruba Alluvial-Colluvial Variant",NA
"MISCQ-67-1","6B2b",0.12,"A","Uruba Alluvial-Colluvial Variant",NA
"MISCQ-68-1","6B2b",1.16,"A","Pioneer Red Variant",NA
"MISCQ-69-1","6B2b",1.64,"A","Calen",7
"MISCQ-70-1","6B2b",1.79,"A","Nabilla",7
"MISCQ-77-1","6B2b",1.36,"A","Marian",6
"MISCQ-78-1","6B2b",0.84,"A","Kinchant",NA
"MISCQ-79-1","6B2b",1.74,"A","Victoria Plains",7
"MISCQ-80-1","6B2b",1.69,"A","Silent Grove",NA
"MISCQ-74-1","6B2b",1.06,"A","Marian",6
"MISCQ-71-1","6B2b",1.28,"A","Eton",NA
"MISCQ-81-1","6B2b",1.88,"A","Wagoora",NA
"MISCQ-73-1","6B2b",2.79,"A","Brightley",NA
"MISCQ-42-1","6B2b",1.27,"A","Marian",7
"MISCQ-49-1","6B2b",2.06,"A","Cameron",5
"MISCQ-50-1","6B2b",0.64,"A","Dunwold",7
"MISCQ-44-1","6B2b",0.64,"A","Pioneer",NA
