"soil_gp","Area_ha"
"2Uge",31092
"BUfc",27339
"6Dyf",12573
"2Dyb",9178
"2Ugg",6985
"BUma",4460
"6Umb",4134
"2Dya",3294
"6Dbb",2047
"6Dyb",1332
"5Dra",987
"Toobanna",477
"Innisfail",218
"Hamleigh",162
"Ashton",146
"Lugger",16
"Thorpe",6
