"","clusters_CYWT","count_SPCs","Area_ha","Area_pct","Area_cum"
"1",5,19,25523,12,12
"2",11,15,24239,11,23
"3",1,13,17435,8,31
"4",13,5,15568,7,38
"5",7,5,15377,7,45
"6",30,4,12336,6,51
"7",28,2,11396,5,56
"8",26,4,9590,4,60
"9",3,10,8489,4,64
"10",36,11,6979,3,67
"11",33,4,6941,3,70
"12",22,8,6856,3,73
"13",31,1,5924,3,76
"14",12,2,5002,2,78
"15",34,5,4631,2,80
"16",19,1,4536,2,82
"17",21,11,4191,2,84
"18",8,3,4060,2,86
"19",16,4,3070,1,87
"20",43,1,2892,1,88
"21",39,2,2885,1,89
"22",25,1,2680,1,90
"23",10,4,2564,1,91
"24",15,6,2535,1,92
"25",17,2,2271,1,93
"26",4,3,1698,1,94
"27",20,2,1280,1,95
"28",2,5,1036,0,95
"29",29,3,826,0,95
"30",35,3,578,0,95
"31",14,3,558,0,95
"32",24,1,538,0,95
"33",23,5,413,0,95
"34",40,3,391,0,95
"35",38,1,348,0,95
"36",18,2,313,0,95
"37",27,3,292,0,95
"38",9,3,210,0,95
"39",37,1,175,0,95
"40",32,2,144,0,95
"41",6,1,138,0,95
"42",41,2,47,0,95
"43",42,1,36,0,95
