cluster,soil_gp
1,2Dyb
1a,2Ddb
2,2Dyb
2a,2Ddb
3,Carew
3a,2Ugf
4,
5,RUgbS
6,Rugb
7,
8,
9,
10,
11,Carew
11a,2Ugf
12,
13,6Dya
14,6Dya
15,6Dbg
16,6Dya
16a,6Dbg
17,
18,RUgbS
19,
20,
21,2Dyb
22,
23,
24,2Dyb
25,BUfc
26,Althaus
27,
28,RUgbS
29,
30,BUfb
31,
32,CUfc
33,Althaus
34,CUfc
35,BUfc
36,RUgbS
37,
38,RUgbS
39,RUgbS
40,Rugb
41,RUgbS
42,
43,RUgbS
