cluster,soil_gp
1,Callide
1a,3ASO2
2,Annandale
3,Luxor
4,1ADb-9
5,Springwood
6,Luxor
7,Annandale
8,Callide
9,Teviot
10,Annandale
11,Vermont
11a,Arcturus
12,Eleanor
12a,Aroa
13,Teviot
13a,Teviot
14,May Downs
15,Galway
16,Vicenza
17,3ASO2
18,Gindie
18a,Clematis
19,3VEy
20,Springwood
21,Clematis
22,Vicenza
23,Springwood
24,Gindie
25,"Dickson, Shallow Variant"
26,Clematis
27,Broadmedow
28,Gindie
29,May Downs
30,Callide
31,Luxor
32,Gindie
33,Teviot
34,Greycliffe Melonhole Phase
35,Callide
36,Gindie
37,Arcturus
38,Callide
39,Springwood
40,Teviot
41,Teviot
42,3ASO2
43,Springwood
44,1ADb-9
45,Teviot
46,Arcturus
47,Hodge (BAN)
48,Teviot
49,Greycliffe Melonhole Phase
50,Greycliffe Melonhole Phase
51,Aroa
52,Luxor
