"clusters_IB","count_soils","Area_ha","ASC_1","ESP2530_cat","ESP8590_cat","drain","scond","PAWC_cat"
"8",7,915,"SO","high","very high",2,4,"low"
"29",3,2737,"VE","high","very high",3,2,"moderate"
"2",1,30,"SO","high","very high",3,4,"low"
"3",11,6544,"VE","moderate","high",3,2,"high"
"21",5,286,NA,"moderate","high",4,3,"moderate"
"30",2,146,"VE","moderate","moderate",2,3,"high"
"13",1,91,"VE","moderate","moderate",2,3,"low"
"39",1,27,"VE","moderate","moderate",3,2,"low"
"38",1,1080,"VE","moderate","moderate",3,2,"very high"
"6",3,3213,"VE","moderate","moderate",4,4,"very high"
"37",1,1286,"FE","moderate","moderate",5,1,"low"
"28",1,1983,"SO","moderate","no data",3,1,"low"
"15",1,192,"SO","moderate","very high",2,4,"low"
"14",1,63,"DE","moderate","very high",3,3,"low"
"9",21,2717,"SO","moderate","very high",3,4,"low"
"22",3,1312,"SO","moderate","very high",3,4,"low"
"47",1,71,"SO","moderate","very high",3,4,"low"
"5",3,467,"VE","moderate","very high",3,4,"moderate"
"26",2,1054,"VE","moderate","very high",4,2,"low"
"43",1,701,"CH","moderate","very high",4,4,"moderate"
"41",3,420,"CH","non-sodic","high",4,4,"low"
"7",10,2391,"DE","non-sodic","high",4,4,"moderate"
"32",1,1198,"FE","non-sodic","high",5,2,"moderate"
"34",1,1206,"FE","non-sodic","moderate",2,3,"high"
"23",3,4115,"VE","non-sodic","moderate",3,2,"very high"
"24",2,128,"VE","non-sodic","moderate",3,2,"very high"
"7a",5,2172,"SO","non-sodic","moderate",3,4,"moderate"
"12",7,1407,"VE","non-sodic","moderate",4,2,"high"
"20",3,2021,"VE","non-sodic","moderate",4,2,"low"
"11",6,17261,"VE","non-sodic","moderate",4,2,"very high"
"45",1,1470,"FE","non-sodic","moderate",5,3,"very high"
"35",1,49,"SO","non-sodic","no data",2,4,"low"
"44",1,199,"DE","non-sodic","no data",5,3,"low"
"46",1,537,"DE","non-sodic","non-sodic",3,1,"low"
"40",1,3451,"FE","non-sodic","non-sodic",3,4,"very high"
"10",1,692,"VE","non-sodic","non-sodic",4,2,"moderate"
"17",2,79,"DE","non-sodic","non-sodic",4,4,"high"
"18",4,344,"DE","non-sodic","non-sodic",4,4,"moderate"
"33",1,141,"CH","non-sodic","non-sodic",4,4,"moderate"
"27",2,5911,"FE","non-sodic","non-sodic",4,4,"very high"
"31",5,4212,"FE","non-sodic","non-sodic",5,1,"high"
"1",3,210,"TE","non-sodic","non-sodic",5,1,"low"
"4",3,485,"KA","non-sodic","non-sodic",5,3,"low"
"16",10,6027,"FE","non-sodic","non-sodic",5,4,"moderate"
"25",4,10232,"FE","non-sodic","non-sodic",5,4,"very high"
"19",2,766,"SO","non-sodic","non-sodic",6,3,"low"
"36",1,1056,"FE","non-sodic","non-sodic",6,4,"moderate"
"42",2,835,"SO","non-sodic","very high",4,1,"low"
