cluster,soil_gp
1,Victoria Plains
2,Calen
3,Calen
4,Pindi
5,Proserpine
6,Cameron
7,Calen
8,Ilbilbie
8a,Calen
9,Pindi
10,Sandiford
11,Victoria Plains
12,Pindi
13,Marian
13a,Calen
14,Ilbilbie
15,Cameron
16,Ilbilbie
17,Pindi
18,Pindi
19,Pindi
20,Wagoora
21,Cameron
22,Pindi
23,Pindi
24,Pindi
25,Dunwold
26,Marian
26a,Sandiford
27,Pindi
28,Marian
29,Wagoora
30,Victoria Plains
31,Pindi
32,Pindi
33,Calen
34,Pindi
35,Pindi
36,Pindi
37,Marian
38,Wagoora
39,Marian
40,Calen
41,Wagoora
42,Pindi
43,Marian
44,Wagoora
45,Wagoora
46,Calen
47,Wagoora
48,Pindi
49,Marian
50,Pindi
51,Victoria Plains
