"","NAME","soil_gp"
"1","Ashton","Ashton"
"2","Clifton","Ashton"
"3","Trebonne","Ashton"
"4","Rungoo","Ashton"
"5","Ripple","Ashton"
"6","Lee","Ashton"
"7","Kingjack","Ashton"
"8","Trebonne Sandy Phase","Ashton"
"9","Innot","Ashton"
"10","Brosnan","Brosnan"
"11","Spanos","Brosnan"
"12","Tyson","Brosnan"
"13","Kurrimine","Brosnan"
"14","Cassidy","Brosnan"
"15","Daintree","Brosnan"
"16","Kirrama","Brosnan"
"17","Hull","Brosnan"
"18","Hawkins","Brosnan"
"19","Abergowrie Sandy Phase","Brosnan"
"20","Kaygaroo","Brosnan"
"21","Japoon","Brosnan"
"22","Hodge","Brosnan"
"23","Price","Brosnan"
"24","Elliot","Brosnan"
"25","Tawalla","Brosnan"
"26","Scatterbrain","Brosnan"
"27","Goolboo","Brosnan"
"28","Elliot Fine Phase","Brosnan"
"29","Dixie","Brosnan"
"30","Kiama","Brosnan"
"31","Whelan","Brosnan"
"32","Bulgun","Bulgun"
"33","Timara","Bulgun"
"34","Malbon","Bulgun"
"35","Jarra","Bulgun"
"36","Prior","Bulgun"
"37","Newell","Bulgun"
"38","Edmonton","Bulgun"
"39","Mirriwinni","Bulgun"
"40","Ray","Bulgun"
"41","Bicton","Bulgun"
"42","Walkamin Sandy Phase","Bulgun"
"43","Stone","Bulgun"
"44","Walkamin Rocky Phase","Bulgun"
"45","Daradgee","Bulgun"
"46","Carrington","Bulgun"
"47","Masterton","Bulgun"
"48","Millstream","Bulgun"
"49","Uncle","Bulgun"
"50","Normanby","Bulgun"
"51","Peterson","Bulgun"
"52","Mulligan Gravelly Phase","Bulgun"
"53","Flaggy","Bulgun"
"54","Uncle Shallow Phase","Bulgun"
"55","Gwynne","Bulgun"
"56","Woodleigh","Bulgun"
"57","Severin - Tab","Bulgun"
"58","Hamleigh","Hamleigh"
"59","Coom","Hamleigh"
"60","Manor","Hamleigh"
"61","Leach","Hamleigh"
"62","Warrami","Hamleigh"
"63","Walkamin","Hamleigh"
"64","Ramleh","Hamleigh"
"65","Catherina","Hamleigh"
"66","Inlet","Hamleigh"
"67","Bullhead","Hamleigh"
"68","Bullhead Shallow Phase","Hamleigh"
"69","Penman","Hamleigh"
"70","Poplar","Hamleigh"
"71","Hewitt","Hewitt"
"72","Babinda","Hewitt"
"73","Brae","Hewitt"
"74","Banyan","Hewitt"
"75","Bulguru","Hewitt"
"76","Sumalee","Hewitt"
"77","Needep","Hewitt"
"78","Nind","Hewitt"
"79","Innisfail","Innisfail"
"80","Abergowrie","Innisfail"
"81","Palm","Innisfail"
"82","Mission","Innisfail"
"83","Bluewater","Innisfail"
"84","Hillview","Innisfail"
"85","Midway","Innisfail"
"86","Canoe","Innisfail"
"87","Lucy","Innisfail"
"88","Feluga","Innisfail"
"89","Arnot","Innisfail"
"90","Cobra","Innisfail"
"91","Morganbury","Innisfail"
"92","Feluga Red Variant","Innisfail"
"93","Bubbler","Innisfail"
"94","Mullaburra","Innisfail"
"95","Walsh","Innisfail"
"96","Tirrabella","Innisfail"
"97","Thorpe Fine Variant","Innisfail"
"98","Hillview Fine Variant","Innisfail"
"99","Googarra","Innisfail"
"100","Arnot Dark Phase","Innisfail"
"101","Nullinga","Innisfail"
"102","Morecambe","Innisfail"
"103","Whitfield","Innisfail"
"104","Cobra Gravelly Phase","Innisfail"
"105","Nullinga Shallow Phase","Innisfail"
"106","Buchan","Innisfail"
"107","Logcamp","Innisfail"
"108","Walsh Coarse Sandy Phase","Innisfail"
"109","Sugarbag","Innisfail"
"110","Homestead","Innisfail"
"111","Dayman","Innisfail"
"112","Cobra Shallow","Innisfail"
"113","Tinkle","Innisfail"
"114","Carbeen","Innisfail"
"115","Mareeba 1","Innisfail"
"116","Lugger","Lugger"
"117","Cudmore","Lugger"
"118","Narcotic","Lugger"
"119","Holloway","Lugger"
"120","Aunt","Lugger"
"121","Mandam","Lugger"
"122","Nicotine","Lugger"
"123","Nicotine Yellow","Lugger"
"124","Derra (CWL)","Lugger"
"125","Thorpe","Thorpe"
"126","Liverpool","Thorpe"
"127","Herbert","Thorpe"
"128","Macknade","Thorpe"
"129","Galmara","Thorpe"
"130","Maria","Thorpe"
"131","Utchee","Thorpe"
"132","Kimberley","Thorpe"
"133","Tranters","Thorpe"
"134","Fumar","Thorpe"
"135","Gowrie - Tab","Thorpe"
"136","Emerald Coarse Sandy Phase","Thorpe"
"137","Tolga","Tolga"
"138","Pin Gin","Tolga"
"139","Mossman","Tolga"
"140","Eubenangee","Tolga"
"141","Blackburn","Tolga"
"142","Mundoo","Tolga"
"143","Kaban","Tolga"
"144","Laura","Tolga"
"145","Garradunga","Tolga"
"146","Maalan","Tolga"
"147","Blackburn Shallow Phase","Tolga"
"148","Tolga Rocky Phase","Tolga"
"149","Endeavour","Tolga"
"150","Barron","Tolga"
"151","Midgenoo","Tolga"
"152","Maclean (Lak)","Tolga"
"153","Dingo","Tolga"
"154","Bally","Tolga"
"155","Kairi","Tolga"
"156","Pope","Tolga"
"157","Drysdale","Tolga"
"158","Umala - Tab","Tolga"
"159","Quincan","Tolga"
"160","Toobanna","Toobanna"
"161","Yuruga","Toobanna"
"162","Ingham","Toobanna"
"163","Lannercost","Toobanna"
"164","Molonga","Toobanna"
"165","Althaus","Toobanna"
"166","Lily","Toobanna"
"167","Murphy","Toobanna"
"168","Byabra","Toobanna"
"169","Porter","Toobanna"
"170","Mulligan","Toobanna"
"171","Ponzo","Toobanna"
"172","Arriga Sandy","Toobanna"
"173","Arriga","Toobanna"
"174","Lily Shallow Phase","Toobanna"
"175","Normanby Rocky Phase","Toobanna"
"176","Rudd","Toobanna"
"177","Murphy Pan Phase","Toobanna"
"178","Leadingham","Toobanna"
"179","Walkamin Grey Variant","Toobanna"
"180","Orient","Toobanna"
"181","Wongabel","Toobanna"
"182","Gibson Clay Loam Phase","Toobanna"
"183","Weatherby","Toobanna"
"184","Sylvia","Toobanna"
"185","Tully","Tully"
"186","Virgil","Tully"
"187","Silkwood","Tully"
"188","Emerald","Tully"
"189","Silkwood Brown A Horizon Variant","Tully"
"190","Alma","Tully"
