"","NAME","soil_gp"
"1","Alloway","Alloway"
"2","Mahogany","Alloway"
"3","Clayton","Alloway"
"4","Thompson - Mrc","Alloway"
"5","Auburn","Auburn"
"6","Avondale","Auburn"
"7","Walla","Auburn"
"8","Kolan","Auburn"
"9","Peep","Auburn"
"10","Butcher","Auburn"
"11","Granville","Auburn"
"12","Tirroan","Auburn"
"13","Woober","Auburn"
"14","Mungar","Auburn"
"15","Crossing","Auburn"
"16","Walker - Mhb","Auburn"
"17","Givelda","Auburn"
"18","Jumpo","Auburn"
"19","Miva","Auburn"
"20","Bingera","Auburn"
"21","Weithew","Auburn"
"22","Kolan Rocky Phase","Auburn"
"23","Kolan Red Variant","Auburn"
"24","Brooweena","Auburn"
"25","Timbrell","Auburn"
"26","Pelion","Auburn"
"27","Tirroan Rocky Phase","Auburn"
"28","Avondale Yellow Variant","Auburn"
"29","Norville","Auburn"
"30","Peep Sandy Variant","Auburn"
"31","Avondale Tenic Variant","Auburn"
"32","Owanyilla","Auburn"
"33","Gander","Auburn"
"34","Burnett","Burnett"
"35","Colvin","Burnett"
"36","Rothchild","Burnett"
"37","Farnsfield Sandy Variant","Burnett"
"38","Tantitha","Burnett"
"39","Barubbra","Burnett"
"40","Moore Park","Burnett"
"41","Bungadoo","Burnett"
"42","Bells","Burnett"
"43","Baddow","Burnett"
"44","Tinana","Burnett"
"45","Beelbi","Burnett"
"46","Childers","Childers"
"47","Woongarra","Childers"
"48","Watalgan","Childers"
"49","Telegraph","Childers"
"50","Bidwill","Childers"
"51","Chin","Childers"
"52","Howes","Childers"
"53","Bucca","Childers"
"54","Teddington","Childers"
"55","Coonoon","Childers"
"56","Monkland","Childers"
"57","Dagun","Childers"
"58","Dunstan","Childers"
"59","Fairymead","Fairymead"
"60","Fairydale","Fairymead"
"61","Sugarmill","Fairymead"
"62","Sugarmill Acid Variant","Fairymead"
"63","Booloongie","Fairymead"
"64","Rubyanna","Fairymead"
"65","Tandora","Fairymead"
"66","Jaro","Fairymead"
"67","Whymere","Fairymead"
"68","Sugarmill Gravelly Variant","Fairymead"
"69","Farnsfield","Farnsfield"
"70","Oakwood","Farnsfield"
"71","Meadowvale","Farnsfield"
"72","Gooburrum","Farnsfield"
"73","Quart","Farnsfield"
"74","Otoo","Farnsfield"
"75","Flagstone","Farnsfield"
"76","Doolbi","Farnsfield"
"77","Gibson - Bab","Farnsfield"
"78","Moorland","Farnsfield"
"79","Aldershot","Farnsfield"
"80","Gooburrum Mottled Variant","Farnsfield"
"81","Littabella","Farnsfield"
"82","Redbank","Farnsfield"
"83","Corfield","Farnsfield"
"84","Boyne","Farnsfield"
"85","Watalgan Mottled Variant","Farnsfield"
"86","Otoo Sandy Variant","Farnsfield"
"87","Botherm","Farnsfield"
"88","Booyal","Farnsfield"
"89","Tiaro","Farnsfield"
"90","Eerwah","Farnsfield"
"91","Bucca Red Variant","Farnsfield"
"92","Brooyar","Farnsfield"
"93","Johnson","Farnsfield"
"94","Kowbi","Farnsfield"
"95","Watalgan Rocky Phase","Farnsfield"
"96","Kepnock","Kepnock"
"97","Isis","Kepnock"
"98","Woolmer","Kepnock"
"99","Yandaran","Kepnock"
"100","Gillen","Kepnock"
"101","Tirroan Non-Sodic Variant","Kepnock"
"102","Calavos","Kepnock"
"103","Cole","Kepnock"
"104","Gutchy","Kepnock"
"105","Ram","Kepnock"
"106","Highbury","Kepnock"
"107","Dwyer","Kepnock"
"108","Beenham","Kepnock"
"109","Kinkuna","Kinkuna"
"110","Wallum","Kinkuna"
"111","Winfield","Kinkuna"
"112","Theodolite Saline Phase","Kinkuna"
"113","Theodolite","Kinkuna"
"114","Burrum","Kinkuna"
"115","Maroondan","Maroondan"
"116","Mary","Maroondan"
"117","Seaview","Maroondan"
"118","Gahan","Maroondan"
"119","Mary Dark Variant","Maroondan"
"120","Windermere","Maroondan"
"121","Dawes","Maroondan"
"122","Kooringa","Maroondan"
"123","Isis Rocky Phase","Maroondan"
"124","Copenhagen","Maroondan"
"125","Sister","Maroondan"
"126","Robur","Robur"
"127","Kalah","Robur"
"128","Turpin","Robur"
"129","Ashgrove","Robur"
"130","Kolbore","Robur"
"131","Woco","Robur"
"132","Hinkler","Robur"
"133","Drinan","Robur"
"134","Summerville","Robur"
"135","Springs","Robur"
"136","Qunaba","Robur"
"137","Gigoon","Robur"
"138","Huxley","Robur"
"139","Bauple","Robur"
