"NAME","Area_ha","Clay_sf","Silt_sf","FS_sf","pH_sf","K_fact","TOC_sf","Clay85_90","CAR85_90","ESP25_30","ESP85_90","Cl85_90","drainNew","scondNew","LD_A","LD_B","PPAWCNew","ASC_ORD","SUBORD","PPF","GSG","clusters_MW"
"Abbot",101,51,16,24,"9","0.6","1.5","57","","","","357",3,"4",0.1,"1.5","","VE","AE","Ug5.1","BE",1
"Calen",13756,17,21,42,"5.3","0.65","1.28","44","0.47","5.23","10.95","128",3,"4",0.28,"1.2","123","SO","AB","Dy3.32","SC",2
"Benholme",6111,26,29,30,"5.5","0.64","2.14","38","0.6","9.45","15.8","256",3,"4",0.18,"1.2","102","VE","AD","Ug5.24","GC",2
"Karloo",4536,18,40,33,"5.5","","","40","0.4","9.39","12.49","",3,"4",0.3,"1.2","107","SO","AB","Dy3.43","SC",2
"Eton",3521,17,22,37,"5.7","0.68","1.71","34","0.55","5.83","14.69","133",3,"4",0.25,"1.2","100","SO","AD","Dd2.33","NSG",2
"Ossa",3424,12,17,63,"6","0.6","1.12","39","0.33","0.61","16.83","177",3,"4",0.45,"1.05","89","SO","AD","Dy3.42","SH",2
"Slater",2426,13,16,41,"5.7","0.53","1.28","33","0.28","0.52","16.11","73",3,"4",0.21,"1.35","111","SO","AD","Dy3.41","SH",2
"Narpi",2277,22,35,37,"5.5","0.68","1.71","38","0.46","3.4","12.82","448",3,"4",0.23,"1.1","94","SO","AD","Dy3.33","SC",2
"Etowrie",2032,16,29,34,"6.2","0.6","1.82","53","0.67","13.28","15.02","392",3,"4",0.26,"1.12","113","SO","AB","Dy3.33","NSG",2
"Balberra",1288,18,30,44,"","0.68","1.34","39","0.43","0.6","14.36","145",3,"4",0.38,"1.08","117","SO","AD","Dy3.41","SH",2
"Gillinbin",933,13,26,45,"5.5","0.72","","35","0.29","9.48","8.66","",3,"4",0.77,"1.2","88","KU","AB","Dy3.31","SH",2
"Foxdale",291,40,36,10,"5.5","0.62","3.75","51","","","","",3,"4",0.22,"0.6","","DE","AD","Gn3.42","NSG",2
"Bonavista",196,23,35,35,"5.6","0.9","","36","0.38","6.41","7.02","20",3,"4",0.3,"1.2","114","CH","AC","Dy3.33","SC",2
"Albert",134,20,38,34,"","0.82","1.6","40","0.29","5.92","16.28","126",3,"4",0.4,"1.65","112","VE","AD","Uf6.12","GC",2
"Crystalbrook",116,38,16,33,"","","","51","","","","",3,"4",0.22,"1.14","","VE","AE","","GC",2
"Lascelles",107,28,16,32,"","0.55","2.14","49","0.08","1.69","17.22","47",3,"4",0.75,"1.6","107","SO","AD","Dy3.84","SC",2
"Sandiford (Silty Topsoil Variant)",73,17,31,50,"5.5","0.74","1.5","42","0.25","12.13","14.98","44",3,"4",0.45,"1.66","97","SO","AB","Dy3.33","SC",2
"Campbell Plains",38,20,17,41,"6","0.82","1.82","50","","","","",3,"4",0.26,"1.6","","SO","AD","Dy3.13","SK",2
"Etowrie, Neutral Duplex Variant",15,22,17,38,"6.2","","","51","","","","42",3,"4",0.28,"0.9","","SO","AC","Dy2.32","SH",2
"Tabletop",11,42,16,27,"7","","","57","","","","",3,"4",0.13,"1.4","","VE","AE","Ug5.15","BE",2
"Allandale",82,12,9,20,"","0.26","0.96","41","0.53","8.63","12.93","681",3,"4",0.28,"0.7","82","SO","AD","Dy3.31","SH",3
"Allandale, Strongly Sodic Variant",83,22,14,24,"","0.36","3.96","36","0.5","71.61","72.17","356",3,"4",0.15,"0.95","48","SO","AD","Dy2.43","SDS",4
"Proserpine",1013,5,3,30,"6.3","0.37","0.43","11","0.01","0.01","0.01","67",5,"1",0.33,"0.74","82","RU","ER","Uc1.44","A",5
"Up River",201,4,3,37,"","0.26","0.96","14","0.01","0.01","0.01","20",5,"1",0.28,"1.69","68","KA","AC","Uc2.21","NP",5
"Andergrove",95,6,2,30,"5.6","0.28","0.65","4","0.01","0.01","0.01","20",6,"1",0.73,"1.2","65","TE","AW","Uc2.21","RUP",5
"Andergrove (Alkaline Variant)",6,8,6,37,"","","","8","","","","",6,"1",0.16,"0.41","","RU","ER","","",5
"Andergrove Water Table Variant",5,4,1,20,"","0.1","0.71","1","0.01","0.01","0.01","75",6,"1",0.7,"2.55","79","TE","GZ","","SS",5
"Dingo (Pss)",3,5,6,23,"6","0.29","1.44","10","0.01","0.01","0.01","33",5,"1",0.2,"1","60","KA","AC","Uc2.21","NSG",5
"Murray",744,2,4,28,"6.3","0.24","","27","0.57","0.01","0.01","20",6,"3",0.5,"","75","RU","ER","Uc1.2","A",6
"Andromache",8,12,8,41,"6.5","","","17","","","","",6,"3",0.3,"0.81","","DE","AB","Uc1.44","RBE",6
"Bell",674,42,32,18,"5.8","0.48","","48","0.7","1.69","2.07","",3,"4",0.2,"1.2","128","VE","AE","Ug5.16","BE",7
"Royston",255,45,26,16,"6","0.45","3.53","39","0.83","0.01","1.29","20",4,"4",0.23,"1.2","133","DE","AE","Uf6.32","PS",7
"Saddle",185,27,39,16,"5.8","","","55","0.27","0.11","2.64","",3,"4",0.45,"1.2","119","CH","AB","Db2.13","NSG",7
"Ilbilbie",2374,1,5,37,"6","0.31","0.96","15","0.04","0.01","3.6","",3,"4",0.4,"0.9","59","HY","ED","Dy3.41","SH",8
"Freddy",1173,12,24,34,"5.5","0.5","1.07","25","0.17","0.18","9.77","",3,"4",0.6,"0.95","66","KU","AD","Dy3.41","SH",8
"Turnor",1108,7,16,31,"5.8","0.36","","25","0.53","0.54","9.76","",3,"4",0.33,"1.2","79","SO","AB","Dy3.43","SC",8
"Kinchant, Coarse Sandy Variant",994,6,4,21,"","0.17","0.91","26","0.01","0.01","0.01","20",3,"4",0.6,"1.05","72","CH","AD","Dy5.81","GP",8
"Mentmore",819,13,18,30,"5.5","0.35","2.19","11","0.01","0.12","11.38","20",3,"4",0.33,"0.8","76","CH","AB","Dy3.41","SH",8
"Belmunda",523,14,18,25,"6","0.34","2.14","18","0.03","0.01","0.77","29",3,"4",0.4,"1","76","CH","AB","Db1.31","NSG",8
"Louisa",65,8,20,34,"6","0.44","1.93","51","","0.38","","",3,"4",0.32,"1.03","64","KU","AC","Dy3.41","YP",8
"Septimus",23,5,7,25,"5.2","0.23","1.18","8","0.01","0.01","0.01","20",3,"4",0.4,"1.1","65","TE","GZ","Uc2.21","RUP",8
"Sunter",21,15,20,39,"","0.54","2.03","24","0.18","0.01","0.01","20",3,"4",0.6,"0.9","67","KA","AD","","NSG",8
"Berris",86,24,18,45,"5.5","0.61","2.35","48","0.33","1.55","40.87","76",4,"3",0.3,"0.75","69","DE","AB","","",9
"Wollingford",2976,18,27,43,"5.5","0.58","1.6","37","0.59","1.72","10.28","84",4,"4",0.32,"0.92","81","SO","AD","Dy2.43","SC",10
"Martin",472,23,18,45,"5.9","0.57","","51","","0.01","","",4,"4",0.23,"0.8","75","DE","AB","Gn3.51","PS",10
"Wollingford, Yellow B Horizon Variant",404,18,10,39,"","","","51","","","","",4,"4",0.25,"1.1","","SO","AD","Dy2.43","SC",10
"Uruba, Alluvial-Colluvial Variant",385,18,10,39,"","","","51","","","","",4,"",0.3,"1","","CH","AB","Dy3.32","NSG",10
"Seaforth",370,19,33,29,"6","0.61","1.39","32","0.32","0.01","4.15","45",4,"4",0.33,"1.2","92","CH","AD","Dy3.41","SH",10
"Breen",199,18,10,39,"6","","","45","","","","",4,"4",0.45,"","","RU","CY","Um1.21","L",10
"Strathdickie",193,44,16,27,"6.5","","","46","","","","",4,"4",0.35,"0.8","","DE","AB","","PS",10
"Cliftonville",117,17,39,36,"5.8","0.73","","32","0.42","3.17","7.88","",4,"4",0.45,"1.2","98","CH","AB","Dy3.13","NSG",10
"Wollingford, Intrusive Parent Material Variant",113,18,10,39,"","","","51","","","","",4,"4",0.25,"1.2","","SO","AD","Dy3.33","SC",10
"Preston",94,29,18,34,"6.5","","","51","","","","",4,"4",0.24,"0.68","","CH","AD","Dy3.31","GBP",10
"Don",63,19,16,51,"6.7","0.61","1.55","35","0.48","3.22","7.03","115",4,"4",0.45,"1.1","88","CH","AB","Dd1.13","NKB",10
"Seaforth, Dark B Horizon Variant",55,19,14,47,"","","","51","","","","",4,"4",0.35,"0.98","","CH","AD","Dd1.31","SH",10
"Seaforth, Yellow B Horizon Variant",35,19,14,47,"","","","56","","","","",4,"",0.25,"1.2","","CH","AD","Dy3.41","SH",10
"Luce",4,12,8,41,"","","","34","","","","",4,"4",0.12,"1.1","","DE","AA","Gn4.12","CM",10
"Victoria Plains",8704,52,27,18,"6.1","0.58","3.32","59","0.63","4.72","7.71","192",3,"2",0.19,"1.5","146","VE","AD","Ug5.15","BE",11
"Brightley",6666,40,23,26,"5.9","0.64","","55","0.6","2.64","6.68","149",3,"2",0.04,"1.3","153","VE","AD","Ug5.24","GC",11
"Silent Grove",1556,39,18,27,"5.4","0.54","2.89","48","0.71","2.01","2.65","39",4,"2",0.04,"1.2","142","VE","AE","Ug5.15","BE",11
"Wagoora, Basic Parent Material Variant",494,34,22,22,"6","0.42","2.35","33","0.29","0.07","0.74","20",4,"2",0.25,"1.2","139","DE","AA","Gn3.51","PS",11
"Buckley",34,2,1,24,"","0.2","0.43","18","","14.3","","",3,"4",0.3,"1.1","57","SO","AD","Dy3.43","SC",12
"Mirani",3381,9,8,33,"5.5","0.33","","22","0.14","0.01","0.3","21",4,"4",0.48,"0.95","87","CH","AD","Dy5.81","YP",13
"Kuttabul",2204,14,10,64,"6","0.43","1.28","38","0.14","0.01","10.54","29",4,"4",0.27,"0.95","103","CH","AB","Dy2.21","YP",13
"Kuttabul, Alluvial-Colluvial Variant",1640,16,13,42,"6","0.4","","33","0.15","0.01","0.44","20",4,"4",0.33,"0.86","98","CH","AB","Dy2.31","YP",13
"Farleigh",1587,17,6,26,"5.7","0.35","","20","0.53","0.01","0.01","20",4,"4",0.28,"0.9","97","CH","AB","Dy2.12","NSG",13
"Hannan",918,14,14,47,"5.5","0.48","","18","0.64","0.01","0.2","",4,"4",0.45,"","79","","","Um1.23","A",13
"Koumala",436,14,13,41,"6","0.43","1.93","37","0.4","0.09","4.35","",3,"4",0.38,"1.2","97","KU","AB","Dy3.31","YP",13
"Leichhardt",232,18,10,39,"6","","","","","","","",4,"4",0.32,"","","RU","CY","Um1.23","A",13
"Mulei",192,9,6,65,"6","0.45","1.07","35","0.06","0.01","0.01","20",4,"4",0.42,"1.2","82","KA","AC","Gn2.34","YE",13
"Prendergast",139,12,22,32,"6.3","0.53","","36","0.54","0.09","4","",3,"4",0.38,"1.2","96","SO","AB","Dy3.33","SC",13
"Finley",65,14,7,42,"6.5","0.41","2.67","44","0.24","0.01","3.3","24",4,"4",0.32,"1.13","104","CH","AA","Dr4.12","C",13
"Cabbage Tree",25,33,25,28,"6","0.5","","33","0.58","2.65","2.94","",3,"4",0.43,"1.2","110","","","Dd2.33","SC",13
"Woonton",8,13,5,27,"","0.46","0.43","28","0.26","0.39","6.1","20",3,"4",0.23,"1.5","96","KA","AB","Gn2.62","YE",13
"Marwood",445,5,1,39,"","0.22","0.59","5","0.01","0.01","0.01","20",3,"1",0.46,"0.7","63","PO","EJ","Uc1.21","P",14
"Caley",9,8,6,37,"","","","","","","","",3,"1",0.25,"0.55","","TE","GZ","Uc2.21","RUP",14
"Cameron",2101,19,22,45,"5.3","0.62","1.99","14","0.05","0.01","0.01","20",6,"4",0.35,"0.56","90","RU","ER","Um1.43","A",15
"Netherdale",480,41,19,20,"","0.54","1.55","13","0.01","0.01","0.01","20",5,"4",0.23,"0.8","86","TE","CY","Uf6.31","NSG",15
"Riordanvale",120,22,26,26,"5.2","0.55","3.21","38","","2.13","","",2,"3",0.1,"0.65","70","CH","AB","Dy3.22","C",16
"Cameron (Gleyed Subsoil Phase)",106,24,13,32,"6","","","29","","","","",2,"3",0.29,"0.89","","KA","AB","","",16
"Carmila",159,14,18,27,"7.5","0.49","2.14","24","0.33","11.67","64.15","161",3,"4",0.28,"0.78","64","SO","AE","Dy3.43","SC",17
"Cherry Tree",1552,13,26,32,"5.9","0.49","","36","0.58","8.56","37.84","",3,"4",0.35,"1.2","52","SO","AB","Dy3.33","SC",18
"Lillypool",176,14,26,43,"","0.69","1.5","55","0.34","0.71","38.96","916",3,"4",0.4,"1.55","51","SO","AD","Dy3.31","SC",18
"Condor",122,12,9,55,"6","0.5","1.5","27","0.52","2.37","53.86","94",4,"4",0.13,"0.57","53","SO","AB","Dy3.31","SH",19
"St Helens",2867,19,27,36,"5.6","0.6","1.6","32","0.4","0.05","3.24","26",4,"3",0.4,"0.86","112","DE","AB","Gn3.41","PS",20
"Pioneer",2233,19,14,48,"4.8","0.52","2.14","34","0.35","0.01","3.39","21",5,"3",0.55,"1","112","CH","AB","Db1.11","NKB",20
"Nabilla",1721,23,19,31,"6.2","0.49","1.02","51","0.55","4.77","4.25","",4,"3",0.38,"0.9","111","DE","AB","Gn3.52","PS",20
"Glenella",1107,25,8,43,"5.8","0.46","","32","0.88","1.02","1.71","29",5,"3",0.3,"0.93","112","DE","AB","Gn3.21","PS",20
"Habana",977,27,24,33,"5.7","0.51","2.46","36","0.72","1.5","3.21","20",5,"3",0.3,"0.95","110","DE","AB","Gn3.71","NSG",20
"Conway",225,28,16,43,"6.2","","","48","","","","",4,"3",0.25,"1.5","","CH","AB","Dr2.12","GBP",20
"Finch Hatton, Alluvial-Colluvial Variant",175,42,16,27,"5.8","","","51","","","","",5,"3",0.41,"1.1","","DE","AB","Uf6.34","NSG",20
"Thompson",2,19,9,58,"","0.5","1.82","21","0.46","0.01","0.01","20",5,"3",0.24,"1.05","97","DE","AB","Dy4.12","A",20
"Samourgassi",147,22,24,32,"5.4","0.58","","42","","0.01","","",6,"4",0.3,"","57","RU","CY","Um1.23","L",21
"Dittmer",32,6,8,70,"","0.48","1.02","9","","0.01","","",6,"4",0.35,"0.55","48","TE","AW","","L",21
"Tedlands",2467,8,31,40,"6","0.57","1.71","25","0.37","0.94","26.69","",3,"4",0.38,"1.07","64","KU","AC","Dy3.41","SH",22
"Koolachu",2035,7,10,39,"5.2","0.38","1.07","26","0.17","5.42","23.41","20",3,"4",0.3,"1.1","56","SO","AD","Dy3.41","SH",22
"Jumper",564,11,23,50,"4.9","0.52","2.03","26","0.61","1.51","31.75","215",3,"4",0.3,"0.96","66","SO","AD","Dy3.33","SC",22
"Dryander",406,14,16,41,"6.2","0.54","3.37","49","","8.5","","",3,"4",0.22,"1.27","60","CH","AB","Dy3.33","GBP",22
"Ossa, Cobbly Variant",132,12,8,41,"","","","","","","","",3,"4",0.45,"0.8","","SO","AD","Dy3.31","NSG",22
"Ossa (Cobbly Variant)",101,18,29,38,"5.5","0.53","2.67","45","","10.56","","",3,"4",0.21,"0.58","56","SO","AB","Dy3.31","SH",22
"Moffat",71,18,10,39,"6","","","51","","","","",3,"4",0.3,"1.2","","KU","AB","Db2.12","GBP",22
"Dudgeon",31,10,30,50,"5","0.66","2.35","38","0.79","30.11","89.63","",3,"4",0.28,"1.25","42","SO","AB","","",23
"Dundula",925,32,26,28,"5.8","0.47","1.71","42","0.57","12.8","26.73","1566",2,"4",0.15,"1.1","58","VE","AM","Ug5.24","GC",24
"Tailing",405,22,20,33,"","0.52","1.6","32","0.52","15.08","25.9","1379",2,"4",0.15,"1.65","57","SO","AD","Dy3.33","SC",24
"Lascelles (Alkaline Variant)",164,28,16,43,"","","","51","","","","",2,"4",0.29,"1.6","","SO","AD","","",24
"Kunipipi",50,8,6,41,"","","","45","","","","",3,"4",0.25,"1.2","","SO","AD","Dy3.33","SC",24
"Dunwold",2714,10,8,32,"5.5","0.32","1.39","28","0.34","0.01","2.34","20",4,"1",0.56,"0.99","80","CH","AC","Dy2.42","SH",25
"Gargett",2645,12,16,46,"5.4","0.52","0.75","32","0.36","1.5","7.12","20",4,"1",0.52,"0.9","104","CH","AD","Dy3.42","GBP",25
"Munbura",636,8,5,30,"6.4","0.24","0.91","35","0.04","0.01","0.01","20",4,"1",0.43,"1.1","96","CH","AB","Dr4.81","RP",25
"Marian",6918,17,18,45,"5.7","0.54","2.03","32","0.4","0.89","3.43","20",4,"4",0.38,"1.05","114","CH","AB","Dy3.32","NSG",26
"Sandiford",6178,17,16,46,"5.8","0.53","","38","0.45","3.49","11.55","137",4,"4",0.3,"1.27","123","CH","AB","Dy3.33","SC",26
"Sunnyside",5852,20,29,41,"5","0.68","1.77","47","0.41","0.65","9.67","91",4,"4",0.2,"1.2","119","CH","AD","Dy3.33","NSG",26
"Marian, Yellow B Horizon Variant",1191,18,10,39,"6","0.54","2.03","32","","0.89","3.43","",5,"4",0.33,"1.2","114","CH","AC","Dy3.32","YP",26
"Finch Hatton",929,32,22,28,"5.2","0.44","2.09","33","0.41","1.03","0.01","20",5,"4",0.25,"1.1","123","DE","AA","Uf6.31","NSG",26
"Eversleigh",314,28,28,36,"5.5","0.69","1.98","46","0.5","1.06","2.67","27",4,"4",0.19,"1.5","130","DE","AE","","",26
"Edgecumbe",146,22,31,31,"5.3","0.6","3.42","20","0.86","1.97","3.15","69",4,"4",0.29,"1.07","107","CH","AB","Dy3.31","GBP",26
"Perry",135,42,16,27,"6.5","","","42","","","","42",4,"4",0.25,"1.5","","DE","AB","","",26
"Hector (PCS)",110,26,30,22,"6","0.53","3.75","40","0.58","0.01","0.77","27",5,"4",0.5,"1","107","DE","AB","Db1.52","PS",26
"Moosie",35,24,18,40,"","","","45","","","","",4,"4",0.4,"1.5","","DE","AB","Gn4.32","NSG",26
"Etowrie (Neutral Variant)",160,22,54,19,"6","0.82","3.32","51","","5.6","","",3,"4",0.32,"0.9","42","SO","AD","Dy3.32","SC",27
"Finch Hatton (Alluvial - Colluvial Variant)",68,36,16,30,"8","","","51","","","","",5,"4",0.32,"0.9","","DE","AB","Uf6.33","",28
"Uruba",1318,19,13,33,"","0.35","1.98","11","0.01","0.01","0.01","20",4,"3",0.24,"0.78","86","CH","AB","Dy2.12","GBP",29
"Tannalo",876,12,10,27,"","0.3","0.96","19","0.24","0.01","0.01","20",4,"3",0.5,"0.93","82","KA","AB","Gn2.21","NSG",29
"Gargett, Deep A Horizon Variant",379,12,8,41,"","","","12","","","","",4,"3",0.9,"1.2","","CH","AD","Dy5.81","GP",29
"Julian",14,27,32,30,"6","0.51","3.16","26","","1.12","","",4,"3",0.31,"0.75","76","RU","CY","Uf1.21","L",29
"Haden",45,26,36,30,"6.5","0.72","1.71","50","0.36","0.46","9.85","80",4,"3",0.35,"1.5","132","DE","AB","","",30
"Garrett",12,23,14,40,"","0.58","1.6","52","0.12","0.01","0.01","25",4,"3",0.2,"1.55","151","DE","AB","","",30
"Glen Isla",177,24,17,38,"5.8","","","42","","","","",1,"4",0.24,"0.88","","CH","AD","Dg2.11","HG",31
"Glenroc",7,15,8,28,"","0.51","0.54","18","1.01","13.4","39.58","477",3,"4",0.35,"1.5","49","SO","AB","Dy3.12","NSG",32
"Goorganga",322,48,32,11,"5.5","0.51","3.96","49","0.54","4.91","9.33","354",2,"4",0.15,"1.4","137","HY","EW","Ug5.16","HG",33
"Hillsborough",399,44,37,11,"6","","","35","0.55","3.83","16.11","1000",2,"4",0.36,"1.51","63","HY","BT","Ug5.16","HG",34
"Pindi",2764,13,8,38,"6.4","0.39","1.28","57","0.13","2.4","32.46","75",3,"4",0.28,"0.91","81","SO","AC","Dy3.41","SH",35
"Kinchant",1061,8,8,45,"6.7","0.35","0.8","30","0.4","0.66","25.03","113",3,"4",0.5,"1.1","73","SO","AD","Dy5.81","SH",35
"Koolachu (Saline Variant)",29,12,8,41,"","","","27","","","","",3,"3",0.39,"1.5","","SO","AD","","",36
"Kowari",195,30,17,24,"","0.41","6.05","","","0.01","","",5,"4",0.38,"0.6","63","RU","AB","Gn2.42","GBP",37
"Kungurri",34,26,17,46,"5","0.5","","51","0.21","9.5","21.57","20",5,"2",0.2,"1","136","DE","AA","Gn3.21","NSG",38
"Marlow",27,32,19,23,"5.2","0.54","2.35","25","1.2","0.04","1.86","20",5,"4",0.25,"0.85","80","CH","AD","Dy3.31","GBP",39
"Mentmore, Sandy Loam Variant",163,12,8,41,"","","","","","","","",5,"",0.2,"0.85","","CH","AC","Dy3.41","SH",40
"Wagoora",2969,29,24,26,"5.5","0.59","2.89","48","0.7","3.88","5.65","35",4,"4",0.19,"1.4","151","DE","AA","Gn3.22","PS",41
"Myrtle",504,45,16,27,"6","0.53","3.42","64","0.52","3.72","7.35","117",3,"4",0.12,"1.52","160","VE","AD","Ug5.16","GC",41
"Nilotica",2,20,12,49,"","0.64","1.07","30","0.9","61.42","89.28","1345",3,"4",0.43,"0.72","50","KA","AE","Gn4.43","NSG",42
"Urannah",456,7,10,24,"6","0.26","3","6","0.01","0.01","0.01","",4,"4",0.5,"","57","KA","AB","Um1.21","L",43
"Palmyra",304,14,32,35,"","0.46","2.19","","","0.73","","",4,"4",0.45,"0.68","56","SO","AD","Dy3.41","SH",43
"Pinnacle - Cq",102,50,10,21,"5","0.38","","74","0.04","0.01","0.01","21",5,"4",0.18,"1.2","165","DE","AA","Uf6.31","K",44
"Pioneer, Red B Horizon Variant",492,10,14,39,"6.5","0.49","","38","0.24","0.72","0.01","20",5,"2",0.36,"1.5","100","CH","AA","Dr2.12","NKB",45
"Pluto",58,9,13,61,"","","","51","","","","",4,"4",0.32,"0.98","31","SO","AD","Dy3.41","SC",46
"Pring",57,30,12,28,"5.5","0.46","1.82","64","0.22","0.01","1.36","25",4,"4",0.2,"0.85","138","DE","AA","Gn3.12","E",47
"Tenmile",161,5,7,35,"7.5","0.32","1.18","38","0.56","10.05","31.59","1197",2,"1",0.1,"1.3","58","SO","AD","Dy3.33","SC",48
"Turpad",156,7,8,23,"5.8","0.31","","7","0.01","0.01","0.01","",5,"4",1.2,"","64","TE","GZ","Uc1.21","SS",49
"Wandarra",49,7,10,45,"","0.29","1.5","25","0.01","0.01","0.01","20",5,"4",0.71,"1.26","83","DE","AB","Gn2.34","YE",49
"Whiptail",2098,12,15,56,"6","0.56","2.03","28","0.57","18.12","47.2","457",2,"4",0.31,"0.8","52","SO","AB","Dy3.41","SH",50
"Wygong",15,46,15,23,"","0.68","0.86","46","0.74","3.1","7.35","176",4,"2",0.03,"0.92","123","VE","AE","Ug5.12","BE",51
