"NAME","Area_ha","Clay_sf","Silt_sf","FS_sf","pH_sf","K_fact","TOC_sf","Clay85_90","CAR85_90","Su","ESP85_90","Cl85_90","drainNew","scondNew","LD_A","LD_B","M","ASC_ORD","SUBORD","PPF","GSG","clusters_CB","soil_gp","Nev_cluster","Nev.post"
"2Ugf",521,64,24,10,6.5,0.56,1.18,70,0.42,1,7.44,336,4,2,0.13,1.5,0,"VE","AD","Ug3.2","GC","12","2Dbc","8","1AB"
"Althaus",504,4,16,39,NA,0.46,0.75,20,0.18,NA,31.952,61,3,4,0.46,1.2,6,"SO","AD","Dy3.41","SH","26","2Dbc",NA,NA
"BUfe",454,31,33,33,8.4,0.95,NA,22,0.84,1,10.4,160,4,4,0.2,1.05,1,"DE","AB",NA,NA,"31","2Dbc","14","BDS-sli"
"Purono",336,19,14,41,NA,NA,NA,45,NA,3,NA,NA,3,4,0.05,NA,NA,"SO","AD","Dy2.43","SC","6","2Dbc","19","W3"
"Roundback Level Phase",128,8,6,37,NA,NA,NA,51,NA,3,NA,NA,3,4,0.27,1.5,NA,"SO","AB","Dy2.43","SC","6","2Dbc","21","BER-so3"
"2Uga",80,55,24,18,NA,0.58,1.02,63,0.56,0,11.136,325,4,2,0.08,1.5,NA,"VE","AD","Ug5.25","GC","12","2Dbc","8","1AB"
"3Uge",76,67,15,15,NA,0.65,0.8,67,0.88,0,8.136,265,3,2,0.13,1,0,"VE","AE","Ug5.17","BE","12","2Dbc","8","1AB"
"1UgcS",58,NA,NA,NA,NA,NA,NA,NA,NA,2,NA,900,2,NA,NA,NA,2,"VE","AM",NA,NA,"6","2Dbc",NA,NA
"3Ugd",51,51,16,24,NA,0.63,0.86,57,NA,0,NA,NA,4,2,0.04,1.5,0,"VE","AE","Ug5.16","BE","12","2Dbc","8","1AB"
"RUff",33,42,16,27,NA,NA,NA,51,NA,2,NA,NA,2,4,0.18,1.45,2,"HY","ED",NA,NA,"6","2Dbc","13","BDS-neg"
"2UgfE",15,NA,NA,NA,NA,NA,NA,56,NA,0,NA,NA,4,2,0.15,1.4,0,"VE","AD",NA,NA,"12","2Dbc","8","1AB"
"3Ugc",12,51,16,24,NA,NA,NA,56,NA,0,NA,NA,3,2,0.15,1.5,0,"VE","AE","Ug5.16","BE","12","2Dbc","8","1AB"
"2Uge",7256,38,21,30,6.5,0.64,1.28,52,0.57,1,14.944,738,4,3,0.15,1.5,0,"VE","AE","Ug5.29","GC","5","2Dyb","7","2A"
"Rugb",6440,36,35,24,8.3,0.7,NA,33,0.78,1,21.896,385,1,4,0.15,1.5,0,"VE","AD","Uc5.2","GC","40","2Dyb","13","BDS-neg"
"2Ugd",5690,37,25,33,6,0.62,1.28,51,0.53,1,10.264,277,4,3,0.18,1.5,0,"VE","AE","Ug3.2","GC","5","2Dyb","8","1AB"
"2Ugc",1961,53,20,22,7.2,0.66,1.07,60,0.55,1,9.104,317,4,3,0.13,1.5,0,"VE","AD","Ug5.28","GC","5","2Dyb","8","1AB"
"Gillian",665,42,16,27,NA,NA,NA,56,NA,2,NA,NA,2,2,0.05,1.25,NA,"VE","AB",NA,NA,"4","2Dyb","18","W4"
"1Ugd",236,56,21,16,8.6,0.56,1.23,60,0.48,2,8.88,773,4,3,0.1,1.5,0,"VE","AD","Ug5.28","GC","5","2Dyb","8","1AB"
"Sachs",143,45,16,27,NA,NA,NA,56,NA,2,NA,1031,2,2,0.04,2.5,NA,"VE","AE","Ug5.16","BE","4","2Dyb","19","W3"
"RUga",130,45,16,27,NA,NA,NA,51,NA,2,NA,NA,3,4,0.12,1.32,0,"VE","AD",NA,NA,"7","2Dyb","13","BDS-neg"
"1Ugc",121,42,16,27,7.5,NA,NA,51,NA,2,NA,NA,4,3,0.12,1.5,0,"VE","AE","Ug5.16","BE","5","2Dyb","8","1AB"
"2ugd2",89,41,23,24,NA,0.64,1.39,50,0.47,1,11.312,263,4,3,0.12,1.1,0,"VE","AD","Ug3.2","GC","5","2Dyb","8","1AB"
"2Uge2",49,42,16,27,6,NA,NA,51,NA,2,NA,NA,4,3,0.1,1,0,"VE","AD",NA,NA,"5","2Dyb","7","2A"
"1Ugf",39,34,15,33,NA,0.51,1.07,47,0.64,2,18.536,1058,3,3,0.23,1.5,0,"VE","AD","Ug3.2","GC","7","2Dyb","8","1AB"
"6Uga",26,42,16,27,7,NA,NA,46,NA,1,NA,NA,4,3,0.13,1.25,0,"VE","AE","Ug5.16","BE","5","2Dyb","8","1AB"
"Koberinga Secondary Salinisation (3uges)",24,NA,NA,NA,NA,NA,NA,NA,NA,2,NA,NA,2,2,NA,NA,0,"VE","AM","Ug5.17","BE","4","2Dyb",NA,NA
"1Uga1",19,51,16,24,NA,NA,NA,56,NA,2,NA,NA,3,2,0.1,1.15,NA,"VE","AD",NA,NA,"4","2Dyb","9","1D"
"2Ugd5",19,42,16,27,6.5,NA,NA,51,NA,1,NA,NA,4,3,0.15,1.5,0,"VE","AB",NA,NA,"5","2Dyb","8","1AB"
"2Uge7",17,45,16,27,NA,NA,NA,51,NA,1,NA,NA,4,3,0.1,0.9,0,"VE","AD",NA,NA,"5","2Dyb","7","2A"
"2Dbc",348,10,13,36,6,0.4,1.07,35,0.61,1,18.04,320,4,3,0.28,1.25,2,"SO","AB","Db2.43","SC","8","2Dyc","5","2C"
"6Dye",325,5,12,41,6.5,0.4,0.54,40,0.32,2,9.592,218,4,3,0.55,1.5,2,"CH","AD","Dy3.43","SC","8","2Dyc","5","2C"
"Scrubby (Zed)",291,13,10,48,NA,NA,NA,42,NA,1,NA,NA,4,3,0.2,NA,NA,"SO","AB","Dy3.43","SC","8","2Dyc","23","ZED"
"2Dbe",121,25,18,38,6,NA,NA,51,NA,1,NA,NA,4,3,0.16,1.2,2,"SO","AB","Db1.33","SC","8","2Dyc","5","2C"
"BUfcS",100,NA,NA,NA,NA,NA,NA,NA,NA,1,NA,900,4,NA,NA,NA,2,"KA","AB",NA,NA,"8","2Dyc",NA,NA
"BUfaS",85,NA,NA,NA,NA,NA,NA,NA,NA,1,NA,900,4,NA,NA,NA,2,"KA","AB",NA,NA,"8","2Dyc",NA,NA
"4Dyk",79,12,8,41,6.5,NA,NA,18,NA,1,NA,NA,4,3,0.68,1,2,"SO","AD","Dy2.31","SH","8","2Dyc","5","2C"
"6UfdA",54,45,16,27,NA,NA,NA,45,NA,2,NA,NA,5,3,0.3,0.95,2,"DE","AB",NA,NA,"8","2Dyc","2","4AB"
"2Dyc3",42,36,16,30,6,NA,NA,51,NA,1,NA,NA,4,3,0.1,1.45,2,"SO","AD",NA,NA,"8","2Dyc","7","2A"
"6Dyh",31,12,8,41,NA,NA,NA,45,NA,0,NA,NA,4,3,0.35,1.5,2,"SO","AD","Dy3.43","SC","8","2Dyc","6","2B"
"2Dyc2",23,22,18,42,NA,NA,NA,51,NA,0,NA,NA,4,3,0.2,1.1,NA,"SO","AD",NA,NA,"8","2Dyc","7","2A"
"BUmaS",21,NA,NA,NA,NA,NA,NA,NA,NA,1,NA,900,5,NA,NA,NA,2,"TE","IR",NA,NA,"8","2Dyc",NA,NA
"6Dye3",20,18,10,39,7,NA,NA,51,NA,1,NA,NA,4,3,0.2,1.18,2,"CH","AD",NA,NA,"8","2Dyc","5","2C"
"6Dyg4",16,16,13,40,NA,NA,NA,18,NA,1,NA,NA,4,3,0.25,0.56,2,"SO","AD",NA,NA,"8","2Dyc","6","2B"
"6Dyd1",12,NA,NA,NA,NA,NA,NA,NA,NA,1,NA,NA,4,NA,NA,NA,2,"CH","AB",NA,NA,"8","2Dyc",NA,NA
"Carew",3392,40,18,28,NA,0.7,1.18,44,0.77,2,8.2,817,3,2,0.04,1.5,0,"VE","AE","Ug5.15","BE","3","2Uge","20","BER-so2"
"2Ugg",1765,66,23,14,6.5,0.52,1.5,66,0.54,1,8.704,363,3,2,0.15,1.5,0,"VE","AE","Ug5.29","GC","3","2Uge","8","1AB"
"2Ugh",1270,56,22,16,7,0.54,0.86,56,0.59,2,12.808,676,3,2,0.13,1.5,0,"VE","AE","Ug5.29","GC","3","2Uge","8","1AB"
"2Ugk",1200,48,26,19,NA,0.59,1.07,56,0.5,2,12.256,730,3,2,0.09,1.21,0,"VE","AD","Ug5.17","GC","3","2Uge","8","1AB"
"Koberinga Pebbly Phase (3uge8)",260,50,14,29,NA,0.66,0.91,50,0.75,2,9.76,177,3,2,0.1,1.28,0,"VE","AE","Ug5.17","BE","3","2Uge","8","1AB"
"2UgfW",209,51,16,24,NA,NA,NA,56,NA,1,NA,NA,3,2,0.1,1.65,0,"VE","AM",NA,NA,"3","2Uge","8","1AB"
"Koberinga Pebbly Phase (3uga8)",183,48,14,24,NA,0.53,0.96,46,0.78,2,5.936,231,3,2,0.1,1.55,0,"VE","AE","Ug5.16","BE","3","2Uge","8","1AB"
"1Uga",176,51,17,20,NA,0.57,1.07,49,0.69,2,11.144,947,4,2,0.1,1.5,0,"VE","AD","Ug5.16","BE","3","2Uge","8","1AB"
"Koberinga Mottled Phase (3uga9)",105,56,15,18,NA,0.63,1.02,57,0.75,2,7.464,735,3,2,0.1,1.6,0,"VE","AE","Ug5.16","BE","3","2Uge","8","1AB"
"3Uga",102,56,15,21,NA,NA,NA,56,NA,2,NA,522,3,2,0.08,1.5,0,"VE","AE","Ug5.16","BE","3","2Uge","8","1AB"
"2UggW",72,51,16,24,NA,NA,NA,51,NA,1,NA,NA,3,2,0.15,1.5,0,"VE","AM",NA,NA,"3","2Uge","8","1AB"
"2Ugk2",56,51,16,24,NA,NA,NA,56,NA,2,NA,NA,3,2,0.1,0.9,0,"VE","AD",NA,NA,"3","2Uge","8","1AB"
"2UgdW",39,42,16,27,NA,NA,NA,51,NA,1,NA,NA,3,3,0.1,1.65,0,"VE","AM",NA,NA,"3","2Uge","8","1AB"
"2Ugg5",32,51,16,24,6.5,NA,NA,51,NA,1,NA,NA,3,2,0.12,1.25,0,"VE","AB",NA,NA,"3","2Uge","8","1AB"
"Barrunga With Erosion (1ugae)",28,51,16,24,NA,NA,NA,51,NA,1,NA,NA,3,NA,0.1,1.7,0,"VE","AD","Ug5.16","BE","3","2Uge","12","Eroded"
"3Ugk",16,45,16,27,NA,NA,NA,51,NA,2,NA,NA,3,2,0.13,1.35,0,"VE","AD","Ug5.2","GC","3","2Uge","8","1AB"
"2Dyc",816,34,28,40,NA,0.69,1.39,50,0.54,1,10.416,510,3,3,0.18,1.5,2,"SO","AD","Dy3.33","SC","10","2Ugg","7","2A"
"RUgbS",1986,51,16,24,10,NA,NA,51,NA,3,NA,900,3,4,0.2,1.5,3,"VE","AD",NA,NA,"41","6Dya","11","BDS-Saline phase"
"2Ugj",77,45,16,27,6.5,0.64,4.82,45,NA,1,NA,1965,3,3,0.18,1.25,3,"VE","AD","Ug3.2","GC","14","6Dya","8","1AB"
"5UgaS",61,50,16,24,8.5,NA,NA,54,NA,3,NA,900,3,NA,0.2,1.55,3,"VE","AE",NA,NA,"19","6Dya","11","Saline phase"
"CUfb",964,18,11,45,7,0.43,NA,27,0.55,0,4.712,78,5,4,0.5,1.4,0,"DE","AB",NA,NA,"21","6Dyb","15","BDS-mod"
"6E",31,51,16,24,NA,NA,NA,NA,NA,0,NA,NA,NA,4,0.35,NA,0,NA,NA,NA,NA,"21","6Dyb","12","Eroded"
"6Dyf",4630,14,25,50,6,0.69,0.96,50,0.44,1,6.232,96,5,3,0.38,1.35,1,"CH","AB","Dy3.43","SC","13","6Dyf","4","3A"
"6Drc",2202,18,27,40,6,0.68,1.39,44,0.41,1,2.72,46,5,3,0.35,1.18,1,"CH","AA","Dr3.33","SC","13","6Dyf","4","3A"
"6Dyd",1575,9,16,62,6.2,0.52,0.64,46,0.23,0,8.608,22,5,3,0.3,1.35,1,"CH","AB","Dy3.42","BP","13","6Dyf","4","3A"
"6Dbc",1031,14,12,67,NA,0.58,1.28,18,0.58,0,0.008,20,5,3,0.3,1.2,1,"CH","AB","Db1.32","BP","13","6Dyf","4","3A"
"6Umb",1031,14,24,52,6.8,0.67,2.57,26,0.72,0,0.008,20,5,3,0.41,1.5,1,"DE","AB","Um4.42","NSG","13","6Dyf","2","4AB"
"6Dbg",923,8,8,65,NA,0.57,0.75,22,0.35,0,0.008,20,5,3,0.85,1.5,2,"CH","AB","Db1.22","BP","16","6Dyf","4","3A"
"6Dyb",878,8,12,42,6.5,0.42,0.7,33,0.29,0,9.696,47,4,3,0.45,1.5,1,"CH","AB","Dy3.32","SC","13","6Dyf","5","2C"
"6Drb",877,14,24,52,6,0.7,0.96,45,0.3,0,2.344,20,5,3,0.32,1.5,1,"CH","AA","Dr3.32","RP","13","6Dyf","4","3A"
"6Gna",785,29,18,34,6.5,NA,NA,42,NA,0,NA,NA,4,3,0.3,1.05,1,"DE","AE","Gn3.22","BE","13","6Dyf","2","4AB"
"5Dra",756,24,12,28,7,0.53,1.18,30,0.78,0,1.368,20,5,3,0.23,0.95,1,"CH","AA","Dr2.12","NKB","13","6Dyf","3","3B"
"6Dbf",415,14,14,64,NA,0.56,0.52,30,0.37,0,0.136,20,5,3,0.3,1.1,1,"CH","AB","Db1.22","BP","13","6Dyf","4","3A"
"6Dyf2",405,12,15,48,6,0.51,1.69,31,0.56,1,11.728,73,5,3,0.25,0.9,1,"CH","AB",NA,NA,"13","6Dyf","4","3A"
"6Dbe",379,17,16,55,NA,0.64,1.28,21,0.58,1,0.096,20,5,3,0.15,0.63,1,"CH","AB","Db2.33","BRE","13","6Dyf","4","3A"
"6Dya",326,7,10,42,6.2,0.43,0.7,8,0.01,0,0.008,20,3,3,0.9,1.5,2,"CH","AB","Dy3.41","YP","15","6Dyf","1","4C"
"6Ufd",286,42,16,27,6.6,0.55,NA,42,NA,0,NA,NA,5,3,0.3,1.1,1,"DE","AE","Uf6.32","NSG","13","6Dyf","2","4AB"
"6Dbd",283,13,22,52,6.2,0.65,1.18,16,0.6,1,4.672,43,5,3,0.3,1.2,1,"CH","AB","Db2.3","BRE","13","6Dyf","4","3A"
"6Dra",206,6,15,70,6.2,0.56,0.75,43,0.25,0,0.008,20,5,3,0.35,1.5,1,"CH","AA","Dr3.31","RP","13","6Dyf","4","3A"
"6Dyf3",183,22,17,39,6,NA,NA,51,NA,0,NA,NA,5,3,0.2,1.05,1,"CH","AB",NA,NA,"13","6Dyf","4","3A"
"BGnb",183,22,14,44,7.2,NA,NA,8,NA,0,NA,NA,5,3,0.3,0.75,1,"DE","AB",NA,NA,"13","6Dyf","15","BDS-mod"
"BGna",168,22,17,44,7,NA,NA,42,NA,0,NA,NA,5,3,0.32,1,1,"KA","AB",NA,NA,"13","6Dyf","15","BDS-mod"
"6Dyc",166,12,7,62,6.5,0.43,1.6,48,0.28,0,1.928,20,5,3,0.63,1.2,1,"CH","AB","Dy3.42","YP","13","6Dyf","4","3A"
"6Dbc2",156,19,13,39,NA,NA,NA,18,NA,0,NA,NA,5,3,0.22,0.65,1,"CH","AB",NA,NA,"13","6Dyf","4","3A"
"CUma",125,22,12,37,7,NA,NA,20,NA,0,NA,NA,6,3,NA,NA,2,"RU","ER",NA,NA,"16","6Dyf","16","BDS-mar"
"6Gnb",115,15,9,32,NA,0.46,0.96,16,0.23,0,0.008,20,5,3,0.95,1.5,1,"DE","AA","Gn3.15","RP","13","6Dyf","1","4C"
"5Dya",111,17,10,32,NA,0.52,1.5,56,0.15,0,0.008,20,NA,3,0.2,0.85,1,"CH","AB","Dy2.11",NA,"13","6Dyf","3","3B"
"6Ufc",99,42,16,27,6,NA,NA,42,NA,1,NA,185,4,3,0.4,1.35,1,"DE","AE","Uf6.31","A","13","6Dyf","2","4AB"
"CDra",92,18,10,39,6.8,NA,NA,32,NA,0,NA,NA,5,2,0.5,0.95,2,"CH","AA",NA,NA,"16","6Dyf","16","BDS-mar"
"BUmb2",85,20,16,46,6.5,NA,NA,24,NA,1,NA,NA,4,3,0.22,0.92,1,"KA","AB",NA,NA,"13","6Dyf","16","BDS-mar"
"6Ufa",78,42,16,27,7,NA,NA,45,NA,1,NA,NA,4,3,0.2,1.5,1,"DE","AE","Uf6.32","NSG","13","6Dyf","2","4AB"
"6Dbe2",75,26,18,38,NA,NA,NA,42,NA,1,NA,NA,5,3,0.18,0.55,1,"CH","AB",NA,NA,"13","6Dyf","4","3A"
"6Gne",73,29,18,34,NA,NA,NA,42,NA,0,NA,NA,4,3,0.38,1.5,1,"DE","AE","Gn3.49","BE","13","6Dyf","2","4AB"
"5Dyb",60,29,17,34,7.5,NA,NA,45,NA,0,NA,NA,4,3,0.3,1.1,1,"CH","AB","Dy2.13",NA,"13","6Dyf","5","2C"
"6Uma2",56,14,13,44,6.5,NA,NA,22,NA,0,NA,NA,5,3,0.3,0.7,1,"KA","AB",NA,NA,"13","6Dyf","2","4AB"
"Glenalder Buried Soils Or D Horizons Vary",55,18,10,39,NA,NA,NA,12,NA,0,NA,NA,5,3,0.26,0.65,1,"CH","AB","Db1.22","BP","13","6Dyf","4","3A"
"4Gnb",54,6,4,25,NA,0.31,0.59,31,0.05,NA,0.008,20,5,3,0.75,1.5,NA,"DE","AA","Gn3.14","RP","16","6Dyf","1","4C"
"Lancer Buried Soils Or D Horizons Vary (6drb2)",52,20,17,38,6,NA,NA,42,NA,0,NA,NA,5,3,0.3,0.8,1,"CH","AA","Dr2.32","RP","13","6Dyf","4","3A"
"6Ufe",51,42,16,27,6,NA,NA,28,NA,0,NA,NA,5,3,0.18,NA,1,"TE","BF","Uf6.22","A","13","6Dyf","2","4AB"
"Farencer Buried Soils Or D Horizons Vary",49,29,18,34,NA,NA,NA,45,NA,0,NA,NA,4,3,0.22,0.55,1,"CH","AB","Db1.12","NSG","13","6Dyf","2","4AB"
"6Dya5",45,12,8,41,6,NA,NA,14,NA,0,NA,NA,3,3,0.5,1.55,2,"CH","AB",NA,NA,"15","6Dyf","1","4C"
"6Dyc2",43,22,11,37,NA,NA,NA,51,NA,0,NA,NA,5,3,0.5,1.2,1,"CH","AB",NA,NA,"13","6Dyf","4","3A"
"BGnb2",36,26,18,39,NA,NA,NA,51,NA,0,NA,NA,4,NA,NA,NA,1,"DE","AB",NA,NA,"13","6Dyf","15","BDS-mod"
"5Dye",32,22,10,44,NA,0.59,1.18,33,0.48,0,0.008,20,4,3,0.23,1.27,1,"SO","AB","Dy3.23","SC","13","6Dyf","5","2C"
"6UmbC",26,22,17,44,NA,NA,NA,40,NA,0,NA,NA,5,3,0.4,1.1,1,"DE","AB",NA,NA,"13","6Dyf","2","4AB"
"6Dyd2",21,22,17,44,7,NA,NA,44,NA,0,NA,NA,5,3,0.28,0.8,1,"CH","AB",NA,NA,"13","6Dyf","4","3A"
"2Ugb",20,45,16,27,NA,NA,NA,51,NA,0,NA,NA,4,3,0.08,0.88,NA,"VE","AE","Ug5.15","BE","13","6Dyf","8","1AB"
"4Dga",19,14,10,41,NA,NA,NA,29,NA,0,NA,NA,2,3,0.5,0.93,2,"CH","AD","Dg2.41","GP","15","6Dyf","3","3B"
"5Ugc  Depression",19,28,21,22,NA,0.64,1.12,29,0.89,0,22.368,1107,3,2,0.18,1,NA,"VE","AE","Ug5.14","BE","20","6Dyf","9","1D"
"2Ugd1",17,44,16,27,NA,NA,NA,51,NA,0,NA,NA,4,NA,0.06,1,NA,"VE","AD",NA,NA,"13","6Dyf","8","1AB"
"6Dyd7",17,22,17,44,NA,NA,NA,48,NA,0,NA,NA,5,3,0.25,1.15,1,"CH","AB",NA,NA,"13","6Dyf","4","3A"
"5Dra3",15,42,16,27,NA,NA,NA,51,NA,0,NA,NA,5,3,0.18,0.88,NA,"CH","AA",NA,NA,"13","6Dyf","3","3B"
"CUfc",1325,42,16,27,8,NA,NA,28,NA,1,NA,NA,4,4,0.38,1.2,2,"DE","AB",NA,NA,"34","Althaus","14","BDS-sli"
"Pennsfield",623,8,8,67,NA,0.51,0.96,22,0.69,2,21.112,549,4,4,0.25,0.98,2,"SO","AB","Db1.43","RBE","34","Althaus",NA,NA
"BUga",391,23,21,9,7.2,0.49,NA,54,0.75,0,18,113,4,4,0.2,1.3,1,"VE","AE",NA,NA,"32","Althaus","13","BDS-neg"
"2UgcW",229,57,25,14,NA,0.61,2.09,60,0.47,1,6.664,156,2,3,0.15,1.55,0,"VE","AM",NA,NA,"11","Althaus","8","1AB"
"Byabra",227,8,10,33,NA,0.43,0.54,32,0.84,NA,18.352,558,3,3,0.18,1.2,6,"SO","AD","Dy3.43","SC","33","Althaus","24","WTC"
"RUfe",159,45,16,27,8,NA,NA,45,NA,1,NA,NA,3,4,0.12,0.98,2,"DE","AD",NA,NA,"34","Althaus","14","BDS-sli"
"2SP",27,NA,NA,NA,NA,NA,NA,NA,NA,0,NA,NA,2,NA,NA,NA,0,NA,NA,NA,NA,"11","Althaus",NA,NA
"Koberinga With Erosion (3ugde)",17,NA,NA,NA,NA,NA,NA,NA,NA,0,NA,NA,3,NA,NA,NA,0,"VE","AE","Ug5.16","BE","11","Althaus",NA,NA
"BUfc",10732,27,24,34,7.5,0.68,NA,26,0.55,0,5.272,20,4,4,0.34,1.3,1,"KA","AB",NA,NA,"25","BUca","14","BDS-sli"
"BUmb",2559,10,8,39,6.3,0.54,NA,13,0.01,0,2.928,20,5,4,0.35,0.8,1,"KA","AB",NA,NA,"25","BUca","16","BDS-mar"
"BUmd",1414,22,17,44,7.5,NA,NA,22,NA,0,NA,NA,5,4,0.25,1.5,1,"KA","AB",NA,NA,"25","BUca","16","BDS-mar"
"CUfa",1331,42,16,27,7,NA,NA,22,NA,0,NA,NA,5,4,0.4,0.9,1,"DE","AB",NA,NA,"25","BUca","15","BDS-mod"
"6Uma",982,13,10,66,5.2,0.63,1.39,16,0.43,0,0.008,20,4,3,0.48,0.95,1,"KA","AB","Um5.52","ES","25","BUca","2","4AB"
"CUmb",533,22,17,44,7,NA,NA,22,NA,0,NA,NA,5,4,0.32,1,1,"TE","IO",NA,NA,"25","BUca","16","BDS-mar"
"CDba",455,15,11,55,5.7,0.52,NA,10,0.01,0,0.008,20,4,4,0.42,1.25,1,"CH","AB",NA,NA,"25","BUca","16","BDS-mar"
"BDba",350,22,15,42,7,NA,NA,22,NA,0,NA,NA,4,4,0.3,1.1,1,"CH","AB",NA,NA,"25","BUca","16","BDS-mar"
"Kelona Buried Soils Or D Horizons Vary",286,9,11,35,6,0.42,0.43,34,0.54,2,53.824,594,3,4,0.2,0.76,2,"SO","AD","Dy3.43","SC","36","BUca",NA,NA
"BGnc",246,18,11,39,6.5,NA,NA,16,NA,0,NA,NA,5,4,0.22,0.85,1,"DE","AB",NA,NA,"25","BUca","16","BDS-mar"
"Burdekin Buried Soils Or D Horizons Vary",245,20,17,57,NA,0.6,2.03,14,0.04,0,0.12,20,4,4,0.3,0.7,1,"DE","AB","Um6.3","NSG","25","BUca",NA,NA
"Kelona A Horizon Variant",141,14,12,30,6,0.39,0.43,41,0.5,1,47.632,928,3,4,0.25,1.05,2,"SO","AD","Dy3.43","SC","36","BUca",NA,NA
"Ashton",150,8,12,30,NA,0.36,1.07,18,0.31,NA,0.168,20,3,3,0.53,1.2,5,"KA","AC","Gn2.94","YE","27","BUfb","24","WTC"
"4Ucc",100,5,2,31,NA,0.24,0.27,7,0.01,0,0.008,20,3,3,0.95,1.25,3,"TE","GZ","Uc2.21",NA,"17","BUfb","1","4C"
"Lee",27,15,16,22,6,0.4,1.93,10,0.01,NA,0.008,20,3,3,0.35,1.02,3,"KA","AD","Um5.52","GE","17","BUfb","24","WTC"
"CDbb",327,20,15,42,7,NA,NA,51,NA,2,NA,NA,3,4,0.2,1.1,3,"CH","AB",NA,NA,"28","BUfc","13","BDS-neg"
"6Gnc",160,6,17,49,NA,0.55,0.7,44,0.31,2,32.48,193,4,3,0.28,0.85,1,"DE","AB","Gn3.83","YP","22","BUfc","6","2B"
"Bambave A Horizon Variant",66,15,9,40,8.5,NA,NA,48,NA,1,NA,NA,3,4,0.35,1.1,3,"SO","AD","Dy2.33","SC","28","BUfc",NA,NA
"RDyaA",22,NA,NA,NA,NA,NA,NA,NA,NA,4,NA,NA,3,NA,NA,NA,3,"SO","AD",NA,NA,"39","BUfc",NA,NA
"BUfb",2868,15,14,58,7.4,0.63,NA,17,0.69,0,1.968,20,4,4,0.35,0.8,2,"KA","AB",NA,NA,"30","BUmb","14","BDS-sli"
"BUfa",2380,26,25,37,7.5,0.68,NA,34,0.58,0,1.912,20,4,4,0.25,0.78,2,"KA","AB",NA,NA,"30","BUmb","15","BDS-mod"
"BUma",1806,12,22,62,7,0.58,1.82,1,0.01,0,0.008,20,5,4,0.25,0.48,2,"TE","IR",NA,NA,"30","BUmb","16","BDS-mar"
"BUfd",1238,42,16,27,7,NA,NA,8,NA,0,NA,NA,4,4,0.2,0.52,2,"KA","AB",NA,NA,"30","BUmb","15","BDS-mod"
"Bluewater",313,16,16,22,6.1,0.46,1.07,19,0.24,NA,0.008,20,5,4,0.24,1.15,3,"KA","AA","Um4.23","RE","24","BUmb",NA,NA
"6Ucc",103,10,6,44,6.5,0.48,0.64,8,0.01,0,0.008,20,6,3,0.8,1.5,3,"TE","IO","Uc4.24","ES","24","BUmb","1","4C"
"Hillview",57,18,16,25,5,0.43,1.71,36,0.08,NA,0.008,20,5,4,0.29,1.65,3,"KA","AA","Gn2.14","RE","24","BUmb",NA,NA
"Miskin Buried Soils Or D Horizons Vary",14,8,6,37,6.5,NA,NA,5,NA,0,NA,NA,6,4,0.35,0.72,3,"TE","IO","Uc5.21","NSG","24","BUmb",NA,NA
"2Dyb",4279,22,26,46,6,0.69,1.18,47,0.58,2,29.624,915,4,3,0.16,1.12,2,"SO","AD","Dy2.33","SC","2","Carew","6","2B"
"6Dyg",1426,20,18,38,6,0.57,1.14,42,0.52,2,36.48,691,4,3,0.15,0.95,2,"SO","AD","Dy3.43","SC","2","Carew","6","2B"
"2Dbd",1087,18,30,36,6,0.62,1.5,44,0.63,2,19.208,804,4,3,0.28,0.85,2,"SO","AB","Db1.33","SC","2","Carew","6","2B"
"6Dbb",968,26,38,33,6,0.69,2.25,40,0.76,2,16.824,523,4,3,0.35,1.1,2,"SO","AB","Db1.33","SC","2","Carew","5","2C"
"2Dya",886,33,24,34,6,0.68,1.02,52,0.53,2,23.896,993,4,3,0.08,1.2,2,"SO","AD","Dy2.33","SC","2","Carew","7","2A"
"2Dbb",734,18,23,50,6,0.73,1.07,51,0.53,2,30.888,828,4,3,0.16,1.35,2,"SO","AB","Db1.33","SC","2","Carew","6","2B"
"6Dda",189,22,18,36,NA,0.58,1.18,37,0.64,2,28.288,647,4,3,0.2,0.9,2,"SO","AE","Dd1.33","SC","2","Carew","6","2B"
"4Dyg",140,22,16,37,6.9,0.61,NA,45,NA,2,NA,NA,4,3,0.23,1.15,2,"SO","AD","Dy2.43","SC","2","Carew","6","2B"
"5Dyc",120,22,15,33,6.2,0.64,1.18,37,0.59,2,25.408,1000,4,3,0.23,1.15,2,"SO","AD","Dy2.43","SC","2","Carew","7","2A"
"6Dba",87,10,10,35,NA,0.44,0.75,37,0.53,2,36.32,556,4,3,0.23,1.5,2,"SO","AB","Db1.33","SC","2","Carew","6","2B"
"2Dda2",66,20,19,35,NA,0.54,1.18,28,0.57,2,37.656,810,4,3,0.1,0.62,2,"SO","AB",NA,NA,"2","Carew","7","2A"
"2Dya2",58,22,17,44,6,NA,NA,22,NA,2,NA,NA,4,3,0.1,0.7,2,"SO","AD",NA,NA,"2","Carew","7","2A"
"2Dbb2",57,19,14,44,NA,NA,NA,45,NA,3,NA,NA,4,3,0.18,0.75,2,"SO","AB",NA,NA,"2","Carew","6","2B"
"2Dyb2",54,22,17,40,7,NA,NA,45,NA,2,NA,NA,4,3,0.16,0.62,2,"SO","AD",NA,NA,"2","Carew","6","2B"
"5Uga",51,52,19,20,NA,0.51,1.5,19,0.54,0,6.672,237,3,2,0.08,0.85,0,"VE","AE","Ug5.12","BE","18","Carew","10","1E"
"5Ugb",41,45,11,24,NA,0.46,1.34,27,0.89,0,1.6,20,3,3,0.2,0.85,0,"VE","AE","Ug5.22","GC","18","Carew","10","1E"
"6Dbb2",39,25,18,37,NA,NA,NA,44,NA,2,NA,NA,4,3,0.25,0.75,2,"SO","AB",NA,NA,"2","Carew","5","2C"
"1Dyc",18,22,17,44,6.2,NA,NA,51,NA,3,NA,NA,4,3,0.13,1.5,2,"SO","AD","Dy2.33","SC","2","Carew","7","2A"
"2Ddb2",18,29,18,34,NA,NA,NA,45,NA,3,NA,NA,4,3,0.08,0.84,2,"SO","AE",NA,NA,"2","Carew","7","2A"
"2Dya3",18,42,16,27,NA,NA,NA,51,NA,2,NA,NA,4,3,0.1,1.1,2,"SO","AD",NA,NA,"2","Carew","7","2A"
"6Dbh2",14,22,17,44,NA,NA,NA,44,NA,2,NA,NA,4,3,0.14,0.66,2,"SO","AB",NA,NA,"2","Carew","7","2A"
"6Gnd",978,7,8,51,NA,0.44,0.64,7,0.04,0,0.008,20,5,3,0.85,1.5,0,"DE","AB","Gn3.75","BRE","23","CUfc","2","4AB"
"BUca",863,2,6,35,6.8,0.31,NA,10,0.01,0,0.008,20,6,2,0.3,1.15,3,"TE","IO",NA,NA,"29","CUfc","16","BDS-mar"
"CUca",756,1,5,17,6.5,0.3,0.64,8,0.01,0,0.008,51,6,2,0.6,1.32,3,"TE","IO",NA,NA,"29","CUfc","16","BDS-mar"
"BUcb",532,14,13,54,7,0.36,NA,8,NA,0,NA,NA,6,2,0.55,1.2,3,"TE","IR",NA,NA,"29","CUfc","16","BDS-mar"
"CUma2",30,18,10,39,6.2,NA,NA,22,NA,0,NA,NA,4,2,0.3,NA,1,"RU","ER",NA,NA,"35","CUfc","16","BDS-mar"
"MUca",23,6,5,50,NA,NA,NA,4,NA,0,NA,NA,6,2,0.6,1.2,3,"TE","IO",NA,NA,"29","CUfc","16","BDS-mar"
"MUcb",17,14,13,54,NA,NA,NA,12,NA,0,NA,NA,6,1,0.55,1.48,3,"TE","IN",NA,NA,"29","CUfc","16","BDS-mar"
"RDya",682,25,45,23,7,0.8,4.07,42,0.7,4,33.744,970,3,4,0.15,1.3,3,"SO","AD",NA,NA,"38","Rugb","13","BDS-neg"
"RUgcS",18,48,16,26,8,NA,NA,51,NA,2,NA,900,3,4,0.25,1.1,1,"VE","AD",NA,NA,"43","Rugb","11","BDS-Saline phase"
"RUgc",2688,31,25,37,7,0.74,NA,21,0.74,2,0.008,20,3,4,0.12,0.85,0,"VE","AD",NA,NA,"42","RUgbS","14","BDS-sli"
"RUgd",863,25,23,47,7,0.78,NA,32,0.78,1,11.544,62,3,4,0.15,1.5,0,"VE","AD",NA,NA,"42","RUgbS","13","BDS-neg"
"6Dbh",324,18,26,52,NA,0.8,1.18,37,0.65,4,29.504,385,4,3,0.18,0.8,2,"SO","AB","Db1.33","SC","1","RUgbS","7","2A"
"6Dyj",283,17,15,43,NA,0.55,0.95,35,0.54,4,49.576,945,4,3,0.13,1.25,2,"SO","AD","Dy3.43","SC","1","RUgbS","7","2A"
"2Dba",210,27,22,42,NA,0.64,2.09,34,0.7,4,37.256,962,4,3,0.08,1.25,2,"SO","AB","Db1.43","SC","1","RUgbS","7","2A"
"Manor",136,29,32,30,5,0.58,1.6,48,0.4,NA,4.584,23,3,3,0.23,1.2,1,"SO","AD","Gn3.01","NSG","37","RUgbS","24","WTC"
"1Dbb",41,26,11,29,NA,0.5,0.96,36,0.56,4,37.248,477,4,3,0.15,1.5,2,"SO","AE","Db1.33","SC","1","RUgbS","7","2A"
"2Dba5",24,26,18,39,9,NA,NA,51,NA,4,NA,NA,4,3,0.1,1.2,2,"SO","AB",NA,NA,"1","RUgbS","7","2A"
"2Ddb",712,26,20,42,6.5,0.68,1.07,42,0.57,4,35.416,1076,3,3,0.08,0.82,2,"SO","AE","Dd1.33","SC","1a",NA,"7","2A"
"Black",692,12,8,41,5.8,NA,NA,22,NA,0,NA,NA,4,3,0.25,1.3,NA,"KA","AB","Gn2.45","NSG","15a",NA,"17","W2"
"2Dda",361,26,20,38,NA,0.56,1.07,37,0.6,2,22.656,747,3,3,0.1,1.05,2,"SO","AE","Dd1.33","SC","2a",NA,"7","2A"
"4Dyd3",92,22,17,44,7,NA,NA,51,NA,1,NA,NA,4,3,0.36,0.95,3,"CH","AB",NA,NA,"9",NA,"3","3B"
"BUfcA",73,NA,NA,NA,NA,NA,NA,NA,NA,0,NA,NA,4,NA,NA,NA,3,"KA","AB",NA,NA,"15a",NA,NA,NA
"2UgeS",71,48,16,26,7,NA,NA,32,NA,2,NA,900,3,3,0.2,0.62,2,"VE","AD",NA,NA,"2a",NA,"11","Saline phase"
"2Dbd7",63,NA,NA,NA,NA,NA,NA,NA,NA,2,NA,NA,3,NA,NA,NA,2,"SO","AB",NA,NA,"2a",NA,NA,NA
"2Ddc",62,27,18,36,NA,NA,NA,51,NA,2,NA,NA,3,3,0.28,1.2,2,"SO","AE","Dd1.33","SC","2a",NA,"6","2B"
"6Dbi",30,22,17,44,6.5,NA,NA,42,NA,2,NA,299,4,3,0.55,1.5,3,"CH","AB","Db1.43","SC","9",NA,"5","2C"
"Macknade",21,13,13,67,4.7,0.59,1.6,10,0.01,NA,0.008,20,4,3,0.25,NA,3,"TE","IO","Um7.11","A","15a",NA,"24","WTC"
"2Ddd",16,22,14,44,7.5,NA,NA,28,NA,2,NA,489,4,3,0.18,0.75,3,"SO","AB","Dd1.33","SC","9",NA,"6","2B"
"BUcaS",11,NA,NA,NA,NA,NA,NA,NA,NA,1,NA,900,4,NA,NA,NA,3,"TE","IO",NA,NA,"9",NA,NA,NA
