NAME,Area_ha,Clay_sf,Silt_sf,FS_sf,pH_sf,K_fact,Clay_sub,ESP_sub,ESP_post,CAR_sub,LD_A,LD_B,Pre drain,Post drain,Pre surf cond,Post surf cond,PPAWC_edit,ASC_ORD_1,SUBORD_1,PPF_1,GSG_1,Terry pre,Nev post,Initial_cluster,Nev_cluster,Clust_reg
1Dbb,41,18,10,39,,0.5,51,,,,0.15,1.5,3,4,4,3,,SO,AE,Db1.33,SC,2A,2A,1,7,Coastal Burdekin
1Dyc,18,22,17,44,6.2,,51,,,,0.13,1.5,3,4,4,3,,SO,AD,Dy2.33,SC,2A,2A,1,7,Coastal Burdekin
1Uga,176,51,16,24,,,49,14.09,14.09,0.67,0.1,1.5,3,4,2,2,102,VE,AD,Ug5.16,BE,1B,1AB,2,8,Coastal Burdekin
1Uga1,19,51,16,24,,,56,,,,0.1,1.15,3,3,2,2,110,VE,AD,,,1B,1D,3,9,Coastal Burdekin
1Ugc,121,42,16,27,7.5,,51,,,,0.12,1.5,3,4,4,3,,VE,AE,Ug5.16,BE,1A,1AB,4,8,Coastal Burdekin
1Ugd,236,45,16,27,8.6,,60,10.66,10.66,0.48,0.1,1.5,3,4,4,3,125,VE,AD,Ug5.28,GC,1B,1AB,5,8,Coastal Burdekin
1Ugf,39,42,16,27,,,46,23.31,23.31,0.63,0.23,1.5,2,3,4,3,105,VE,AD,Ug3.2,GC,1A,1AB,6,8,Coastal Burdekin
2Dba,210,20,18,38,,,49,31.01,24.81,0.57,0.08,1.25,3,4,4,3,105,SO,AB,Db1.43,SC,2A,2A,7,7,Coastal Burdekin
2Dba5,24,26,18,39,9,,51,,,,0.1,1.2,3,4,4,3,,SO,AB,,,2A,2A,4,7,Coastal Burdekin
2Dbb,734,20,18,38,6,,54,35.75,28.6,0.5,0.16,1.35,3,4,4,3,112,SO,AB,Db1.33,SC,2B,2B,8,6,Coastal Burdekin
2Dbb2,57,19,14,44,,,51,,,,0.18,0.75,3,4,4,3,,SO,AB,,,2B,2B,1,6,Coastal Burdekin
2Dbc,348,20,18,38,6,,35,22.19,17.75,0.6,0.28,1.25,3,4,4,3,84,SO,AB,Db2.43,SC,2C,2C,1,5,Coastal Burdekin
2Dbd,1087,20,18,38,6,,56,18.56,14.85,0.56,0.28,0.85,3,4,4,3,129,SO,AB,Db1.33,SC,2B,2B,1,6,Coastal Burdekin
2Dbe,121,20,18,38,6,,51,,,,0.16,1.2,3,4,4,3,,SO,AB,Db1.33,SC,2C,2C,1,5,Coastal Burdekin
2Dda,361,20,18,38,,,42,22.79,18.23,0.59,0.1,1.05,2,3,4,3,111,SO,AE,Dd1.33,SC,2B,2A,6,7,Coastal Burdekin
2Dda2,66,22,17,44,,,44,33.43,26.74,0.52,0.1,0.62,3,4,4,3,96,SO,AB,,,2B,2A,7,7,Coastal Burdekin
2Ddb,712,20,18,38,6.5,,47,37.41,29.93,0.52,0.08,0.82,2,3,4,3,130,SO,AE,Dd1.33,SC,2A,2A,8,7,Coastal Burdekin
2Ddb2,18,29,18,34,,,51,,,,0.08,0.84,3,4,4,3,,SO,AE,,,2A,2A,1,7,Coastal Burdekin
2Ddc,62,27,18,36,,,51,,,,0.28,1.2,3,3,4,3,,SO,AE,Dd1.33,SC,,2B,1,6,Coastal Burdekin
2Ddd,16,18,10,39,7.5,,51,,,,0.18,0.75,3,4,4,3,,SO,AE,Dd1.33,SC,2B,2B,1,6,Coastal Burdekin
2Dya,886,20,18,38,6,,48,24.61,19.69,0.52,0.08,1.2,3,4,4,3,129,SO,AD,Dy2.33,SC,2B,2A,1,7,Coastal Burdekin
2Dya2,58,22,17,44,6,,51,,,,0.1,0.7,3,4,4,3,,SO,AD,,,2B,2A,1,7,Coastal Burdekin
2Dya3,18,42,16,27,,,51,,,,0.1,1.1,3,4,4,3,,SO,AD,,,2B,2A,1,7,Coastal Burdekin
2Dyb,4279,19,14,38,6,,50,34.93,27.94,0.59,0.16,1.12,3,4,4,3,138,SO,AD,Dy2.33,SC,2B,2B,8,6,Coastal Burdekin
2Dyb2,54,22,17,40,7,,51,,,,0.16,0.62,3,4,4,3,,SO,AD,,,2B,2B,1,6,Coastal Burdekin
2Dyc,816,18,10,39,,,51,12.09,9.67,0.52,0.18,1.5,2,3,4,3,144,SO,AD,Dy3.33,SC,2B,2A,9,7,Coastal Burdekin
2Dyc2,23,22,18,42,,,56,,,,0.2,1.1,3,4,4,3,,SO,AD,,,2B,2A,1,7,Coastal Burdekin
2Dyc3,42,36,16,30,6,,51,,,,0.1,1.45,3,4,4,3,,SO,AD,,,2B,2A,1,7,Coastal Burdekin
2Uga,80,51,16,24,,,62,13.9,13.9,0.56,0.08,1.5,3,4,2,2,127,VE,AD,Ug5.25,GC,1B,1AB,3,8,Coastal Burdekin
2Ugb,20,45,16,27,,,51,,,,0.08,0.88,3,4,2,3,,VE,AE,Ug5.15,BE,1A,1AB,3,8,Coastal Burdekin
2Ugc,1961,45,16,27,7.2,,56,16.21,16.21,0.45,0.13,1.5,3,4,4,3,152,VE,AD,Ug5.28,GC,1A,1AB,9,8,Coastal Burdekin
2UgcW,229,45,16,27,,,60,8.35,8.35,0.47,0.15,1.55,2,2,4,3,129,VE,AM,,,1A,1AB,9,8,Coastal Burdekin
2Ugd,5690,42,16,27,6,0.69,56,11.26,11.26,0.46,0.18,1.5,3,4,4,3,153,VE,AE,Ug3.2,GC,1A,1AB,9,8,Coastal Burdekin
2Ugd1,17,44,16,27,,,51,,,,0.06,1,3,4,,,110,VE,AD,,,1A,1AB,10,8,Coastal Burdekin
2ugd2,89,42,16,27,,,52,12.2,12.2,0.47,0.12,1.1,3,4,4,3,128,VE,AD,Ug3.2,GC,1A,1AB,9,8,Coastal Burdekin
2Ugd5,19,42,16,27,6.5,,51,,,,0.15,1.5,3,4,3,3,153,VE,AB,,,1A,1AB,10,8,Coastal Burdekin
2UgdW,39,42,16,27,,,51,,,,0.1,1.65,2,3,4,3,153,VE,AM,,,1A,1AB,6,8,Coastal Burdekin
2Uge,7256,45,16,27,6.5,,53,15.85,12.68,0.54,0.15,1.5,3,4,4,3,154,VE,AE,Ug5.29,GC,1A,2A,9,7,Coastal Burdekin
2Uge2,49,42,16,27,6,,51,,,,0.1,1,3,4,4,3,140,VE,AD,,,1A,2A,1,7,Coastal Burdekin
2Uge7,17,45,16,27,,,51,,,,0.1,0.9,3,4,2,3,154,VE,AD,,,1A,2A,3,7,Coastal Burdekin
2UgeS,71,48,16,26,7,,51,,,,0.2,0.62,3,3,4,3,125,VE,AD,,,1A,Saline phase,1,11,Coastal Burdekin
2Ugf,521,51,16,24,6.5,,70,9.18,9.18,0.42,0.13,1.5,3,4,2,2,140,VE,AD,Ug3.2,GC,1B,1AB,1,8,Coastal Burdekin
2UgfE,15,,,,,,56,,,,0.15,1.4,3,4,2,2,140,VE,AD,,,1B,1AB,10,8,Coastal Burdekin
2UgfW,209,51,16,24,,,56,,,,0.1,1.65,2,3,2,2,140,VE,AM,,,1B,1AB,3,8,Coastal Burdekin
2Ugg,1765,51,16,24,6.5,,66,10.62,10.62,0.53,0.15,1.5,3,3,2,2,182,VE,AE,Ug5.29,GC,1B,1AB,11,8,Coastal Burdekin
2Ugg5,32,51,16,24,6.5,,51,,,,0.12,1.25,3,3,2,2,182,VE,AB,,,1B,1AB,3,8,Coastal Burdekin
2UggW,72,51,16,24,,,51,,,,0.15,1.5,2,3,2,2,182,VE,AM,,,1B,1AB,3,8,Coastal Burdekin
2Ugh,1270,51,16,24,7,,55,13.66,13.66,0.6,0.13,1.5,2,3,2,2,163,VE,AE,Ug5.29,GC,1B,1AB,3,8,Coastal Burdekin
2Ugj,77,42,16,27,6.5,,45,,,,0.18,1.25,3,3,4,3,135,VE,AE,Ug3.2,GC,,1AB,9,8,Coastal Burdekin
2Ugk,1200,51,16,24,,,54,13.87,13.87,0.45,0.09,1.21,3,3,2,2,121,VE,AD,Ug5.17,GC,1B,1AB,3,8,Coastal Burdekin
2Ugk2,56,51,16,24,,,56,,,,0.1,0.9,3,3,2,2,121,VE,AD,,,1B,1AB,3,8,Coastal Burdekin
3Uga,102,56,15,21,,,56,,,,0.08,1.5,,3,2,2,145,VE,AE,Ug5.16,BE,1B,1AB,3,8,Coastal Burdekin
3Ugc,12,51,16,24,,,56,,,,0.15,1.5,3,3,2,2,150,VE,AE,Ug5.16,BE,1B,1AB,3,8,Coastal Burdekin
3Ugd,51,51,16,24,,,57,,,,0.04,1.5,3,4,2,2,143,VE,AE,Ug5.16,BE,1B,1AB,3,8,Coastal Burdekin
3Uge,76,51,16,24,,,67,9.8,9.8,0.88,0.13,1,,3,2,2,147,VE,AE,Ug5.17,BE,1B,1AB,3,8,Coastal Burdekin
3Ugk,16,45,16,27,,,51,,,,0.13,1.35,3,3,2,2,145,VE,AD,Ug5.2,GC,1B,1AB,3,8,Coastal Burdekin
4Dga,19,8,6,37,,,29,,,,0.5,0.93,1,2,4,3,,CH,AD,Dg2.41,GP,3B,3B,12,3,Coastal Burdekin
4Dyd3,92,22,17,44,7,,48,,,,0.36,0.95,4,4,4,3,,CH,AB,,,3B,3B,15,3,Coastal Burdekin
4Dyg,140,9,6,35,6.9,,45,,,,0.23,1.15,3,4,4,3,,SO,AD,Dy2.43,SC,2B,2B,1,6,Coastal Burdekin
4Dyk,79,12,8,41,6.5,,18,,,,0.68,1,3,4,4,3,,SO,AD,Dy2.31,SH,2C,2C,17,5,Coastal Burdekin
4Gnb,54,8,6,37,,,22,0.01,0.01,0.05,0.75,1.5,5,5,4,3,89,DE,AA,Gn3.14,RP,4C,4C,18,1,Coastal Burdekin
4Ucc,100,8,6,37,,,16,0.01,0.01,0.01,0.95,1.25,3,3,4,3,56,TE,GZ,Uc2.21,,4C,4C,19,1,Coastal Burdekin
5Dra,756,18,10,39,7,,51,0.89,0.89,0.42,0.23,0.95,5,5,4,3,101,CH,AA,Dr2.12,NKB,3B,3B,20,3,Coastal Burdekin
5Dra3,15,42,16,27,,,51,,,,0.18,0.88,5,5,4,3,,CH,AA,,,3B,3B,20,3,Coastal Burdekin
5Dya,111,18,10,39,,,55,0.01,0.01,0.17,0.2,0.85,,,4,3,111,CH,AB,Dy2.11,,3B,3B,21,3,Coastal Burdekin
5Dyb,60,29,17,34,7.5,,45,,,,0.3,1.1,,4,4,3,,CH,AB,Dy2.13,,2C,2C,1,5,Coastal Burdekin
5Dyc,120,18,10,39,6.2,,40,30.77,24.62,0.58,0.23,1.15,3,4,4,3,103,SO,AD,Dy2.43,SC,2A,2A,7,7,Coastal Burdekin
5Dye,32,18,10,39,,,37,0.01,0.01,0.46,0.23,1.27,4,4,4,3,85,SO,AB,Dy3.23,SC,2C,2C,18,5,Coastal Burdekin
5Uga,51,51,16,24,,,56,3.69,3.69,0.9,0.08,0.85,3,3,2,2,112,VE,AE,Ug5.12,BE,1E,1E,2,10,Coastal Burdekin
5UgaS,61,50,16,24,8.5,,54,,,,0.2,1.55,3,3,,,125,VE,AE,,,1E,Saline phase,10,11,Coastal Burdekin
5Ugb,41,42,16,27,,,43,1.85,1.85,0.73,0.2,0.85,3,3,4,3,101,VE,AE,Ug5.22,GC,1E,1E,22,10,Coastal Burdekin
5Ugc  Depression,19,45,16,27,,,49,19.83,19.83,0.7,0.18,1,3,3,2,2,99,VE,AE,Ug5.14,BE,1D,1D,23,9,Coastal Burdekin
6Dba,87,12,8,41,,,34,38.85,31.08,0.48,0.23,1.5,3,4,4,3,119,SO,AB,Db1.33,SC,2B,2B,25,6,Coastal Burdekin
6Dbb,968,20,18,38,6,,40,9,7.2,0.65,0.35,1.1,3,4,4,3,128,SO,AB,Db1.33,SC,2C,2C,9,5,Coastal Burdekin
6Dbb2,39,25,18,37,,,51,,,,0.25,0.75,3,4,4,3,,SO,AB,,,2C,2C,1,5,Coastal Burdekin
6Dbc,1031,14,13,54,,,26,0.01,0.01,0.5,0.3,1.2,4,5,4,3,99,CH,AB,Db1.32,BP,3A,3A,18,4,Coastal Burdekin
6Dbc2,156,19,13,39,,,48,,,,0.22,0.65,4,5,4,3,,CH,AB,,,3A,3A,15,4,Coastal Burdekin
6Dbd,283,8,6,52,6.2,,25,3.4,3.4,0.56,0.3,1.2,3,5,4,3,95,CH,AB,Db2.3,BRE,2C,3A,22,4,Coastal Burdekin
6Dbe,379,20,18,38,,,30,0.01,0.01,0.53,0.15,0.63,3,5,4,3,108,CH,AB,Db2.33,BRE,2C,3A,22,4,Coastal Burdekin
6Dbe2,75,26,18,38,,,51,,,,0.18,0.55,4,5,4,3,,CH,AB,,,2C,3A,15,4,Coastal Burdekin
6Dbf,415,12,8,41,,,30,0.64,0.64,0.37,0.3,1.1,5,5,4,3,105,CH,AB,Db1.22,BP,3A,3A,20,4,Coastal Burdekin
6Dbg,923,14,13,54,,,18,0.01,0.01,0.4,0.85,1.5,5,5,4,3,85,CH,AB,Db1.22,BP,3A,3A,18,4,Coastal Burdekin
6Dbh,324,20,18,38,,,42,32.85,26.28,0.61,0.18,0.8,3,4,4,3,105,SO,AB,Db1.33,SC,2A,2A,7,7,Coastal Burdekin
6Dbh2,14,22,17,44,,,51,,,,0.14,0.66,3,4,4,3,,SO,AB,,,2A,2A,1,7,Coastal Burdekin
6Dbi,30,22,17,44,6.5,,42,,,,0.55,1.5,4,4,4,3,,CH,AB,Db1.43,SC,2C,2C,26,5,Coastal Burdekin
6Dda,189,29,18,34,,,36,25.23,20.18,0.51,0.2,0.9,3,4,4,3,103,SO,AE,Dd1.33,SC,2B,2B,1,6,Coastal Burdekin
6Dra,206,12,8,41,6.2,,42,0.01,0.01,0.27,0.35,1.5,4,5,4,3,111,CH,AA,Dr3.31,RP,3A,3A,21,4,Coastal Burdekin
6Drb,877,20,18,38,6,,45,2.3,2.3,0.29,0.32,1.5,4,5,4,3,123,CH,AA,Dr3.32,RP,3A,3A,21,4,Coastal Burdekin
6Drc,2202,20,18,38,6,,48,1.81,1.81,0.31,0.35,1.18,3,5,4,3,144,CH,AA,Dr3.33,SC,2C,3A,27,4,Coastal Burdekin
6Dya,326,8,6,37,6.2,,24,0.01,0.01,0.1,0.9,1.5,3,3,4,3,80,CH,AB,Dy3.41,YP,4C,4C,19,1,Coastal Burdekin
6Dya5,45,12,8,41,6,,16,,,,0.5,1.55,3,3,4,3,80,CH,AB,,,4C,4C,28,1,Coastal Burdekin
6Dyb,878,8,6,37,6.5,,34,18.18,14.54,0.28,0.45,1.5,3,4,4,3,69,CH,AB,Dy3.32,SC,2C,2C,17,5,Coastal Burdekin
6Dyc,166,20,18,38,6.5,,49,2.38,2.38,0.27,0.63,1.2,4,5,4,3,76,CH,AB,Dy3.42,YP,3A,3A,18,4,Coastal Burdekin
6Dyc2,43,22,11,37,,,48,,,,0.5,1.2,4,5,4,3,,CH,AB,,,3A,3A,15,4,Coastal Burdekin
6Dyd,1575,20,18,38,6.2,,50,9.59,9.59,0.22,0.3,1.35,4,5,4,3,124,CH,AB,Dy3.42,BP,3A,3A,21,4,Coastal Burdekin
6Dyd2,21,22,17,44,7,,51,,,,0.28,0.8,4,5,4,3,,CH,AB,,,3A,3A,15,4,Coastal Burdekin
6Dyd7,17,22,17,44,,,48,,,,0.25,1.15,4,5,4,3,,CH,AB,,,3A,3A,15,4,Coastal Burdekin
6Dye,325,8,6,37,6.5,,37,11.93,9.54,0.4,0.55,1.5,3,4,4,3,81,CH,AD,Dy3.43,SC,2C,2C,17,5,Coastal Burdekin
6Dye3,20,18,10,39,7,,48,,,,0.2,1.18,4,4,4,3,,CH,AD,,,2C,2C,15,5,Coastal Burdekin
6Dyf,4630,20,18,38,6,,53,7.11,7.11,0.37,0.38,1.35,3,5,4,3,128,CH,AB,Dy3.43,SC,2C,3A,9,4,Coastal Burdekin
6Dyf2,405,22,17,39,6,0.66,46,8.14,8.14,0.33,0.25,0.9,4,5,4,3,90,CH,AB,,,2C,3A,15,4,Coastal Burdekin
6Dyf3,183,22,17,39,6,,51,,,,0.2,1.05,4,5,4,3,,CH,AB,,,2C,3A,15,4,Coastal Burdekin
6Dyg,1426,20,18,38,6,,36,39.86,31.89,0.48,0.15,0.95,3,4,4,3,88,SO,AD,Dy3.43,SC,2B,2B,29,6,Coastal Burdekin
6Dyg4,16,16,13,40,,,51,,,,0.25,0.56,3,4,4,3,,SO,AD,,,2B,2B,1,6,Coastal Burdekin
6Dyh,31,12,8,41,,,45,,,,0.35,1.5,,4,4,3,,SO,AD,Dy3.43,SC,2B,2B,1,6,Coastal Burdekin
6Dyj,283,12,8,41,,,31,45.13,36.1,0.46,0.13,1.25,3,4,4,3,112,SO,AD,Dy3.43,SC,2A,2A,25,7,Coastal Burdekin
6E,31,51,16,24,,,51,,,,0.35,,,,4,4,,,,,,,Eroded,9,12,Coastal Burdekin
6Gna,785,19,14,47,6.5,,42,,,,0.3,1.05,4,4,2,3,,DE,AE,Gn3.22,BE,4A,4AB,30,2,Coastal Burdekin
6Gnb,115,8,6,37,,,17,0.01,0.01,0.22,0.95,1.5,5,5,4,3,65,DE,AA,Gn3.15,RP,4C,4C,31,1,Coastal Burdekin
6Gnc,160,18,14,39,,,49,38.53,30.82,0.21,0.28,0.85,3,4,4,3,119,DE,AB,Gn3.83,YP,2B,2B,8,6,Coastal Burdekin
6Gnd,978,12,8,41,,,27,0.01,0.01,0.4,0.85,1.5,5,5,4,3,78,DE,AB,Gn3.75,BRE,4B,4AB,18,2,Coastal Burdekin
6Gne,73,29,18,34,,,42,,,,0.38,1.5,4,4,4,3,,DE,AE,Gn3.49,BE,4A,4AB,21,2,Coastal Burdekin
6Ucc,103,12,8,40,6.5,,11,0.01,0.01,0.01,0.8,1.5,6,6,4,3,81,TE,IO,Uc4.24,ES,4C,4C,31,1,Coastal Burdekin
6Ufa,78,28,14,43,7,,45,,,,0.2,1.5,4,4,4,3,110,DE,AE,Uf6.32,NSG,4A,4AB,15,2,Coastal Burdekin
6Ufc,99,36,25,32,6,,42,,,,0.4,1.35,4,4,4,3,128,DE,AE,Uf6.31,A,4A,4AB,21,2,Coastal Burdekin
6Ufd,286,42,16,27,6.6,,42,,,,0.3,1.1,4,5,4,3,110,DE,AE,Uf6.32,NSG,4A,4AB,21,2,Coastal Burdekin
6UfdA,54,45,16,27,,,45,,,,0.3,0.95,4,5,4,3,110,DE,AB,,,4A,4AB,21,2,Coastal Burdekin
6Ufe,51,42,16,27,6,,4,,,,0.18,,5,5,4,3,,TE,BF,Uf6.22,A,,4AB,18,2,Coastal Burdekin
6Uga,26,42,16,27,7,,42,,,,0.13,1.25,3,4,4,3,130,VE,AE,Ug5.16,BE,1A,1AB,9,8,Coastal Burdekin
6Uma,982,12,8,41,5.2,,16,0.1,0.1,0.45,0.48,0.95,4,4,4,3,63,KA,AB,Um5.52,ES,4B,4AB,19,2,Coastal Burdekin
6Uma2,56,14,13,44,6.5,,18,,,,0.3,0.7,5,5,2,3,63,KA,AB,,,4B,4AB,24,2,Coastal Burdekin
6Umb,1031,20,18,38,6.8,,26,0.01,0.01,0.72,0.41,1.5,5,5,4,3,100,DE,AB,Um4.42,NSG,4B,4AB,20,2,Coastal Burdekin
6UmbC,26,22,17,44,,,22,,,,0.4,1.1,5,5,4,3,100,DE,AB,,,4B,4AB,18,2,Coastal Burdekin
Althaus (MAJCK),504,12,8,41,,,24,39.55,39.55,0.25,0.46,1.2,3,,4,,59,SO,AD,Dy3.41,SH,,W2,32,17,Coastal Burdekin
Ashton,150,12,8,41,,,23,0.01,0.01,0.29,0.53,1.2,3,3,4,3,69,KA,AC,Gn2.94,YE,,WTC,19,24,Coastal Burdekin
Bambave A Horizon Variant (4Dyg3),66,15,9,40,8.5,,45,,,,0.35,1.1,3,4,4,3,,SO,AD,Dy2.33,SC,2B,2B,34,6,Coastal Burdekin
Barrunga With Erosion (1ugae),28,51,16,24,,,51,,,,0.1,1.7,3,3,,,102,VE,AD,Ug5.16,BE,1B,Eroded,3,12,Coastal Burdekin
BDba,350,22,15,42,7,,45,,,,0.3,1.1,4,,3,,,CH,AB,,,,BDS-mar,15,16,Coastal Burdekin
BGna,168,22,17,44,7,,28,,,,0.32,1,5,,3,,,KA,AB,,,,BDS-mod,24,15,Coastal Burdekin
BGnb,183,22,14,44,7.2,,42,,,,0.3,0.75,5,,3,,,DE,AB,,,,BDS-mod,24,15,Coastal Burdekin
BGnb2,36,26,18,39,,,,,,,,,4,,,,,DE,AB,,,,BDS-mod,15,15,Coastal Burdekin
BGnc,246,18,11,39,6.5,,22,,,,0.22,0.85,5,,3,,,DE,AB,,,,BDS-mar,24,16,Coastal Burdekin
Black,692,12,8,41,5.8,,22,,,,0.25,1.3,4,,3,,,KA,AB,Gn2.45,NSG,,W2,28,17,Coastal Burdekin
Bluewater (Zed),92,20,18,38,,,42,,,,0.2,1.42,5,5,2,2,,KA,AA,Gn2.14,RE,,ZED,30,22,Coastal Burdekin
BUca,863,8,6,37,6.8,0.29,9,0.01,0.01,0.01,0.3,1.15,6,,2,,55,TE,IO,,,,BDS-mar,35,16,Coastal Burdekin
BUcb,532,14,13,54,7,0.53,9,,,,0.55,1.2,6,,2,,80,TE,IR,,,,BDS-mar,36,16,Coastal Burdekin
BUfa,2380,42,16,27,7.5,0.62,25,0.79,0.79,0.6,0.25,0.78,4,,4,,81,KA,AB,,,,BDS-mod,37,15,Coastal Burdekin
BUfb,2868,42,16,27,7.4,0.64,18,2.8,2.8,0.79,0.35,0.8,4,,4,,66,KA,AB,,,,BDS-sli,37,14,Coastal Burdekin
BUfc,10732,45,16,27,7.5,0.61,29,7.46,7.46,0.6,0.34,1.3,4,,4,,79,KA,AB,,,,BDS-sli,37,14,Coastal Burdekin
BUfd,1238,42,16,27,7,,23,,,,0.2,0.52,4,,4,,85,KA,AB,,,,BDS-mod,15,15,Coastal Burdekin
BUfe,454,42,16,27,8.4,0.63,26,13.47,13.47,0.93,0.2,1.05,4,,4,,83,DE,AB,,,,BDS-sli,38,14,Coastal Burdekin
BUga,391,48,16,24,7.2,0.65,57,29.25,29.25,0.71,0.2,1.3,4,,4,,102,VE,AE,,,,BDS-neg,7,13,Coastal Burdekin
BUma,1806,22,17,44,7,,7,0.01,0.01,0.01,0.25,0.48,5,,4,,55,TE,IR,,,,BDS-mar,31,16,Coastal Burdekin
BUmb,2559,22,17,44,6.3,0.68,13,3.82,3.82,0.01,0.35,0.8,5,,4,,61,KA,AB,,,,BDS-mar,39,16,Coastal Burdekin
BUmb2,85,20,16,46,6.5,,16,,,,0.22,0.92,4,,3,,62,KA,AB,,,,BDS-mar,15,16,Coastal Burdekin
BUmd,1414,22,17,44,7.5,,22,,,,0.25,1.5,5,,4,,63,KA,AB,,,,BDS-mar,37,16,Coastal Burdekin
Burdekin Buried Soils Or D Horizons Vary(6Umb2),245,22,17,44,,,18,0.01,0.01,0.14,0.3,0.7,4,5,4,3,75,DE,AB,Um6.3,NSG,4B,4AB,19,2,Coastal Burdekin
Byabra,227,8,6,37,,,26,17.9,17.9,0.42,0.18,1.2,3,3,4,3,69,SO,AD,Dy3.43,SC,,WTC,17,24,Coastal Burdekin
Carew,3392,42,16,24,,,44,9.28,9.28,0.76,0.04,1.5,3,3,2,2,103,VE,AE,Ug5.15,BE,,BER-so2,2,20,Coastal Burdekin
CDba,455,22,17,44,5.7,0.68,21,0.01,0.01,0.4,0.42,1.25,4,,4,,64,CH,AB,,,,BDS-mar,19,16,Coastal Burdekin
CDbb,327,20,15,42,7,,51,,,,0.2,1.1,3,,4,,,CH,AB,,,,BDS-neg,1,13,Coastal Burdekin
CDra,92,18,10,39,6.8,,51,,,,0.5,0.95,5,,2,,111,CH,AA,,,,BDS-mar,30,16,Coastal Burdekin
CUca,756,9,6,35,6.5,0.29,7,0.01,0.01,0.01,0.6,1.32,6,,2,,53,TE,IO,,,,BDS-mar,35,16,Coastal Burdekin
CUfa,1331,42,16,27,7,,45,,,,0.4,0.9,5,,4,,80,DE,AB,,,,BDS-mod,20,15,Coastal Burdekin
CUfb,964,45,16,27,7,0.66,27,5.9,5.9,0.55,0.5,1.4,5,,4,,69,DE,AB,,,,BDS-mod,37,15,Coastal Burdekin
CUfc,1325,42,16,27,8,,45,prob not sodic,prob not sodic,,0.38,1.2,4,,4,,80,DE,AB,,,,BDS-sli,41,14,Coastal Burdekin
CUma,125,22,12,37,7,,,,,,,,6,,3,,,RU,ER,,,,BDS-mar,36,16,Coastal Burdekin
CUma2,30,18,10,39,6.2,,37,,,,0.3,,4,,2,,,RU,ER,,,,BDS-mar,30,16,Coastal Burdekin
CUmb,533,22,17,44,7,,22,,,,0.32,1,5,,4,,,TE,IO,,,,BDS-mar,37,16,Coastal Burdekin
Farencer Buried Soils Or D Horizons Vary,49,29,18,34,,,42,,,,0.22,0.55,4,4,4,3,,CH,AB,Db1.12,NSG,4A,4AB,15,2,Coastal Burdekin
Gillian,665,42,16,27,,,56,,,,0.05,1.25,2,,2,,153,VE,AB,,,,W4,3,18,Coastal Burdekin
Glenalder Buried Soils Or D Horizons Vary,55,18,10,39,,,45,,,,0.26,0.65,5,5,4,3,,CH,AB,Db1.22,BP,3A,3A,18,4,Coastal Burdekin
Hillview (WTC),57,18,10,39,5,0.41,36,0.01,0.01,0.08,0.29,1.65,5,5,4,3,84,KA,AA,Gn2.14,RE,,WTC,18,24,Coastal Burdekin
Kelona A Horizon Variant (6Dyg3),141,22,17,41,6,,33,43.54,34.83,0.44,0.25,1.05,3,4,4,3,85,SO,AD,Dy3.43,SC,2B,2B,29,6,Coastal Burdekin
Kelona Buried Soils Or D Horizons Vary (6Dyg2),286,22,18,38,6,,35,59.42,47.54,0.39,0.2,0.76,3,4,4,3,85,SO,AD,Dy3.43,SC,2B,2B,44,6,Coastal Burdekin
Koberinga Mottled Phase (3uga9),105,51,16,24,,,57,9.06,9.06,0.75,0.1,1.6,3,3,2,2,126,VE,AE,Ug5.16,BE,1B,1AB,3,8,Coastal Burdekin
Koberinga Pebbly Phase (3uga8),183,51,16,24,,,48,7.43,7.43,0.78,0.1,1.55,3,3,2,2,109,VE,AE,Ug5.16,BE,1B,1AB,2,8,Coastal Burdekin
Koberinga Pebbly Phase (3uge8),260,51,16,24,,,50,11.21,11.21,0.75,0.1,1.28,3,3,2,2,145,VE,AE,Ug5.17,BE,1B,1AB,3,8,Coastal Burdekin
Lancer Buried Soils Or D Horizons Vary (6drb2),52,20,17,38,6,,51,,,,0.3,0.8,4,5,4,3,,CH,AA,Dr2.32,RP,3A,3A,15,4,Coastal Burdekin
Lee,27,18,10,39,6,,17,0.01,0.01,0.29,0.35,1.02,3,3,4,3,65,KA,AD,Um5.52,GE,,WTC,19,24,Coastal Burdekin
Macknade,21,14,13,54,4.7,0.5,6,0.01,0.01,0.01,0.25,,4,4,4,3,61,TE,IO,Um7.11,A,,WTC,19,24,Coastal Burdekin
Manor,136,27,18,36,5,0.69,51,5.35,5.35,0.37,0.23,1.2,3,3,4,3,104,SO,AD,Gn3.01,NSG,,WTC,47,24,Coastal Burdekin
MUca,23,6,5,50,,,4,,,,0.6,1.2,6,,2,,53,TE,IO,,,,BDS-mar,35,16,Coastal Burdekin
MUcb,17,14,13,54,,,12,,,,0.55,1.48,6,,1,,60,TE,IN,,,,BDS-mar,35,16,Coastal Burdekin
Pennsfield (BER),623,12,8,41,,,27,20.34,20.34,0.64,0.25,0.98,4,,,,,,,,,,,,?,Coastal Burdekin
Pennsfield (MAJCK),623,12,8,41,,,27,20.34,20.34,0.64,0.25,0.98,4,,4,,74,SO,AB,Db1.43,RBE,,BER-so2,26,20,Coastal Burdekin
Pennsfield (Shallow Variant),12,10,7,39,,,48,,,,0.14,0.94,4,,4,,,SO,AB,Dd1.43,SC,,BER-so2,15,20,Coastal Burdekin
Purono,336,19,14,41,,,45,,,,0.05,,3,3,4,4,?,SO,AD,Dy2.43,SC,,W3,1,19,Coastal Burdekin
RDya,682,29,18,34,7,,41,38.57,38.57,0.68,0.15,1.3,3,,3,,102,SO,AD,,,,BDS-neg,25,13,Coastal Burdekin
Roundback Level Phase,128,8,6,37,,,51,,,,0.27,1.5,3,3,4,4,,SO,AB,Dy2.43,SC,,BER-so3,1,21,Coastal Burdekin
RUfe,159,45,16,27,8,,51,,,,0.12,0.98,3,,3,,80,DE,AD,,,,BDS-sli,10,14,Coastal Burdekin
RUff,33,42,16,27,,,51,,,,0.18,1.45,2,,4,,135,HY,ED,,,,BDS-neg,6,13,Coastal Burdekin
RUga,130,45,16,27,,,51,,,,0.12,1.32,3,,4,,,VE,AD,,,,BDS-neg,1,13,Coastal Burdekin
Rugb,6440,51,16,24,8.3,0.59,40,31.16,31.16,0.64,0.15,1.5,1,,4,,102,VE,AD,Uc5.2,GC,,BDS-neg,49,13,Coastal Burdekin
RUgbS,1986,51,16,24,10,,51,no data,no data,,0.2,1.5,3,3,4,4,125,VE,AD,,,,BDS-Saline phase,4,11,Coastal Burdekin
RUgc,2688,51,16,24,7,0.73,21,0.06,0.06,0.74,0.12,0.85,3,,4,,82,VE,AD,,,,BDS-sli,22,14,Coastal Burdekin
RUgcS,18,48,16,26,8,,51,,,,0.25,1.1,3,3,4,4,125,VE,AD,,,,BDS-Saline phase,4,11,Coastal Burdekin
RUgd,863,51,16,24,7,0.72,35,14.64,14.64,0.78,0.15,1.5,3,,4,,85,VE,AD,,,,BDS-neg,38,13,Coastal Burdekin
Sachs,143,45,16,27,,,56,,,,0.04,2.5,2,,2,,153,VE,AE,Ug5.16,BE,,W3,3,19,Coastal Burdekin
Scrubby (Zed),291,13,10,48,,,39,,,,0.2,,3,4,4,3,,SO,AB,Dy3.43,SC,,ZED,17,23,Coastal Burdekin
