"NAME","Area_ha","Clay_sf","Silt_sf","FS_sf","pH_sf","K_fact","TOC_sf","Clay85_90","CAR85_90","ESP25_30","ESP85_90","Cl85_90","drainNew","scondNew","LD_A","LD_B","PPAWCNew","ASC_ORD","SUBORD","PPF","GSG","clusters_FIB","soil_gp"
"Annandale",4592,14,5,31,6.2,0.36,1.18,27,0.08,0.01,0.01,20,5,2,0.2,1.35,91,"KA","AA","Gn2.12",NA,"22","Annandale"
"Degalgil",406,26,21,48,6.8,0.51,2.14,27,0.51,0.01,0.01,20,5,3,0.19,0.9,94,"DE","AE","Gn3.42","PS","22","Annandale"
"Bullaroo",352,18,10,39,NA,NA,NA,42,NA,NA,NA,NA,4,1,0.02,1.25,NA,"KA","AB","Gn4.31",NA,"22","Annandale"
"1AKA1",235,6,6,47,7.2,0.33,NA,16,0.43,0.01,0.02,25,5,3,0.55,1.3,81,"KA","AB",NA,NA,"6","Annandale"
"Davy - CQ",235,8,6,37,NA,NA,NA,8,NA,NA,NA,NA,6,4,1.3,1.35,NA,"RE","ER","Uc5.11",NA,"32","Annandale"
"1ACH2",203,4,4,31,6,NA,NA,28,NA,NA,NA,NA,4,2,0.8,1.6,NA,"CH","AB",NA,NA,"22","Annandale"
"1ATE1",103,6,5,63,NA,0.31,0.75,10,0.01,0.01,0.01,20,6,2,0.44,1.6,80,"TE","DS","Uc1.23",NA,"9","Annandale"
"Meilland",101,11,10,22,7.1,0.31,1.18,12,0.01,0.01,0.01,20,5,3,0.3,1.15,72,"KA","AA","Gn2.12",NA,"6","Annandale"
"1KTa",87,13,5,69,6.2,0.35,2.03,10,0.05,0.01,0.01,20,6,2,0.9,1.6,70,"TE","DS","Gn2","ES","9","Annandale"
"Doonside",80,15,24,25,5.9,0.59,1.5,59,0.2,0.01,0.01,20,4,4,0.3,0.9,63,"CH","AA","Dr2.21",NA,"33","Annandale"
"TsUc-2",75,8,2,27,NA,0.3,0.7,19,0.18,0.01,0.01,20,6,1,0.33,1.5,81,"TE","DS","Uc5.21","ES","9","Annandale"
"TsGn-4",71,17,5,35,NA,0.43,0.58,26,0.23,0.01,0.01,20,5,3,0.26,1.29,97,"KA","AA","Gn2.11",NA,"22","Annandale"
"Elizabeth",62,26,22,34,6,0.48,3.16,53,0.09,0.01,0.01,29,4,3,0.24,1.2,54,"KA","AA","Gn2.11",NA,"33","Annandale"
"TsGn-3",30,9,4,27,NA,0.35,0.94,23,0.18,0.01,0.01,20,5,1,0.23,1.5,82,"KA","AA","Gn2.12","RE","41","Annandale"
"Boyanda",27,10,5,33,6.5,0.25,1.71,9,0.01,0.01,0.01,20,6,2,0.45,1.2,79,"TE","DS","Uc5.21",NA,"9","Annandale"
"Santo",25,37,18,32,NA,0.61,2.14,42,NA,1.18,NA,NA,5,3,0.18,0.85,68,"DE","AA","Uf6.31",NA,"22","Annandale"
"IDE1",23,41,26,24,NA,0.52,2.35,48,NA,1.38,NA,NA,5,3,0.1,0.62,85,"DE","AA",NA,NA,"22","Annandale"
"Muldoon (CCL)",22,40,14,33,6.7,0.54,2.78,51,NA,0.05,NA,41,5,3,0.15,0.6,75,"DE","AA","Uf6.31","PS","22","Annandale"
"Valetta",19,15,8,66,6,0.42,1.28,12,0.01,0.01,0.01,20,5,3,0.35,1.1,44,"TE","DS","Uc5.21",NA,"6","Annandale"
"Beecher",19,29,18,34,6,NA,NA,42,NA,NA,NA,NA,5,3,0.25,1,NA,"KA","AA","Gn2.11",NA,"22","Annandale"
"Raven",13,15,15,32,6.8,0.36,NA,6,0.01,0.01,0.01,20,5,2,0.5,1.1,53,"TE","BF","Um6.41",NA,"6","Annandale"
"Carmine",11,12,8,41,6.8,NA,NA,42,NA,NA,NA,NA,5,2,0.32,1.23,NA,"KA","AA","Gn2.12",NA,"22","Annandale"
"Selina",3,4,1,88,NA,0.37,1.23,2,0.01,0.01,0.01,51,6,1,0.48,0.7,64,"TE","DS","Uc5.11",NA,"9","Annandale"
"Arcturus",65936,72,12,12,7.9,0.56,1.07,35,1.02,1.1,1.58,20,4,2,0.04,0.8,150,"VE","AE","Ug5.12",NA,"12","Arcturus"
"BUg-2",2789,65,11,18,7.5,0.53,1.23,42,1.1,0.63,1.88,100,4,2,0.2,0.9,161,"VE","AE","Ug5.12",NA,"12","Arcturus"
"May",2200,66,14,17,7.5,0.62,0.96,49,1.2,1.83,3.65,229,4,2,0.05,0.9,157,"VE","AE","Ug5.12","BE","12","Arcturus"
"Carfax",1095,49,14,25,NA,0.55,1.39,56,1.11,1.53,4.56,57,4,2,0.06,1.5,164,"VE","AE",NA,NA,"12","Arcturus"
"BUg-10",159,62,15,16,NA,0.54,1.12,49,1.12,1.42,4.94,174,NA,2,0.05,0.85,134,"VE","AE","Ug5.12",NA,"12","Arcturus"
"Ronnoc",157,48,11,22,7.9,0.46,NA,61,0.73,0.91,2.77,20,4,2,0.05,0.7,153,"VE","AE","Ug5.12",NA,"12","Arcturus"
"TbUg-11",155,71,7,16,8.4,0.51,NA,74,0.88,0.67,1.72,33,NA,2,0.05,0.95,159,"VE","AB","Ug5.32",NA,"12","Arcturus"
"2AVE2",120,59,23,16,7,NA,NA,63,0.8,1.62,3.83,137,4,2,0.15,1.52,160,"VE","AB","Ug5.1",NA,"12","Arcturus"
"1AUg-4",80,62,11,25,NA,0.63,0.96,52,0.45,2.62,6.26,106,4,2,0.1,1,162,"VE","AB","Ug5.15",NA,"12","Arcturus"
"Broadmedow",3398,8,7,42,NA,0.4,0.65,33,0.4,0.01,34.2,274,2,4,0.4,1.5,58,"SO","AB","Dy5.83",NA,"26","Broadmedow"
"Stanage",465,11,10,53,NA,NA,NA,54,NA,NA,NA,NA,2,3,0.52,1.4,NA,"KU","AD","Dy5.41",NA,"20","Broadmedow"
"Tanby",154,16,12,53,5.3,0.57,NA,61,0.11,1.53,15.65,20,2,3,0.33,0.9,67,"KU","AD","Dy5.41",NA,"23","Broadmedow"
"6ADb-1",133,22,8,50,NA,0.51,0.8,33,0.64,15.39,26.71,1165,2,4,0.1,1.2,55,"SO","AB","Dy2.43",NA,"20","Broadmedow"
"Strathmuir",125,20,23,32,NA,0.75,2.35,49,0.48,24.29,42.34,1119,3,4,0.22,0.9,53,"SO","AD","Dy2.43","SDS","26","Broadmedow"
"4AUf",63,37,10,42,NA,0.65,0.86,45,0.59,17.02,24.14,972,NA,4,0.1,1.2,63,"VE","AB","Uf6.31",NA,"26","Broadmedow"
"Powlathanga",63,45,17,26,NA,0.69,1.1,51,0.62,10.75,22.37,1320,3,4,0.1,1.5,65,"VE","AD",NA,"GC","26","Broadmedow"
"Teralba",55,14,13,47,5.5,NA,NA,51,NA,NA,NA,NA,3,3,0.55,1.2,NA,"SO","AD","Dy3.41",NA,"40","Broadmedow"
"TsUf-3",52,29,12,33,NA,0.6,0.94,33,0.45,13.35,1.71,1094,2,4,0.13,1.5,59,"DE","YY","Uf2",NA,"20","Broadmedow"
"Ulogie",50,14,16,54,6.5,0.64,1.5,32,0.35,14.57,37.96,664,3,4,0.33,1.51,50,"SO","AB","Db1.33",NA,"26","Broadmedow"
"Nullegai",40,17,36,37,NA,0.77,1.93,50,0.45,21.81,26.69,1114,3,4,0.2,1,58,"SO","AB","Db1.43","SC","26","Broadmedow"
"TsDy-1",32,11,7,40,NA,0.42,0.98,28,0.46,4.07,23.29,52,2,4,0.38,1.5,66,"SO","AB","Dy3.43","SDS","26","Broadmedow"
"6ADb-4",25,23,9,35,NA,0.61,0.54,34,0.68,15.35,24.42,467,2,4,0.11,1.5,53,"CH","AD","Dy2.13",NA,"20","Broadmedow"
"TsUf-6",21,32,7,27,NA,0.59,0.64,40,0.69,13.15,21.67,998,2,4,0.13,1.5,64,"DE","AA","Uf6.31",NA,"20","Broadmedow"
"Racetrack",18,21,10,50,NA,0.56,1.23,30,0.49,22.27,36.95,701,3,4,0.2,1.6,53,"SO","AB","Db1.43","SC","26","Broadmedow"
"Tralee",13,44,26,28,7.5,0.65,1.6,48,0.54,14.61,28.27,1703,3,4,0.03,1.5,65,"VE","AE","Ug5.15","NSG","26","Broadmedow"
"Todds",11,14,13,54,5,NA,NA,51,NA,NA,NA,20,3,3,0.7,1.5,NA,"CH","AB","Dy5.31",NA,"40","Broadmedow"
"Conway (Cqh)",6,10,16,41,7,0.38,2.84,57,0.21,3.42,0.01,20,3,4,0.28,0.85,45,"SO","AA","Dr3.41",NA,"26","Broadmedow"
"Hoogly (Ccl)",4,51,18,30,NA,0.72,1.93,30,0.44,46.02,43.06,4742,1,4,0.05,1.08,68,"VE","AM","Ug5.2","GC","26","Broadmedow"
"Foxleigh",2,10,4,63,NA,0.42,0.75,28,0.45,11.96,31.5,518,3,4,0.3,1.5,56,"SO","AB","Dy2.43","SDS","26","Broadmedow"
"Arnolds",2,12,6,37,NA,NA,NA,35,NA,NA,NA,64,2,2,0.8,1.5,NA,"KU","AD","Dy5.41",NA,"23","Broadmedow"
"Bruce",4478,54,17,18,7.6,0.56,1.5,47,1,0.97,3.05,20,4,2,0.04,0.55,148,"VE","AE","Ug5.12",NA,"12b","Bruce"
"Gindie",3934,42,8,32,NA,NA,NA,56,NA,NA,NA,NA,4,2,0.02,1,97,"DE","AD","Uf6.33",NA,"12b","Bruce"
"Cheeseboro",1945,40,24,28,8,0.58,2.46,NA,NA,NA,NA,NA,4,2,0.05,0.21,NA,"FE","AA","Uf6.32","BE","44","Bruce"
"Windradene",933,30,12,26,8.8,0.5,2.35,51,NA,0.01,NA,NA,3,2,0.16,0.3,69,"DE","AE","Uf6.31","TR","42","Bruce"
"Dickson, Shallow Variant",556,42,16,27,7.5,0.47,2.93,NA,NA,NA,NA,NA,5,2,0.06,0.25,NA,"DE","AA","Uf6.31","NSG","12b","Bruce"
"Shotover",260,14,8,44,NA,0.36,2.44,NA,NA,0.01,NA,NA,6,2,0.2,NA,50,"RU","CY","Uc1.21",NA,"44","Bruce"
"BUg-3",216,72,10,15,NA,0.55,1.07,NA,NA,0.04,NA,NA,NA,2,0.15,0.75,115,"VE","AE","Ug5.12",NA,"12b","Bruce"
"Cottonham",187,50,16,24,8.5,0.47,3.21,42,NA,0.25,NA,NA,4,2,0.1,1.05,88,"VE","AB","Ug5.32",NA,"12b","Bruce"
"May Shallow Phase",172,75,15,9,NA,0.56,1.18,NA,NA,0.67,NA,NA,4,2,0.05,0.5,81,"VE","AE","Ug5.12","BE","12b","Bruce"
"Russell, Stony Phase",146,51,16,24,7.5,NA,NA,NA,NA,NA,NA,NA,4,2,0.05,0.45,NA,"VE","AB","Ug5.22","BC","12b","Bruce"
"Yackadoo",136,30,16,33,8.5,0.53,2.78,45,NA,NA,NA,NA,5,4,0.06,0.2,NA,"CA","BD","Uf6.53","TR","44","Bruce"
"Commissioner",89,15,15,28,NA,0.41,2.46,NA,NA,NA,NA,NA,5,4,0.19,NA,NA,"RU","CY","Um1.44","L","44","Bruce"
"3ADr-2",76,18,10,39,NA,NA,NA,NA,NA,NA,NA,NA,NA,4,0.18,0.45,NA,"CH","AA","Dr2.12",NA,"44","Bruce"
"Minnabilla",64,20,18,38,NA,NA,NA,NA,NA,NA,NA,NA,NA,4,0.35,NA,NA,"RU","CY","Uc5.21","L","44","Bruce"
"Petrona",59,9,10,41,NA,0.3,1.42,9,NA,0.01,NA,NA,6,1,0.6,NA,43,"TE","CY","Uc5.11",NA,"44","Bruce"
"3AUf-Ug-1m",58,34,2,36,NA,0.52,0.54,NA,NA,NA,NA,NA,NA,4,0.1,0.4,34,"DE","AA","Uf6.31",NA,"44","Bruce"
"Violet",49,16,10,39,NA,0.34,0.75,NA,NA,NA,NA,NA,5,4,0.28,NA,NA,"TE","CY","Uc1.23","L","44","Bruce"
"Gayfield",28,12,8,41,NA,NA,NA,10,NA,NA,NA,NA,6,2,0.25,0.5,NA,"TE","CY","Uc4.13",NA,"44","Bruce"
"Coorooman",28,11,27,20,NA,0.32,8.13,19,NA,0.01,NA,NA,5,3,0.3,0.6,52,"KA","AA","Gn2.14",NA,"44","Bruce"
"3AUf",26,29,10,30,NA,0.61,0.64,45,NA,0.66,NA,NA,NA,4,0.2,0.65,60,"DE","AA","Uf6.31",NA,"44","Bruce"
"Ramillies",25,31,20,21,NA,0.53,3.1,44,0.85,0.01,1.71,21,4,4,0.12,0.48,124,"DE","AE","Gn3.12","PS","44","Bruce"
"BUg-9",18,56,15,21,NA,NA,NA,NA,NA,NA,NA,NA,NA,NA,0.45,NA,NA,"VE","AB","Ug5.32",NA,"12b","Bruce"
"Basalt Rock",17,29,18,34,NA,NA,NA,NA,NA,NA,NA,NA,6,2,0.1,NA,NA,"RU","CY",NA,NA,"44","Bruce"
"3AUc-1",12,18,10,39,NA,NA,NA,NA,NA,NA,NA,NA,NA,4,0.18,0.35,NA,"KA","AB","Uc5.31",NA,"44","Bruce"
"BUg-1",11,NA,NA,NA,NA,NA,NA,NA,NA,NA,NA,NA,NA,2,0.05,0.35,NA,"VE","AE","Ug5.12",NA,"12b","Bruce"
"Darts",10,32,18,15,NA,0.46,4.92,20,NA,0.01,NA,33,5,3,0.3,0.5,44,"TE","AW","Um2.12",NA,"44","Bruce"
"SDE4",8,22,11,35,NA,NA,NA,NA,NA,NA,NA,NA,4,4,0.2,0.35,NA,"DE","AD","Gn2.41",NA,"44","Bruce"
"Cheshire",32968,37,13,37,7.3,0.58,1.91,39,0.68,8.71,23.07,855,4,2,0.05,1.25,88,"DE","AB","Uf6.32",NA,"18","Cheshire"
"3VEy",1687,34,14,31,8.6,0.59,1.5,51,0.47,13.02,16.42,1190,4,2,0.03,0.6,95,"VE","AE","Ug5.15",NA,"18","Cheshire"
"Carraba",1073,35,29,30,NA,0.61,2.93,68,0.23,5.56,10.16,672,4,2,0.02,1.25,66,"DE","AD","Uf6.41",NA,"18","Cheshire"
"3ASO2",219,13,17,66,6,0.62,1.82,29,0.52,10.55,22.75,503,4,4,0.21,0.6,58,"SO","AB","Dd1.23",NA,"16","Cheshire"
"Tiny",133,41,13,29,8.4,0.59,1.39,56,0.67,10.55,20.98,1788,4,2,0.05,1.7,88,"VE","AE","Ug5.16","BE","18","Cheshire"
"3VEa",91,53,14,29,8,0.5,1.71,64,0.49,5.86,22.89,1229,4,2,0.09,1.55,93,"VE","AD","Ug5.24","GC","18","Cheshire"
"3VEb",73,48,14,32,6.5,0.55,0.75,44,0.72,12.27,24.41,1469,4,2,0.05,1.6,68,"VE","AD","Ug5.24","GC","18","Cheshire"
"Manoa Red Variant",38,32,13,48,NA,0.6,3.53,47,0.52,14.55,28.47,982,4,4,0.2,1.45,67,"DE","AA",NA,NA,"16","Cheshire"
"3VEw",35,52,16,23,8.4,0.59,1.28,57,0.54,13.27,18.68,1900,4,2,0.02,1.25,75,"VE","AB","Ug5.15","BE","18","Cheshire"
"5SOy",19,29,18,34,7,NA,NA,45,NA,NA,NA,1200,4,1,0.07,1.21,NA,"SO","AE",NA,NA,"18","Cheshire"
"Kooingal",11,73,18,5,NA,0.46,4.17,82,0.55,13.24,26.8,2127,4,2,0.04,1.5,89,"VE","AD","Ug5.24",NA,"37","Cheshire"
"SSO1",2,16,21,54,NA,NA,NA,44,0.34,12.98,32.27,1590,4,4,0.2,0.82,49,"SO","AB","Db1.13",NA,"16","Cheshire"
"Clematis",33428,33,28,39,NA,0.63,2.47,41,0.89,1.7,5.15,111,4,3,0.6,1.35,127,"KA","AB","Uf6.52",NA,"15","Clematis"
"Moolayember",1923,24,14,36,NA,0.39,1.18,42,NA,NA,NA,NA,4,3,0.6,1.35,NA,"DE","AB","Gn3.23",NA,"15","Clematis"
"Melton",1504,39,31,27,7.5,0.71,3,39,0.74,2.19,4.05,158,4,3,0.15,1.5,130,"DE","AE","Uf6.32",NA,"15","Clematis"
"Bonwell",685,39,16,32,7.1,0.61,2.68,42,0.47,0.11,7.72,20,4,3,0.18,1.5,114,"DE","AA","Uf6.31",NA,"15","Clematis"
"2AUg-1",174,56,15,21,NA,NA,NA,56,NA,NA,NA,NA,NA,NA,0.9,1.5,NA,"VE","AE",NA,NA,"15","Clematis"
"3CHx",96,13,1,40,NA,0.38,1.5,37,0.35,0.01,2.96,20,4,3,0.6,1.2,90,"CH","AB","Dy5.33",NA,"15","Clematis"
"2AUg-11",79,50,27,20,NA,NA,NA,50,NA,NA,NA,NA,NA,NA,0.9,1.5,NA,"VE","AB","Ug5.34",NA,"15","Clematis"
"2AUg-10m",45,57,15,21,NA,NA,NA,57,NA,NA,NA,NA,NA,NA,1.15,1.5,NA,"VE","AB","Ug5.24",NA,"15","Clematis"
"Muldoon",43,30,14,24,NA,0.47,2.25,46,0.29,0.84,0.01,NA,4,3,0.25,0.8,108,"DE","AA","Gn3.12",NA,"15","Clematis"
"2AUg-6",33,57,15,21,NA,NA,NA,NA,NA,NA,NA,NA,NA,NA,0.88,1.5,NA,"VE","AD","Ug5.28",NA,"15","Clematis"
"2AUg-16",30,57,15,21,NA,NA,NA,57,NA,NA,NA,NA,NA,NA,0.7,1.5,NA,"VE","AE","Ug5.15",NA,"15","Clematis"
"Ruby",25,31,20,22,6.2,0.47,1.39,31,0.16,0.44,0.01,20,4,3,0.25,0.8,97,"KA","AA","Gn2.11",NA,"15","Clematis"
"2AUf-Ug-2",22,56,15,21,NA,NA,NA,56,NA,NA,NA,NA,NA,NA,0.65,1.2,NA,"VE","AE","Ug5.15",NA,"15","Clematis"
"Corduroy",7,28,29,35,NA,0.64,3.1,27,0.63,3.53,7.4,162,4,3,0.25,1.4,109,"DE","AE","Gn3.43",NA,"15","Clematis"
"Boyles",6,41,20,17,NA,NA,NA,56,NA,1.06,NA,NA,4,3,0.26,1.2,82,"CH","AB","Db1.23",NA,"15","Clematis"
"Downfall",30439,48,11,26,8.9,0.47,NA,50,0.7,23.48,37.12,485,3,2,0.04,1.5,66,"VE","AD","Ug5.27",NA,"30","Downfall"
"Pegunny",1249,45,11,29,8,0.7,0.64,45,0.59,21.06,27.13,740,2,2,0.1,1.27,64,"VE","AM","Ug5.28",NA,"34","Downfall"
"Greycliffe",1116,45,17,21,7,0.66,2.03,53,0.47,12.56,23.35,1149,3,2,0.06,1.5,69,"VE","AB","Ug5.24",NA,"8a","Downfall"
"Solferino",889,63,16,6,8.5,0.47,2.14,74,0.76,8.69,50.44,4877,3,2,0.06,1.36,82,"VE","AA","Ug5.34","RC","30","Downfall"
"Well, Footslope Variant",435,49,17,28,NA,0.53,0.75,61,0.58,4.42,13.72,1535,3,3,0.06,1.18,67,"VE","AB","Ug5.24","GC","8a","Downfall"
"CVE3",427,33,8,52,8.8,0.54,1.6,31,0.58,19.34,29.52,1158,3,2,0.1,1.58,54,"VE","AB",NA,NA,"30","Downfall"
"Grevillea",418,35,33,30,7.5,0.75,2.46,56,0.61,15.78,24.67,1852,3,2,0.09,1.5,65,"DE","AE","Dd3.33",NA,"8a","Downfall"
"CVE4",294,49,15,22,6,0.47,2.07,57,0.32,12.2,16.16,2155,3,2,0.1,1.6,74,"VE","AB",NA,NA,"8a","Downfall"
"Rankin",244,53,18,22,8.4,0.45,0.75,59,0.77,4.27,16.71,2257,3,2,0.12,1.1,72,"VE","AD","Ug5.22","GC","8a","Downfall"
"2AUg-8m",123,46,11,34,NA,0.54,1.07,52,0.64,12.19,17.03,1693,NA,2,0.25,1.5,71,"VE","AD","Ug5.24",NA,"8a","Downfall"
"Pegunny (CCL)",108,40,22,25,7.5,0.6,2.46,58,0.47,11.64,26.12,1790,3,2,0.1,1.5,75,"VE","AD","Ug5.24","GC","8a","Downfall"
"2AUg-9m",74,47,9,25,NA,0.64,0.54,49,0.52,13.19,16.94,1787,NA,3,0.35,1.5,67,"VE","AD","Ug5.24",NA,"8a","Downfall"
"TbUg-10",70,51,16,24,NA,NA,NA,51,NA,NA,NA,NA,NA,NA,0.95,1.5,NA,"VE","AD","Ug5.29",NA,"8a","Downfall"
"2AUgg-2m",40,51,6,32,NA,0.46,2.03,58,0.52,14.52,19.73,1810,NA,2,0.2,1.5,74,"VE","AD",NA,NA,"8a","Downfall"
"Goovigen",16,50,25,16,NA,0.65,2.03,56,0.56,16.67,38.66,805,2,2,0.05,1.5,67,"VE","AE","Ug5.1",NA,"34","Downfall"
"Galway",7398,47,12,24,7.3,0.42,1.55,64,0.44,1.86,2,20,4,4,0.18,1.2,154,"FE","AA","Dr2.12","NKB","45","Galway"
"Bulburin",761,52,20,18,6.8,0.46,3.75,76,0.07,0.18,0.19,23,5,3,0.18,1.5,75,"FE","AA","Uf6.31","K","45","Galway"
"Lizard (CCL)",249,46,18,20,5,0.5,2.35,70,0.09,0.01,0.01,20,5,3,0.22,1,70,"DE","AA","Gn3.11","K","45","Galway"
"Lizard",129,45,19,25,6,0.51,2.14,68,0.06,0.01,0.01,20,4,3,0.28,1.5,65,"FE","AA","Gn3.11",NA,"45","Galway"
"Conjuboy",73,28,14,26,NA,0.54,1.87,52,0.26,0.67,0.01,39,4,4,0.12,0.7,125,"FE","AB",NA,"E","45","Galway"
"Eden",49,30,8,26,8.2,0.42,1.5,53,0.4,4.22,4.45,20,4,3,0.2,1.2,137,"DE","AA","Uf6.31","E","45","Galway"
"Hillgrove",28,34,16,24,NA,0.56,1.87,56,0.21,0.01,0.01,30,5,4,0.1,0.8,150,"FE","AA",NA,"E","45","Galway"
"May Downs",127722,58,14,20,7.8,0.54,1.32,61,1.05,4.04,7.49,292,4,2,0.04,1.25,182,"VE","AE","Ug5.12",NA,"12a","May Downs"
"Glenora",60627,65,14,15,7.8,0.58,1.99,70,1.04,0.88,4.23,161,4,2,0.04,1.45,189,"VE","AE","Ug5.37",NA,"12a","May Downs"
"Falkner",3961,68,14,14,8,0.59,NA,74,1.03,0.7,1.78,22,4,2,0.11,0.8,211,"VE","AB","Ug5.22","GC","13","May Downs"
"1AVE1",2398,66,28,4,7.1,0.51,2.89,73,0.6,2.2,8.34,188,4,2,0.12,1.6,206,"VE","AE",NA,NA,"13","May Downs"
"BVE1",1044,77,12,8,8.2,0.5,2.46,80,0.9,3.2,7.59,35,4,2,0.12,1.28,240,"VE","AE",NA,NA,"13","May Downs"
"BUg-6",363,57,15,21,8,0.56,NA,73,1.06,1.57,5.05,277,NA,2,0.05,1.1,187,"VE","AE","Ug5.13",NA,"12a","May Downs"
"TbUg-4",330,63,12,20,NA,0.53,1.02,72,0.9,4.94,8.46,343,NA,2,0.05,1.5,198,"VE","AE","Ug5.16",NA,"13","May Downs"
"1AVE2",296,53,29,14,7,0.57,2.5,59,0.67,3.98,9.95,181,4,4,0.14,1.58,169,"VE","AE",NA,NA,"12a","May Downs"
"TbUg-1",232,66,13,16,NA,0.5,1.64,64,1.15,2.21,7.52,276,NA,2,0.05,1.5,183,"VE","AE","Ug5.12",NA,"12a","May Downs"
"2VEb",179,60,25,14,7.3,0.54,0.86,64,0.62,8.71,12.22,547,4,2,0.1,1.55,163,"VE","AE","Ug5.15","BE","12a","May Downs"
"Oscar",173,57,14,13,6.7,0.45,3.21,72,0.89,2.03,7.55,232,4,2,0.1,1.02,176,"VE","AE","Ug5.1","BE","12a","May Downs"
"Amity",115,57,9,17,NA,0.61,1.47,65,1,2.55,7.54,193,4,2,0.08,0.83,183,"VE","AE","Ug5.12","NSG","12a","May Downs"
"BUg-4",83,76,11,11,NA,0.51,1.18,83,0.95,1.9,4.75,277,NA,2,0.05,1,210,"VE","AE","Ug5.12",NA,"13","May Downs"
"1AUg-2",65,65,16,18,8.4,0.54,NA,65,0.84,3.9,10.6,NA,NA,NA,0.1,1.5,182,"VE","AE","Ug5.16",NA,"12a","May Downs"
"3AUg-2",39,68,8,16,NA,0.49,1.44,62,0.65,1.66,5.25,109,NA,2,0.15,1.2,178,"VE","AB","Ug5.32",NA,"12a","May Downs"
"Banana",19,56,16,22,7.8,0.56,1.6,64,0.82,4.36,8.09,429,4,2,0.08,1.2,172,"VE","AE","Ug5.12",NA,"12a","May Downs"
"1AUg-3",13,62,11,18,NA,0.56,0.96,74,0.99,2.82,8.89,370,NA,2,0.1,1.5,213,"VE","AE",NA,NA,"13","May Downs"
"Moramana",5137,63,15,16,8.5,0.62,1.07,65,0.88,5.79,14.61,709,3,2,0.09,1.25,168,"VE","AD","Ug5.25","GC","11","Moramana"
"Eleanor",5116,67,14,14,8.4,0.56,0.86,67,0.98,7.42,16.23,318,3,2,0.11,1.6,170,"VE","AB","Ug5.24","GC","11","Moramana"
"Niagara",4981,69,14,14,8.5,0.48,1.93,69,0.83,2.09,9.44,608,3,2,0.11,1.2,176,"VE","AA","Ug5.37","RC","11","Moramana"
"Sullivan",3186,61,18,16,8.2,0.52,NA,65,0.65,3.2,6.98,326,3,2,0.05,1.3,182,"VE","AE","Ug5.24","GC","11","Moramana"
"Aroa",2985,66,8,15,8.5,0.46,1.6,68,0.99,0.52,1.4,37,3,2,0.1,1,174,"VE","AB","Ug5.33",NA,"11a","Moramana"
"Holding",2546,60,12,18,8.5,0.56,1.44,62,0.99,2.66,8.99,118,3,2,0.05,1.3,176,"VE","AB",NA,NA,"11a","Moramana"
"Moramana, Gilgai Phase",966,62,18,14,8.5,0.61,1.34,69,1.05,1.43,4.55,86,3,2,0.05,1.5,174,"VE","AB",NA,NA,"11","Moramana"
"Jambin",550,60,21,16,8.4,0.62,2.35,64,0.65,8.12,15.1,577,3,2,0.08,1.5,181,"VE","AE","Ug5.1",NA,"11","Moramana"
"6AUg-6",421,51,17,22,NA,0.65,1.13,55,0.65,10.63,16.49,810,3,2,0.23,1.5,163,"VE","AD",NA,NA,"11","Moramana"
"1AUg-12",246,60,22,14,7.9,0.58,0.88,60,0.61,7.36,14.46,347,3,2,0.35,1.33,165,"VE","AE","Ug5.15",NA,"11","Moramana"
"6AUg-5",231,61,17,19,NA,0.55,1.28,58,0.68,4.36,12.53,436,3,3,0.23,1.5,171,"VE","AE","Ug5.16",NA,"11","Moramana"
"Kilburnie",211,43,20,25,7.5,0.66,1.39,60,0.64,10.99,16.17,650,3,2,0.11,1.5,167,"VE","AE","Ug5.15",NA,"11","Moramana"
"Maryvale",120,48,15,20,NA,0.6,0.63,50,0.55,5.4,11.53,626,3,2,0.12,1.4,149,"VE","AE",NA,"BE","11","Moramana"
"Well",82,67,14,13,8.8,0.61,1.12,76,0.72,6.22,14.54,757,3,2,0.06,1.5,161,"VE","AB","Ug5.38","BC","11","Moramana"
"2VEe",48,70,19,10,NA,0.5,1.71,77,0.55,3.91,9.23,313,3,2,0.05,1.4,191,"VE","AE","Ug5.24","BE","11","Moramana"
"Belbroughton",4,56,18,11,7,0.57,1.98,64,0.83,1.56,4.48,113,3,2,0.1,1.5,166,"VE","AE","Ug5.1","BE","11a","Moramana"
"Retro",6815,22,14,41,7.2,0.52,1.55,36,0.52,10.41,18.91,477,3,4,0.22,1.2,96,"SO","AD","Dy2.43",NA,"4","Retro"
"Luxor",2588,10,6,52,7.5,0.47,0.91,29,0.26,0.01,8.81,216,3,4,0.6,1.2,95,"SO","AD","Dy3.41",NA,"4","Retro"
"Springwood",2077,11,8,52,NA,0.41,1.55,32,0.39,7.28,19.28,475,3,4,0.25,1.2,81,"SO","AA","Dy2.42",NA,"4","Retro"
"Retro (BAN)",1154,28,27,43,6.5,0.8,2.14,42,0.74,12.37,22.18,890,3,4,0.25,1.25,81,"SO","AE","Dd1.33",NA,"5","Retro"
"Wyseby",1000,21,14,35,6,0.59,1.48,34,0.59,7.92,19.04,999,3,4,0.25,1.25,71,"KU","AD","Dy3.81",NA,"4","Retro"
"Kokutungo",757,34,17,33,6.5,0.62,1.66,45,0.34,8.41,21.69,755,3,4,0.33,1.5,89,"SO","AB","Db1.33",NA,"4","Retro"
"Taurus",732,12,11,54,NA,0.47,0.97,31,0.5,5.85,22.06,247,3,4,0.2,1.25,74,"SO","AE","Dd1.43",NA,"4","Retro"
"Greycliffe Melonhole Phase",367,48,19,22,7,0.66,1.93,61,0.46,13.24,21.35,1378,2,3,0.04,1.5,95,"VE","AD","Ug5.24",NA,"21","Retro"
"Myrtlevale",354,45,21,28,6.9,0.62,1.9,51,NA,5.44,NA,NA,3,4,0.1,0.9,103,"DE","AB",NA,"BC","4","Retro"
"Cape",285,14,20,62,NA,0.67,1,19,0.55,5.9,17.99,79,2,4,0.18,1.8,90,"SO","AB","Dy2.43","SC","3","Retro"
"1ADb-Dd",161,25,16,53,NA,0.6,2.03,42,0.45,8.88,12.66,565,NA,4,0.2,0.98,112,"CH","AB","Db1.33",NA,"4","Retro"
"Boongary",146,51,16,24,7,NA,NA,51,NA,NA,NA,NA,3,4,0.1,1.5,NA,"VE","AD",NA,NA,"4","Retro"
"Medway",122,15,7,54,NA,0.51,0.75,44,NA,7.86,NA,NA,3,4,0.2,0.55,80,"SO","AD","Dy2.43",NA,"4","Retro"
"Ellis",114,7,5,54,6.6,0.42,NA,39,0.24,0.01,0.01,20,3,4,0.24,1.5,94,NA,NA,NA,NA,"4","Retro"
"TsGn-5",106,16,4,40,NA,0.41,0.78,36,0.28,0.01,7.19,22,3,4,0.65,1.04,96,"KA","AB","Gn2.21","YE","4","Retro"
"3ASO1",103,14,13,41,NA,NA,NA,45,NA,NA,NA,NA,3,4,0.09,1.25,NA,"SO","AB","Db4.43",NA,"4","Retro"
"1ADb-7",97,30,21,39,NA,0.7,1.07,33,0.56,7.58,14.08,1193,2,4,0.11,1.38,87,"CH","AB","Db1.43",NA,"3","Retro"
"6AUg-4",89,60,13,23,NA,0.65,0.64,67,0.48,10.08,12.5,1104,2,2,0.18,2,117,"VE","AE",NA,NA,"21","Retro"
"1ADd-3",72,30,15,50,NA,0.7,0.96,38,0.51,8.78,14.72,342,2,4,0.11,0.65,120,"CH","AB","Dd1.33",NA,"3","Retro"
"Keppel",56,22,22,28,5.5,0.48,3.26,51,NA,0.49,NA,20,3,4,0.28,0.75,60,"SO","AB","Dy3.41",NA,"28","Retro"
"Pallamana",54,12,8,39,NA,0.3,0.43,48,NA,NA,NA,NA,3,4,0.38,0.7,NA,"CH","AD",NA,"YP","4","Retro"
"3AGn-1",53,29,18,34,NA,NA,NA,45,NA,NA,NA,NA,NA,4,0.18,1.5,NA,"KA","AB","Gn3.12",NA,"4","Retro"
"Yaringa",53,25,43,31,NA,0.97,1.39,57,0.62,9.01,15.04,872,3,4,0.28,1.4,139,"SO","AD","Dy3.43",NA,"43","Retro"
"2ADb-1",49,29,5,54,NA,0.63,0.75,40,0.59,7.6,10.97,929,NA,4,0.16,1.5,98,"CH","AB","Ug5.24",NA,"4","Retro"
"Voewood",47,11,19,31,6.2,0.53,NA,33,0.48,14.54,39.21,419,3,4,0.18,0.9,80,"SO","AD","Dy3.43",NA,"5","Retro"
"TsDr-1",46,18,8,34,NA,0.48,0.81,31,0.55,0.14,5.54,115,2,4,0.23,1.5,109,"CH","AA","Dr2.13",NA,"3","Retro"
"6ADy-2",45,18,10,39,NA,NA,NA,51,NA,NA,NA,NA,NA,4,0.13,1.5,NA,"SO","AB","Dy2.33",NA,"4","Retro"
"Lorna",44,19,14,47,NA,NA,NA,56,NA,16.82,NA,NA,3,4,0.27,1.1,72,"SO","AB","Dy3.42",NA,"5","Retro"
"6ADy-3",36,8,3,42,NA,0.39,0.68,29,0.56,1.35,15.41,225,3,4,0.35,1.5,86,"SO","AC","Dy2.43",NA,"4","Retro"
"Malchi",36,22,17,41,6,NA,NA,51,NA,NA,NA,1560,3,4,0.12,1.2,NA,"SO","AE",NA,NA,"4","Retro"
"Awoonga",32,24,27,30,NA,0.58,2.68,40,0.62,27.6,44.22,1008,3,4,0.25,0.9,53,"SO","AB","Dy3.43",NA,"24","Retro"
"Creek",30,14,17,61,NA,0.64,1.5,29,0.52,0.01,1.98,23,3,4,0.4,1,83,"CH","AB",NA,"GBP","4","Retro"
"1ADd-4",29,32,22,38,NA,0.76,1.5,35,0.53,14.93,17.84,584,NA,4,0.14,0.95,69,"CH","AE","Dd1.33",NA,"5","Retro"
"CVE5",28,45,16,33,7.8,0.66,2.14,49,0.59,10.78,19.79,1676,2,2,0.1,1.52,72,"VE","AB",NA,NA,"21","Retro"
"Gracemere",27,45,16,27,7,NA,NA,51,NA,NA,NA,2486,3,4,0.1,1.4,NA,"VE","AD",NA,NA,"4","Retro"
"Magnan",23,20,18,41,NA,NA,NA,NA,NA,NA,NA,NA,2,4,0.3,0.45,NA,"TE","AW","Um2.3",NA,"3","Retro"
"3AUf-Ug-8m",22,4,4,31,NA,NA,NA,57,NA,NA,NA,NA,NA,4,0.05,1.5,NA,"DE","AB","Db1.33",NA,"4","Retro"
"Police Camp",22,34,20,21,7,0.63,2.78,45,NA,5.97,NA,NA,3,4,0.2,0.9,90,"SO","AB","Db1.33",NA,"4","Retro"
"Mingela",13,12,8,39,NA,0.41,0.5,51,NA,NA,NA,NA,3,4,0.2,0.82,NA,"SO","AB",NA,"SC","4","Retro"
"Thorpe - Dlr",13,16,8,37,NA,NA,NA,32,NA,NA,NA,NA,3,4,0.1,NA,NA,"KA","AB","Gn2.64","YE","4","Retro"
"Yarwun",5,29,18,34,NA,NA,NA,56,NA,NA,NA,NA,3,4,0.3,1.05,NA,"SO","AB","Dy2.43",NA,"4","Retro"
"Yeppoon",5,25,29,38,6.5,NA,NA,51,NA,NA,NA,20,3,4,0.39,1.3,NA,"SO","AD","Dy3.41",NA,"4","Retro"
"Harwood",3,11,20,58,NA,0.59,1.82,41,0.54,5.11,10.14,254,3,4,0.4,1.1,99,"SO","AB","Dy3.43",NA,"4","Retro"
"Rolleston",70382,46,17,25,8.3,0.59,1.73,52,0.68,8.21,16.5,963,3,2,0.04,1.2,118,"VE","AD","Ug5.28",NA,"8","Rolleston"
"Teviot",19524,44,18,26,7.9,0.56,1.93,48,0.73,6.76,15.52,1255,3,2,0.1,1.25,92,"VE","AE","Ug5.33",NA,"8","Rolleston"
"Natal",6470,51,16,24,NA,0.6,1.25,51,NA,NA,NA,NA,3,2,0.1,1.5,NA,"VE","AE","Ug5.24",NA,"8","Rolleston"
"Logan",4413,57,15,21,NA,0.73,0.4,57,NA,NA,NA,NA,3,2,0.3,1.5,NA,"VE","AB","Ug5.31",NA,"8","Rolleston"
"Tarramba",4053,62,23,12,7.9,0.63,1.82,66,0.63,9.84,21.37,829,3,2,0.16,1.2,105,"VE","AE","Ug5.1",NA,"8","Rolleston"
"Battery",2466,53,14,26,8.2,0.54,1.34,59,0.53,9.06,19.71,1277,3,2,0.1,1,106,"VE","AB","Ug5.34","BC","8","Rolleston"
"Kenmar",1699,42,13,21,8.8,0.6,0.91,52,0.58,10.58,23.29,1254,3,2,0.02,1.3,88,"VE","AD",NA,NA,"8","Rolleston"
"6AUg-10",1532,50,16,27,NA,0.6,0.64,54,0.6,15.76,18.99,1403,3,2,0.13,1.5,84,"VE","AD","Ug5.24",NA,"8","Rolleston"
"TsUg-7",869,42,10,30,NA,0.62,0.91,43,0.51,9.07,20.52,1052,3,2,0.22,1.5,79,"VE","AB","Ug5.24",NA,"8","Rolleston"
"Fairview",535,46,23,24,7.9,0.59,2.78,59,0.55,12.26,24.83,1526,3,2,0.08,1.35,77,"VE","AB","Ug5.12",NA,"8","Rolleston"
"1AUg-13",308,52,20,20,NA,0.62,1.71,49,0.62,9.15,20.15,1712,3,2,0.13,1.15,87,NA,NA,"Ug5.15",NA,"8","Rolleston"
"Powerhouse",272,34,17,26,7,0.57,2.25,40,0.52,9.12,27.4,1157,3,2,0.08,1.5,76,"DE","AB","Uf6.31",NA,"8","Rolleston"
"Yarraman",243,66,19,14,NA,0.66,1.24,56,NA,7.41,NA,1038,3,2,0.11,1.6,92,"VE","AD","Ug5.24","GC","8","Rolleston"
"2AUgg-1m",198,48,12,33,NA,0.56,0.7,56,0.62,10.48,20.85,1358,NA,2,1.18,1.5,94,"VE","AD","Ug5.28",NA,"8","Rolleston"
"6AUg-3",148,53,15,25,7.4,0.56,1.77,59,0.67,6.52,11.56,1519,NA,2,0.2,1.5,89,"VE","AE","Ug5.16",NA,"8","Rolleston"
"TsUgg-2",123,53,9,28,8.5,0.57,1.5,53,0.59,13.2,23.14,1129,3,2,0.18,1.5,98,"VE","AD","Ug5.24",NA,"8","Rolleston"
"Maraconda",119,64,17,16,7,0.66,0.64,73,0.64,4.96,6.65,2291,3,2,0.02,1.3,79,"VE","AD","Ug5.25","GC","8","Rolleston"
"6AUg-9",102,50,20,20,NA,0.58,1.87,56,0.63,6.14,12.53,1346,NA,2,0.28,1.5,91,"VE","AD","Ug5.24",NA,"8","Rolleston"
"6AUg-8",92,52,17,24,8.3,0.59,0.58,58,0.61,11.25,17.41,1282,3,2,0.18,1.5,87,"VE","AD","Ug5.24",NA,"8","Rolleston"
"Egera",81,44,11,19,NA,0.54,1.74,50,0.58,12.95,20.63,1275,3,2,0.15,1.65,85,"VE","AD",NA,"GC","8","Rolleston"
"3AUf-Ug-6m",71,51,4,20,NA,0.59,0.64,51,0.51,9.64,19.19,1636,NA,3,0.1,1.5,79,"DE","AB","Uf6.31",NA,"8","Rolleston"
"2AUf-Ug-3",68,38,9,32,NA,0.64,0.64,50,0.48,9,20.36,1322,NA,3,0.01,1.5,85,"DE","AB","Uf6.33",NA,"8","Rolleston"
"Oombabeer",65,40,12,29,7.4,0.6,NA,48,0.56,10.22,20.61,84,3,2,0.16,1.5,102,"SO","AB",NA,"NSG","8","Rolleston"
"Midden, Melonhole Phase",45,51,16,24,NA,NA,NA,56,NA,NA,NA,NA,3,3,0.02,1.5,NA,"VE","AD",NA,NA,"8","Rolleston"
"3AUf-Ug-7m",40,45,16,27,NA,NA,NA,51,NA,NA,NA,NA,NA,NA,0.02,1.5,NA,"DE","AE","Uf6.32",NA,"8","Rolleston"
"Harris",34,58,14,12,NA,0.44,4.71,51,NA,4.88,NA,762,3,2,0.06,1.5,105,"VE","AE","Ug5.15",NA,"35","Rolleston"
"1ASO1",16,4,4,31,7,NA,NA,35,NA,NA,NA,50,3,2,0.55,1.5,NA,"SO","AB",NA,NA,"8","Rolleston"
"Larcom (CCL)",15,60,18,14,NA,0.6,1.82,77,0.53,15.4,20.6,1182,3,3,0.11,1.59,105,"VE","AD","Ug5.22","GC","8","Rolleston"
"3AUf-Ug-2m",11,37,2,38,NA,0.53,0.75,48,0.69,6.3,13.1,1810,NA,2,0.23,1.2,78,"DE","AD","Uf6.31",NA,"8","Rolleston"
"Russell",37357,76,14,10,8.6,0.49,1.12,13,0.01,0.69,2.57,20,4,2,0.06,0.95,142,"VE","AB","Ug5.22","GC","38","Russell"
"Consuelo",2658,51,16,24,NA,0.49,2.25,29,NA,NA,NA,NA,4,2,0.5,NA,NA,"RU","ER","Um1.22",NA,"38","Russell"
"Tognolini",795,39,32,22,7.2,0.59,3.32,45,0.66,2.43,3.25,77,4,2,0.18,1.4,122,"VE","AE","Ug5.1",NA,"38","Russell"
"Dickson",670,72,14,9,7,0.52,2.89,69,0.17,0.01,0.01,20,5,2,0.27,1.05,110,"DE","AA","Uf6.31","NSG","25","Russell"
"Russell, Gilgai Phase",329,51,16,24,8.8,NA,NA,51,NA,NA,NA,NA,4,2,0.11,1.15,NA,"VE","AB","Ug5.37","GC","38","Russell"
"Kenlogan",329,80,9,6,7.8,0.46,1.98,56,NA,0.25,NA,699,5,2,0.09,0.94,134,"VE","AA","Ug5.37","RC","25","Russell"
"5VEy",186,42,26,27,NA,NA,NA,48,NA,NA,NA,NA,4,2,0.1,1.26,NA,"VE","AE",NA,NA,"38","Russell"
"Ninemile",51,51,16,24,7.6,0.62,NA,57,NA,NA,NA,NA,4,2,0.06,1.1,NA,"VE","AA","Ug5.37","RC","38","Russell"
"1AVE5",46,50,16,24,NA,NA,NA,45,NA,NA,NA,NA,4,2,0.15,1.51,NA,"VE","AE",NA,NA,"38","Russell"
"Leitrim",25,51,16,24,NA,0.57,1.82,33,NA,NA,NA,NA,5,2,0.05,0.95,NA,"VE","AA","Ug5.37","RC","25","Russell"
"Vermont",86381,40,18,22,7.6,0.55,1.66,49,0.85,3.62,12.35,499,4,2,0.04,1,146,"VE","AE","Ug5.16",NA,"12c","Vermont"
"Krongie",11188,51,15,24,8.1,0.49,NA,56,0.88,3.18,10.27,186,4,2,0.1,0.82,159,"VE","AD","Ug5.24","GC","12c","Vermont"
"Picardy",2630,55,12,20,9,0.51,1.71,58,0.94,3.99,10.98,902,4,2,0.06,1.6,142,"VE","AE","Ug5.15","BE","10","Vermont"
"Langley-Wdh",2239,65,15,8,8.4,0.62,1.34,69,0.67,7.64,15.96,1401,4,2,0.05,1.5,128,"VE","AE","Ug5.15","BE","10","Vermont"
"Picardy Surface Seal Phase",1974,50,13,23,NA,0.6,1.55,56,0.77,4.55,8.28,588,4,2,0.05,1.2,156,"VE","AE","Ug5.16","BE","12c","Vermont"
"2VEx",1789,56,16,22,8.6,0.55,1.23,65,0.7,4.84,15.66,695,4,2,0.1,1.6,156,"VE","AE","Ug5.1","BE","10","Vermont"
"TbUg-2",1235,58,15,22,NA,0.46,2.78,68,0.91,2.2,6.81,967,4,2,0.05,1.5,135,"VE","AE","Ug5.15",NA,"10","Vermont"
"2AUg-7",451,55,17,24,8.3,0.55,1.12,56,0.83,7.39,13.86,994,NA,2,0.3,1.5,124,"VE","AD","Ug5.24",NA,"10","Vermont"
"2VEy",365,81,9,7,8.9,0.56,NA,83,0.77,8.47,20.55,692,4,2,0.05,1.13,160,"VE","AE","Ug5.1","BE","10","Vermont"
"Lindsay",357,59,17,16,NA,0.63,1.07,66,0.95,12.34,19.21,1133,4,2,0.04,1.4,78,"VE","AE","Ug5.15","BE","12c","Vermont"
"BUg-17",261,51,16,24,NA,NA,NA,56,NA,NA,NA,NA,NA,2,0.05,1.5,NA,"VE","AE","Ug5.32",NA,"10","Vermont"
"BUg-11",245,51,16,24,NA,NA,NA,57,NA,NA,NA,NA,NA,2,0.05,1.5,NA,"VE","AE","Ug5.12",NA,"10","Vermont"
"2AUg-3",198,56,8,24,8.6,0.48,2.68,57,0.7,5.76,11.94,1108,NA,2,0.18,1.5,111,"VE","AD","Ug5.24",NA,"10","Vermont"
"3VEc",194,47,14,22,8.1,0.46,1.77,56,0.57,7.1,12.98,791,4,2,0.08,1.6,158,"VE","AD","Ug5.24","GC","10","Vermont"
"3VEz",181,32,7,32,8.1,0.49,NA,38,0.62,3.77,15.69,420,4,2,0.1,1.2,108,"VE","AB","Ug5.15",NA,"10","Vermont"
"BUg-7",173,51,16,24,NA,NA,NA,56,NA,NA,NA,NA,NA,2,0.06,1.4,NA,"VE","AE","Ug5.15",NA,"10","Vermont"
"BUgg-2",161,57,15,21,NA,NA,NA,57,NA,NA,NA,NA,4,NA,0.1,1.5,NA,"VE","AE","Ug5.15",NA,"10","Vermont"
"1AUg-1",160,57,15,21,NA,NA,NA,NA,NA,NA,NA,NA,NA,NA,0.1,0.88,NA,"VE","AE","Ug5.14",NA,"10","Vermont"
"1AVE6",139,43,28,25,8.5,0.55,2.3,46,0.62,10.05,17.12,851,4,2,0.12,1.56,150,"VE","AE","Ug5.1",NA,"10","Vermont"
"2VEa",136,40,20,35,6.7,0.64,1.71,37,0.62,11.36,17.74,783,4,2,0.09,1.32,121,"VE","AE","Ug5.15","BE","10","Vermont"
"TbUg-13",126,65,9,22,NA,0.52,1.28,68,0.54,7.11,10.43,908,NA,2,0.05,1.5,138,"VE","AD","Ug5.29",NA,"10","Vermont"
"TbUg-12",108,57,15,21,NA,NA,NA,NA,NA,NA,NA,NA,NA,2,0.05,1.15,NA,"VE","AB","Ug5.32",NA,"10","Vermont"
"1AUg-5",100,57,15,21,NA,NA,NA,51,NA,NA,NA,NA,NA,NA,0.1,0.85,NA,"VE","AB","Ug5.29",NA,"10","Vermont"
"TbUg-6",99,78,10,9,8.5,0.53,NA,79,0.66,5.32,14.38,1240,NA,2,0.95,1.5,145,"VE","AE","Ug5.15",NA,"10","Vermont"
"CVE1",95,68,25,6,8.6,0.6,NA,69,0.58,6.11,17.3,635,4,2,0.1,1.65,164,"VE","AE","Ug5.2","GC","10","Vermont"
"BUg-5",84,NA,NA,NA,NA,NA,NA,57,NA,NA,NA,NA,4,2,0.05,1.5,NA,"VE","AE","Ug5.12",NA,"10","Vermont"
"CVE2",84,51,16,24,9.5,NA,NA,51,NA,NA,NA,NA,4,2,0.1,1.55,NA,"VE","AB",NA,NA,"10","Vermont"
"TbUg-7",80,57,15,21,NA,NA,NA,57,NA,NA,NA,NA,NA,2,0.05,1.5,NA,"VE","AE","Ug5.16",NA,"10","Vermont"
"Bauhinia",77,45,18,26,NA,0.58,1.28,52,0.74,5.77,11.64,451,4,2,0.04,1,153,"VE","AE","Ug5.12",NA,"12c","Vermont"
"6AUg-7",61,56,15,21,NA,NA,NA,56,NA,NA,NA,NA,NA,2,0.1,1.5,NA,"VE","AD","Ug5.24",NA,"10","Vermont"
"TsUgg-1",60,56,15,21,NA,NA,NA,56,NA,NA,NA,NA,NA,NA,0.3,1.5,NA,"VE","AD","Ug5.24",NA,"10","Vermont"
"TbUg-8",58,57,15,21,NA,NA,NA,57,NA,NA,NA,NA,NA,2,0.05,1.5,NA,"VE","AE","Ug5.16",NA,"10","Vermont"
"TbUg-9",49,NA,NA,NA,NA,NA,NA,57,NA,NA,NA,NA,NA,2,0.05,1.6,NA,"VE","AE","Ug5.1",NA,"10","Vermont"
"2AUgg-3m",48,51,16,24,NA,NA,NA,51,NA,NA,NA,NA,NA,NA,0.12,1.5,NA,"VE","AD",NA,NA,"10","Vermont"
"3AUf-Ug-8d",38,56,15,21,NA,NA,NA,57,NA,NA,NA,NA,NA,NA,0.15,1.5,NA,"VE","AE","Ug5.15",NA,"10","Vermont"
"1AUg-18",34,56,15,21,NA,NA,NA,51,NA,NA,NA,NA,NA,2,0.08,1.2,NA,"VE","AB","Ug5.15",NA,"10","Vermont"
"BUgg-1m",32,NA,NA,NA,NA,NA,NA,57,NA,NA,NA,NA,NA,2,0.05,1.1,NA,"VE","AE","Ug5.16",NA,"10","Vermont"
"BUg-20",30,57,15,21,NA,NA,NA,57,NA,NA,NA,NA,NA,2,0.2,1.05,NA,"VE","AE","Ug5.12",NA,"10","Vermont"
"3AUf-Ug-3d",27,58,8,18,NA,0.54,0.86,56,0.61,5.83,11.87,843,NA,2,0.25,1.5,143,"VE","AD","Ug5.16",NA,"10","Vermont"
"6AUf-3",23,51,16,24,NA,NA,NA,51,NA,NA,NA,NA,NA,4,0.2,1.5,NA,"DE","AB","Uf6.31",NA,"12c","Vermont"
"TsUg-2",22,56,15,21,NA,NA,NA,56,NA,NA,NA,NA,NA,2,0.02,1.5,NA,"VE","AE","Ug5.15",NA,"10","Vermont"
"SVE1",16,51,16,24,6,NA,NA,54,NA,NA,NA,NA,4,2,0.1,1.1,NA,"VE","AE","Ug5.13",NA,"10","Vermont"
"3AUg-1",15,56,15,21,NA,NA,NA,NA,NA,NA,NA,NA,NA,NA,0.1,1.2,NA,"VE","AD","Ug5.12",NA,"10","Vermont"
"TbUg-5",15,51,16,24,NA,NA,NA,57,NA,NA,NA,NA,NA,2,0.05,1.5,NA,"VE","AE","Ug5.16",NA,"10","Vermont"
"2AUgg-4m",14,57,15,21,NA,NA,NA,57,NA,NA,NA,NA,NA,NA,0.4,1.5,NA,"VE","AD","Ug5.24",NA,"10","Vermont"
"1AUg-6",10,51,16,24,NA,NA,NA,57,NA,NA,NA,NA,NA,NA,0.25,1.1,NA,"VE","AE","Ug5.1",NA,"10","Vermont"
"Vicenza",8063,60,15,18,8.7,0.48,1.07,64,0.67,4.1,12.1,794,3,2,0.11,1.5,139,"VE","AD","Ug5.24","GC","10a","Vicenza"
"Earlsfield",4543,53,14,20,8.1,0.58,1.71,56,0.72,7.76,17.85,766,3,2,0.07,1.5,136,"VE","AE","Ug5.15",NA,"10a","Vicenza"
"Diamond (Kcm)",1460,72,14,9,8.5,0.46,0.96,74,0.95,9.62,20.28,1365,3,2,0.09,1.14,132,"VE","AA","Ug5.38","RC","10a","Vicenza"
"Martyr",1206,46,12,19,6.5,0.56,1.07,54,0.81,7.24,14.4,800,3,2,0.03,1.5,123,"VE","AA",NA,NA,"10a","Vicenza"
"Manar",615,58,15,15,8.8,0.57,1.82,70,0.71,3.51,17.55,885,3,2,0.11,1.36,139,"VE","AA","Ug5.38","RC","10a","Vicenza"
"Vermont (CCL)",533,47,29,21,7.5,0.66,3,32,0.75,4.66,8.34,360,3,2,0.09,1.5,122,"VE","AE","Ug5.15","BE","10a","Vicenza"
"Eleanor, Mottled Phase",532,59,14,18,8.2,0.57,0.64,61,0.95,9.24,21.07,923,3,2,0.03,1.6,123,"VE","AE",NA,NA,"10a","Vicenza"
"6AUg-12",458,52,16,22,7.8,0.55,2.89,57,0.68,6.9,13.65,1216,3,2,0.13,2,113,"VE","AD","Ug5.24",NA,"10a","Vicenza"
"Diamond (Kcm), Footslope Variant",312,75,11,11,7.5,0.47,0.69,80,0.9,8.66,16.9,1741,3,2,0.09,0.95,136,NA,NA,"Ug5.39","GC","10a","Vicenza"
"1AVE4",97,54,28,16,6,0.58,2.09,70,0.64,7.93,12.16,1435,3,2,0.1,1.5,108,"VE","AE",NA,NA,"10a","Vicenza"
"Well, Sandy Surface Variant",93,51,16,24,NA,NA,NA,57,NA,NA,NA,NA,3,2,0.11,0.6,NA,"DE","AA","Uf6.31","NSG","10a","Vicenza"
"Cattle",31,66,17,13,NA,0.64,0.9,64,0.82,5.43,17.53,1228,3,2,0.05,1.5,129,NA,NA,"Ug5.2","GC","10a","Vicenza"
"Midden",20,40,11,26,8.5,0.54,1.44,48,0.95,2.27,11.12,639,3,2,0.03,1.4,126,"VE","AB",NA,NA,"10a","Vicenza"
"Pakington",7,39,39,16,NA,0.76,2.46,58,0.41,7.27,17.57,46,3,2,0.13,1.5,127,"VE","AB","Uf6.31",NA,"10a","Vicenza"
"Warrinilla",11675,20,15,52,6.8,0.47,0.64,21,0.77,0.18,2.26,84,4,4,0.15,0.5,94,"RU","ER","Um1.44",NA,"1","Warrinilla"
"Callide",2628,32,32,33,7.1,0.75,2.68,30,0.74,2.04,3.29,147,5,4,0.33,0.9,106,"CH","AB","Gn3.42",NA,"27","Warrinilla"
"Halivale (CCL)",1007,9,2,28,6,0.26,0.88,13,0.01,0.16,0.01,20,5,4,0.35,0.95,72,"KA","AB","Gn2.12","ES","7","Warrinilla"
"Hilldale",541,22,26,31,6.5,0.55,2.3,38,0.4,4.69,9.23,454,5,4,0.25,1.05,104,"CH","AB","Db1.12","NSG","7","Warrinilla"
"Figtree",523,22,26,40,NA,0.55,1.93,34,0.32,0.01,0.01,20,5,4,0.25,1,98,"DE","AB","Gn3.12","PS","7","Warrinilla"
"Dunrobin - CQ",468,24,23,46,NA,0.45,1.39,52,0.08,0.01,0.01,20,5,4,0.2,1.5,121,"KA","AA","Gn2.12",NA,"7","Warrinilla"
"Pentland",462,21,6,40,NA,0.41,1.22,53,0.08,0.01,0.01,20,5,4,0.16,0.8,111,"KA","AA",NA,"RE","7","Warrinilla"
"1ADE1",387,24,14,59,6.5,0.6,1.82,26,0.59,0.01,3.02,31,4,4,0.2,1,102,"DE","AB",NA,NA,"1","Warrinilla"
"Burdekin",367,11,10,76,NA,0.5,0.86,14,0.01,0.01,0.01,20,5,4,0.33,1.23,83,"TE","DS","Uc5.22","ES","7","Warrinilla"
"Diglum (CCL)",273,24,30,32,6.9,0.82,1.18,40,0.53,3.17,6.19,139,4,4,0.2,1,116,"CH","AE","Dd1.13","NSG","1","Warrinilla"
"1ACH1",266,16,22,54,NA,0.61,1.39,29,0.48,5.88,18.64,20,4,4,0.25,0.8,108,"CH","AB",NA,NA,"1","Warrinilla"
"Fanning River",259,12,14,69,NA,0.61,0.92,18,0.39,0.01,0.01,21,5,4,0.3,1.2,90,"DE","AB",NA,"BRE","7","Warrinilla"
"1ADb",234,16,2,61,NA,0.45,0.86,37,0.44,0.01,4.48,36,4,4,0.79,1.25,97,"KA","AD","Db1.42",NA,"1","Warrinilla"
"Struan (CCL)",219,12,8,39,6,NA,NA,29,NA,NA,NA,NA,4,4,0.3,1.01,NA,"KA","AB","Gn2.21","YE","1","Warrinilla"
"Apron",189,21,11,48,NA,0.53,1.28,38,0.45,0.01,13.1,158,4,4,0.35,0.75,101,"DE","AA","Uf6.31","NSG","1","Warrinilla"
"Hodge (BAN)",180,19,11,53,6.7,0.55,1.18,15,0.01,0.01,0.01,20,5,4,0.23,0.65,79,"DE","AE","Gn3.42",NA,"7","Warrinilla"
"Rangeside",174,8,6,37,NA,0.21,1.3,18,NA,NA,NA,NA,5,4,0.3,0.85,NA,"KA","AA",NA,"RE","7","Warrinilla"
"Wangabry",160,26,20,34,NA,0.42,2.73,39,0.39,0.3,5.76,102,4,4,0.28,1.2,110,"DE","AB","Gn3.23","NSG","1","Warrinilla"
"1CHb",157,11,12,71,6.5,0.53,1.07,15,0.06,0.02,6.96,21,4,4,0.7,1.3,69,"CH","AE","Db1.12","SC","1","Warrinilla"
"Boston",131,18,10,39,NA,0.47,0.91,22,NA,NA,NA,NA,4,4,0.2,1.66,NA,"KA","AC","Gn2.22","YE","1","Warrinilla"
"1ADb-9",115,12,8,41,NA,NA,NA,28,NA,NA,NA,NA,NA,NA,0.7,1.6,NA,"TE","AW","Db1.23",NA,"1","Warrinilla"
"1AVE3",103,42,16,27,6,NA,NA,28,NA,NA,NA,NA,4,4,0.04,0.68,NA,"VE","AE",NA,NA,"1","Warrinilla"
"Fletcher",95,33,7,31,7,0.43,0.86,30,0.87,0.1,2.91,22,4,4,0.18,1.15,100,"DE","AA","Uf6.31","NSG","1","Warrinilla"
"Dalrymple",90,10,10,35,NA,0.37,0.94,23,0.23,0.01,33.93,579,5,4,0.1,0.66,59,"CH","AA",NA,"NKB","31","Warrinilla"
"1ADb-2",88,22,10,59,NA,0.63,1.12,38,0.51,3.72,8.78,519,4,4,0.31,0.9,120,"CH","AB","Db1.32",NA,"1","Warrinilla"
"3AVE2",86,45,14,30,NA,NA,NA,46,NA,NA,NA,NA,4,4,0.27,1.52,NA,"VE","AD","Ug5.25",NA,"1","Warrinilla"
"Gainsford",81,14,10,41,NA,NA,NA,20,NA,NA,NA,NA,5,4,0.2,0.6,NA,"KA","AA",NA,"RE","7","Warrinilla"
"1DEa",78,27,19,52,6.2,0.66,1.71,42,0.52,0.17,3.67,91,4,4,0.1,1.3,103,"DE","AE","Gn3.42","PS","1","Warrinilla"
"3auf-Ug-4m",72,18,10,39,NA,NA,NA,42,NA,NA,NA,NA,NA,NA,0.63,0.85,NA,"DE","AB","Uf6.31",NA,"1","Warrinilla"
"1SOb",63,21,17,39,NA,0.65,1.07,32,0.59,6.02,10.04,1041,4,4,0.2,1.5,74,"SO","AE","Dd1.33","SC","1","Warrinilla"
"SDE2",63,29,16,34,NA,NA,NA,46,NA,NA,NA,NA,4,4,0.15,1.25,NA,"DE","AB","Gn3.21",NA,"1","Warrinilla"
"Barrack",61,20,16,38,5.3,NA,NA,45,NA,NA,NA,NA,4,4,0.3,1.15,NA,"CH","AA","Dr4.21",NA,"1","Warrinilla"
"1ADb-1",58,16,11,44,NA,NA,NA,45,NA,NA,NA,NA,NA,4,0.37,0.89,NA,"CH","AB","Db1.12",NA,"1","Warrinilla"
"1ADE2",53,25,19,34,NA,0.56,2.45,11,0.27,2.23,4.28,94,4,4,0.15,0.8,101,"DE","AB",NA,NA,"1","Warrinilla"
"1SOa",47,23,17,48,7,0.77,1.07,36,0.57,4.82,10.13,580,4,4,0.15,1.6,114,"SO","AE","Dd1.13","SC","1","Warrinilla"
"MDE1",46,42,16,27,5.5,NA,NA,51,NA,NA,NA,NA,4,4,0.12,0.74,NA,"DE","AB","Gn3.12",NA,"1","Warrinilla"
"UDE1",46,45,16,27,NA,NA,NA,42,NA,NA,NA,NA,4,4,0.14,0.97,NA,"DE","AA","Uf6.31",NA,"1","Warrinilla"
"TsGn-6",43,20,3,45,NA,0.46,0.85,41,0.28,0.01,0.01,20,4,4,0.25,0.66,108,"KA","AA","Gn2.12","RE","1","Warrinilla"
"Colenso",43,22,14,40,NA,NA,NA,NA,NA,NA,NA,NA,5,4,0.16,0.7,NA,"CH","AA",NA,NA,"7","Warrinilla"
"Spier",42,22,13,54,NA,0.56,1.71,43,0.14,0.01,5.5,20,5,4,0.2,1.3,86,"KA","AA","Gn2.11",NA,"7","Warrinilla"
"Rangeview",40,18,10,41,NA,0.57,2.63,45,NA,NA,NA,NA,4,4,0.04,NA,NA,"CH","AA","Dr2.12","NKB","1","Warrinilla"
"TsDy-6",34,12,8,41,NA,NA,NA,35,NA,NA,NA,NA,NA,NA,0.65,1.5,NA,"CH","AB","Dy3.41",NA,"1","Warrinilla"
"1ADd-5",32,19,14,47,NA,NA,NA,45,NA,NA,NA,NA,NA,4,0.31,0.9,NA,"CH","AD","Dd1.33",NA,"1","Warrinilla"
"1CHa",32,16,11,54,7,0.59,1.66,33,0.57,0.13,6.35,76,4,4,0.3,1.4,95,"CH","AE","Db1.13","SC","1","Warrinilla"
"1SOx",32,8,6,37,7,NA,NA,51,NA,NA,NA,NA,4,4,0.15,0.9,NA,"SO","AE","Db1.33","SC","1","Warrinilla"
"2AUg-2m",30,4,4,31,NA,NA,NA,51,NA,NA,NA,NA,NA,NA,1.2,1.5,NA,"VE","AE","Ug5.1",NA,"1","Warrinilla"
"3AGn-Dr",30,24,14,36,NA,NA,NA,NA,NA,NA,NA,NA,5,4,0.16,0.59,NA,"CH","AA","Gn3.11",NA,"7","Warrinilla"
"Thalberg",30,27,22,30,NA,0.63,1.93,58,0.16,0.01,11.75,148,5,4,0.35,1.51,127,"CH","AB","Db1.1",NA,"27","Warrinilla"
"Dotswood",29,20,23,44,NA,0.66,1.19,34,0.32,3.77,10.84,NA,4,4,0.24,0.9,91,"SO","AB",NA,"SC","1","Warrinilla"
"Halivale",29,22,16,34,6.5,NA,NA,32,NA,NA,NA,NA,5,4,0.32,0.6,NA,"RU","ER",NA,NA,"7","Warrinilla"
"Fourmile",27,24,18,38,NA,NA,NA,45,NA,NA,NA,NA,5,4,0.35,0.9,NA,"DE","AA",NA,NA,"7","Warrinilla"
"Burradoo",26,38,10,40,NA,0.65,1.6,44,0.57,10.42,12.32,463,4,4,0.15,0.9,119,"DE","AB","Uf6.31","BC","1","Warrinilla"
"Dale",24,12,7,34,NA,NA,NA,56,NA,7.79,NA,NA,4,4,0.5,1.1,59,"CH","AB","Db3.52",NA,"1","Warrinilla"
"1ARU1",20,19,12,57,NA,0.58,1.82,12,0.01,0.01,0.01,20,5,4,0.52,0.9,87,"RU","ER","Gn2.45",NA,"7","Warrinilla"
"2ADy",18,5,4,20,NA,NA,NA,35,NA,NA,NA,NA,NA,4,0.66,1.3,NA,"CH","AC","Dy3.33",NA,"1","Warrinilla"
"3SOb",16,19,14,38,NA,NA,NA,36,0.33,0.13,2.8,20,4,4,0.34,1.6,90,"SO","AE",NA,NA,"1","Warrinilla"
"Kabra",16,28,14,43,6.4,NA,NA,48,NA,NA,NA,NA,5,4,0.25,0.7,NA,"DE","AA",NA,NA,"7","Warrinilla"
"Rishton",15,8,6,37,NA,0.17,0.2,9,NA,NA,NA,NA,5,4,0.5,0.73,NA,"TE","DS",NA,"SS","7","Warrinilla"
"1AUf-7",11,35,8,30,NA,NA,NA,51,NA,NA,NA,NA,NA,4,0.11,0.95,NA,"DE","AB","Uf2",NA,"1","Warrinilla"
"Roper",11,16,14,50,NA,0.6,1.23,30,0.6,3.62,12.12,311,4,4,0.3,1.3,105,"CH","AB","Dd1.33","SC","1","Warrinilla"
"Bluff",9,10,6,26,NA,0.37,0.8,36,NA,8.28,NA,NA,4,4,0.36,0.75,67,"SO","AB","Dy3.73","SC","1","Warrinilla"
"Utchee - Dlr",4,22,11,37,NA,NA,NA,51,NA,NA,NA,NA,5,4,0.35,1.1,NA,"DE","AA",NA,NA,"7","Warrinilla"
"Ceduna",3,20,29,41,6.4,NA,NA,19,NA,NA,NA,143,4,4,0.4,1.4,NA,"DE","AB","Gn3.22",NA,"1","Warrinilla"
