soil_gp,TEXTURE,surf cond,ASC_ORD_1,SUBORD_1,CN,CNred
Ashton,SL,hard,KA,AC,84,30
Brosnan,LS,loose,KA,AA,70,20
Bulgun,L,firm,DE,AD,74,25
Hamleigh,ZC,hard,VE,AD,94,35
Hewitt,CL,loose,HY,DT,70,20
Innisfail,ZCL,hard,DE,AB,74,25
Lugger,SCL,loose,HY,DT,70,20
Thorpe,SCL,firm,KA,AB,74,25
Tolga,LC,firm,FE,AA,73,35
Toobanna,LFSY,hard,SO,AB,94,35
Tully,ZLC,soft,DE,AB,84,30
